%!PS-Adobe-3.0 EPSF-3.0
%%Creator: cairo 1.14.2 (http://cairographics.org)
%%CreationDate: Fri Jul  8 15:54:09 2016
%%Pages: 1
%%DocumentData: Clean7Bit
%%LanguageLevel: 3
%%BoundingBox: 0 -1 410 410
%%EndComments
%%BeginProlog
save
50 dict begin
/q { gsave } bind def
/Q { grestore } bind def
/cm { 6 array astore concat } bind def
/w { setlinewidth } bind def
/J { setlinecap } bind def
/j { setlinejoin } bind def
/M { setmiterlimit } bind def
/d { setdash } bind def
/m { moveto } bind def
/l { lineto } bind def
/c { curveto } bind def
/h { closepath } bind def
/re { exch dup neg 3 1 roll 5 3 roll moveto 0 rlineto
      0 exch rlineto 0 rlineto closepath } bind def
/S { stroke } bind def
/f { fill } bind def
/f* { eofill } bind def
/n { newpath } bind def
/W { clip } bind def
/W* { eoclip } bind def
/BT { } bind def
/ET { } bind def
/pdfmark where { pop globaldict /?pdfmark /exec load put }
    { globaldict begin /?pdfmark /pop load def /pdfmark
    /cleartomark load def end } ifelse
/BDC { mark 3 1 roll /BDC pdfmark } bind def
/EMC { mark /EMC pdfmark } bind def
/cairo_store_point { /cairo_point_y exch def /cairo_point_x exch def } def
/Tj { show currentpoint cairo_store_point } bind def
/TJ {
  {
    dup
    type /stringtype eq
    { show } { -0.001 mul 0 cairo_font_matrix dtransform rmoveto } ifelse
  } forall
  currentpoint cairo_store_point
} bind def
/cairo_selectfont { cairo_font_matrix aload pop pop pop 0 0 6 array astore
    cairo_font exch selectfont cairo_point_x cairo_point_y moveto } bind def
/Tf { pop /cairo_font exch def /cairo_font_matrix where
      { pop cairo_selectfont } if } bind def
/Td { matrix translate cairo_font_matrix matrix concatmatrix dup
      /cairo_font_matrix exch def dup 4 get exch 5 get cairo_store_point
      /cairo_font where { pop cairo_selectfont } if } bind def
/Tm { 2 copy 8 2 roll 6 array astore /cairo_font_matrix exch def
      cairo_store_point /cairo_font where { pop cairo_selectfont } if } bind def
/g { setgray } bind def
/rg { setrgbcolor } bind def
/d1 { setcachedevice } bind def
%%EndProlog
%%BeginSetup
%%EndSetup
%%Page: 1 1
%%BeginPageSetup
%%PageBoundingBox: 0 -1 410 410
%%EndPageSetup
q 0 -1 410 411 rectclip q
q
409.602 204.799 m 409.602 91.694 317.906 -0.002 204.801 -0.002 c 91.691
 -0.002 0 91.694 0 204.799 c 0 209.315 0.145 213.795 0.434 218.237 c 2.461
 249.506 41.988 238.022 56.492 263.905 c 68.57 285.463 53.945 345.459 72.691
 361.299 c 108.355 391.436 154.457 409.6 204.801 409.6 c 255.145 409.6 301.246
 391.436 336.906 361.303 c 355.277 345.78 337.293 287.334 349.277 266.307
 c 363.457 241.424 406.156 253.022 408.801 223.018 c 409.328 217.018 409.602
 210.94 409.602 204.799 c h
409.602 204.799 m W n
[0.8 0 0 0.8 0 -1.599994] concat
/CairoFunction
   << /FunctionType 2
      /Domain [ 0 1 ]
      /C0 [ 0.164706 0.576471 0.847059 ]
      /C1 [ 0.133333 0.498039 0.733333 ]
      /N 1
   >>
def
   << /ShadingType 3
      /ColorSpace /DeviceRGB
      /Coords [ 256 258 0 256 258 256 ]
      /Extend [ true true ]
      /Function CairoFunction
   >>
shfill
Q
0.2 0.286275 0.372549 rg
408.953 221.12 m 406.57 251.311 397.637 279.655 383.582 304.745 c 371.504
 326.303 355.645 345.448 336.895 361.291 c 259.68 284.073 l 365.84 177.913
 l 408.961 221.038 l 408.957 221.065 408.957 221.092 408.953 221.12 c h
408.953 221.12 m f
0.168627 0.243137 0.317647 rg
311.293 232.459 m 365.793 177.959 l 408.953 221.12 l 406.57 251.311 397.637
 279.655 383.582 304.745 c 349 270.163 l h
311.293 232.459 m f
0.584314 0.647059 0.65098 rg
72.703 361.291 m 53.957 345.448 38.094 326.303 26.02 304.745 c 11.961 279.655
 3.027 251.311 0.648 221.12 c 43.805 177.959 l 79.805 213.955 l 98.305 232.459
 l 149.922 284.073 l h
72.703 361.291 m f
0.498039 0.54902 0.552941 rg
0.648 221.12 m 43.805 177.959 l 79.805 213.955 l 98.305 232.459 l 26.02
 304.745 l 11.961 279.655 3.027 251.311 0.648 221.12 c h
0.648 221.12 m f
0.835294 0.329412 0 rg
161.25 168.108 m 251.758 258.616 l 340.57 169.807 l 250.062 79.299 l h
161.25 168.108 m f
105.531 89.76 m 111.754 83.538 121.934 83.538 128.156 89.76 c 185.293 146.897
 l 191.512 153.12 191.512 163.299 185.293 169.522 c 179.07 175.745 168.887
 175.745 162.664 169.522 c 105.531 112.389 l 99.309 106.166 99.309 95.983
 105.531 89.76 c h
105.531 89.76 m f
119.105 52.424 m 125.953 45.58 137.152 45.58 143.996 52.424 c 223.191 131.623
 l 230.039 138.467 230.039 149.666 223.191 156.51 c 216.348 163.358 205.145
 163.358 198.301 156.51 c 119.105 77.315 l 112.262 70.471 112.262 59.272
 119.105 52.424 c h
119.105 52.424 m f
152.48 37.151 m 158.082 31.553 167.246 31.553 172.848 37.151 c 240.73 105.034
 l 246.328 110.635 246.328 119.799 240.73 125.401 c 235.129 130.998 225.965
 130.998 220.363 125.401 c 152.48 57.518 l 146.883 51.916 146.883 42.752
 152.48 37.151 c h
152.48 37.151 m f
186.422 31.495 m 190.777 27.139 197.906 27.139 202.262 31.495 c 260.527
 89.76 l 264.883 94.116 264.883 101.245 260.527 105.6 c 256.172 109.955 
249.043 109.955 244.688 105.6 c 186.422 47.334 l 182.066 42.979 182.066 
35.85 186.422 31.495 c h
186.422 31.495 m f
0.92549 0.941176 0.945098 rg
244.691 259.467 m 264.488 279.264 l 361.594 182.159 l 341.797 162.358 l
 h
244.691 259.467 m f
0.741176 0.764706 0.780392 rg
291.496 212.663 m 311.293 232.459 l 361.574 182.182 l 341.773 162.381 l
 h
291.496 212.663 m f
0.92549 0.941176 0.945098 rg
384.793 230.241 m 384.793 221.194 377.457 213.862 368.41 213.862 c 359.367
 213.862 352.031 221.194 352.031 230.241 c 352.031 239.288 359.367 246.623
 368.41 246.623 c 377.457 246.623 384.793 239.288 384.793 230.241 c h
384.793 230.241 m f
0.960784 0.615686 0 rg
159.539 79.295 m 69.031 169.803 l 157.84 258.616 l 248.348 168.108 l h
159.539 79.295 m f
304.07 89.76 m 297.848 83.538 287.664 83.538 281.441 89.76 c 224.309 146.897
 l 218.086 153.12 218.086 163.299 224.309 169.522 c 230.531 175.745 240.715
 175.745 246.934 169.522 c 304.07 112.389 l 310.293 106.166 310.293 95.983
 304.07 89.76 c h
304.07 89.76 m f
290.492 52.424 m 283.648 45.58 272.449 45.58 265.602 52.424 c 186.406 131.623
 l 179.562 138.467 179.562 149.666 186.406 156.51 c 193.254 163.358 204.453
 163.358 211.297 156.51 c 290.492 77.315 l 297.34 70.471 297.34 59.272 290.492
 52.424 c h
290.492 52.424 m f
257.117 37.151 m 251.52 31.553 242.352 31.553 236.754 37.151 c 168.871 
105.034 l 163.27 110.635 163.27 119.799 168.871 125.401 c 174.469 130.998
 183.633 130.998 189.234 125.401 c 257.117 57.518 l 262.719 51.916 262.719
 42.752 257.117 37.151 c h
257.117 37.151 m f
223.176 31.495 m 218.82 27.139 211.695 27.139 207.336 31.495 c 149.07 89.76
 l 144.719 94.116 144.719 101.245 149.07 105.6 c 153.43 109.955 160.555 
109.955 164.91 105.6 c 223.176 47.334 l 227.531 42.979 227.531 35.85 223.176
 31.495 c h
223.176 31.495 m f
0.92549 0.941176 0.945098 rg
67.809 162.358 m 48.008 182.159 l 145.113 279.264 l 164.914 259.463 l h
67.809 162.358 m f
0.741176 0.764706 0.780392 rg
67.828 162.377 m 48.031 182.178 l 98.309 232.455 l 118.109 212.659 l h
67.828 162.377 m f
0.909804 0.494118 0.0156863 rg
206.504 209.955 m 222.504 229.362 l 207.086 244.694 l 160.953 255.506 l
 h
206.504 209.955 m f
0.92549 0.941176 0.945098 rg
304.566 101.588 m 304.566 94.959 299.195 89.588 292.566 89.588 c 285.941
 89.588 280.566 94.959 280.566 101.588 c 280.566 108.213 285.941 113.588
 292.566 113.588 c 299.195 113.588 304.566 108.213 304.566 101.588 c h
304.566 101.588 m f
290.992 64.252 m 290.992 57.623 285.621 52.252 278.992 52.252 c 272.363
 52.252 266.992 57.623 266.992 64.252 c 266.992 70.877 272.363 76.252 278.992
 76.252 c 285.621 76.252 290.992 70.877 290.992 64.252 c h
290.992 64.252 m f
256.582 48.413 m 256.582 42.666 251.926 38.01 246.184 38.01 c 240.438 38.01
 235.781 42.666 235.781 48.413 c 235.781 54.155 240.438 58.811 246.184 58.811
 c 251.926 58.811 256.582 54.155 256.582 48.413 c h
256.582 48.413 m f
222.504 40.491 m 222.504 36.073 218.922 32.491 214.504 32.491 c 210.086
 32.491 206.504 36.073 206.504 40.491 c 206.504 44.909 210.086 48.491 214.504
 48.491 c 218.922 48.491 222.504 44.909 222.504 40.491 c h
222.504 40.491 m f
57.566 230.241 m 57.566 221.194 50.234 213.862 41.188 213.862 c 32.141 
213.862 24.809 221.194 24.809 230.241 c 24.809 239.288 32.141 246.623 41.188
 246.623 c 50.234 246.623 57.566 239.288 57.566 230.241 c h
57.566 230.241 m f
0.835294 0.329412 0 rg
186.125 178.006 m 170.98 162.061 145.41 174.19 145.41 174.19 c 202.516 
244.694 l 248.648 255.506 l 248.648 255.506 201.27 193.955 186.125 178.006
 c h
186.125 178.006 m f
0.909804 0.494118 0.0156863 rg
233.34 204.194 m 233.34 204.194 260.27 181.44 291.492 212.663 c 320.781
 183.37 l 320.781 183.37 304.566 119.393 280.566 141.94 c 260.992 160.334
 226.441 197.42 226.441 197.42 c h
233.34 204.194 m f
Q Q
showpage
%%Trailer
end restore
%%EOF
