%!PS-Adobe-3.0 EPSF-3.0
%%Creator: cairo 1.14.2 (http://cairographics.org)
%%CreationDate: Fri Jul  8 15:54:31 2016
%%Pages: 1
%%DocumentData: Clean7Bit
%%LanguageLevel: 3
%%BoundingBox: 0 -1 410 410
%%EndComments
%%BeginProlog
save
50 dict begin
/q { gsave } bind def
/Q { grestore } bind def
/cm { 6 array astore concat } bind def
/w { setlinewidth } bind def
/J { setlinecap } bind def
/j { setlinejoin } bind def
/M { setmiterlimit } bind def
/d { setdash } bind def
/m { moveto } bind def
/l { lineto } bind def
/c { curveto } bind def
/h { closepath } bind def
/re { exch dup neg 3 1 roll 5 3 roll moveto 0 rlineto
      0 exch rlineto 0 rlineto closepath } bind def
/S { stroke } bind def
/f { fill } bind def
/f* { eofill } bind def
/n { newpath } bind def
/W { clip } bind def
/W* { eoclip } bind def
/BT { } bind def
/ET { } bind def
/pdfmark where { pop globaldict /?pdfmark /exec load put }
    { globaldict begin /?pdfmark /pop load def /pdfmark
    /cleartomark load def end } ifelse
/BDC { mark 3 1 roll /BDC pdfmark } bind def
/EMC { mark /EMC pdfmark } bind def
/cairo_store_point { /cairo_point_y exch def /cairo_point_x exch def } def
/Tj { show currentpoint cairo_store_point } bind def
/TJ {
  {
    dup
    type /stringtype eq
    { show } { -0.001 mul 0 cairo_font_matrix dtransform rmoveto } ifelse
  } forall
  currentpoint cairo_store_point
} bind def
/cairo_selectfont { cairo_font_matrix aload pop pop pop 0 0 6 array astore
    cairo_font exch selectfont cairo_point_x cairo_point_y moveto } bind def
/Tf { pop /cairo_font exch def /cairo_font_matrix where
      { pop cairo_selectfont } if } bind def
/Td { matrix translate cairo_font_matrix matrix concatmatrix dup
      /cairo_font_matrix exch def dup 4 get exch 5 get cairo_store_point
      /cairo_font where { pop cairo_selectfont } if } bind def
/Tm { 2 copy 8 2 roll 6 array astore /cairo_font_matrix exch def
      cairo_store_point /cairo_font where { pop cairo_selectfont } if } bind def
/g { setgray } bind def
/rg { setrgbcolor } bind def
/d1 { setcachedevice } bind def
%%EndProlog
%%BeginSetup
%%EndSetup
%%Page: 1 1
%%BeginPageSetup
%%PageBoundingBox: 0 -1 410 410
%%EndPageSetup
q 0 -1 410 411 rectclip q
q
409.602 204.799 m 409.602 91.694 317.906 -0.002 204.801 -0.002 c 91.691
 -0.002 0 91.694 0 204.799 c 0 317.909 91.691 409.6 204.801 409.6 c 317.906
 409.6 409.602 317.909 409.602 204.799 c h
409.602 204.799 m W n
[0.8 0 0 0.8 0 -1.599994] concat
/CairoFunction
<< /FunctionType 3
   /Domain [ 0 1 ]
   /Functions [
   << /FunctionType 2
      /Domain [ 0 1 ]
      /C0 [ 0.117647 0.792157 0.419608 ]
      /C1 [ 0.117647 0.792157 0.419608 ]
      /N 1
   >>
   << /FunctionType 2
      /Domain [ 0 1 ]
      /C0 [ 0.117647 0.792157 0.419608 ]
      /C1 [ 0.0980392 0.65098 0.345098 ]
      /N 1
   >>
   << /FunctionType 2
      /Domain [ 0 1 ]
      /C0 [ 0.0980392 0.65098 0.345098 ]
      /C1 [ 0.0980392 0.65098 0.345098 ]
      /N 1
   >>
   ]
   /Bounds [ 0.0051 0.9949 ]
   /Encode [ 1 1 3 { pop 0 1 } for ]
>>
def
   << /ShadingType 3
      /ColorSpace /DeviceRGB
      /Coords [ 256 258 0 256 258 256 ]
      /Extend [ true true ]
      /Function CairoFunction
   >>
shfill
Q
0.909804 0.494118 0.0156863 rg
238.242 39.881 m 238.77 37.748 241 35.998 243.199 35.998 c 280 35.998 l
 282.199 35.998 283.57 37.748 283.043 39.881 c 244.957 194.514 l 244.43 
196.651 242.199 198.401 240 198.401 c 203.199 198.401 l 201 198.401 199.629
 196.651 200.156 194.518 c h
238.242 39.881 m f
171.355 39.881 m 170.832 37.748 168.602 35.998 166.398 35.998 c 129.602
 35.998 l 127.398 35.998 126.031 37.748 126.559 39.881 c 164.645 194.514
 l 165.168 196.651 167.398 198.401 169.602 198.401 c 206.398 198.401 l 208.602
 198.401 209.969 196.651 209.441 194.514 c h
171.355 39.881 m f
0.835294 0.329412 0 rg
199.199 198.401 m 165.602 198.401 l 145.105 115.202 l 189.906 115.202 l
 204.801 175.663 l h
199.199 198.401 m f
244 198.401 m 210.398 198.401 l 204.801 175.663 l 219.691 115.202 l 264.492
 115.202 l h
244 198.401 m f
152.004 51.998 m 151.832 51.998 151.66 52.018 151.484 52.057 c 150.191 
52.338 149.371 53.62 149.656 54.913 c 157.656 91.315 l 157.941 92.608 159.219
 93.432 160.516 93.143 c 161.809 92.858 162.629 91.58 162.344 90.284 c 154.344
 53.885 l 154.098 52.764 153.105 51.998 152.004 51.998 c h
152.004 51.998 m f
163.203 43.998 m 163.004 43.998 162.805 44.022 162.605 44.077 c 161.32 
44.405 160.547 45.709 160.875 46.995 c 188.074 153.393 l 188.402 154.678
 189.707 155.455 190.996 155.123 c 192.277 154.795 193.055 153.491 192.727
 152.205 c 165.527 45.807 l 165.246 44.721 164.273 43.998 163.203 43.998
 c h
163.203 43.998 m f
142.402 64.264 m 142.223 64.264 142.043 64.288 141.859 64.327 c 140.57 
64.627 139.762 65.913 140.062 67.205 c 151.262 115.741 l 151.559 117.03 
152.848 117.838 154.141 117.538 c 155.43 117.241 156.234 115.952 155.938
 114.659 c 144.738 66.127 l 144.48 65.018 143.496 64.264 142.402 64.264 
c h
142.402 64.264 m f
257.598 51.998 m 256.496 51.998 255.504 52.764 255.258 53.885 c 247.258
 90.284 l 246.973 91.58 247.789 92.858 249.086 93.143 c 250.379 93.432 251.66
 92.608 251.945 91.315 c 259.945 54.913 l 260.227 53.62 259.41 52.338 258.113
 52.057 c 257.941 52.018 257.77 51.998 257.598 51.998 c h
257.598 51.998 m f
246.398 43.998 m 245.328 43.998 244.352 44.721 244.074 45.807 c 216.875
 152.205 l 216.547 153.491 217.32 154.795 218.605 155.123 c 219.891 155.459
 221.195 154.678 221.527 153.393 c 248.727 46.995 l 249.055 45.709 248.277
 44.405 246.996 44.077 c 246.797 44.022 246.594 43.998 246.398 43.998 c 
h
246.398 43.998 m f
267.199 64.264 m 266.105 64.264 265.117 65.014 264.863 66.127 c 253.66 
114.659 l 253.363 115.952 254.168 117.241 255.461 117.538 c 256.754 117.838
 258.043 117.03 258.34 115.741 c 269.539 67.205 l 269.836 65.916 269.031
 64.627 267.738 64.327 c 267.559 64.288 267.375 64.264 267.199 64.264 c 
h
267.199 64.264 m f
0.2 0.286275 0.372549 rg
64 332.799 281.602 -208.801 re f
0.168627 0.243137 0.317647 rg
351.199 328.799 m 351.199 326.6 349.398 324.799 347.199 324.799 c 61.602
 324.799 l 59.398 324.799 57.602 326.6 57.602 328.799 c 57.602 330.998 59.398
 332.799 61.602 332.799 c 347.199 332.799 l 349.398 332.799 351.199 330.998
 351.199 328.799 c h
351.199 328.799 m f
351.199 127.998 m 351.199 125.799 349.398 123.998 347.199 123.998 c 61.602
 123.998 l 59.398 123.998 57.602 125.799 57.602 127.998 c 57.602 130.202
 59.398 131.998 61.602 131.998 c 347.199 131.998 l 349.398 131.998 351.199
 130.202 351.199 127.998 c h
351.199 127.998 m f
0.92549 0.941176 0.945098 rg
112 273.866 m 112 268.565 107.703 264.268 102.398 264.268 c 97.098 264.268
 92.801 268.565 92.801 273.866 c 92.801 279.166 97.098 283.467 102.398 283.467
 c 107.703 283.467 112 279.166 112 273.866 c h
112 273.866 m f
128.801 167.467 m 128.801 162.166 124.5 157.866 119.199 157.866 c 113.898
 157.866 109.602 162.166 109.602 167.467 c 109.602 172.768 113.898 177.065
 119.199 177.065 c 124.5 177.065 128.801 172.768 128.801 167.467 c h
128.801 167.467 m f
138.398 228.268 m 138.398 222.963 134.102 218.666 128.801 218.666 c 123.5
 218.666 119.199 222.963 119.199 228.268 c 119.199 233.569 123.5 237.866
 128.801 237.866 c 134.102 237.866 138.398 233.569 138.398 228.268 c h
138.398 228.268 m f
100.266 175.733 m 99.84 175.733 99.414 175.901 99.098 176.237 c 78.273 
198.471 76.43 219.51 78.551 233.245 c 80.855 248.143 88.027 257.643 88.328
 258.038 c 88.867 258.741 89.871 258.873 90.574 258.338 c 91.273 257.799
 91.406 256.795 90.871 256.096 c 90.789 255.987 83.836 246.729 81.691 232.608
 c 78.82 213.705 85.465 195.475 101.434 178.424 c 102.039 177.78 102.004
 176.768 101.359 176.163 c 101.051 175.873 100.66 175.733 100.266 175.733
 c h
100.266 175.733 m f
102.398 173.065 m 102.293 173.065 102.188 173.077 102.082 173.096 c 86.883
 176.166 l 86.016 176.342 85.457 177.186 85.633 178.049 c 85.805 178.916
 86.648 179.479 87.516 179.303 c 100.801 176.62 l 100.801 190.401 l 100.801
 191.284 101.516 191.998 102.398 191.998 c 103.281 191.998 104 191.284 104
 190.401 c 104 174.666 l 104 174.186 103.785 173.733 103.414 173.428 c 103.125
 173.19 102.766 173.065 102.398 173.065 c h
102.398 173.065 m f
206.398 250.397 m 205.992 250.397 205.582 250.553 205.27 250.866 c 189.27
 266.866 l 188.645 267.491 188.645 268.506 189.27 269.131 c 189.895 269.756
 190.906 269.756 191.531 269.131 c 207.531 253.131 l 208.156 252.506 208.156
 251.491 207.531 250.866 c 207.219 250.553 206.809 250.397 206.398 250.397
 c h
206.398 250.397 m f
190.398 250.397 m 189.992 250.397 189.582 250.553 189.27 250.866 c 188.645
 251.491 188.645 252.506 189.27 253.131 c 205.27 269.131 l 205.895 269.756
 206.906 269.756 207.531 269.131 c 208.156 268.506 208.156 267.491 207.531
 266.866 c 191.531 250.866 l 191.219 250.553 190.809 250.397 190.398 250.397
 c h
190.398 250.397 m f
254.398 195.198 m 253.992 195.198 253.582 195.354 253.27 195.666 c 237.27
 211.666 l 236.645 212.291 236.645 213.303 237.27 213.928 c 237.895 214.553
 238.906 214.553 239.531 213.928 c 255.531 197.928 l 256.156 197.303 256.156
 196.291 255.531 195.666 c 255.219 195.354 254.809 195.198 254.398 195.198
 c h
254.398 195.198 m f
238.398 195.198 m 237.992 195.198 237.582 195.354 237.27 195.666 c 236.645
 196.291 236.645 197.303 237.27 197.928 c 253.27 213.928 l 253.895 214.553
 254.906 214.553 255.531 213.928 c 256.156 213.303 256.156 212.291 255.531
 211.666 c 239.531 195.666 l 239.219 195.354 238.809 195.198 238.398 195.198
 c h
238.398 195.198 m f
301.602 239.198 m 301.191 239.198 300.781 239.354 300.469 239.666 c 284.469
 255.666 l 283.844 256.291 283.844 257.303 284.469 257.928 c 285.094 258.553
 286.105 258.553 286.73 257.928 c 302.73 241.928 l 303.355 241.303 303.355
 240.291 302.73 239.666 c 302.418 239.354 302.008 239.198 301.602 239.198
 c h
301.602 239.198 m f
285.602 239.198 m 285.191 239.198 284.781 239.354 284.469 239.666 c 283.844
 240.291 283.844 241.303 284.469 241.928 c 300.469 257.928 l 301.094 258.553
 302.105 258.553 302.73 257.928 c 303.355 257.303 303.355 256.291 302.73
 255.666 c 286.73 239.666 l 286.418 239.354 286.008 239.198 285.602 239.198
 c h
285.602 239.198 m f
301.602 165.065 m 301.602 159.764 297.301 155.467 292 155.467 c 286.699
 155.467 282.398 159.764 282.398 165.065 c 282.398 170.37 286.699 174.666
 292 174.666 c 297.301 174.666 301.602 170.37 301.602 165.065 c h
301.602 165.065 m f
268.434 205.6 m 267.727 205.6 267.082 206.073 266.891 206.784 c 266.66 
207.639 267.164 208.514 268.02 208.745 c 268.668 208.92 283.953 213.241 
286.422 228.655 c 286.562 229.526 287.379 230.123 288.254 229.979 c 289.125
 229.838 289.719 229.018 289.582 228.147 c 286.781 210.659 269.578 205.85
 268.848 205.655 c 268.711 205.616 268.57 205.6 268.434 205.6 c h
268.434 205.6 m f
292 215.6 m 291.344 215.6 290.727 216.006 290.492 216.663 c 287.004 226.432
 l 276.461 223.268 l 275.617 223.014 274.723 223.495 274.469 224.342 c 274.215
 225.186 274.695 226.08 275.539 226.334 c 287.539 229.932 l 288.355 230.174
 289.223 229.741 289.508 228.94 c 293.508 217.737 l 293.805 216.905 293.371
 215.991 292.539 215.694 c 292.359 215.627 292.18 215.6 292 215.6 c h
292 215.6 m f
309.867 175.467 m 309.57 175.467 309.273 175.549 309.004 175.717 c 308.262
 176.194 308.043 177.182 308.52 177.928 c 308.602 178.057 316.738 190.944
 321.473 209.924 c 325.824 227.362 328.113 253.682 314.316 280.057 c 313.906
 280.842 314.207 281.807 314.992 282.217 c 315.773 282.627 316.742 282.323
 317.152 281.541 c 331.434 254.233 329.059 227.045 324.551 209.045 c 319.676
 189.58 311.559 176.741 311.215 176.205 c 310.91 175.729 310.395 175.467
 309.867 175.467 c h
309.867 175.467 m f
309.867 266.397 m 309.711 266.397 309.551 266.42 309.395 266.471 c 308.547
 266.733 308.078 267.627 308.34 268.471 c 313.141 283.94 l 313.277 284.385
 313.602 284.748 314.031 284.932 c 314.457 285.12 314.945 285.108 315.363
 284.909 c 331.363 277.174 l 332.16 276.791 332.492 275.83 332.109 275.038
 c 331.723 274.241 330.766 273.909 329.973 274.291 c 315.645 281.217 l 311.395
 267.526 l 311.184 266.838 310.551 266.397 309.867 266.397 c h
309.867 266.397 m f
251.199 290.666 m 251.199 285.366 246.902 281.065 241.602 281.065 c 236.297
 281.065 232 285.366 232 290.666 c 232 295.967 236.297 300.268 241.602 300.268
 c 246.902 300.268 251.199 295.967 251.199 290.666 c h
251.199 290.666 m f
186.398 187.467 m 186.398 182.166 182.102 177.866 176.801 177.866 c 171.5
 177.866 167.199 182.166 167.199 187.467 c 167.199 192.768 171.5 197.065
 176.801 197.065 c 182.102 197.065 186.398 192.768 186.398 187.467 c h
186.398 187.467 m f
160 196.799 m 159.57 196.799 159.145 196.971 158.828 197.311 c 139.996 
217.577 l 139.395 218.225 139.43 219.237 140.078 219.838 c 140.727 220.44
 141.738 220.401 142.34 219.756 c 161.172 199.491 l 161.773 198.842 161.738
 197.83 161.09 197.229 c 160.781 196.94 160.391 196.799 160 196.799 c h
160 196.799 m f
163.199 195.198 m 163.141 195.198 163.078 195.202 163.02 195.209 c 147.82
 196.944 l 146.941 197.045 146.309 197.838 146.41 198.713 c 146.512 199.592
 147.301 200.225 148.18 200.123 c 161.059 198.655 l 157.652 211.592 l 157.43
 212.448 157.938 213.323 158.793 213.545 c 159.645 213.772 160.523 213.26
 160.746 212.405 c 164.746 197.205 l 164.883 196.694 164.754 196.151 164.41
 195.752 c 164.105 195.397 163.66 195.198 163.199 195.198 c h
163.199 195.198 m f
Q Q
showpage
%%Trailer
end restore
%%EOF
