%!PS-Adobe-3.0 EPSF-3.0
%%Creator: cairo 1.14.2 (http://cairographics.org)
%%CreationDate: Fri Jun 17 11:43:55 2016
%%Pages: 1
%%DocumentData: Clean7Bit
%%LanguageLevel: 2
%%BoundingBox: 0 -1 284 251
%%EndComments
%%BeginProlog
save
50 dict begin
/q { gsave } bind def
/Q { grestore } bind def
/cm { 6 array astore concat } bind def
/w { setlinewidth } bind def
/J { setlinecap } bind def
/j { setlinejoin } bind def
/M { setmiterlimit } bind def
/d { setdash } bind def
/m { moveto } bind def
/l { lineto } bind def
/c { curveto } bind def
/h { closepath } bind def
/re { exch dup neg 3 1 roll 5 3 roll moveto 0 rlineto
      0 exch rlineto 0 rlineto closepath } bind def
/S { stroke } bind def
/f { fill } bind def
/f* { eofill } bind def
/n { newpath } bind def
/W { clip } bind def
/W* { eoclip } bind def
/BT { } bind def
/ET { } bind def
/pdfmark where { pop globaldict /?pdfmark /exec load put }
    { globaldict begin /?pdfmark /pop load def /pdfmark
    /cleartomark load def end } ifelse
/BDC { mark 3 1 roll /BDC pdfmark } bind def
/EMC { mark /EMC pdfmark } bind def
/cairo_store_point { /cairo_point_y exch def /cairo_point_x exch def } def
/Tj { show currentpoint cairo_store_point } bind def
/TJ {
  {
    dup
    type /stringtype eq
    { show } { -0.001 mul 0 cairo_font_matrix dtransform rmoveto } ifelse
  } forall
  currentpoint cairo_store_point
} bind def
/cairo_selectfont { cairo_font_matrix aload pop pop pop 0 0 6 array astore
    cairo_font exch selectfont cairo_point_x cairo_point_y moveto } bind def
/Tf { pop /cairo_font exch def /cairo_font_matrix where
      { pop cairo_selectfont } if } bind def
/Td { matrix translate cairo_font_matrix matrix concatmatrix dup
      /cairo_font_matrix exch def dup 4 get exch 5 get cairo_store_point
      /cairo_font where { pop cairo_selectfont } if } bind def
/Tm { 2 copy 8 2 roll 6 array astore /cairo_font_matrix exch def
      cairo_store_point /cairo_font where { pop cairo_selectfont } if } bind def
/g { setgray } bind def
/rg { setrgbcolor } bind def
/d1 { setcachedevice } bind def
%%EndProlog
%%BeginSetup
%%EndSetup
%%Page: 1 1
%%BeginPageSetup
%%PageBoundingBox: 0 -1 284 251
%%EndPageSetup
q 0 -1 284 252 rectclip q
0.643137 0.662745 0.678431 rg
13.059 55.71 m 5.875 55.71 0 61.589 0 68.769 c 0 234.163 l 0 241.343 5.875
 250.702 13.059 250.702 c 260.277 250.702 l 267.461 250.702 273.336 244.827
 273.336 237.644 c 273.336 68.769 l 273.336 61.585 267.461 55.71 260.277
 55.71 c h
13.059 55.71 m f
0.764706 0.776471 0.784314 rg
23.566 55.71 m 16.383 55.71 10.508 61.589 10.508 68.769 c 10.508 237.644
 l 10.508 244.827 16.387 250.702 23.566 250.702 c 270.789 250.702 l 277.969
 250.702 283.844 244.827 283.844 237.644 c 283.844 68.769 l 283.844 61.585
 277.969 55.71 270.789 55.71 c h
23.566 55.71 m f
0.117647 0.145098 0.168627 rg
23.566 250.702 m 270.789 250.702 l 277.969 250.702 283.844 244.827 283.844
 237.644 c 283.844 79.433 l 10.508 79.433 l 10.508 237.644 l 10.508 244.827
 16.383 250.702 23.566 250.702 c h
23.566 250.702 m f
0 0.443137 0.807843 rg
27.918 233.292 238.516 -136.449 re f
1 g
49.477 200.902 195.402 -71.668 re f
0.643137 0.662745 0.678431 rg
67.523 186.308 62.398 -42.711 re f
0.764706 0.776471 0.784314 rg
153.707 184.152 77.816 -18.398 re f
0.701961 0.721569 0.729412 rg
154.145 8.632 m 91.465 8.632 l 107.137 55.71 l 169.812 55.71 l h
154.145 8.632 m f
0.764706 0.776471 0.784314 rg
175.469 8.632 m 177.852 8.632 179.785 6.702 179.785 4.316 c 179.785 1.933
 177.852 -0.001 175.469 -0.001 c 113.227 -0.001 l 113.227 8.636 l h
175.469 8.632 m f
0.643137 0.662745 0.678431 rg
89.027 -0.001 m 85.156 -0.001 82.02 3.14 82.02 7.011 c 82.02 7.824 82.156
 8.605 82.41 9.331 c 82.414 9.335 l 97.848 55.71 l 107.133 55.71 l 91.465
 8.632 l 113.227 8.632 l 115.609 8.632 117.543 6.702 117.543 4.316 c 117.543
 1.933 115.609 -0.001 113.227 -0.001 c 88.992 -0.001 l h
89.027 -0.001 m f
0.117647 0.145098 0.168627 rg
153.707 67.32 m 153.707 63.714 150.781 60.792 147.176 60.792 c 143.57 60.792
 140.648 63.714 140.648 67.32 c 140.648 70.925 143.57 73.847 147.176 73.847
 c 150.781 73.847 153.707 70.925 153.707 67.32 c h
153.707 67.32 m f
215.562 121.57 m 200.52 136.613 l 208.605 139.57 l 210.605 140.3 211.883
 142.261 211.746 144.382 c 211.613 146.507 210.094 148.288 208.02 148.761
 c 181.266 154.816 l 181.238 154.824 181.207 154.824 181.18 154.831 c 181.121
 154.843 181.062 154.847 181.004 154.859 c 180.773 154.898 180.547 154.921
 180.316 154.925 c 180.262 154.925 180.207 154.933 180.152 154.929 c 179.883
 154.929 179.617 154.902 179.355 154.855 c 179.297 154.843 179.238 154.827
 179.176 154.812 c 178.949 154.765 178.73 154.699 178.512 154.616 c 178.461
 154.597 178.41 154.581 178.359 154.562 c 178.113 154.46 177.875 154.331
 177.648 154.187 c 177.59 154.152 177.535 154.113 177.477 154.074 c 177.242
 153.909 177.02 153.734 176.812 153.531 c 176.605 153.324 176.43 153.097
 176.27 152.863 c 176.23 152.808 176.191 152.749 176.152 152.695 c 176.008
 152.468 175.883 152.23 175.777 151.984 c 175.758 151.933 175.742 151.878
 175.723 151.827 c 175.641 151.613 175.578 151.394 175.527 151.167 c 175.516
 151.105 175.5 151.046 175.488 150.984 c 175.441 150.722 175.414 150.46 
175.41 150.191 c 175.41 150.136 175.414 150.077 175.418 150.023 c 175.422
 149.796 175.445 149.57 175.48 149.339 c 175.492 149.281 175.5 149.222 175.512
 149.159 c 175.516 149.132 175.52 149.101 175.523 149.074 c 181.582 122.324
 l 182.055 120.245 183.832 118.73 185.957 118.593 c 186.062 118.585 186.164
 118.581 186.266 118.581 c 188.27 118.581 190.078 119.835 190.773 121.734
 c 193.73 129.824 l 208.773 114.777 l 209.711 113.843 210.941 113.374 212.168
 113.374 c 213.395 113.374 214.625 113.843 215.562 114.781 c 217.438 116.656
 217.438 119.695 215.562 121.57 c h
215.562 121.57 m f
Q Q
showpage
%%Trailer
end restore
%%EOF
