%!PS-Adobe-3.0 EPSF-3.0
%%Creator: cairo 1.14.2 (http://cairographics.org)
%%CreationDate: Thu Aug  4 10:30:25 2016
%%Pages: 1
%%DocumentData: Clean7Bit
%%LanguageLevel: 2
%%BoundingBox: 0 -1 369 404
%%EndComments
%%BeginProlog
save
50 dict begin
/q { gsave } bind def
/Q { grestore } bind def
/cm { 6 array astore concat } bind def
/w { setlinewidth } bind def
/J { setlinecap } bind def
/j { setlinejoin } bind def
/M { setmiterlimit } bind def
/d { setdash } bind def
/m { moveto } bind def
/l { lineto } bind def
/c { curveto } bind def
/h { closepath } bind def
/re { exch dup neg 3 1 roll 5 3 roll moveto 0 rlineto
      0 exch rlineto 0 rlineto closepath } bind def
/S { stroke } bind def
/f { fill } bind def
/f* { eofill } bind def
/n { newpath } bind def
/W { clip } bind def
/W* { eoclip } bind def
/BT { } bind def
/ET { } bind def
/pdfmark where { pop globaldict /?pdfmark /exec load put }
    { globaldict begin /?pdfmark /pop load def /pdfmark
    /cleartomark load def end } ifelse
/BDC { mark 3 1 roll /BDC pdfmark } bind def
/EMC { mark /EMC pdfmark } bind def
/cairo_store_point { /cairo_point_y exch def /cairo_point_x exch def } def
/Tj { show currentpoint cairo_store_point } bind def
/TJ {
  {
    dup
    type /stringtype eq
    { show } { -0.001 mul 0 cairo_font_matrix dtransform rmoveto } ifelse
  } forall
  currentpoint cairo_store_point
} bind def
/cairo_selectfont { cairo_font_matrix aload pop pop pop 0 0 6 array astore
    cairo_font exch selectfont cairo_point_x cairo_point_y moveto } bind def
/Tf { pop /cairo_font exch def /cairo_font_matrix where
      { pop cairo_selectfont } if } bind def
/Td { matrix translate cairo_font_matrix matrix concatmatrix dup
      /cairo_font_matrix exch def dup 4 get exch 5 get cairo_store_point
      /cairo_font where { pop cairo_selectfont } if } bind def
/Tm { 2 copy 8 2 roll 6 array astore /cairo_font_matrix exch def
      cairo_store_point /cairo_font where { pop cairo_selectfont } if } bind def
/g { setgray } bind def
/rg { setrgbcolor } bind def
/d1 { setcachedevice } bind def
%%EndProlog
%%BeginSetup
%%EndSetup
%%Page: 1 1
%%BeginPageSetup
%%PageBoundingBox: 0 -1 369 404
%%EndPageSetup
q 0 -1 369 405 rectclip q
0.352941 0.12549 0.647059 rg
325.918 334.2 m 366.039 294.079 338.352 180.216 251.039 92.907 c 163.723
 5.603 49.871 -22.108 9.746 18.024 c -30.391 58.149 60.867 108.442 148.184
 195.763 c 235.512 283.064 285.797 374.333 325.918 334.2 c h
325.918 334.2 m f
0.403922 0.192157 0.737255 rg
222.238 121.692 m 298.051 197.493 328.887 293.278 309.453 343.478 c 271.875
 350.271 223.992 271.552 148.184 195.763 c 72.383 119.958 -6.352 72.064 
0.469 34.485 c 50.672 15.064 146.438 45.892 222.238 121.692 c h
222.238 121.692 m f
0.513726 0.329412 0.866667 rg
200.895 217.931 m 206.742 212.071 194.891 190.759 174.422 170.286 c 153.957
 149.81 132.637 137.962 126.777 143.814 c 120.93 149.661 139.293 164.474
 159.758 184.942 c 180.227 205.411 195.055 223.778 200.895 217.931 c h
200.895 217.931 m f
221.672 234.603 m 221.672 231.087 219.094 228.239 215.91 228.239 c 212.73
 228.239 210.152 231.087 210.152 234.603 c 210.152 238.118 212.73 240.97
 215.91 240.97 c 219.094 240.97 221.672 238.118 221.672 234.603 c h
221.672 234.603 m f
240.109 257.61 m 240.109 255.38 238.559 253.571 236.648 253.571 c 234.738
 253.571 233.191 255.38 233.191 257.61 c 233.191 259.841 234.738 261.649
 236.648 261.649 c 238.559 261.649 240.109 259.841 240.109 257.61 c h
240.109 257.61 m f
0.490196 0.658824 0.113725 rg
306.906 354.927 m 241.258 338.806 l 281.562 328.442 l 273.504 284.677 l
 299.988 310.001 l 298.84 271.997 l 326.484 301.954 l 335.691 280.056 l 
339.152 301.954 l 364.488 281.216 l 337.992 343.407 l h
306.906 354.927 m f
0.407843 0.576471 0.0392157 rg
337.426 322.681 m 346.645 300.794 l 349.223 317.079 l 337.992 343.407 l
 306.906 354.927 l 288.098 350.302 l 292.52 349.165 l 284.453 305.403 l 
310.938 330.739 l 309.785 292.735 l h
337.426 322.681 m f
307.473 346.864 m 307.473 346.864 299.988 385.45 314.391 399.271 c 328.777
 413.075 388.965 388.747 361.188 365.853 c 361.188 365.853 344.918 348.29
 340.305 369.892 c 335.605 391.923 318.43 381.989 324.18 366.446 c 329.938
 350.888 346.078 340.954 333.977 336.915 c 321.871 332.896 307.473 346.864
 307.473 346.864 c h
307.473 346.864 m f
Q Q
showpage
%%Trailer
end restore
%%EOF
