%!PS-Adobe-3.0 EPSF-3.0
%%Creator: cairo 1.14.2 (http://cairographics.org)
%%CreationDate: Thu Aug  4 10:30:49 2016
%%Pages: 1
%%DocumentData: Clean7Bit
%%LanguageLevel: 2
%%BoundingBox: 0 -1 397 310
%%EndComments
%%BeginProlog
save
50 dict begin
/q { gsave } bind def
/Q { grestore } bind def
/cm { 6 array astore concat } bind def
/w { setlinewidth } bind def
/J { setlinecap } bind def
/j { setlinejoin } bind def
/M { setmiterlimit } bind def
/d { setdash } bind def
/m { moveto } bind def
/l { lineto } bind def
/c { curveto } bind def
/h { closepath } bind def
/re { exch dup neg 3 1 roll 5 3 roll moveto 0 rlineto
      0 exch rlineto 0 rlineto closepath } bind def
/S { stroke } bind def
/f { fill } bind def
/f* { eofill } bind def
/n { newpath } bind def
/W { clip } bind def
/W* { eoclip } bind def
/BT { } bind def
/ET { } bind def
/pdfmark where { pop globaldict /?pdfmark /exec load put }
    { globaldict begin /?pdfmark /pop load def /pdfmark
    /cleartomark load def end } ifelse
/BDC { mark 3 1 roll /BDC pdfmark } bind def
/EMC { mark /EMC pdfmark } bind def
/cairo_store_point { /cairo_point_y exch def /cairo_point_x exch def } def
/Tj { show currentpoint cairo_store_point } bind def
/TJ {
  {
    dup
    type /stringtype eq
    { show } { -0.001 mul 0 cairo_font_matrix dtransform rmoveto } ifelse
  } forall
  currentpoint cairo_store_point
} bind def
/cairo_selectfont { cairo_font_matrix aload pop pop pop 0 0 6 array astore
    cairo_font exch selectfont cairo_point_x cairo_point_y moveto } bind def
/Tf { pop /cairo_font exch def /cairo_font_matrix where
      { pop cairo_selectfont } if } bind def
/Td { matrix translate cairo_font_matrix matrix concatmatrix dup
      /cairo_font_matrix exch def dup 4 get exch 5 get cairo_store_point
      /cairo_font where { pop cairo_selectfont } if } bind def
/Tm { 2 copy 8 2 roll 6 array astore /cairo_font_matrix exch def
      cairo_store_point /cairo_font where { pop cairo_selectfont } if } bind def
/g { setgray } bind def
/rg { setrgbcolor } bind def
/d1 { setcachedevice } bind def
%%EndProlog
%%BeginSetup
%%EndSetup
%%Page: 1 1
%%BeginPageSetup
%%PageBoundingBox: 0 -1 397 310
%%EndPageSetup
q 0 -1 397 311 rectclip q
0.498039 0.0666667 0.0196078 rg
198.496 52.434 m 159.426 52.434 123.77 78.946 105.062 120.938 c 33.828 
120.938 l 26.766 120.938 20.438 125.325 17.992 131.942 c 15.516 138.552 
17.414 146.009 22.746 150.626 c 93.906 212.348 l 103.297 263.47 141.07 292.61
 198.496 292.61 c 255.914 292.61 293.684 263.466 303.082 212.348 c 374.238
 150.626 l 379.574 146.009 381.465 138.548 378.996 131.942 c 376.539 125.325
 370.223 120.938 363.16 120.938 c 291.93 120.938 l 273.211 78.946 237.562
 52.434 198.496 52.434 c h
198.496 52.434 m f
0.666667 0.176471 0.0823529 rg
198.496 52.434 m 159.426 52.434 123.77 78.946 105.062 120.938 c 33.828 
120.938 l 26.766 120.938 20.438 125.325 17.992 131.942 c 15.516 138.552 
17.414 146.009 22.746 150.626 c 93.906 212.348 l 103.297 263.47 141.07 256.239
 198.496 256.239 c 255.914 256.239 293.684 263.47 303.082 212.348 c 374.238
 150.626 l 379.574 146.009 381.465 138.548 378.996 131.942 c 376.539 125.325
 370.223 120.938 363.16 120.938 c 291.93 120.938 l 273.211 78.946 237.562
 52.434 198.496 52.434 c h
198.496 52.434 m f
0.576471 0.109804 0.0470588 rg
93.906 212.348 m 103.297 263.47 141.07 256.239 198.496 256.239 c 255.914
 256.239 293.684 263.47 303.082 212.348 c 374.238 150.626 l 379.574 146.009
 381.465 138.548 378.996 131.942 c 376.539 125.325 370.223 120.938 363.16
 120.938 c 291.93 120.938 l f
0.258824 0.0705882 0.0627451 rg
198.496 275.7 m 243.418 275.7 280.535 255.055 287.34 203.618 c 363.16 137.852
 l 280.453 137.852 l 266.273 97.473 234.961 69.348 198.496 69.348 c 162.027
 69.348 130.711 97.473 116.539 137.852 c 33.828 137.852 l 109.648 203.618
 l 116.461 255.055 153.578 275.7 198.496 275.7 c 198.496 309.532 m 135.184
 309.532 91.23 276.872 78.508 221.391 c 11.66 163.407 l 1 154.161 -2.801
 139.251 2.141 126.024 c 7.074 112.79 19.707 104.028 33.836 104.028 c 94.52
 104.028 l 117.016 61.751 155.902 35.528 198.5 35.528 c 241.102 35.528 279.984
 61.751 302.484 104.028 c 363.168 104.028 l 377.289 104.028 389.93 112.794
 394.859 126.024 c 399.797 139.259 396.004 154.161 385.336 163.407 c 318.488
 221.391 l 305.758 276.864 261.812 309.532 198.496 309.532 c h
198.496 309.532 m f
0.14902 0.027451 0.027451 rg
33.828 104.02 m 94.52 104.02 l 117.016 61.743 155.902 35.524 198.5 35.524
 c 241.102 35.524 279.984 61.743 302.484 104.02 c 363.168 104.02 l 377.074
 104.02 389.5 112.548 394.586 125.446 c 392.625 130.419 389.539 134.954 
385.328 138.602 c 318.484 196.583 l 305.758 252.067 261.805 294.88 198.496
 294.88 c 135.184 294.88 91.23 252.075 78.508 196.583 c 11.66 138.602 l 
7.457 134.954 4.371 130.419 2.402 125.446 c 7.496 112.544 19.922 104.02 
33.828 104.02 c h
33.828 137.852 m 109.648 203.618 l 116.461 255.055 153.57 275.7 198.496
 275.7 c 243.418 275.7 280.535 255.055 287.348 203.618 c 363.168 137.852
 l 334.566 137.852 l 363.168 113.044 l 280.453 113.044 l 266.273 72.677 
234.961 44.54 198.496 44.54 c 162.027 44.54 130.711 72.669 116.539 113.044
 c 33.828 113.044 l 62.426 137.852 l h
33.828 137.852 m f
0.737255 0.235294 0.117647 rg
34.258 138.571 328.5 -133.215 re f
0.819608 0.290196 0.184314 rg
362.738 5.352 m 34.258 5.352 l 34.258 138.552 l f
0.258824 0.0705882 0.0627451 rg
173.969 164.911 m 170.594 168.298 l 170.594 217.348 l 173.969 220.735 l
 223.02 220.735 l 226.398 217.348 l 226.398 168.298 l 223.02 164.911 l h
173.969 164.911 m f
0.14902 0.027451 0.027451 rg
223.02 220.735 m 226.398 217.348 l 226.398 168.298 l 223.02 164.911 l 173.969
 164.911 l 170.594 168.298 l f
0.819608 0.290196 0.184314 rg
223.02 217.348 m 223.02 168.298 l 173.977 168.298 l 173.977 217.348 l 223.02
 217.348 l 223.02 224.11 m 173.977 224.11 l 167.207 217.348 l 167.207 168.298
 l 173.977 161.528 l 223.02 161.528 l 229.793 168.298 l 229.793 217.348 
l h
223.02 224.11 m f
0.168627 0.0313726 0.0313726 rg
115.625 5.352 m 115.625 123.751 l 281.371 123.751 l 281.371 5.352 l f
0.258824 0.0705882 0.0627451 rg
115.625 105.552 m 115.625 5.352 l 281.371 5.352 l 281.371 38.352 l h
115.625 105.552 m f
0.666667 0.176471 0.0823529 rg
284.758 5.352 m 277.988 5.352 l 277.988 120.372 l 119 120.372 l 119 5.352
 l 112.238 5.352 l 112.238 123.751 l 115.625 127.134 l 281.371 127.134 l
 284.758 123.751 l h
284.758 5.352 m f
94.121 44.548 m 55.375 44.548 l 54.09 44.548 53.047 45.595 53.047 46.872
 c 53.047 85.626 l 53.047 86.907 54.09 87.954 55.375 87.954 c 94.121 87.954
 l 95.414 87.954 96.441 86.907 96.441 85.626 c 96.441 46.872 l 96.441 45.591
 95.414 44.548 94.121 44.548 c h
57.699 49.196 m 91.797 49.196 l 91.797 83.302 l 57.699 83.302 l h
57.699 49.196 m f
57.562 46.739 m 56.969 46.739 56.375 46.966 55.922 47.415 c 55.016 48.321
 55.016 49.809 55.922 50.708 c 90.258 85.071 l 91.18 85.962 92.648 85.977
 93.555 85.071 c 94.469 84.157 94.469 82.684 93.555 81.774 c 59.219 47.415
 l 58.75 46.973 58.152 46.739 57.562 46.739 c h
57.562 46.739 m f
91.922 46.739 m 91.332 46.739 90.727 46.973 90.258 47.415 c 55.922 81.774
 l 55.016 82.684 55.016 84.157 55.922 85.071 c 56.828 85.977 58.297 85.977
 59.219 85.071 c 93.555 50.708 l 94.469 49.809 94.469 48.321 93.555 47.415
 c 93.109 46.966 92.508 46.739 91.922 46.739 c h
91.922 46.739 m f
341.621 44.548 m 302.879 44.548 l 301.586 44.548 300.547 45.595 300.547
 46.872 c 300.547 85.626 l 300.547 86.907 301.594 87.954 302.879 87.954 
c 341.621 87.954 l 342.906 87.954 343.945 86.907 343.945 85.626 c 343.945
 46.872 l 343.953 45.591 342.906 44.548 341.621 44.548 c h
305.191 49.196 m 339.297 49.196 l 339.297 83.302 l 305.191 83.302 l h
305.191 49.196 m f
305.059 46.739 m 304.48 46.739 303.875 46.966 303.434 47.415 c 302.52 48.321
 302.52 49.809 303.434 50.708 c 337.77 85.071 l 338.684 85.962 340.16 85.977
 341.066 85.071 c 341.98 84.157 341.98 82.684 341.066 81.774 c 306.723 47.415
 l 306.27 46.973 305.664 46.739 305.059 46.739 c h
305.059 46.739 m f
339.422 46.739 m 338.836 46.739 338.238 46.973 337.77 47.415 c 303.434 
81.774 l 302.52 82.684 302.52 84.157 303.434 85.071 c 304.336 85.977 305.797
 85.977 306.723 85.071 c 341.066 50.708 l 341.98 49.809 341.98 48.321 341.066
 47.415 c 340.605 46.966 340.016 46.739 339.422 46.739 c h
339.422 46.739 m f
0.576471 0.109804 0.0470588 rg
367.211 3.805 m 367.211 1.708 365.512 0.001 363.406 0.001 c 33.59 0.001
 l 31.492 0.001 29.781 1.7 29.781 3.805 c 29.781 5.903 31.484 7.614 33.59
 7.614 c 363.41 7.614 l 365.512 7.614 367.211 5.903 367.211 3.805 c h
367.211 3.805 m f
Q Q
showpage
%%Trailer
end restore
%%EOF
