%!PS-Adobe-3.0 EPSF-3.0
%%Creator: cairo 1.14.2 (http://cairographics.org)
%%CreationDate: Thu Aug  4 10:30:56 2016
%%Pages: 1
%%DocumentData: Clean7Bit
%%LanguageLevel: 2
%%BoundingBox: 0 -1 397 245
%%EndComments
%%BeginProlog
save
50 dict begin
/q { gsave } bind def
/Q { grestore } bind def
/cm { 6 array astore concat } bind def
/w { setlinewidth } bind def
/J { setlinecap } bind def
/j { setlinejoin } bind def
/M { setmiterlimit } bind def
/d { setdash } bind def
/m { moveto } bind def
/l { lineto } bind def
/c { curveto } bind def
/h { closepath } bind def
/re { exch dup neg 3 1 roll 5 3 roll moveto 0 rlineto
      0 exch rlineto 0 rlineto closepath } bind def
/S { stroke } bind def
/f { fill } bind def
/f* { eofill } bind def
/n { newpath } bind def
/W { clip } bind def
/W* { eoclip } bind def
/BT { } bind def
/ET { } bind def
/pdfmark where { pop globaldict /?pdfmark /exec load put }
    { globaldict begin /?pdfmark /pop load def /pdfmark
    /cleartomark load def end } ifelse
/BDC { mark 3 1 roll /BDC pdfmark } bind def
/EMC { mark /EMC pdfmark } bind def
/cairo_store_point { /cairo_point_y exch def /cairo_point_x exch def } def
/Tj { show currentpoint cairo_store_point } bind def
/TJ {
  {
    dup
    type /stringtype eq
    { show } { -0.001 mul 0 cairo_font_matrix dtransform rmoveto } ifelse
  } forall
  currentpoint cairo_store_point
} bind def
/cairo_selectfont { cairo_font_matrix aload pop pop pop 0 0 6 array astore
    cairo_font exch selectfont cairo_point_x cairo_point_y moveto } bind def
/Tf { pop /cairo_font exch def /cairo_font_matrix where
      { pop cairo_selectfont } if } bind def
/Td { matrix translate cairo_font_matrix matrix concatmatrix dup
      /cairo_font_matrix exch def dup 4 get exch 5 get cairo_store_point
      /cairo_font where { pop cairo_selectfont } if } bind def
/Tm { 2 copy 8 2 roll 6 array astore /cairo_font_matrix exch def
      cairo_store_point /cairo_font where { pop cairo_selectfont } if } bind def
/g { setgray } bind def
/rg { setrgbcolor } bind def
/d1 { setcachedevice } bind def
%%EndProlog
%%BeginSetup
%%EndSetup
%%Page: 1 1
%%BeginPageSetup
%%PageBoundingBox: 0 -1 397 245
%%EndPageSetup
q 0 -1 397 246 rectclip q
0.341176 0.686275 0.227451 rg
101.863 101.794 m 111.992 110.798 117.809 123.064 117.809 136.591 c 117.809
 152.095 111.469 165.325 100.34 173.587 c 88.215 183.399 72.387 187.778 
49.008 187.778 c 34.551 187.778 19.004 186.399 8.438 184.169 c 3.527 183.13
 0 178.782 0 173.751 c 0 13.786 l 0 8.47 3.914 3.97 9.18 3.243 c 14.656 
2.481 26.367 1.208 43.215 1.208 c 73.055 1.208 93.219 6.931 106.855 19.419
 c 118.121 30.36 123.832 43.896 123.832 59.63 c 123.832 79.481 114.051 93.314
 101.863 101.794 c h
75.273 134.423 m 75.273 122.173 62.582 117.802 50.703 117.802 c 42.277 
117.802 l 42.277 150.11 l 44.645 150.239 47.301 150.317 50.219 150.317 c
 75.273 150.317 75.273 139.583 75.273 134.423 c h
42.277 80.583 m 49.008 80.583 l 60.703 80.583 80.344 77.896 80.344 59.864
 c 80.344 45.958 69.891 38.899 49.254 38.899 c 46.645 38.899 44.32 38.931
 42.277 39.001 c h
42.277 80.583 m f
186.559 186.575 m 165.566 186.575 l 159.688 186.575 154.922 181.806 154.922
 175.931 c 154.922 13.294 l 154.922 7.415 159.695 2.653 165.566 2.653 c 
186.559 2.653 l 192.438 2.653 197.195 7.415 197.195 13.294 c 197.195 175.931
 l 197.199 181.806 192.438 186.575 186.559 186.575 c h
186.559 186.575 m f
313.242 189.228 m 262.504 189.228 227.062 149.724 227.062 93.169 c 227.062
 38.314 261.508 0.001 310.828 0.001 c 353.723 -0.007 396.996 29.771 396.996
 96.306 c 396.996 151.021 362.559 189.228 313.242 189.228 c h
313.242 189.228 m f
0.258824 0.588235 0.137255 rg
313.242 166.485 m 266.02 166.485 232.078 132.251 227.613 81.907 c 232.012
 33.153 264.969 0.001 310.832 0.001 c 351.066 0.001 391.641 26.216 396.508
 84.392 c 392.258 133.239 359.23 166.485 313.242 166.485 c h
313.242 166.485 m f
9.18 3.239 m 14.551 2.481 25.945 1.259 42.277 1.216 c 42.277 111.341 l 
44.648 111.474 47.301 111.548 50.219 111.548 c 75.277 111.548 75.277 100.814
 75.277 95.657 c 75.277 86.306 67.875 81.567 59.098 79.841 c 69.477 78.2
 80.352 73.278 80.352 59.872 c 80.352 49.497 74.516 42.939 62.996 40.286
 c 72.035 38.056 80.352 32.837 80.352 21.103 c 80.352 12.11 75.91 6.024 
67.238 2.817 c 84.367 5.267 97.27 10.638 106.863 19.419 c 113.09 25.466 
117.562 32.341 120.371 39.907 c 116.477 49.927 109.691 57.595 101.871 63.032
 c 109.105 69.462 114.082 77.571 116.379 86.603 c 112.504 92.821 107.473
 97.907 101.871 101.806 c 107.02 106.384 111.047 111.81 113.762 117.806 
c 110.789 124.614 106.277 130.435 100.348 134.829 c 91.469 142.017 80.547
 146.271 66.168 148.044 c 75.23 144.603 75.277 138.11 75.277 134.439 c 75.277
 122.189 62.59 117.814 50.711 117.814 c 42.277 117.814 l 42.277 148.899 
l 29.887 148.552 17.387 147.286 8.445 145.396 c 3.527 144.36 0 140.013 0
 134.978 c 0 13.782 l 0 8.47 3.914 3.962 9.18 3.239 c h
9.18 3.239 m f
186.559 147.802 m 165.566 147.802 l 159.688 147.802 154.922 143.032 154.922
 137.157 c 154.922 13.29 l 154.922 7.411 159.695 2.646 165.566 2.646 c 186.559
 2.646 l 192.438 2.646 197.195 7.411 197.195 13.29 c 197.195 137.157 l 197.199
 143.04 192.438 147.802 186.559 147.802 c h
186.559 147.802 m f
0.921569 0.941176 0.94902 rg
306.18 149.099 m 287.598 139.981 273.523 98.978 273.523 79.403 c 273.523
 59.825 287.59 43.579 306.18 40.122 c h
306.18 149.099 m f
317.906 149.099 m 336.477 139.981 350.535 98.978 350.535 79.403 c 350.535
 59.825 336.465 43.579 317.906 40.122 c h
317.906 149.099 m f
0.341176 0.686275 0.227451 rg
98.871 243.005 m 92.18 223.419 111.23 184.478 125.074 170.638 c 138.91 
156.786 160.344 155.251 175.934 165.942 c h
98.871 243.005 m f
0.419608 0.819608 0.27451 rg
98.859 242.981 m 118.43 249.665 157.363 230.61 171.195 216.767 c 185.043
 202.923 186.582 181.489 175.906 165.919 c h
98.859 242.981 m f
0.341176 0.686275 0.227451 rg
253.246 243.005 m 259.938 223.419 240.891 184.478 227.039 170.638 c 213.207
 156.786 191.77 155.251 176.184 165.942 c h
253.246 243.005 m f
0.419608 0.819608 0.27451 rg
253.27 242.981 m 233.691 249.665 194.754 230.61 180.918 216.767 c 167.07
 202.923 165.535 181.489 176.211 165.919 c h
253.27 242.981 m f
Q Q
showpage
%%Trailer
end restore
%%EOF
