%!PS-Adobe-3.0 EPSF-3.0
%%Creator: cairo 1.14.2 (http://cairographics.org)
%%CreationDate: Thu Aug  4 10:31:04 2016
%%Pages: 1
%%DocumentData: Clean7Bit
%%LanguageLevel: 2
%%BoundingBox: 0 -1 336 404
%%EndComments
%%BeginProlog
save
50 dict begin
/q { gsave } bind def
/Q { grestore } bind def
/cm { 6 array astore concat } bind def
/w { setlinewidth } bind def
/J { setlinecap } bind def
/j { setlinejoin } bind def
/M { setmiterlimit } bind def
/d { setdash } bind def
/m { moveto } bind def
/l { lineto } bind def
/c { curveto } bind def
/h { closepath } bind def
/re { exch dup neg 3 1 roll 5 3 roll moveto 0 rlineto
      0 exch rlineto 0 rlineto closepath } bind def
/S { stroke } bind def
/f { fill } bind def
/f* { eofill } bind def
/n { newpath } bind def
/W { clip } bind def
/W* { eoclip } bind def
/BT { } bind def
/ET { } bind def
/pdfmark where { pop globaldict /?pdfmark /exec load put }
    { globaldict begin /?pdfmark /pop load def /pdfmark
    /cleartomark load def end } ifelse
/BDC { mark 3 1 roll /BDC pdfmark } bind def
/EMC { mark /EMC pdfmark } bind def
/cairo_store_point { /cairo_point_y exch def /cairo_point_x exch def } def
/Tj { show currentpoint cairo_store_point } bind def
/TJ {
  {
    dup
    type /stringtype eq
    { show } { -0.001 mul 0 cairo_font_matrix dtransform rmoveto } ifelse
  } forall
  currentpoint cairo_store_point
} bind def
/cairo_selectfont { cairo_font_matrix aload pop pop pop 0 0 6 array astore
    cairo_font exch selectfont cairo_point_x cairo_point_y moveto } bind def
/Tf { pop /cairo_font exch def /cairo_font_matrix where
      { pop cairo_selectfont } if } bind def
/Td { matrix translate cairo_font_matrix matrix concatmatrix dup
      /cairo_font_matrix exch def dup 4 get exch 5 get cairo_store_point
      /cairo_font where { pop cairo_selectfont } if } bind def
/Tm { 2 copy 8 2 roll 6 array astore /cairo_font_matrix exch def
      cairo_store_point /cairo_font where { pop cairo_selectfont } if } bind def
/g { setgray } bind def
/rg { setrgbcolor } bind def
/d1 { setcachedevice } bind def
%%EndProlog
%%BeginSetup
%%EndSetup
%%Page: 1 1
%%BeginPageSetup
%%PageBoundingBox: 0 -1 336 404
%%EndPageSetup
q 0 -1 336 405 rectclip q
0.117647 0.266667 0.0196078 rg
67.312 269.798 m 65.07 266.619 63.734 262.767 63.734 258.584 c 63.734 251.287
 67.781 244.998 73.711 241.638 c 75.117 233.24 80.699 226.267 88.277 222.955
 c 87.391 221.529 86.836 219.849 86.836 218.041 c 86.836 212.943 90.977 
208.802 96.086 208.802 c 97.66 208.802 99.129 209.228 100.434 209.935 c 
103.508 206.244 107.629 203.474 112.34 202.044 c 113.566 192.435 121.691
 184.974 131.633 184.974 c 135.004 184.974 138.117 185.908 140.879 187.4
 c 144.285 185.63 148.164 184.623 152.266 184.623 c 158.043 184.623 163.344
 186.599 167.566 189.916 c 171.789 186.607 177.094 184.623 182.863 184.623
 c 186.969 184.623 190.844 185.63 194.254 187.4 c 197.012 185.912 200.137
 184.974 203.492 184.974 c 213.434 184.974 221.562 192.435 222.793 202.044
 c 227.504 203.474 231.621 206.244 234.695 209.935 c 236.012 209.236 237.469
 208.802 239.043 208.802 c 244.16 208.802 248.293 212.939 248.293 218.041
 c 248.293 219.849 247.754 221.537 246.852 222.955 c 254.434 226.263 260.035
 233.24 261.434 241.638 c 267.355 244.998 271.402 251.287 271.402 258.584
 c 271.402 262.767 270.066 266.619 267.828 269.798 c 270.59 271.408 272.473
 274.357 272.473 277.779 c 272.473 282.888 268.34 287.029 263.23 287.029
 c 263.02 287.029 262.832 286.97 262.629 286.966 c 261.445 296.365 253.652
 303.677 244.008 304.025 c 242.371 306.619 239.496 308.357 236.203 308.357
 c 234.734 308.357 233.355 307.978 232.125 307.361 c 228.59 310.834 223.77
 312.982 218.426 312.982 c 209.422 312.982 201.91 306.857 199.648 298.572
 c 199.031 298.634 198.438 298.759 197.801 298.759 c 195.219 298.759 192.766
 298.232 190.523 297.322 c 187.34 299.56 183.492 300.888 179.312 300.888
 c 174.891 300.888 170.848 299.365 167.578 296.888 c 164.301 299.365 160.27
 300.888 155.84 300.888 c 151.672 300.888 147.812 299.56 144.641 297.322
 c 142.387 298.232 139.941 298.759 137.355 298.759 c 136.727 298.759 136.133
 298.627 135.523 298.572 c 133.246 306.857 125.75 312.982 116.738 312.982
 c 111.402 312.982 106.578 310.834 103.039 307.361 c 101.809 307.986 100.43
 308.357 98.961 308.357 c 95.66 308.357 92.793 306.619 91.148 304.025 c 
81.512 303.677 73.711 296.369 72.527 286.966 c 72.332 286.97 72.137 287.029
 71.938 287.029 c 66.832 287.029 62.691 282.888 62.691 277.779 c 62.668 
274.357 64.547 271.408 67.312 269.798 c h
67.312 269.798 m f
0.164706 0.4 0.00784314 rg
190.371 196.564 m 190.371 184.908 180.918 182.58 169.262 182.58 c 157.602
 182.58 148.148 184.908 148.148 196.552 c 148.148 208.209 157.602 265.81
 169.262 265.826 c 180.918 265.83 190.371 208.216 190.371 196.564 c h
190.371 196.564 m f
0.317647 0.698039 0.141176 rg
218.559 33.744 m 218.559 5.595 195.727 0.002 167.566 0.002 c 139.402 0.002
 116.574 5.603 116.574 33.744 c 116.574 61.908 139.402 201.084 167.566 201.084
 c 195.727 201.084 218.559 61.908 218.559 33.744 c h
218.559 33.744 m f
0.243137 0.576471 0.0666667 rg
167.566 201.084 m 195.727 201.084 218.559 61.908 218.559 33.744 c 218.559
 5.595 195.727 0.002 167.566 0.002 c f
0.317647 0.698039 0.141176 rg
170.598 178.896 m 180.773 168.705 174.555 158.416 164.363 148.236 c 154.18
 138.06 143.898 131.822 133.719 141.998 c 123.531 152.189 81.441 210.787
 91.621 220.97 c 101.809 231.158 160.406 189.072 170.598 178.896 c h
170.598 178.896 m f
0.243137 0.576471 0.0666667 rg
91.621 220.962 m 101.809 231.154 160.406 189.064 170.598 178.888 c 180.773
 168.697 174.555 158.408 164.363 148.232 c f
0.317647 0.698039 0.141176 rg
164.535 178.896 m 154.352 168.705 160.582 158.416 170.766 148.236 c 180.949
 138.06 191.234 131.822 201.41 141.998 c 211.602 152.189 253.68 210.787 
243.504 220.97 c 233.32 231.158 174.719 189.072 164.535 178.896 c h
164.535 178.896 m f
0.243137 0.576471 0.0666667 rg
243.504 220.962 m 233.32 231.154 174.719 189.064 164.535 178.888 c 154.352
 168.697 160.582 158.408 170.766 148.232 c f
0.184314 0.439216 0.0196078 rg
327.707 267.216 m 331.285 272.294 333.422 278.447 333.422 285.146 c 333.422
 296.802 326.961 306.845 317.496 312.216 c 315.246 325.63 306.32 336.767
 294.199 342.048 c 295.645 344.322 296.508 347.005 296.508 349.9 c 296.508
 358.052 289.898 364.666 281.742 364.666 c 279.223 364.666 276.879 363.978
 274.785 362.857 c 269.875 368.74 263.305 373.185 255.766 375.459 c 253.801
 390.814 240.82 402.72 224.922 402.72 c 219.559 402.72 214.586 401.244 210.18
 398.861 c 204.73 401.677 198.555 403.298 192.004 403.298 c 182.777 403.298
 174.309 400.13 167.566 394.853 c 160.816 400.13 152.355 403.298 143.129
 403.298 c 136.574 403.298 130.395 401.677 124.941 398.861 c 120.531 401.244
 115.559 402.72 110.191 402.72 c 94.305 402.72 81.324 390.81 79.348 375.459
 c 71.824 373.185 65.242 368.74 60.332 362.857 c 58.238 363.978 55.902 364.666
 53.375 364.666 c 45.215 364.666 38.602 358.052 38.602 349.9 c 38.602 347.005
 39.473 344.322 40.914 342.048 c 28.797 336.759 19.867 325.63 17.621 312.216
 c 8.168 306.845 1.707 296.802 1.707 285.146 c 1.707 278.455 3.844 272.294
 7.418 267.216 c 3.004 264.658 0 259.939 0 254.474 c 0 246.322 6.609 239.709
 14.766 239.709 c 15.086 239.709 15.395 239.791 15.711 239.806 c 17.605 
224.775 30.055 213.111 45.461 212.564 c 48.082 208.412 52.668 205.63 57.93
 205.63 c 60.289 205.63 62.488 206.228 64.445 207.212 c 70.094 201.673 77.805
 198.24 86.332 198.24 c 100.719 198.24 112.715 208.021 116.34 221.259 c 
117.324 221.166 118.281 220.955 119.289 220.955 c 123.402 220.955 127.309
 221.802 130.914 223.244 c 135.988 219.677 142.145 217.544 148.824 217.544
 c 155.895 217.544 162.34 219.978 167.57 223.943 c 172.801 219.978 179.242
 217.544 186.32 217.544 c 192.992 217.544 199.156 219.677 204.227 223.244
 c 207.82 221.798 211.73 220.955 215.859 220.955 c 216.855 220.955 217.828
 221.166 218.805 221.259 c 222.422 208.013 234.426 198.24 248.812 198.24
 c 257.336 198.24 265.043 201.673 270.691 207.212 c 272.664 206.228 274.855
 205.63 277.211 205.63 c 282.488 205.63 287.062 208.404 289.684 212.564 
c 305.078 213.111 317.535 224.775 319.426 239.806 c 319.746 239.791 320.059
 239.709 320.379 239.709 c 328.531 239.709 335.141 246.322 335.141 254.474
 c 335.129 259.939 332.125 264.658 327.707 267.216 c h
327.707 267.216 m f
0.227451 0.529412 0.0313726 rg
15.711 300.009 m 17.609 284.982 30.055 273.31 45.461 272.767 c 48.082 268.615
 52.668 265.837 57.93 265.837 c 60.289 265.837 62.488 266.435 64.445 267.419
 c 70.094 261.877 77.805 258.443 86.332 258.443 c 100.719 258.443 112.719
 268.224 116.34 281.462 c 117.324 281.361 118.281 281.162 119.289 281.162
 c 123.406 281.162 127.312 282.005 130.914 283.447 c 135.988 279.88 142.145
 277.752 148.824 277.752 c 155.895 277.752 162.34 280.185 167.57 284.142
 c 172.801 280.185 179.242 277.752 186.32 277.752 c 192.992 277.752 199.156
 279.88 204.227 283.447 c 207.82 282.005 211.734 281.162 215.859 281.162
 c 216.855 281.162 217.828 281.361 218.805 281.462 c 222.422 268.216 234.426
 258.443 248.812 258.443 c 257.336 258.443 265.043 261.877 270.691 267.419
 c 272.664 266.435 274.855 265.837 277.215 265.837 c 282.488 265.837 287.062
 268.607 289.684 272.767 c 305.078 273.31 317.535 284.978 319.426 300.009
 c 319.75 299.998 320.059 299.916 320.379 299.916 c 323.258 299.916 325.938
 300.771 328.203 302.201 c 325.469 306.306 321.82 309.759 317.512 312.209
 c 315.262 325.627 306.332 336.759 294.215 342.041 c 295.656 344.318 296.52
 347.002 296.52 349.892 c 296.52 358.048 289.91 364.658 281.758 364.658 
c 279.234 364.658 276.891 363.97 274.801 362.849 c 269.891 368.736 263.316
 373.177 255.781 375.451 c 253.812 390.81 240.832 402.712 224.934 402.712
 c 219.57 402.712 214.602 401.24 210.195 398.857 c 204.73 401.677 198.555
 403.298 192.004 403.298 c 182.777 403.298 174.309 400.13 167.566 394.853
 c 160.816 400.13 152.355 403.298 143.129 403.298 c 136.574 403.298 130.395
 401.677 124.941 398.861 c 120.531 401.244 115.559 402.72 110.191 402.72
 c 94.305 402.72 81.324 390.81 79.348 375.459 c 71.824 373.185 65.242 368.74
 60.332 362.857 c 58.238 363.978 55.902 364.666 53.375 364.666 c 45.215 
364.666 38.602 358.052 38.602 349.9 c 38.602 347.005 39.473 344.322 40.914
 342.048 c 28.797 336.759 19.867 325.63 17.621 312.216 c 13.301 309.763 
9.656 306.31 6.926 302.209 c 9.188 300.771 11.871 299.923 14.754 299.923
 c 15.086 299.923 15.395 299.998 15.711 300.009 c h
15.711 300.009 m f
0.290196 0.607843 0.0862745 rg
141.168 362.466 m 142.543 357.923 134.168 357.955 124.703 355.123 c 115.238
 352.294 108.25 347.669 106.883 352.212 c 105.531 356.755 112.105 362.728
 121.578 365.56 c 131.035 368.388 139.809 367.002 141.168 362.466 c h
141.168 362.466 m f
62.973 329.502 m 63.949 326.255 58 326.279 51.266 324.275 c 44.527 322.255
 39.543 318.966 38.586 322.197 c 37.617 325.435 42.305 329.685 49.039 331.705
 c 55.777 333.716 62.016 332.732 62.973 329.502 c h
62.973 329.502 m f
94.223 357.431 m 95.746 354.412 89.887 353.384 83.609 350.22 c 77.328 347.044
 73.012 342.935 71.484 345.947 c 69.961 348.966 73.824 353.962 80.105 357.138
 c 86.383 360.31 92.695 360.435 94.223 357.431 c h
94.223 357.431 m f
157.238 380.955 m 157.367 377.576 151.609 379.076 144.598 378.798 c 137.57
 378.502 131.926 376.556 131.793 379.931 c 131.66 383.302 137.246 386.259
 144.273 386.548 c 151.293 386.826 157.105 384.326 157.238 380.955 c h
157.238 380.955 m f
121.004 391.837 m 122.461 388.787 116.574 387.877 110.254 384.845 c 103.902
 381.798 99.508 377.763 98.039 380.814 c 96.59 383.857 100.547 388.787 106.875
 391.837 c 113.223 394.869 119.547 394.873 121.004 391.837 c h
121.004 391.837 m f
98.512 367.224 m 98.512 365.181 96.859 363.529 94.82 363.529 c 92.781 363.529
 91.129 365.181 91.129 367.224 c 91.129 369.263 92.781 370.916 94.82 370.916
 c 96.859 370.916 98.512 369.263 98.512 367.224 c h
98.512 367.224 m f
61.578 349.9 m 61.578 348.334 60.309 347.064 58.742 347.064 c 57.176 347.064
 55.906 348.334 55.906 349.9 c 55.906 351.466 57.176 352.736 58.742 352.736
 c 60.309 352.736 61.578 351.466 61.578 349.9 c h
61.578 349.9 m f
48.523 306.451 m 48.523 303.783 46.363 301.623 43.695 301.623 c 41.031 
301.623 38.867 303.783 38.867 306.451 c 38.867 309.115 41.031 311.279 43.695
 311.279 c 46.363 311.279 48.523 309.115 48.523 306.451 c h
48.523 306.451 m f
94.531 333.716 m 94.531 331.681 92.879 330.029 90.844 330.029 c 88.809 
330.029 87.156 331.681 87.156 333.716 c 87.156 335.752 88.809 337.404 90.844
 337.404 c 92.879 337.404 94.531 335.752 94.531 333.716 c h
94.531 333.716 m f
155.348 394.205 m 155.348 393.263 154.582 392.498 153.641 392.498 c 152.695
 392.498 151.93 393.263 151.93 394.205 c 151.93 395.15 152.695 395.912 153.641
 395.912 c 154.582 395.912 155.348 395.15 155.348 394.205 c h
155.348 394.205 m f
123.492 376.314 m 123.492 374.587 122.094 373.189 120.367 373.189 c 118.641
 373.189 117.242 374.587 117.242 376.314 c 117.242 378.041 118.641 379.439
 120.367 379.439 c 122.094 379.439 123.492 378.041 123.492 376.314 c h
123.492 376.314 m f
160.98 359.271 m 160.98 357.861 159.836 356.716 158.43 356.716 c 157.02
 356.716 155.875 357.861 155.875 359.271 c 155.875 360.677 157.02 361.822
 158.43 361.822 c 159.836 361.822 160.98 360.677 160.98 359.271 c h
160.98 359.271 m f
193.961 362.466 m 192.582 357.923 200.965 357.955 210.43 355.123 c 219.895
 352.294 226.883 347.669 228.242 352.212 c 229.598 356.755 223.023 362.728
 213.555 365.56 c 204.094 368.388 195.324 367.002 193.961 362.466 c h
193.961 362.466 m f
272.152 329.502 m 271.188 326.255 277.129 326.279 283.867 324.275 c 290.602
 322.255 295.582 318.966 296.539 322.197 c 297.516 325.435 292.828 329.685
 286.09 331.705 c 279.355 333.716 273.109 332.732 272.152 329.502 c h
272.152 329.502 m f
240.91 357.431 m 239.379 354.412 245.242 353.384 251.52 350.22 c 257.809
 347.044 262.121 342.935 263.637 345.947 c 265.168 348.966 261.309 353.962
 255.023 357.138 c 248.746 360.31 242.43 360.435 240.91 357.431 c h
240.91 357.431 m f
177.898 380.955 m 177.754 377.576 183.52 379.076 190.535 378.798 c 197.562
 378.502 203.207 376.556 203.34 379.931 c 203.473 383.302 197.883 386.259
 190.855 386.548 c 183.836 386.826 178.027 384.326 177.898 380.955 c h
177.898 380.955 m f
214.141 391.837 m 212.68 388.787 218.559 387.877 224.879 384.845 c 231.23
 381.798 235.613 377.763 237.09 380.814 c 238.551 383.857 234.59 388.787
 228.254 391.837 c 221.91 394.869 215.578 394.873 214.141 391.837 c h
214.141 391.837 m f
243.977 367.224 m 243.977 365.181 242.324 363.529 240.285 363.529 c 238.246
 363.529 236.594 365.181 236.594 367.224 c 236.594 369.263 238.246 370.916
 240.285 370.916 c 242.324 370.916 243.977 369.263 243.977 367.224 c h
243.977 367.224 m f
273.559 349.9 m 273.559 348.33 274.812 347.056 276.375 347.056 c 277.957
 347.056 279.215 348.33 279.215 349.9 c 279.215 351.466 277.957 352.736 
276.375 352.736 c 274.816 352.74 273.559 351.466 273.559 349.9 c h
273.559 349.9 m f
296.281 306.451 m 296.281 303.783 294.121 301.623 291.453 301.623 c 288.789
 301.623 286.625 303.783 286.625 306.451 c 286.625 309.115 288.789 311.279
 291.453 311.279 c 294.121 311.279 296.281 309.115 296.281 306.451 c h
296.281 306.451 m f
247.973 333.716 m 247.973 331.681 246.324 330.029 244.285 330.029 c 242.25
 330.029 240.602 331.681 240.602 333.716 c 240.602 335.752 242.25 337.404
 244.285 337.404 c 246.324 337.404 247.973 335.752 247.973 333.716 c h
247.973 333.716 m f
183.227 394.205 m 183.227 393.263 182.461 392.498 181.516 392.498 c 180.574
 392.498 179.809 393.263 179.809 394.205 c 179.809 395.15 180.574 395.912
 181.516 395.912 c 182.461 395.912 183.227 395.15 183.227 394.205 c h
183.227 394.205 m f
217.883 376.314 m 217.883 374.587 216.484 373.189 214.758 373.189 c 213.031
 373.189 211.633 374.587 211.633 376.314 c 211.633 378.041 213.031 379.439
 214.758 379.439 c 216.484 379.439 217.883 378.041 217.883 376.314 c h
217.883 376.314 m f
179.246 359.271 m 179.246 357.861 178.105 356.716 176.695 356.716 c 175.285
 356.716 174.145 357.861 174.145 359.271 c 174.145 360.677 175.285 361.822
 176.695 361.822 c 178.105 361.822 179.246 360.677 179.246 359.271 c h
179.246 359.271 m f
0.243137 0.576471 0.0666667 rg
174.359 147.455 m 174.359 143.705 171.316 140.662 167.566 140.662 c 163.812
 140.662 160.773 143.705 160.773 147.455 c 160.773 151.209 163.812 154.248
 167.566 154.248 c 171.316 154.248 174.359 151.209 174.359 147.455 c h
174.359 147.455 m f
Q Q
showpage
%%Trailer
end restore
%%EOF
