%!PS-Adobe-3.0 EPSF-3.0
%%Creator: cairo 1.14.2 (http://cairographics.org)
%%CreationDate: Thu Aug  4 10:31:20 2016
%%Pages: 1
%%DocumentData: Clean7Bit
%%LanguageLevel: 2
%%BoundingBox: 0 -1 297 394
%%EndComments
%%BeginProlog
save
50 dict begin
/q { gsave } bind def
/Q { grestore } bind def
/cm { 6 array astore concat } bind def
/w { setlinewidth } bind def
/J { setlinecap } bind def
/j { setlinejoin } bind def
/M { setmiterlimit } bind def
/d { setdash } bind def
/m { moveto } bind def
/l { lineto } bind def
/c { curveto } bind def
/h { closepath } bind def
/re { exch dup neg 3 1 roll 5 3 roll moveto 0 rlineto
      0 exch rlineto 0 rlineto closepath } bind def
/S { stroke } bind def
/f { fill } bind def
/f* { eofill } bind def
/n { newpath } bind def
/W { clip } bind def
/W* { eoclip } bind def
/BT { } bind def
/ET { } bind def
/pdfmark where { pop globaldict /?pdfmark /exec load put }
    { globaldict begin /?pdfmark /pop load def /pdfmark
    /cleartomark load def end } ifelse
/BDC { mark 3 1 roll /BDC pdfmark } bind def
/EMC { mark /EMC pdfmark } bind def
/cairo_store_point { /cairo_point_y exch def /cairo_point_x exch def } def
/Tj { show currentpoint cairo_store_point } bind def
/TJ {
  {
    dup
    type /stringtype eq
    { show } { -0.001 mul 0 cairo_font_matrix dtransform rmoveto } ifelse
  } forall
  currentpoint cairo_store_point
} bind def
/cairo_selectfont { cairo_font_matrix aload pop pop pop 0 0 6 array astore
    cairo_font exch selectfont cairo_point_x cairo_point_y moveto } bind def
/Tf { pop /cairo_font exch def /cairo_font_matrix where
      { pop cairo_selectfont } if } bind def
/Td { matrix translate cairo_font_matrix matrix concatmatrix dup
      /cairo_font_matrix exch def dup 4 get exch 5 get cairo_store_point
      /cairo_font where { pop cairo_selectfont } if } bind def
/Tm { 2 copy 8 2 roll 6 array astore /cairo_font_matrix exch def
      cairo_store_point /cairo_font where { pop cairo_selectfont } if } bind def
/g { setgray } bind def
/rg { setrgbcolor } bind def
/d1 { setcachedevice } bind def
%%EndProlog
%%BeginSetup
%%EndSetup
%%Page: 1 1
%%BeginPageSetup
%%PageBoundingBox: 0 -1 297 394
%%EndPageSetup
q 0 -1 297 395 rectclip q
0.462745 0.6 0.607843 rg
277.797 254.022 m 258.59 254.022 l 258.59 357.178 l 258.59 361.615 254.961
 365.244 250.504 365.244 c 45.668 365.244 l 41.207 365.244 37.582 361.615
 37.582 357.178 c 37.582 254.022 l 18.375 254.022 l 18.375 357.178 l 18.375
 372.213 30.621 384.463 45.668 384.463 c 250.504 384.463 l 265.555 384.463
 277.797 372.213 277.797 357.178 c h
277.797 254.022 m f
0.364706 0.486275 0.486275 rg
45.668 365.244 m 30.621 365.244 18.375 353.006 18.375 337.959 c 18.375 
254.022 l 37.582 254.022 l 37.582 357.178 l 37.582 361.615 41.207 365.244
 45.668 365.244 c h
45.668 365.244 m f
250.504 365.244 m 254.961 365.244 258.59 361.615 258.59 357.178 c 258.59
 254.022 l 277.797 254.022 l 277.797 337.959 l 277.797 353.006 265.555 365.244
 250.504 365.244 c h
250.504 365.244 m f
0.54902 0.686275 0.686275 rg
242.992 24.072 m 242.992 10.783 232.223 0.006 218.93 0.006 c 85.262 0.006
 l 71.977 0.006 61.207 10.783 61.207 24.072 c 13.082 251.311 l 13.082 264.608
 23.852 275.358 37.148 275.358 c 259.023 275.358 l 272.32 275.358 283.086
 264.608 283.086 251.311 c h
242.992 24.072 m f
0.462745 0.6 0.607843 rg
13.082 251.307 m 13.082 264.6 23.852 275.354 37.148 275.354 c 259.023 275.354
 l 272.32 275.354 283.082 264.6 283.082 251.307 c 242.992 24.065 l 242.992
 10.776 232.223 -0.002 218.926 -0.002 c f
0.329412 0.447059 0.447059 rg
266.875 271.088 m 266.875 263.572 213.691 257.483 148.086 257.483 c 82.48
 257.483 29.297 263.572 29.297 271.088 c 29.297 278.6 82.48 284.69 148.086
 284.69 c 213.691 284.69 266.875 278.6 266.875 271.088 c h
266.875 271.088 m f
0.247059 0.337255 0.333333 rg
266.883 271.088 m 266.883 263.569 213.699 257.483 148.086 257.483 c 82.473
 257.483 29.297 263.569 29.297 271.088 c f
0.615686 0.756863 0.752941 rg
32.023 260.412 m 32.023 251.569 24.855 244.401 16.012 244.401 c 7.168 244.401
 0 251.569 0 260.412 c 0 269.256 7.168 276.424 16.012 276.424 c 24.855 276.424
 32.023 269.256 32.023 260.412 c h
32.023 260.412 m f
0.54902 0.686275 0.686275 rg
27.336 271.736 m 33.586 265.483 33.586 255.346 27.336 249.092 c 21.086 
242.842 10.938 242.842 4.695 249.08 c f
0.615686 0.756863 0.752941 rg
296.172 260.412 m 296.172 251.572 289.008 244.404 280.168 244.404 c 271.328
 244.404 264.16 251.572 264.16 260.412 c 264.16 269.252 271.328 276.416 
280.168 276.416 c 289.008 276.416 296.172 269.252 296.172 260.412 c h
296.172 260.412 m f
0.54902 0.686275 0.686275 rg
291.492 271.736 m 297.734 265.483 297.734 255.346 291.492 249.092 c 285.234
 242.842 275.082 242.842 268.836 249.08 c f
1 0.427451 0 rg
197.195 361.244 m 197.195 358.451 194.938 356.194 192.148 356.194 c 104.008
 356.194 l 101.227 356.194 98.973 358.444 98.973 361.244 c 98.973 388.51
 l 98.973 391.315 101.223 393.557 104.008 393.557 c 192.148 393.557 l 194.934
 393.557 197.195 391.319 197.195 388.51 c h
197.195 361.244 m f
1 0.545098 0 rg
192.152 393.557 m 104.008 393.557 l 101.227 393.557 98.973 391.319 98.973
 388.51 c 98.973 380.986 l 98.973 378.201 101.223 375.94 104.008 375.94 
c 192.148 375.94 l 194.934 375.94 197.195 378.194 197.195 380.986 c 197.195
 388.51 l 197.195 391.315 194.938 393.557 192.152 393.557 c h
192.152 393.557 m f
0.54902 0.686275 0.686275 rg
87.227 210.83 m 87.227 208.178 85.074 206.029 82.426 206.029 c 79.773 206.029
 77.621 208.178 77.621 210.83 c 77.621 213.483 79.773 215.631 82.426 215.631
 c 85.074 215.631 87.227 213.483 87.227 210.83 c h
87.227 210.83 m f
120.059 210.83 m 120.059 208.178 117.906 206.029 115.254 206.029 c 112.602
 206.029 110.453 208.178 110.453 210.83 c 110.453 213.483 112.602 215.631
 115.254 215.631 c 117.906 215.631 120.059 213.483 120.059 210.83 c h
120.059 210.83 m f
152.895 210.83 m 152.895 208.174 150.742 206.022 148.086 206.022 c 145.43
 206.022 143.277 208.174 143.277 210.83 c 143.277 213.486 145.43 215.639
 148.086 215.639 c 150.742 215.639 152.895 213.486 152.895 210.83 c h
152.895 210.83 m f
185.699 210.83 m 185.699 208.178 183.551 206.029 180.898 206.029 c 178.246
 206.029 176.098 208.178 176.098 210.83 c 176.098 213.483 178.246 215.631
 180.898 215.631 c 183.551 215.631 185.699 213.483 185.699 210.83 c h
185.699 210.83 m f
218.523 210.83 m 218.523 208.178 216.375 206.029 213.723 206.029 c 211.07
 206.029 208.922 208.178 208.922 210.83 c 208.922 213.483 211.07 215.631
 213.723 215.631 c 216.375 215.631 218.523 213.483 218.523 210.83 c h
218.523 210.83 m f
Q Q
showpage
%%Trailer
end restore
%%EOF
