%!PS-Adobe-3.0 EPSF-3.0
%%Creator: cairo 1.14.2 (http://cairographics.org)
%%CreationDate: Thu Aug  4 10:31:28 2016
%%Pages: 1
%%DocumentData: Clean7Bit
%%LanguageLevel: 2
%%BoundingBox: 0 -1 127 404
%%EndComments
%%BeginProlog
save
50 dict begin
/q { gsave } bind def
/Q { grestore } bind def
/cm { 6 array astore concat } bind def
/w { setlinewidth } bind def
/J { setlinecap } bind def
/j { setlinejoin } bind def
/M { setmiterlimit } bind def
/d { setdash } bind def
/m { moveto } bind def
/l { lineto } bind def
/c { curveto } bind def
/h { closepath } bind def
/re { exch dup neg 3 1 roll 5 3 roll moveto 0 rlineto
      0 exch rlineto 0 rlineto closepath } bind def
/S { stroke } bind def
/f { fill } bind def
/f* { eofill } bind def
/n { newpath } bind def
/W { clip } bind def
/W* { eoclip } bind def
/BT { } bind def
/ET { } bind def
/pdfmark where { pop globaldict /?pdfmark /exec load put }
    { globaldict begin /?pdfmark /pop load def /pdfmark
    /cleartomark load def end } ifelse
/BDC { mark 3 1 roll /BDC pdfmark } bind def
/EMC { mark /EMC pdfmark } bind def
/cairo_store_point { /cairo_point_y exch def /cairo_point_x exch def } def
/Tj { show currentpoint cairo_store_point } bind def
/TJ {
  {
    dup
    type /stringtype eq
    { show } { -0.001 mul 0 cairo_font_matrix dtransform rmoveto } ifelse
  } forall
  currentpoint cairo_store_point
} bind def
/cairo_selectfont { cairo_font_matrix aload pop pop pop 0 0 6 array astore
    cairo_font exch selectfont cairo_point_x cairo_point_y moveto } bind def
/Tf { pop /cairo_font exch def /cairo_font_matrix where
      { pop cairo_selectfont } if } bind def
/Td { matrix translate cairo_font_matrix matrix concatmatrix dup
      /cairo_font_matrix exch def dup 4 get exch 5 get cairo_store_point
      /cairo_font where { pop cairo_selectfont } if } bind def
/Tm { 2 copy 8 2 roll 6 array astore /cairo_font_matrix exch def
      cairo_store_point /cairo_font where { pop cairo_selectfont } if } bind def
/g { setgray } bind def
/rg { setrgbcolor } bind def
/d1 { setcachedevice } bind def
%%EndProlog
%%BeginSetup
%%EndSetup
%%Page: 1 1
%%BeginPageSetup
%%PageBoundingBox: 0 -1 127 404
%%EndPageSetup
q 0 -1 127 405 rectclip q
1 0.52549 0.0509804 rg
126.672 279.33 m 126.672 244.349 98.316 0.002 63.336 0.002 c 28.355 0.002
 0 244.349 0 279.33 c 0 314.306 28.355 329.669 63.336 329.669 c 98.316 329.669
 126.672 314.306 126.672 279.33 c h
126.672 279.33 m f
0.898039 0.380392 0.027451 rg
99.066 279.33 m 99.066 244.349 83.066 0.002 63.336 0.002 c 43.609 0.002
 27.609 244.349 27.609 279.33 c 27.609 314.306 43.609 329.669 63.336 329.669
 c 83.066 329.669 99.066 314.306 99.066 279.33 c h
99.066 279.33 m f
39.258 281.22 m 39.258 279.279 37.684 277.697 35.73 277.697 c 21.129 277.697
 l 19.184 277.697 17.602 279.279 17.602 281.22 c 17.602 283.166 19.184 284.74
 21.129 284.74 c 35.73 284.74 l 37.684 284.74 39.258 283.166 39.258 281.22
 c h
39.258 281.22 m f
1 0.52549 0.0509804 rg
58.195 257.947 m 58.195 256.002 56.625 254.423 54.672 254.423 c 40.07 254.423
 l 38.117 254.423 36.543 256.002 36.543 257.947 c 36.543 259.888 38.117 
261.47 40.07 261.47 c 54.672 261.47 l 56.625 261.462 58.195 259.88 58.195
 257.947 c h
58.195 257.947 m f
0.898039 0.380392 0.027451 rg
39.258 230.064 m 39.258 228.123 37.684 226.541 35.73 226.541 c 21.129 226.541
 l 19.184 226.541 17.602 228.123 17.602 230.064 c 17.602 232.009 19.184 
233.587 21.129 233.587 c 35.73 233.587 l 37.684 233.58 39.258 232.005 39.258
 230.064 c h
39.258 230.064 m f
1 0.52549 0.0509804 rg
58.195 206.787 m 58.195 204.845 56.625 203.267 54.672 203.267 c 40.07 203.267
 l 38.117 203.267 36.543 204.845 36.543 206.787 c 36.543 208.724 38.117 
210.306 40.07 210.306 c 54.672 210.306 l 56.625 210.306 58.195 208.724 58.195
 206.787 c h
58.195 206.787 m f
0.898039 0.380392 0.027451 rg
39.258 178.908 m 39.258 176.974 37.684 175.384 35.73 175.384 c 21.129 175.384
 l 19.184 175.384 17.602 176.974 17.602 178.908 c 17.602 180.853 19.184 
182.431 21.129 182.431 c 35.73 182.431 l 37.684 182.423 39.258 180.849 39.258
 178.908 c h
39.258 178.908 m f
1 0.52549 0.0509804 rg
58.195 155.63 m 58.195 153.693 56.625 152.107 54.672 152.107 c 40.07 152.107
 l 38.117 152.107 36.543 153.693 36.543 155.63 c 36.543 157.576 38.117 159.15
 40.07 159.15 c 54.672 159.15 l 56.625 159.15 58.195 157.576 58.195 155.63
 c h
58.195 155.63 m f
0.898039 0.380392 0.027451 rg
46.398 123.837 m 46.398 122.13 45.012 120.736 43.297 120.736 c 30.438 120.736
 l 28.734 120.736 27.344 122.13 27.344 123.837 c 27.344 125.544 28.742 126.939
 30.438 126.939 c 43.297 126.939 l 45.02 126.943 46.398 125.552 46.398 123.837
 c h
46.398 123.837 m f
1 0.52549 0.0509804 rg
48.863 103.357 m 48.863 101.658 47.477 100.271 45.77 100.271 c 32.898 100.271
 l 31.199 100.271 29.805 101.662 29.805 103.357 c 29.805 105.064 31.203 
106.459 32.898 106.459 c 45.77 106.459 l 47.477 106.466 48.863 105.072 48.863
 103.357 c h
48.863 103.357 m f
0.898039 0.380392 0.027451 rg
48.062 73.654 m 48.062 72.271 46.953 71.158 45.574 71.158 c 35.238 71.158
 l 33.871 71.158 32.75 72.279 32.75 73.654 c 32.75 75.021 33.871 76.142 
35.238 76.142 c 45.574 76.142 l 46.953 76.134 48.062 75.013 48.062 73.654
 c h
48.062 73.654 m f
1 0.52549 0.0509804 rg
61.445 57.193 m 61.445 55.826 60.336 54.705 58.957 54.705 c 48.625 54.705
 l 47.258 54.705 46.133 55.826 46.133 57.193 c 46.133 58.572 47.258 59.681
 48.625 59.681 c 58.957 59.681 l 60.336 59.681 61.445 58.572 61.445 57.193
 c h
61.445 57.193 m f
0.898039 0.380392 0.027451 rg
87.41 281.22 m 87.41 279.279 88.984 277.697 90.945 277.697 c 105.543 277.697
 l 107.492 277.697 109.074 279.279 109.074 281.22 c 109.074 283.166 107.492
 284.74 105.543 284.74 c 90.945 284.74 l 88.984 284.74 87.41 283.166 87.41
 281.22 c h
87.41 281.22 m f
1 0.52549 0.0509804 rg
68.473 257.947 m 68.473 256.002 70.047 254.423 72 254.423 c 86.602 254.423
 l 88.551 254.423 90.133 256.002 90.133 257.947 c 90.133 259.888 88.551 
261.47 86.602 261.47 c 72 261.47 l 70.047 261.462 68.473 259.88 68.473 257.947
 c h
68.473 257.947 m f
0.898039 0.380392 0.027451 rg
87.41 230.064 m 87.41 228.123 88.984 226.541 90.945 226.541 c 105.543 226.541
 l 107.492 226.541 109.074 228.123 109.074 230.064 c 109.074 232.009 107.492
 233.587 105.543 233.587 c 90.945 233.587 l 88.984 233.58 87.41 232.005 
87.41 230.064 c h
87.41 230.064 m f
1 0.52549 0.0509804 rg
68.473 206.787 m 68.473 204.845 70.047 203.267 72 203.267 c 86.602 203.267
 l 88.551 203.267 90.133 204.845 90.133 206.787 c 90.133 208.724 88.551 
210.306 86.602 210.306 c 72 210.306 l 70.047 210.306 68.473 208.724 68.473
 206.787 c h
68.473 206.787 m f
0.898039 0.380392 0.027451 rg
87.41 178.908 m 87.41 176.974 88.984 175.384 90.945 175.384 c 105.543 175.384
 l 107.492 175.384 109.074 176.974 109.074 178.908 c 109.074 180.853 107.492
 182.431 105.543 182.431 c 90.945 182.431 l 88.984 182.423 87.41 180.849
 87.41 178.908 c h
87.41 178.908 m f
1 0.52549 0.0509804 rg
68.473 155.63 m 68.473 153.693 70.047 152.107 72 152.107 c 86.602 152.107
 l 88.551 152.107 90.133 153.693 90.133 155.63 c 90.133 157.576 88.551 159.15
 86.602 159.15 c 72 159.15 l 70.047 159.15 68.473 157.576 68.473 155.63 
c h
68.473 155.63 m f
0.898039 0.380392 0.027451 rg
80.277 123.837 m 80.277 122.13 81.664 120.736 83.371 120.736 c 96.238 120.736
 l 97.941 120.736 99.332 122.13 99.332 123.837 c 99.332 125.544 97.934 126.939
 96.238 126.939 c 83.371 126.939 l 81.656 126.943 80.277 125.552 80.277 
123.837 c h
80.277 123.837 m f
1 0.52549 0.0509804 rg
76.598 103.357 m 76.598 101.658 77.98 100.271 79.695 100.271 c 92.559 100.271
 l 94.258 100.271 95.652 101.662 95.652 103.357 c 95.652 105.064 94.254 
106.459 92.559 106.459 c 79.695 106.459 l 77.977 106.466 76.598 105.072 
76.598 103.357 c h
76.598 103.357 m f
0.898039 0.380392 0.027451 rg
78.613 73.654 m 78.613 72.271 79.723 71.158 81.102 71.158 c 91.434 71.158
 l 92.801 71.158 93.918 72.279 93.918 73.654 c 93.918 75.021 92.805 76.142
 91.434 76.142 c 81.102 76.142 l 79.723 76.134 78.613 75.013 78.613 73.654
 c h
78.613 73.654 m f
1 0.52549 0.0509804 rg
65.223 57.193 m 65.223 55.826 66.336 54.705 67.719 54.705 c 78.051 54.705
 l 79.418 54.705 80.539 55.826 80.539 57.193 c 80.539 58.572 79.418 59.681
 78.051 59.681 c 67.719 59.681 l 66.336 59.681 65.223 58.572 65.223 57.193
 c h
65.223 57.193 m f
1 0.686275 0.0627451 rg
117.555 308.416 m 106.473 322.959 86.375 329.669 63.336 329.669 c 40.301
 329.669 20.203 322.959 9.121 308.416 c 12.32 295.857 35.348 299.728 63.336
 299.728 c 91.316 299.728 114.355 295.857 117.555 308.416 c h
117.555 308.416 m f
1 0.52549 0.0509804 rg
63.336 299.728 m 76.016 299.728 87.641 298.939 96.906 299.236 c 91.941 
320.169 78.797 329.673 63.336 329.673 c 47.875 329.673 34.734 320.169 29.77
 299.236 c 39.031 298.939 50.66 299.728 63.336 299.728 c h
63.336 299.728 m f
0.407843 0.678431 0.152941 rg
33.441 377.013 m 36.555 372.642 68.504 320.252 64.133 317.13 c 59.758 314.013
 20.688 361.337 17.562 365.709 c 14.445 370.087 15.457 376.177 19.844 379.294
 c 24.23 382.423 30.316 381.396 33.441 377.013 c h
33.441 377.013 m f
0.360784 0.529412 0.160784 rg
26.711 354.443 m 29.953 351.935 64.691 320.716 62.184 317.49 c 59.676 314.252
 20.832 340.22 17.605 342.736 c 14.375 345.248 13.781 349.904 16.301 353.146
 c 18.797 356.377 23.473 356.959 26.711 354.443 c h
26.711 354.443 m f
0.498039 0.8 0.180392 rg
51.461 382.716 m 53.188 377.619 68.645 318.24 63.539 316.513 c 58.441 314.794
 34.73 371.388 32.996 376.486 c 31.281 381.576 34.012 387.111 39.113 388.837
 c 44.207 390.556 49.746 387.822 51.461 382.716 c h
51.461 382.716 m f
0.407843 0.678431 0.152941 rg
93.23 377.013 m 90.113 372.642 58.164 320.252 62.543 317.13 c 66.918 314.013
 105.984 361.337 109.109 365.709 c 112.23 370.087 111.211 376.177 106.836
 379.294 c 102.445 382.423 96.359 381.396 93.23 377.013 c h
93.23 377.013 m f
0.360784 0.529412 0.160784 rg
99.961 354.443 m 96.723 351.935 61.977 320.716 64.492 317.49 c 67 314.252
 105.84 340.22 109.066 342.736 c 112.293 345.248 112.887 349.904 110.371
 353.146 c 107.871 356.377 103.199 356.959 99.961 354.443 c h
99.961 354.443 m f
0.498039 0.8 0.180392 rg
75.215 382.716 m 73.496 377.619 58.031 318.24 63.129 316.513 c 68.238 314.794
 91.945 371.388 93.68 376.486 c 95.387 381.576 92.66 387.111 87.562 388.837
 c 82.469 390.556 76.93 387.822 75.215 382.716 c h
75.215 382.716 m f
0.360784 0.529412 0.160784 rg
73.891 392.744 m 73.891 386.908 69.164 316.142 63.336 316.142 c 57.508 
316.142 52.781 386.908 52.781 392.744 c 52.781 398.572 57.508 403.298 63.336
 403.298 c 69.168 403.298 73.891 398.572 73.891 392.744 c h
73.891 392.744 m f
0.498039 0.8 0.180392 rg
10.02 364.99 m 10.02 363.572 8.867 362.419 7.449 362.419 c 6.027 362.419
 4.879 363.572 4.879 364.99 c 4.879 366.412 6.027 367.564 7.449 367.564 
c 8.867 367.564 10.02 366.412 10.02 364.99 c h
10.02 364.99 m f
115.188 329.666 m 115.188 328.244 114.035 327.095 112.613 327.095 c 111.195
 327.095 110.043 328.244 110.043 329.666 c 110.043 331.084 111.195 332.236
 112.613 332.236 c 114.035 332.236 115.188 331.084 115.188 329.666 c h
115.188 329.666 m f
8.926 355.912 m 8.926 355.162 8.316 354.556 7.57 354.556 c 6.82 354.556
 6.215 355.162 6.215 355.912 c 6.215 356.658 6.82 357.267 7.57 357.267 c
 8.316 357.267 8.926 356.658 8.926 355.912 c h
8.926 355.912 m f
113.41 360.525 m 113.41 359.771 112.801 359.162 112.047 359.162 c 111.297
 359.162 110.688 359.771 110.688 360.525 c 110.688 361.275 111.297 361.884
 112.047 361.884 c 112.801 361.884 113.41 361.275 113.41 360.525 c h
113.41 360.525 m f
29.77 394.634 m 29.77 391.943 27.586 389.763 24.898 389.763 c 22.207 389.763
 20.027 391.943 20.027 394.634 c 20.027 397.326 22.207 399.505 24.898 399.505
 c 27.586 399.505 29.77 397.326 29.77 394.634 c h
29.77 394.634 m f
0.360784 0.529412 0.160784 rg
23.277 329.943 m 23.277 328.56 22.16 327.439 20.777 327.439 c 19.395 327.439
 18.273 328.56 18.273 329.943 c 18.273 331.326 19.395 332.443 20.777 332.443
 c 22.16 332.443 23.277 331.326 23.277 329.943 c h
23.277 329.943 m f
105.148 389.9 m 105.148 387.736 103.391 385.982 101.227 385.982 c 99.062
 385.982 97.309 387.736 97.309 389.9 c 97.309 392.068 99.062 393.822 101.227
 393.822 c 103.391 393.822 105.148 392.068 105.148 389.9 c h
105.148 389.9 m f
Q Q
showpage
%%Trailer
end restore
%%EOF
