%!PS-Adobe-3.0 EPSF-3.0
%%Creator: cairo 1.14.2 (http://cairographics.org)
%%CreationDate: Thu Aug  4 10:31:36 2016
%%Pages: 1
%%DocumentData: Clean7Bit
%%LanguageLevel: 2
%%BoundingBox: 0 -1 404 302
%%EndComments
%%BeginProlog
save
50 dict begin
/q { gsave } bind def
/Q { grestore } bind def
/cm { 6 array astore concat } bind def
/w { setlinewidth } bind def
/J { setlinecap } bind def
/j { setlinejoin } bind def
/M { setmiterlimit } bind def
/d { setdash } bind def
/m { moveto } bind def
/l { lineto } bind def
/c { curveto } bind def
/h { closepath } bind def
/re { exch dup neg 3 1 roll 5 3 roll moveto 0 rlineto
      0 exch rlineto 0 rlineto closepath } bind def
/S { stroke } bind def
/f { fill } bind def
/f* { eofill } bind def
/n { newpath } bind def
/W { clip } bind def
/W* { eoclip } bind def
/BT { } bind def
/ET { } bind def
/pdfmark where { pop globaldict /?pdfmark /exec load put }
    { globaldict begin /?pdfmark /pop load def /pdfmark
    /cleartomark load def end } ifelse
/BDC { mark 3 1 roll /BDC pdfmark } bind def
/EMC { mark /EMC pdfmark } bind def
/cairo_store_point { /cairo_point_y exch def /cairo_point_x exch def } def
/Tj { show currentpoint cairo_store_point } bind def
/TJ {
  {
    dup
    type /stringtype eq
    { show } { -0.001 mul 0 cairo_font_matrix dtransform rmoveto } ifelse
  } forall
  currentpoint cairo_store_point
} bind def
/cairo_selectfont { cairo_font_matrix aload pop pop pop 0 0 6 array astore
    cairo_font exch selectfont cairo_point_x cairo_point_y moveto } bind def
/Tf { pop /cairo_font exch def /cairo_font_matrix where
      { pop cairo_selectfont } if } bind def
/Td { matrix translate cairo_font_matrix matrix concatmatrix dup
      /cairo_font_matrix exch def dup 4 get exch 5 get cairo_store_point
      /cairo_font where { pop cairo_selectfont } if } bind def
/Tm { 2 copy 8 2 roll 6 array astore /cairo_font_matrix exch def
      cairo_store_point /cairo_font where { pop cairo_selectfont } if } bind def
/g { setgray } bind def
/rg { setrgbcolor } bind def
/d1 { setcachedevice } bind def
%%EndProlog
%%BeginSetup
%%EndSetup
%%Page: 1 1
%%BeginPageSetup
%%PageBoundingBox: 0 -1 404 302
%%EndPageSetup
q 0 -1 404 303 rectclip q
0.866667 0.141176 0.470588 rg
296.383 66.417 m 296.383 49.151 253.406 35.155 200.391 35.155 c 147.375
 35.155 104.398 49.151 104.398 66.417 c 104.398 83.682 147.375 97.678 200.391
 97.678 c 253.406 97.678 296.383 83.682 296.383 66.417 c h
296.383 66.417 m f
0.709804 0.0627451 0.388235 rg
260.387 66.417 m 260.387 49.151 233.527 35.155 200.391 35.155 c 167.258
 35.155 140.395 49.151 140.395 66.417 c 140.395 83.682 167.258 97.678 200.391
 97.678 c 233.527 97.678 260.387 83.682 260.387 66.417 c h
260.387 66.417 m f
0.0313726 0.156863 0.337255 rg
122.398 259.885 m 137.633 236.358 118.168 224.585 94.625 209.342 c 71.082
 194.1 52.383 181.155 37.145 204.694 c 21.887 228.229 14.051 282.163 37.598
 297.413 c 61.145 312.663 107.141 283.444 122.398 259.885 c h
122.398 259.885 m f
0.866667 0.141176 0.470588 rg
101.551 247.518 m 116.789 223.987 118.168 224.585 94.621 209.338 c 71.07
 194.088 52.375 181.151 37.137 204.686 c 21.887 228.229 14.051 282.163 37.598
 297.413 c 61.145 312.663 86.301 271.073 101.551 247.518 c h
101.551 247.518 m f
0.709804 0.0627451 0.388235 rg
37.598 297.413 m 61.145 312.663 86.301 271.073 101.551 247.518 c 116.789
 223.987 118.168 224.585 94.621 209.338 c f
0.0313726 0.156863 0.337255 rg
278.398 259.885 m 263.16 236.358 282.625 224.585 306.168 209.342 c 329.711
 194.1 348.414 181.155 363.652 204.694 c 378.906 228.233 386.742 282.171
 363.191 297.421 c 339.645 312.671 293.648 283.444 278.398 259.885 c h
278.398 259.885 m f
0.866667 0.141176 0.470588 rg
299.238 247.518 m 284 223.987 282.621 224.585 306.168 209.338 c 329.719
 194.088 348.414 181.151 363.652 204.686 c 378.906 228.229 386.742 282.163
 363.191 297.413 c 339.645 312.663 314.488 271.073 299.238 247.518 c h
299.238 247.518 m f
0.709804 0.0627451 0.388235 rg
363.191 297.413 m 339.645 312.663 314.488 271.073 299.242 247.518 c 284.008
 223.987 282.629 224.585 306.176 209.338 c f
0.0313726 0.156863 0.337255 rg
386.793 151.796 m 386.793 75.983 303.34 54.702 200.398 54.702 c 97.457 
54.702 14.004 75.983 14.004 151.796 c 14.004 227.624 97.457 289.088 200.398
 289.088 c 303.34 289.088 386.793 227.624 386.793 151.796 c h
386.793 151.796 m f
0 g
386.793 151.796 m 386.793 75.983 303.34 54.702 200.398 54.702 c 97.457 
54.702 14.004 75.983 14.004 151.796 c 14.004 227.624 97.457 186.405 200.398
 186.405 c 303.34 186.405 386.793 227.624 386.793 151.796 c h
386.793 151.796 m f
0.992157 0.996078 1 rg
143.469 166.323 m 143.469 157.077 135.973 149.581 126.727 149.581 c 117.48
 149.581 109.984 157.077 109.984 166.323 c 109.984 175.569 117.48 183.065
 126.727 183.065 c 135.973 183.065 143.469 175.569 143.469 166.323 c h
143.469 166.323 m f
290.805 166.323 m 290.805 157.077 283.309 149.581 274.062 149.581 c 264.816
 149.581 257.32 157.077 257.32 166.323 c 257.32 175.569 264.816 183.065 
274.062 183.065 c 283.309 183.065 290.805 175.569 290.805 166.323 c h
290.805 166.323 m f
0.866667 0.141176 0.470588 rg
224.664 128.647 m 224.664 123.549 214.363 111.909 201.652 111.909 c 188.941
 111.909 178.633 123.553 178.633 128.647 c 178.633 133.733 188.941 137.85
 201.652 137.85 c 214.359 137.85 224.664 133.729 224.664 128.647 c h
224.664 128.647 m f
0.709804 0.0627451 0.388235 rg
224.664 128.647 m 224.664 123.549 214.363 111.909 201.652 111.909 c 188.941
 111.909 178.633 123.553 178.633 128.647 c 178.633 133.733 188.941 126.971
 201.652 126.971 c 214.359 126.971 224.664 133.729 224.664 128.647 c h
224.664 128.647 m f
0.0313726 0.156863 0.337255 rg
63.434 124.342 m 63.863 122.963 63.082 121.475 61.684 121.046 c 11.812 
105.694 l 10.395 105.253 8.93 106.042 8.504 107.428 c 8.074 108.835 8.844
 110.307 10.254 110.737 c 60.125 126.1 l 61.531 126.534 63.004 125.745 63.434
 124.342 c h
63.434 124.342 m f
57.422 140.835 m 57.367 139.381 56.129 138.26 54.664 138.327 c 2.535 140.635
 l 1.062 140.713 -0.059 141.94 0.004 143.389 c 0.066 144.85 1.301 145.987
 2.77 145.913 c 54.891 143.6 l 56.355 143.542 57.492 142.296 57.422 140.835
 c h
57.422 140.835 m f
73.152 108.909 m 73.793 107.85 73.453 106.483 72.395 105.835 c 34.535 82.983
 l 33.449 82.331 32.09 82.674 31.453 83.733 c 30.797 84.792 31.152 86.171
 32.215 86.807 c 70.07 109.651 l 71.141 110.307 72.516 109.967 73.152 108.909
 c h
73.152 108.909 m f
339.871 124.342 m 339.441 122.963 340.223 121.475 341.621 121.046 c 391.492
 105.694 l 392.91 105.253 394.367 106.042 394.805 107.428 c 395.223 108.835
 394.453 110.307 393.047 110.737 c 343.176 126.1 l 341.773 126.534 340.297
 125.745 339.871 124.342 c h
339.871 124.342 m f
345.875 140.835 m 345.938 139.381 347.172 138.26 348.637 138.327 c 400.762
 140.639 l 402.234 140.713 403.359 141.944 403.297 143.397 c 403.23 144.858
 401.996 145.995 400.527 145.917 c 348.41 143.604 l 346.945 143.542 345.812
 142.296 345.875 140.835 c h
345.875 140.835 m f
330.152 108.909 m 329.512 107.85 329.852 106.483 330.91 105.835 c 368.77
 82.991 l 369.852 82.335 371.215 82.682 371.852 83.741 c 372.504 84.799 
372.152 86.178 371.082 86.815 c 333.227 109.659 l 332.164 110.307 330.789
 109.967 330.152 108.909 c h
330.152 108.909 m f
0.878431 0.65098 0.141176 rg
228.332 27.628 m 228.332 12.37 215.965 -0.001 200.707 -0.001 c 185.449 
-0.001 173.082 12.37 173.082 27.628 c 173.082 42.881 185.449 55.253 200.707
 55.253 c 215.965 55.253 228.332 42.881 228.332 27.628 c h
228.332 27.628 m f
0.886275 0.509804 0.137255 rg
228.301 27.639 m 228.301 12.374 215.93 0.006 200.676 0.006 c 185.414 0.006
 173.051 12.374 173.051 27.639 c f
Q Q
showpage
%%Trailer
end restore
%%EOF
