%!PS-Adobe-3.0 EPSF-3.0
%%Creator: cairo 1.14.2 (http://cairographics.org)
%%CreationDate: Thu Aug  4 10:31:52 2016
%%Pages: 1
%%DocumentData: Clean7Bit
%%LanguageLevel: 2
%%BoundingBox: 0 -1 303 376
%%EndComments
%%BeginProlog
save
50 dict begin
/q { gsave } bind def
/Q { grestore } bind def
/cm { 6 array astore concat } bind def
/w { setlinewidth } bind def
/J { setlinecap } bind def
/j { setlinejoin } bind def
/M { setmiterlimit } bind def
/d { setdash } bind def
/m { moveto } bind def
/l { lineto } bind def
/c { curveto } bind def
/h { closepath } bind def
/re { exch dup neg 3 1 roll 5 3 roll moveto 0 rlineto
      0 exch rlineto 0 rlineto closepath } bind def
/S { stroke } bind def
/f { fill } bind def
/f* { eofill } bind def
/n { newpath } bind def
/W { clip } bind def
/W* { eoclip } bind def
/BT { } bind def
/ET { } bind def
/pdfmark where { pop globaldict /?pdfmark /exec load put }
    { globaldict begin /?pdfmark /pop load def /pdfmark
    /cleartomark load def end } ifelse
/BDC { mark 3 1 roll /BDC pdfmark } bind def
/EMC { mark /EMC pdfmark } bind def
/cairo_store_point { /cairo_point_y exch def /cairo_point_x exch def } def
/Tj { show currentpoint cairo_store_point } bind def
/TJ {
  {
    dup
    type /stringtype eq
    { show } { -0.001 mul 0 cairo_font_matrix dtransform rmoveto } ifelse
  } forall
  currentpoint cairo_store_point
} bind def
/cairo_selectfont { cairo_font_matrix aload pop pop pop 0 0 6 array astore
    cairo_font exch selectfont cairo_point_x cairo_point_y moveto } bind def
/Tf { pop /cairo_font exch def /cairo_font_matrix where
      { pop cairo_selectfont } if } bind def
/Td { matrix translate cairo_font_matrix matrix concatmatrix dup
      /cairo_font_matrix exch def dup 4 get exch 5 get cairo_store_point
      /cairo_font where { pop cairo_selectfont } if } bind def
/Tm { 2 copy 8 2 roll 6 array astore /cairo_font_matrix exch def
      cairo_store_point /cairo_font where { pop cairo_selectfont } if } bind def
/g { setgray } bind def
/rg { setrgbcolor } bind def
/d1 { setcachedevice } bind def
%%EndProlog
%%BeginSetup
%%EndSetup
%%Page: 1 1
%%BeginPageSetup
%%PageBoundingBox: 0 -1 303 376
%%EndPageSetup
q 0 -1 303 377 rectclip q
0.878431 0.607843 0 rg
302.473 131.87 m 302.473 64.898 234.77 43.312 151.238 43.312 c 67.703 43.312
 0 64.898 0 131.87 c 0 198.851 67.703 253.128 151.238 253.128 c 234.77 253.128
 302.473 198.843 302.473 131.87 c h
302.473 131.87 m f
0.937255 0.713726 0 rg
0 131.87 m 0 198.851 67.703 253.128 151.238 253.128 c f
0.858824 0.54902 0 rg
151.238 253.128 m 234.77 253.128 302.473 198.851 302.473 131.87 c 302.473
 64.898 234.77 43.312 151.238 43.312 c f
0.878431 0.607843 0 rg
151.238 253.128 m 234.77 253.128 302.473 198.851 302.473 131.87 c f
0.956863 0.760784 0.215686 rg
263.594 285.515 m 263.594 235.765 213.289 219.722 151.238 219.722 c 89.188
 219.722 38.879 235.765 38.879 285.515 c 38.879 335.261 89.188 375.597 151.238
 375.597 c 213.289 375.597 263.594 335.261 263.594 285.515 c h
263.594 285.515 m f
0.937255 0.713726 0 rg
263.594 285.515 m 263.594 235.765 213.289 219.722 151.238 219.722 c 89.188
 219.722 38.879 235.765 38.879 285.515 c 38.879 335.261 89.188 366.605 151.238
 366.605 c 213.289 366.605 263.594 335.261 263.594 285.515 c h
263.594 285.515 m f
0.929412 0.662745 0 rg
263.594 285.515 m 263.594 235.765 213.289 219.722 151.238 219.722 c 89.188
 219.722 38.879 235.765 38.879 285.515 c f
0.176471 0.14902 0.0705882 rg
113.555 313.64 m 113.555 306.862 108.059 301.366 101.277 301.366 c 94.5
 301.366 89.004 306.862 89.004 313.64 c 89.004 320.421 94.5 325.917 101.277
 325.917 c 108.059 325.917 113.555 320.421 113.555 313.64 c h
113.555 313.64 m f
0.266667 0.231373 0.137255 rg
89.004 313.64 m 89.004 312.398 89.242 311.222 89.594 310.093 c 90.723 309.745
 91.902 309.507 93.148 309.507 c 99.926 309.507 105.418 314.995 105.418 
321.773 c 105.418 323.03 105.172 324.202 104.828 325.335 c 103.699 325.683
 102.52 325.913 101.285 325.913 c 94.504 325.909 89.004 320.421 89.004 313.64
 c h
89.004 313.64 m f
0.176471 0.14902 0.0705882 rg
213.477 313.64 m 213.477 306.862 207.984 301.37 201.207 301.37 c 194.434
 301.37 188.938 306.862 188.938 313.64 c 188.938 320.417 194.434 325.909
 201.207 325.909 c 207.984 325.909 213.477 320.417 213.477 313.64 c h
213.477 313.64 m f
0.266667 0.231373 0.137255 rg
188.914 313.64 m 188.914 312.398 189.16 311.222 189.492 310.093 c 190.633
 309.745 191.812 309.507 193.047 309.507 c 199.824 309.507 205.316 314.995
 205.316 321.773 c 205.316 323.03 205.078 324.202 204.727 325.335 c 203.609
 325.683 202.43 325.913 201.184 325.913 c 194.402 325.909 188.914 320.421
 188.914 313.64 c h
188.914 313.64 m f
0.819608 0.329412 0 rg
177.434 294.03 m 153.207 311.155 l 152.023 312.003 150.449 312.003 149.258
 311.155 c 125.035 294.03 l 124.078 293.366 123.547 292.261 123.59 291.112
 c 123.629 289.952 124.254 288.894 125.25 288.288 c 149.473 273.737 l 150.008
 273.409 150.625 273.253 151.238 273.253 c 151.836 273.253 152.453 273.409
 153 273.737 c 177.227 288.288 l 178.223 288.894 178.832 289.952 178.883
 291.112 c 178.918 292.265 178.379 293.366 177.434 294.03 c h
177.434 294.03 m f
1 0.427451 0 rg
177.434 294.03 m 153.207 311.155 l 152.023 312.003 150.449 312.003 149.258
 311.155 c 125.035 294.03 l 124.078 293.366 123.547 292.261 123.59 291.112
 c 123.629 289.952 124.254 288.894 125.25 288.288 c 149.473 283.737 l 150.008
 283.405 150.625 283.241 151.238 283.241 c 151.836 283.241 152.453 283.398
 153 283.737 c 177.227 288.288 l 178.223 288.894 178.832 289.952 178.883
 291.112 c 178.918 292.265 178.379 293.366 177.434 294.03 c h
177.434 294.03 m f
0.858824 0.54902 0 rg
138.836 61.452 m 138.836 58.148 130.316 55.468 119.805 55.468 c 109.293
 55.468 100.773 58.148 100.773 61.452 c 100.773 64.761 109.293 67.441 119.805
 67.441 c 130.316 67.441 138.836 64.761 138.836 61.452 c h
138.836 61.452 m f
0.819608 0.329412 0 rg
129.18 26.73 m 129.18 21.066 125.402 16.46 119.734 16.46 c 114.059 16.46
 110.277 21.062 110.277 26.73 c 110.277 58.71 l 110.277 64.374 114.059 62.132
 119.734 62.132 c 125.398 62.132 129.18 64.374 129.18 58.71 c h
129.18 26.73 m f
83.754 -0.001 m 79.961 -0.001 76.902 3.245 76.902 7.038 c 76.902 18.003
 85.828 27.116 96.785 27.116 c 122.012 27.116 l 125.805 27.116 128.867 24.601
 128.867 20.816 c 128.867 17.034 125.797 14.511 122.012 14.511 c 96.785 
14.511 l 93.371 14.511 90.605 11.003 90.605 7.593 c 90.598 3.8 87.547 -0.001
 83.754 -0.001 c h
83.754 -0.001 m f
103.445 -0.001 m 99.664 -0.001 96.602 3.245 96.602 7.038 c 96.602 18.003
 105.527 27.116 116.492 27.116 c 134.797 27.116 l 138.578 27.116 141.645
 24.601 141.645 20.816 c 141.645 17.034 138.578 14.511 134.797 14.511 c 
116.492 14.511 l 113.074 14.511 110.309 11.003 110.309 7.593 c 110.301 3.8
 107.238 -0.001 103.445 -0.001 c h
103.445 -0.001 m f
0.878431 0.607843 0 rg
201.699 61.452 m 201.699 58.148 193.18 55.468 182.668 55.468 c 172.16 55.468
 163.637 58.148 163.637 61.452 c 163.637 64.761 172.16 67.441 182.668 67.441
 c 193.18 67.441 201.699 64.761 201.699 61.452 c h
201.699 61.452 m f
0.819608 0.329412 0 rg
173.293 26.73 m 173.293 21.066 177.074 16.46 182.738 16.46 c 188.414 16.46
 192.195 21.062 192.195 26.73 c 192.195 58.71 l 192.195 64.374 188.414 62.132
 182.738 62.132 c 177.074 62.14 173.293 64.382 173.293 58.718 c h
173.293 26.73 m f
218.719 -0.001 m 222.512 -0.001 225.57 3.245 225.57 7.038 c 225.57 18.003
 216.645 27.116 205.676 27.116 c 180.453 27.116 l 176.664 27.116 173.594
 24.601 173.594 20.816 c 173.594 17.034 176.664 14.511 180.453 14.511 c 
205.676 14.511 l 209.09 14.511 211.871 11.003 211.871 7.593 c 211.875 3.8
 214.926 -0.001 218.719 -0.001 c h
218.719 -0.001 m f
199.027 -0.001 m 202.809 -0.001 205.871 3.245 205.871 7.038 c 205.871 18.003
 196.949 27.116 185.973 27.116 c 167.676 27.116 l 163.898 27.116 160.828
 24.601 160.828 20.816 c 160.828 17.034 163.898 14.511 167.676 14.511 c 
185.973 14.511 l 189.387 14.511 192.164 11.003 192.164 7.593 c 192.172 3.8
 195.234 -0.001 199.027 -0.001 c h
199.027 -0.001 m f
Q Q
showpage
%%Trailer
end restore
%%EOF
