%!PS-Adobe-3.0 EPSF-3.0
%%Creator: cairo 1.14.2 (http://cairographics.org)
%%CreationDate: Thu Aug  4 10:34:09 2016
%%Pages: 1
%%DocumentData: Clean7Bit
%%LanguageLevel: 2
%%BoundingBox: 0 -1 300 395
%%EndComments
%%BeginProlog
save
50 dict begin
/q { gsave } bind def
/Q { grestore } bind def
/cm { 6 array astore concat } bind def
/w { setlinewidth } bind def
/J { setlinecap } bind def
/j { setlinejoin } bind def
/M { setmiterlimit } bind def
/d { setdash } bind def
/m { moveto } bind def
/l { lineto } bind def
/c { curveto } bind def
/h { closepath } bind def
/re { exch dup neg 3 1 roll 5 3 roll moveto 0 rlineto
      0 exch rlineto 0 rlineto closepath } bind def
/S { stroke } bind def
/f { fill } bind def
/f* { eofill } bind def
/n { newpath } bind def
/W { clip } bind def
/W* { eoclip } bind def
/BT { } bind def
/ET { } bind def
/pdfmark where { pop globaldict /?pdfmark /exec load put }
    { globaldict begin /?pdfmark /pop load def /pdfmark
    /cleartomark load def end } ifelse
/BDC { mark 3 1 roll /BDC pdfmark } bind def
/EMC { mark /EMC pdfmark } bind def
/cairo_store_point { /cairo_point_y exch def /cairo_point_x exch def } def
/Tj { show currentpoint cairo_store_point } bind def
/TJ {
  {
    dup
    type /stringtype eq
    { show } { -0.001 mul 0 cairo_font_matrix dtransform rmoveto } ifelse
  } forall
  currentpoint cairo_store_point
} bind def
/cairo_selectfont { cairo_font_matrix aload pop pop pop 0 0 6 array astore
    cairo_font exch selectfont cairo_point_x cairo_point_y moveto } bind def
/Tf { pop /cairo_font exch def /cairo_font_matrix where
      { pop cairo_selectfont } if } bind def
/Td { matrix translate cairo_font_matrix matrix concatmatrix dup
      /cairo_font_matrix exch def dup 4 get exch 5 get cairo_store_point
      /cairo_font where { pop cairo_selectfont } if } bind def
/Tm { 2 copy 8 2 roll 6 array astore /cairo_font_matrix exch def
      cairo_store_point /cairo_font where { pop cairo_selectfont } if } bind def
/g { setgray } bind def
/rg { setrgbcolor } bind def
/d1 { setcachedevice } bind def
%%EndProlog
%%BeginSetup
%%EndSetup
%%Page: 1 1
%%BeginPageSetup
%%PageBoundingBox: 0 -1 300 395
%%EndPageSetup
q 0 -1 300 396 rectclip q
0.878431 0.607843 0 rg
288.711 170.734 m 288.711 109.137 226.434 89.273 149.598 89.273 c 72.773
 89.273 10.496 109.129 10.496 170.734 c 10.496 232.336 72.777 282.258 149.598
 282.258 c 226.434 282.258 288.711 232.336 288.711 170.734 c h
288.711 170.734 m f
0.847059 0.568627 0.0117647 rg
288.711 170.734 m 288.711 201.266 273.387 228.91 248.613 249.055 c 234.277
 234.719 l 217.34 251.656 l 200.402 234.719 l 183.461 251.656 l 166.523 
234.719 l 149.598 251.652 l 132.66 234.711 l 115.723 251.652 l 98.781 234.711
 l 81.844 251.652 l 64.906 234.711 l 50.57 249.043 l 25.793 228.91 10.488
 201.258 10.488 170.727 c 10.488 109.129 72.766 89.266 149.586 89.266 c 
226.434 89.273 288.711 109.137 288.711 170.734 c h
288.711 170.734 m f
0.956863 0.760784 0.215686 rg
252.93 312.051 m 252.93 266.289 206.664 251.539 149.598 251.539 c 92.531
 251.539 46.266 266.289 46.266 312.051 c 46.266 357.812 92.523 394.898 149.598
 394.898 c 206.672 394.898 252.93 357.812 252.93 312.051 c h
252.93 312.051 m f
0.937255 0.713726 0 rg
252.93 312.051 m 252.93 266.289 206.664 251.539 149.598 251.539 c 92.531
 251.539 46.266 266.289 46.266 312.051 c 46.266 357.812 92.523 386.629 149.598
 386.629 c 206.672 386.629 252.93 357.812 252.93 312.051 c h
252.93 312.051 m f
0.929412 0.662745 0 rg
252.93 312.051 m 252.93 266.289 206.664 251.539 149.598 251.539 c 92.531
 251.539 46.266 266.289 46.266 312.051 c f
0.592157 0.658824 0.666667 rg
281.793 32.055 m 281.793 14.352 222.602 -0 149.59 -0 c 76.578 -0 17.391
 14.352 17.391 32.055 c 17.391 49.762 76.578 64.113 149.59 64.113 c 222.602
 64.113 281.793 49.762 281.793 32.055 c h
281.793 32.055 m f
0.682353 0.72549 0.729412 rg
281.797 32.055 m 281.797 14.344 222.605 -0 149.59 -0 c 76.574 -0 17.391
 14.348 17.391 32.055 c f
0.909804 0.698039 0.466667 rg
287.777 238.594 m 268.148 218.965 l 251.211 235.902 l 234.27 218.965 l 
217.332 235.902 l 200.395 218.965 l 183.457 235.902 l 166.52 218.965 l 149.598
 235.898 l 132.66 218.961 l 115.723 235.898 l 98.781 218.961 l 81.844 235.898
 l 64.906 218.961 l 47.969 235.898 l 31.027 218.961 l 11.398 238.582 l 4.062
 213.129 0 188.578 0 168.27 c 0 85.645 66.98 18.672 149.562 18.672 c 232.191
 18.672 299.145 85.645 299.145 168.27 c 299.172 188.586 295.113 213.137 
287.777 238.594 c h
287.777 238.594 m f
0.937255 0.74902 0.545098 rg
31.055 218.965 m 11.426 238.59 l 4.09 213.137 0.023 188.586 0.023 168.277
 c 34.426 222.336 l h
31.055 218.965 m f
0.847059 0.619608 0.376471 rg
287.777 238.594 m 268.148 218.965 l 251.211 235.902 l 234.27 218.965 l 
217.332 235.902 l 200.395 218.965 l 183.457 235.902 l 166.52 218.965 l 149.598
 235.898 l 149.586 235.891 l 149.586 18.672 l 232.215 18.672 299.172 85.645
 299.172 168.27 c 299.172 188.586 295.113 213.137 287.777 238.594 c h
287.777 238.594 m f
0.176471 0.14902 0.0705882 rg
114.945 337.922 m 114.945 331.687 109.895 326.633 103.66 326.633 c 97.426
 326.633 92.375 331.687 92.375 337.922 c 92.375 344.152 97.426 349.207 103.66
 349.207 c 109.895 349.207 114.945 344.152 114.945 337.922 c h
114.945 337.922 m f
0.266667 0.231373 0.137255 rg
92.367 337.922 m 92.367 336.773 92.59 335.691 92.898 334.656 c 93.941 334.336
 95.027 334.113 96.172 334.113 c 102.398 334.113 107.461 339.168 107.461
 345.402 c 107.461 346.547 107.238 347.633 106.918 348.676 c 105.887 348.992
 104.801 349.215 103.656 349.215 c 97.414 349.211 92.367 344.16 92.367 337.922
 c h
92.367 337.922 m f
0.176471 0.14902 0.0705882 rg
206.828 337.922 m 206.828 331.687 201.777 326.633 195.543 326.633 c 189.309
 326.633 184.258 331.687 184.258 337.922 c 184.258 344.152 189.309 349.207
 195.543 349.207 c 201.777 349.207 206.828 344.152 206.828 337.922 c h
206.828 337.922 m f
0.266667 0.231373 0.137255 rg
184.258 337.922 m 184.258 336.773 184.477 335.691 184.797 334.656 c 185.832
 334.336 186.914 334.113 188.062 334.113 c 194.301 334.113 199.359 339.168
 199.359 345.402 c 199.359 346.547 199.141 347.633 198.82 348.676 c 197.773
 348.992 196.699 349.215 195.543 349.215 c 189.316 349.211 184.258 344.16
 184.258 337.922 c h
184.258 337.922 m f
0.819608 0.329412 0 rg
173.695 319.887 m 151.418 335.637 l 150.324 336.414 148.875 336.414 147.777
 335.637 c 125.5 319.887 l 124.625 319.266 124.133 318.258 124.172 317.195
 c 124.207 316.129 124.789 315.16 125.695 314.609 c 147.973 301.219 l 148.465
 300.918 149.031 300.773 149.598 300.773 c 150.164 300.773 150.73 300.918
 151.223 301.219 c 173.5 314.609 l 174.414 315.16 174.988 316.129 175.023
 317.195 c 175.062 318.262 174.57 319.273 173.695 319.887 c h
173.695 319.887 m f
1 0.427451 0 rg
173.695 319.887 m 151.418 335.637 l 150.324 336.414 148.875 336.414 147.777
 335.637 c 125.5 319.887 l 124.625 319.266 124.133 318.258 124.172 317.195
 c 124.207 316.129 124.789 315.16 125.695 314.609 c 147.973 310.422 l 148.465
 310.117 149.031 309.973 149.598 309.973 c 150.164 309.973 150.73 310.117
 151.223 310.422 c 173.5 314.609 l 174.414 315.16 174.988 316.129 175.023
 317.195 c 175.062 318.262 174.57 319.273 173.695 319.887 c h
173.695 319.887 m f
Q Q
showpage
%%Trailer
end restore
%%EOF
