%!PS-Adobe-3.0 EPSF-3.0
%%Creator: cairo 1.14.2 (http://cairographics.org)
%%CreationDate: Thu Aug  4 10:30:34 2016
%%Pages: 1
%%DocumentData: Clean7Bit
%%LanguageLevel: 2
%%BoundingBox: 0 -1 373 259
%%EndComments
%%BeginProlog
save
50 dict begin
/q { gsave } bind def
/Q { grestore } bind def
/cm { 6 array astore concat } bind def
/w { setlinewidth } bind def
/J { setlinecap } bind def
/j { setlinejoin } bind def
/M { setmiterlimit } bind def
/d { setdash } bind def
/m { moveto } bind def
/l { lineto } bind def
/c { curveto } bind def
/h { closepath } bind def
/re { exch dup neg 3 1 roll 5 3 roll moveto 0 rlineto
      0 exch rlineto 0 rlineto closepath } bind def
/S { stroke } bind def
/f { fill } bind def
/f* { eofill } bind def
/n { newpath } bind def
/W { clip } bind def
/W* { eoclip } bind def
/BT { } bind def
/ET { } bind def
/pdfmark where { pop globaldict /?pdfmark /exec load put }
    { globaldict begin /?pdfmark /pop load def /pdfmark
    /cleartomark load def end } ifelse
/BDC { mark 3 1 roll /BDC pdfmark } bind def
/EMC { mark /EMC pdfmark } bind def
/cairo_store_point { /cairo_point_y exch def /cairo_point_x exch def } def
/Tj { show currentpoint cairo_store_point } bind def
/TJ {
  {
    dup
    type /stringtype eq
    { show } { -0.001 mul 0 cairo_font_matrix dtransform rmoveto } ifelse
  } forall
  currentpoint cairo_store_point
} bind def
/cairo_selectfont { cairo_font_matrix aload pop pop pop 0 0 6 array astore
    cairo_font exch selectfont cairo_point_x cairo_point_y moveto } bind def
/Tf { pop /cairo_font exch def /cairo_font_matrix where
      { pop cairo_selectfont } if } bind def
/Td { matrix translate cairo_font_matrix matrix concatmatrix dup
      /cairo_font_matrix exch def dup 4 get exch 5 get cairo_store_point
      /cairo_font where { pop cairo_selectfont } if } bind def
/Tm { 2 copy 8 2 roll 6 array astore /cairo_font_matrix exch def
      cairo_store_point /cairo_font where { pop cairo_selectfont } if } bind def
/g { setgray } bind def
/rg { setrgbcolor } bind def
/d1 { setcachedevice } bind def
%%EndProlog
%%BeginSetup
%%EndSetup
%%Page: 1 1
%%BeginPageSetup
%%PageBoundingBox: 0 -1 373 259
%%EndPageSetup
q 0 -1 373 260 rectclip q
1 0.772549 0.2 rg
372.801 97.092 m 372.801 21.28 289.34 -0.001 186.398 -0.001 c 83.457 -0.001
 0 21.28 0 97.092 c 0 172.921 83.457 234.385 186.398 234.385 c 289.34 234.385
 372.801 172.921 372.801 97.092 c h
372.801 97.092 m f
1 0.690196 0.192157 rg
372.801 97.092 m 372.801 21.28 289.34 -0.001 186.398 -0.001 c 83.457 -0.001
 0 21.28 0 97.092 c 0 172.921 83.457 215.323 186.398 215.323 c 289.34 215.323
 372.801 172.921 372.801 97.092 c h
372.801 97.092 m f
1 0.568627 0.180392 rg
372.801 97.092 m 372.801 21.28 289.34 -0.001 186.398 -0.001 c 83.457 -0.001
 0 21.28 0 97.092 c 0 172.921 83.457 131.702 186.398 131.702 c 289.34 131.702
 372.801 172.921 372.801 97.092 c h
372.801 97.092 m f
1 0.282353 0.0901961 rg
253.75 78.038 m 253.75 69.772 223.598 63.073 186.398 63.073 c 149.203 63.073
 119.047 69.772 119.047 78.038 c 119.047 86.303 149.203 93.007 186.398 93.007
 c 223.598 93.007 253.75 86.303 253.75 78.038 c h
253.75 78.038 m f
0.827451 0.196078 0.0745098 rg
253.75 78.038 m 253.75 69.772 223.598 63.073 186.398 63.073 c 149.199 63.073
 119.047 69.764 119.047 78.038 c 119.047 86.299 149.199 74.878 186.398 74.878
 c 223.598 74.878 253.75 86.299 253.75 78.038 c h
253.75 78.038 m f
0.0313726 0.156863 0.337255 rg
129.477 111.632 m 129.477 102.385 121.98 94.889 112.734 94.889 c 103.488
 94.889 95.992 102.385 95.992 111.632 c 95.992 120.878 103.488 128.374 112.734
 128.374 c 121.98 128.374 129.477 120.878 129.477 111.632 c h
129.477 111.632 m f
276.809 111.632 m 276.809 102.385 269.312 94.889 260.066 94.889 c 250.816
 94.889 243.32 102.385 243.32 111.632 c 243.32 120.878 250.816 128.374 260.066
 128.374 c 269.312 128.374 276.809 120.878 276.809 111.632 c h
276.809 111.632 m f
0 g
129.477 111.62 m 129.477 102.362 121.984 94.87 112.742 94.87 c 103.484 
94.87 95.992 102.362 95.992 111.62 c f
276.812 111.62 m 276.812 102.362 269.32 94.87 260.078 94.87 c 250.82 94.87
 243.328 102.362 243.328 111.62 c f
1 0.772549 0.2 rg
198.473 246.604 m 198.473 239.932 193.074 222.975 186.398 222.975 c 179.727
 222.975 174.328 239.932 174.328 246.604 c 174.328 253.276 179.727 258.678
 186.398 258.678 c 193.074 258.678 198.473 253.28 198.473 246.604 c h
198.473 246.604 m f
Q Q
showpage
%%Trailer
end restore
%%EOF
