%!PS-Adobe-3.0 EPSF-3.0
%%Creator: cairo 1.14.2 (http://cairographics.org)
%%CreationDate: Thu Aug  4 10:32:01 2016
%%Pages: 1
%%DocumentData: Clean7Bit
%%LanguageLevel: 2
%%BoundingBox: 0 -1 196 404
%%EndComments
%%BeginProlog
save
50 dict begin
/q { gsave } bind def
/Q { grestore } bind def
/cm { 6 array astore concat } bind def
/w { setlinewidth } bind def
/J { setlinecap } bind def
/j { setlinejoin } bind def
/M { setmiterlimit } bind def
/d { setdash } bind def
/m { moveto } bind def
/l { lineto } bind def
/c { curveto } bind def
/h { closepath } bind def
/re { exch dup neg 3 1 roll 5 3 roll moveto 0 rlineto
      0 exch rlineto 0 rlineto closepath } bind def
/S { stroke } bind def
/f { fill } bind def
/f* { eofill } bind def
/n { newpath } bind def
/W { clip } bind def
/W* { eoclip } bind def
/BT { } bind def
/ET { } bind def
/pdfmark where { pop globaldict /?pdfmark /exec load put }
    { globaldict begin /?pdfmark /pop load def /pdfmark
    /cleartomark load def end } ifelse
/BDC { mark 3 1 roll /BDC pdfmark } bind def
/EMC { mark /EMC pdfmark } bind def
/cairo_store_point { /cairo_point_y exch def /cairo_point_x exch def } def
/Tj { show currentpoint cairo_store_point } bind def
/TJ {
  {
    dup
    type /stringtype eq
    { show } { -0.001 mul 0 cairo_font_matrix dtransform rmoveto } ifelse
  } forall
  currentpoint cairo_store_point
} bind def
/cairo_selectfont { cairo_font_matrix aload pop pop pop 0 0 6 array astore
    cairo_font exch selectfont cairo_point_x cairo_point_y moveto } bind def
/Tf { pop /cairo_font exch def /cairo_font_matrix where
      { pop cairo_selectfont } if } bind def
/Td { matrix translate cairo_font_matrix matrix concatmatrix dup
      /cairo_font_matrix exch def dup 4 get exch 5 get cairo_store_point
      /cairo_font where { pop cairo_selectfont } if } bind def
/Tm { 2 copy 8 2 roll 6 array astore /cairo_font_matrix exch def
      cairo_store_point /cairo_font where { pop cairo_selectfont } if } bind def
/g { setgray } bind def
/rg { setrgbcolor } bind def
/d1 { setcachedevice } bind def
%%EndProlog
%%BeginSetup
%%EndSetup
%%Page: 1 1
%%BeginPageSetup
%%PageBoundingBox: 0 -1 196 404
%%EndPageSetup
q 0 -1 196 405 rectclip q
1 0.72549 0.172549 rg
78.32 199.669 m 78.32 180.033 62.402 164.111 42.762 164.111 c 23.125 164.111
 7.203 180.033 7.203 199.669 c 7.203 219.31 23.125 235.228 42.762 235.228
 c 62.402 235.228 78.32 219.31 78.32 199.669 c h
78.32 199.669 m f
1 0.568627 0.180392 rg
67.914 224.814 m 81.801 210.923 81.801 188.408 67.918 174.513 c 54.031 
160.63 31.516 160.63 17.621 174.529 c 3.73 188.408 32.145 182.517 46.039
 196.412 c 59.922 210.294 54.031 238.701 67.914 224.814 c h
67.914 224.814 m f
1 0.913725 0.4 rg
37.672 226.791 m 40.602 223.861 33.129 221.466 27.043 215.388 c 20.953 
209.298 18.555 201.834 15.629 204.755 c 12.699 207.701 15.258 215.002 21.332
 221.084 c 27.426 227.169 34.727 229.728 37.672 226.791 c h
37.672 226.791 m f
48.219 228.681 m 48.219 227.47 47.238 226.49 46.027 226.49 c 44.816 226.49
 43.832 227.47 43.832 228.681 c 43.832 229.892 44.816 230.877 46.027 230.877
 c 47.238 230.877 48.219 229.892 48.219 228.681 c h
48.219 228.681 m f
16.48 198.58 m 16.48 198.095 16.086 197.705 15.605 197.705 c 15.121 197.705
 14.727 198.095 14.727 198.58 c 14.727 199.064 15.121 199.455 15.605 199.455
 c 16.086 199.455 16.48 199.064 16.48 198.58 c h
16.48 198.58 m f
1 0.72549 0.172549 rg
188.34 199.669 m 188.34 180.029 172.418 164.103 152.777 164.103 c 133.133
 164.103 117.211 180.029 117.211 199.669 c 117.211 219.314 133.133 235.236
 152.777 235.236 c 172.418 235.236 188.34 219.314 188.34 199.669 c h
188.34 199.669 m f
1 0.568627 0.180392 rg
127.605 224.814 m 113.719 210.923 113.719 188.408 127.605 174.513 c 141.496
 160.63 164.012 160.63 177.906 174.529 c 191.793 188.408 163.383 182.517
 149.484 196.412 c 135.609 210.294 141.496 238.701 127.605 224.814 c h
127.605 224.814 m f
1 0.913725 0.4 rg
157.859 226.791 m 154.93 223.861 162.398 221.466 168.484 215.388 c 174.57
 209.298 176.98 201.834 179.895 204.755 c 182.828 207.701 180.273 215.002
 174.191 221.084 c 168.102 227.169 160.805 229.728 157.859 226.791 c h
157.859 226.791 m f
151.684 228.681 m 151.684 227.474 150.707 226.498 149.5 226.498 c 148.293
 226.498 147.312 227.474 147.312 228.681 c 147.312 229.888 148.293 230.869
 149.5 230.869 c 150.707 230.869 151.684 229.888 151.684 228.681 c h
151.684 228.681 m f
180.793 198.58 m 180.793 198.095 180.398 197.705 179.914 197.705 c 179.434
 197.705 179.039 198.095 179.039 198.58 c 179.039 199.064 179.434 199.455
 179.914 199.455 c 180.398 199.455 180.793 199.064 180.793 198.58 c h
180.793 198.58 m f
1 0.72549 0.172549 rg
133.328 224.689 m 133.328 205.044 117.406 189.123 97.762 189.123 c 78.121
 189.123 62.195 205.044 62.195 224.689 c 62.195 244.33 78.121 260.252 97.762
 260.252 c 117.406 260.252 133.328 244.33 133.328 224.689 c h
133.328 224.689 m f
1 0.568627 0.180392 rg
133.328 224.689 m 133.328 205.044 117.41 189.127 97.762 189.127 c 78.113
 189.127 62.195 205.041 62.195 224.689 c 62.195 244.334 78.113 220.076 97.762
 220.076 c 117.41 220.076 133.328 244.337 133.328 224.689 c h
133.328 224.689 m f
1 0.913725 0.4 rg
113.348 247.486 m 113.348 243.345 106.371 246.912 97.762 246.912 c 89.156
 246.912 82.184 243.345 82.184 247.486 c 82.184 251.634 89.156 254.986 97.762
 254.986 c 106.371 254.986 113.348 251.638 113.348 247.486 c h
113.348 247.486 m f
122.766 242.904 m 122.766 241.693 121.785 240.712 120.574 240.712 c 119.363
 240.712 118.383 241.693 118.383 242.904 c 118.383 244.115 119.363 245.099
 120.574 245.099 c 121.785 245.099 122.766 244.115 122.766 242.904 c h
122.766 242.904 m f
78.676 243.13 m 78.676 242.646 78.281 242.252 77.793 242.252 c 77.305 242.252
 76.91 242.646 76.91 243.13 c 76.91 243.619 77.305 244.013 77.793 244.013
 c 78.281 244.013 78.676 243.619 78.676 243.13 c h
78.676 243.13 m f
1 0.72549 0.172549 rg
80.199 154.134 m 80.199 136.377 65.805 121.978 48.043 121.978 c 30.285 
121.978 15.887 136.377 15.887 154.134 c 15.887 171.896 30.285 186.291 48.043
 186.291 c 65.805 186.291 80.199 171.896 80.199 154.134 c h
80.199 154.134 m f
1 0.568627 0.180392 rg
70.785 176.845 m 83.34 164.279 83.34 143.919 70.785 131.357 c 58.219 118.818
 37.867 118.818 25.309 131.369 c 12.742 143.923 38.434 138.591 51 151.15
 c 63.547 163.712 58.219 189.419 70.785 176.845 c h
70.785 176.845 m f
1 0.913725 0.4 rg
43.426 178.65 m 46.07 176.002 39.328 173.81 33.828 168.322 c 28.34 162.818
 26.145 156.076 23.512 158.724 c 20.863 161.369 23.172 167.978 28.672 173.47
 c 34.168 178.962 40.766 181.294 43.426 178.65 c h
43.426 178.65 m f
52.387 181.763 m 53.18 180.986 53.18 179.732 52.406 178.959 c 51.617 178.181
 50.355 178.181 49.582 178.959 c 48.82 179.72 48.82 180.986 49.582 181.763
 c 50.355 182.525 51.617 182.525 52.387 181.763 c h
52.387 181.763 m f
24.047 153.689 m 24.352 153.38 24.352 152.877 24.047 152.552 c 23.73 152.259
 23.215 152.259 22.926 152.552 c 22.617 152.877 22.617 153.38 22.926 153.689
 c 23.215 153.998 23.73 153.998 24.047 153.689 c h
24.047 153.689 m f
1 0.72549 0.172549 rg
179.641 154.134 m 179.641 136.377 165.242 121.978 147.48 121.978 c 129.723
 121.978 115.324 136.377 115.324 154.134 c 115.324 171.896 129.723 186.291
 147.48 186.291 c 165.242 186.291 179.641 171.896 179.641 154.134 c h
179.641 154.134 m f
1 0.568627 0.180392 rg
124.746 176.845 m 112.188 164.279 112.188 143.919 124.746 131.357 c 137.305
 118.818 157.664 118.818 170.219 131.369 c 182.785 143.923 157.098 138.591
 144.531 151.15 c 131.98 163.712 137.305 189.419 124.746 176.845 c h
124.746 176.845 m f
1 0.913725 0.4 rg
152.102 178.65 m 149.453 176.002 156.203 173.81 161.699 168.322 c 167.195
 162.818 169.375 156.076 172.02 158.724 c 174.672 161.369 172.348 167.978
 166.852 173.47 c 161.363 178.962 154.754 181.294 152.102 178.65 c h
152.102 178.65 m f
146.523 180.357 m 146.523 179.259 145.637 178.373 144.539 178.373 c 143.441
 178.373 142.555 179.259 142.555 180.357 c 142.555 181.451 143.441 182.341
 144.539 182.341 c 145.637 182.341 146.523 181.451 146.523 180.357 c h
146.523 180.357 m f
172.859 153.127 m 172.859 152.685 172.5 152.326 172.059 152.326 c 171.617
 152.326 171.258 152.685 171.258 153.127 c 171.258 153.568 171.617 153.927
 172.059 153.927 c 172.5 153.927 172.859 153.568 172.859 153.127 c h
172.859 153.127 m f
1 0.72549 0.172549 rg
129.926 176.74 m 129.926 158.97 115.52 144.568 97.762 144.568 c 80.004 
144.568 65.598 158.97 65.598 176.74 c 65.598 194.486 80.004 208.884 97.762
 208.884 c 115.52 208.884 129.926 194.486 129.926 176.74 c h
129.926 176.74 m f
1 0.568627 0.180392 rg
129.926 176.74 m 129.926 158.97 115.52 144.568 97.762 144.568 c 80.004 
144.568 65.598 158.97 65.598 176.74 c 65.598 194.486 80.004 172.568 97.762
 172.568 c 115.52 172.568 129.926 194.486 129.926 176.74 c h
129.926 176.74 m f
1 0.913725 0.4 rg
111.852 197.326 m 111.852 193.595 105.539 196.834 97.762 196.834 c 89.988
 196.834 83.68 193.595 83.68 197.326 c 83.68 201.095 89.988 204.111 97.762
 204.111 c 105.539 204.111 111.852 201.095 111.852 197.326 c h
111.852 197.326 m f
120.391 193.205 m 120.391 192.107 119.504 191.22 118.406 191.22 c 117.312
 191.22 116.422 192.107 116.422 193.205 c 116.422 194.302 117.312 195.189
 118.406 195.189 c 119.504 195.189 120.391 194.302 120.391 193.205 c h
120.391 193.205 m f
80.504 193.4 m 80.504 192.962 80.148 192.607 79.711 192.607 c 79.27 192.607
 78.914 192.962 78.914 193.4 c 78.914 193.837 79.27 194.193 79.711 194.193
 c 80.148 194.193 80.504 193.837 80.504 193.4 c h
80.504 193.4 m f
1 0.72549 0.172549 rg
81.543 108.826 m 81.543 92.416 68.238 79.107 51.824 79.107 c 35.41 79.107
 22.105 92.416 22.105 108.826 c 22.105 125.24 35.41 138.544 51.824 138.544
 c 68.238 138.544 81.543 125.24 81.543 108.826 c h
81.543 108.826 m f
1 0.568627 0.180392 rg
72.828 129.869 m 84.422 118.259 84.422 99.443 72.828 87.837 c 61.215 76.228
 42.402 76.228 30.797 87.837 c 19.176 99.443 42.922 94.529 54.539 106.123
 c 66.141 117.736 61.215 141.49 72.828 129.869 c h
72.828 129.869 m f
1 0.913725 0.4 rg
47.547 131.533 m 49.984 129.08 43.738 127.064 38.672 121.99 c 33.582 116.904
 31.582 110.681 29.133 113.119 c 26.68 115.584 28.816 121.681 33.895 126.755
 c 38.996 131.841 45.094 133.982 47.547 131.533 c h
47.547 131.533 m f
56.367 133.087 m 56.367 132.076 55.547 131.255 54.535 131.255 c 53.52 131.255
 52.699 132.076 52.699 133.087 c 52.699 134.103 53.52 134.923 54.535 134.923
 c 55.547 134.923 56.367 134.103 56.367 133.087 c h
56.367 133.087 m f
29.859 107.947 m 29.859 107.537 29.527 107.209 29.121 107.209 c 28.715 
107.209 28.383 107.537 28.383 107.947 c 28.383 108.353 28.715 108.685 29.121
 108.685 c 29.527 108.685 29.859 108.353 29.859 107.947 c h
29.859 107.947 m f
1 0.72549 0.172549 rg
173.438 108.826 m 173.438 92.416 160.133 79.107 143.719 79.107 c 127.305
 79.107 114 92.416 114 108.826 c 114 125.24 127.305 138.544 143.719 138.544
 c 160.133 138.544 173.438 125.24 173.438 108.826 c h
173.438 108.826 m f
1 0.568627 0.180392 rg
122.711 129.869 m 111.098 118.259 111.098 99.443 122.699 87.837 c 134.305
 76.228 153.121 76.228 164.734 87.837 c 176.348 99.443 152.605 94.529 140.996
 106.123 c 129.391 117.736 134.305 141.49 122.711 129.869 c h
122.711 129.869 m f
1 0.913725 0.4 rg
147.984 131.533 m 145.543 129.08 151.785 127.064 156.859 121.99 c 161.938
 116.904 163.941 110.681 166.398 113.119 c 168.852 115.584 166.707 121.681
 161.621 126.755 c 156.543 131.841 150.43 133.982 147.984 131.533 c h
147.984 131.533 m f
142.824 133.087 m 142.824 132.076 142.004 131.255 140.992 131.255 c 139.98
 131.255 139.156 132.076 139.156 133.087 c 139.156 134.103 139.98 134.923
 140.992 134.923 c 142.004 134.923 142.824 134.103 142.824 133.087 c h
142.824 133.087 m f
167.191 107.947 m 167.191 107.537 166.859 107.201 166.449 107.201 c 166.039
 107.201 165.707 107.537 165.707 107.947 c 165.707 108.357 166.039 108.689
 166.449 108.689 c 166.859 108.689 167.191 108.357 167.191 107.947 c h
167.191 107.947 m f
1 0.72549 0.172549 rg
127.477 129.763 m 127.477 113.353 114.184 100.064 97.762 100.064 c 81.352
 100.064 68.043 113.353 68.043 129.763 c 68.043 146.189 81.348 159.486 97.762
 159.486 c 114.18 159.486 127.477 146.189 127.477 129.763 c h
127.477 129.763 m f
1 0.568627 0.180392 rg
127.477 129.763 m 127.477 113.353 114.184 100.064 97.762 100.064 c 81.352
 100.064 68.043 113.353 68.043 129.763 c 68.043 146.189 81.348 125.923 97.762
 125.923 c 114.18 125.919 127.477 146.189 127.477 129.763 c h
127.477 129.763 m f
1 0.913725 0.4 rg
110.781 148.81 m 110.781 145.353 104.953 148.345 97.762 148.345 c 90.574
 148.345 84.742 145.349 84.742 148.81 c 84.742 152.294 90.574 155.087 97.762
 155.087 c 104.953 155.087 110.781 152.294 110.781 148.81 c h
110.781 148.81 m f
118.684 144.998 m 118.684 143.982 117.859 143.158 116.844 143.158 c 115.828
 143.158 115.004 143.982 115.004 144.998 c 115.004 146.013 115.828 146.837
 116.844 146.837 c 117.859 146.837 118.684 146.013 118.684 144.998 c h
118.684 144.998 m f
81.812 145.181 m 81.812 144.779 81.488 144.451 81.082 144.451 c 80.68 144.451
 80.352 144.779 80.352 145.181 c 80.352 145.584 80.68 145.912 81.082 145.912
 c 81.488 145.912 81.812 145.584 81.812 145.181 c h
81.812 145.181 m f
1 0.72549 0.172549 rg
85.391 73.47 m 85.391 60.955 75.246 50.81 62.73 50.81 c 50.219 50.81 40.074
 60.955 40.074 73.47 c 40.074 85.986 50.219 96.13 62.73 96.13 c 75.246 96.13
 85.391 85.986 85.391 73.47 c h
85.391 73.47 m f
1 0.568627 0.180392 rg
78.758 89.49 m 87.59 80.642 87.59 66.298 78.758 57.451 c 69.902 48.603 
55.555 48.603 46.707 57.451 c 37.859 66.298 55.953 62.548 64.812 71.396 
c 73.664 80.232 69.902 98.349 78.758 89.49 c h
78.758 89.49 m f
1 0.913725 0.4 rg
59.48 90.755 m 61.352 88.896 56.59 87.357 52.719 83.494 c 48.844 79.619
 47.324 74.857 45.449 76.728 c 43.59 78.599 45.215 83.236 49.102 87.111 
c 52.965 90.99 57.609 92.638 59.48 90.755 c h
59.48 90.755 m f
66.199 91.966 m 66.199 91.197 65.574 90.572 64.805 90.572 c 64.035 90.572
 63.414 91.197 63.414 91.966 c 63.414 92.736 64.035 93.357 64.805 93.357
 c 65.574 93.357 66.199 92.736 66.199 91.966 c h
66.199 91.966 m f
46.02 72.775 m 46.02 72.466 45.77 72.216 45.461 72.216 c 45.152 72.216 
44.898 72.466 44.898 72.775 c 44.898 73.087 45.152 73.337 45.461 73.337 
c 45.77 73.337 46.02 73.087 46.02 72.775 c h
46.02 72.775 m f
1 0.72549 0.172549 rg
155.453 73.47 m 155.453 60.959 145.312 50.814 132.801 50.814 c 120.289 
50.814 110.145 60.959 110.145 73.47 c 110.145 85.982 120.289 96.123 132.801
 96.123 c 145.312 96.123 155.453 85.982 155.453 73.47 c h
155.453 73.47 m f
1 0.568627 0.180392 rg
116.785 89.49 m 107.934 80.642 107.934 66.298 116.766 57.451 c 125.613 
48.603 139.969 48.603 148.816 57.451 c 157.664 66.298 139.566 62.548 130.719
 71.396 c 121.859 80.232 125.617 98.349 116.785 89.49 c h
116.785 89.49 m f
1 0.913725 0.4 rg
136.043 90.755 m 134.18 88.896 138.93 87.357 142.805 83.494 c 146.688 79.619
 148.199 74.857 150.078 76.728 c 151.945 78.599 150.312 83.236 146.441 87.111
 c 142.574 90.99 137.918 92.638 136.043 90.755 c h
136.043 90.755 m f
132.113 91.966 m 132.113 91.197 131.488 90.572 130.719 90.572 c 129.949
 90.572 129.328 91.197 129.328 91.966 c 129.328 92.736 129.949 93.357 130.719
 93.357 c 131.488 93.357 132.113 92.736 132.113 91.966 c h
132.113 91.966 m f
150.656 72.775 m 150.656 72.466 150.406 72.216 150.098 72.216 c 149.789
 72.216 149.535 72.466 149.535 72.775 c 149.535 73.087 149.789 73.337 150.098
 73.337 c 150.406 73.337 150.656 73.087 150.656 72.775 c h
150.656 72.775 m f
1 0.72549 0.172549 rg
120.422 89.419 m 120.422 76.904 110.277 66.759 97.762 66.759 c 85.246 66.759
 75.102 76.904 75.102 89.419 c 75.102 101.935 85.246 112.08 97.762 112.08
 c 110.277 112.08 120.422 101.935 120.422 89.419 c h
120.422 89.419 m f
1 0.568627 0.180392 rg
120.422 89.412 m 120.422 76.896 110.285 66.763 97.762 66.763 c 85.254 66.763
 75.102 76.892 75.102 89.412 c 75.102 101.916 85.25 86.482 97.762 86.482
 c 110.277 86.49 120.422 101.919 120.422 89.412 c h
120.422 89.412 m f
1 0.913725 0.4 rg
107.68 103.939 m 107.68 101.302 103.238 103.58 97.762 103.58 c 92.281 103.58
 87.844 101.302 87.844 103.939 c 87.844 106.584 92.281 108.712 97.762 108.712
 c 103.238 108.712 107.68 106.584 107.68 103.939 c h
107.68 103.939 m f
113.707 101.013 m 113.707 100.24 113.078 99.615 112.309 99.615 c 111.535
 99.615 110.906 100.24 110.906 101.013 c 110.906 101.787 111.535 102.412
 112.309 102.412 c 113.078 102.412 113.707 101.787 113.707 101.013 c h
113.707 101.013 m f
85.602 101.138 m 85.602 100.83 85.352 100.58 85.039 100.58 c 84.73 100.58
 84.48 100.83 84.48 101.138 c 84.48 101.451 84.73 101.701 85.039 101.701
 c 85.352 101.701 85.602 101.451 85.602 101.138 c h
85.602 101.138 m f
1 0.72549 0.172549 rg
81.566 57.81 m 89.09 50.267 89.09 38.029 81.566 30.486 c 74.02 22.943 61.785
 22.943 54.246 30.486 c 46.699 38.029 46.699 50.267 54.246 57.81 c 61.789
 65.341 74.012 65.341 81.566 57.81 c h
81.566 57.81 m f
1 0.568627 0.180392 rg
81.566 57.81 m 89.09 50.267 89.09 38.029 81.566 30.486 c 74.02 22.943 61.785
 22.943 54.246 30.486 c 46.699 38.029 62.129 34.83 69.672 42.377 c 77.215
 49.927 74.012 65.341 81.566 57.81 c h
81.566 57.81 m f
1 0.913725 0.4 rg
65.121 58.88 m 66.715 57.294 62.656 55.99 59.363 52.693 c 56.059 49.384
 54.762 45.334 53.168 46.923 c 51.574 48.509 52.965 52.486 56.273 55.783
 c 59.574 59.076 63.527 60.482 65.121 58.88 c h
65.121 58.88 m f
70.848 59.908 m 70.848 59.252 70.316 58.716 69.656 58.716 c 69 58.716 68.465
 59.252 68.465 59.908 c 68.465 60.568 69 61.099 69.656 61.099 c 70.316 61.099
 70.848 60.568 70.848 59.908 c h
70.848 59.908 m f
53.5 43.892 m 53.664 43.72 53.664 43.4 53.5 43.216 c 53.305 43.033 52.996
 43.033 52.82 43.228 c 52.637 43.4 52.637 43.72 52.82 43.892 c 52.996 44.087
 53.297 44.087 53.5 43.892 c h
53.5 43.892 m f
1 0.72549 0.172549 rg
146.945 44.173 m 146.945 33.505 138.301 24.861 127.633 24.861 c 116.965
 24.861 108.316 33.505 108.316 44.173 c 108.316 54.841 116.965 63.49 127.633
 63.49 c 138.301 63.49 146.945 54.841 146.945 44.173 c h
146.945 44.173 m f
1 0.568627 0.180392 rg
113.969 57.81 m 106.434 50.267 106.434 38.029 113.957 30.486 c 121.5 22.943
 133.738 22.943 141.281 30.486 c 148.824 38.029 133.391 34.83 125.855 42.377
 c 118.312 49.919 121.508 65.341 113.969 57.81 c h
113.969 57.81 m f
1 0.913725 0.4 rg
130.398 58.88 m 128.812 57.294 132.867 55.99 136.164 52.693 c 139.461 49.384
 140.766 45.334 142.359 46.923 c 143.953 48.509 142.559 52.486 139.258 55.783
 c 135.957 59.076 131.992 60.482 130.398 58.88 c h
130.398 58.88 m f
127.047 59.908 m 127.047 59.252 126.512 58.716 125.855 58.716 c 125.195
 58.716 124.664 59.252 124.664 59.908 c 124.664 60.568 125.195 61.099 125.855
 61.099 c 126.512 61.099 127.047 60.568 127.047 59.908 c h
127.047 59.908 m f
142.031 43.892 m 141.855 43.72 141.855 43.4 142.031 43.216 c 142.227 43.033
 142.523 43.033 142.711 43.228 c 142.887 43.4 142.887 43.72 142.711 43.892
 c 142.527 44.087 142.23 44.087 142.031 43.892 c h
142.031 43.892 m f
1 0.72549 0.172549 rg
117.078 57.724 m 117.078 47.056 108.43 38.408 97.762 38.408 c 87.094 38.408
 78.449 47.056 78.449 57.724 c 78.449 68.388 87.094 77.037 97.762 77.037
 c 108.43 77.037 117.078 68.388 117.078 57.724 c h
117.078 57.724 m f
1 0.568627 0.180392 rg
117.078 57.736 m 117.078 47.064 108.426 38.439 97.762 38.439 c 87.102 38.439
 78.449 47.068 78.449 57.736 c 78.449 68.404 87.102 55.24 97.762 55.24 c
 108.426 55.24 117.078 68.404 117.078 57.736 c h
117.078 57.736 m f
1 0.913725 0.4 rg
106.219 70.119 m 106.219 67.869 102.434 69.806 97.762 69.806 c 93.094 69.806
 89.305 67.861 89.305 70.119 c 89.305 72.373 93.094 74.189 97.762 74.189
 c 102.434 74.189 106.219 72.369 106.219 70.119 c h
106.219 70.119 m f
111.348 67.627 m 111.348 66.97 110.816 66.435 110.156 66.435 c 109.5 66.435
 108.965 66.97 108.965 67.627 c 108.965 68.287 109.5 68.818 110.156 68.818
 c 110.816 68.818 111.348 68.287 111.348 67.627 c h
111.348 67.627 m f
87.398 67.755 m 87.398 67.486 87.18 67.267 86.91 67.267 c 86.645 67.267
 86.426 67.486 86.426 67.755 c 86.426 68.021 86.645 68.24 86.91 68.24 c 
87.18 68.24 87.398 68.021 87.398 67.755 c h
87.398 67.755 m f
1 0.72549 0.172549 rg
90.328 26.654 m 90.328 19.103 84.203 12.982 76.652 12.982 c 69.102 12.982
 62.977 19.103 62.977 26.654 c 62.977 34.209 69.102 40.33 76.652 40.33 c
 84.203 40.33 90.328 34.209 90.328 26.654 c h
90.328 26.654 m f
1 0.568627 0.180392 rg
86.293 36.31 m 91.637 30.966 91.637 22.314 86.293 16.978 c 80.949 11.646
 72.293 11.646 66.961 16.978 c 61.617 22.322 72.543 20.052 77.875 25.396
 c 83.211 30.732 80.949 41.646 86.293 36.31 c h
86.293 36.31 m f
1 0.913725 0.4 rg
74.66 37.072 m 75.789 35.951 72.914 35.017 70.578 32.693 c 68.242 30.357
 67.32 27.49 66.191 28.611 c 65.07 29.744 66.055 32.548 68.391 34.884 c 
70.734 37.216 73.527 38.201 74.66 37.072 c h
74.66 37.072 m f
78.727 37.81 m 78.727 37.341 78.348 36.966 77.883 36.966 c 77.414 36.966
 77.039 37.341 77.039 37.81 c 77.039 38.275 77.414 38.654 77.883 38.654 
c 78.348 38.654 78.727 38.275 78.727 37.81 c h
78.727 37.81 m f
66.426 26.459 m 66.551 26.334 66.551 26.115 66.426 25.982 c 66.293 25.853
 66.066 25.853 65.934 25.994 c 65.812 26.119 65.812 26.341 65.934 26.459
 c 66.074 26.611 66.293 26.611 66.426 26.459 c h
66.426 26.459 m f
1 0.72549 0.172549 rg
132.574 26.654 m 132.574 19.103 126.449 12.982 118.898 12.982 c 111.348
 12.982 105.223 19.103 105.223 26.654 c 105.223 34.209 111.348 40.33 118.898
 40.33 c 126.449 40.33 132.574 34.209 132.574 26.654 c h
132.574 26.654 m f
1 0.568627 0.180392 rg
109.23 36.31 m 103.895 30.966 103.895 22.314 109.23 16.978 c 114.574 11.646
 123.234 11.646 128.562 16.978 c 133.91 22.322 122.977 20.052 117.648 25.396
 c 112.312 30.732 114.574 41.646 109.23 36.31 c h
109.23 36.31 m f
1 0.913725 0.4 rg
120.863 37.072 m 119.742 35.951 122.609 35.017 124.949 32.693 c 127.285
 30.357 128.207 27.49 129.332 28.611 c 130.453 29.744 129.473 32.548 127.133
 34.884 c 124.797 37.216 122 38.201 120.863 37.072 c h
120.863 37.072 m f
118.488 37.81 m 118.488 37.341 118.109 36.966 117.645 36.966 c 117.18 36.966
 116.801 37.341 116.801 37.81 c 116.801 38.275 117.18 38.654 117.645 38.654
 c 118.109 38.654 118.488 38.275 118.488 37.81 c h
118.488 37.81 m f
129.113 26.459 m 128.98 26.334 128.98 26.115 129.113 25.982 c 129.246 25.853
 129.461 25.853 129.586 25.994 c 129.719 26.119 129.719 26.341 129.586 26.459
 c 129.453 26.611 129.238 26.611 129.113 26.459 c h
129.113 26.459 m f
1 0.72549 0.172549 rg
111.438 36.271 m 111.438 28.72 105.316 22.595 97.762 22.595 c 90.211 22.595
 84.09 28.72 84.09 36.271 c 84.09 43.822 90.211 49.947 97.762 49.947 c 105.316
 49.947 111.438 43.822 111.438 36.271 c h
111.438 36.271 m f
1 0.568627 0.180392 rg
111.438 36.271 m 111.438 28.716 105.312 22.595 97.762 22.595 c 90.215 22.595
 84.09 28.716 84.09 36.271 c 84.09 43.814 90.215 34.502 97.762 34.502 c 
105.312 34.502 111.438 43.814 111.438 36.271 c h
111.438 36.271 m f
1 0.913725 0.4 rg
103.742 45.029 m 103.742 43.431 101.07 44.81 97.762 44.81 c 94.461 44.81
 91.777 43.431 91.777 45.029 c 91.777 46.63 94.461 47.912 97.762 47.912 
c 101.07 47.916 103.742 46.63 103.742 45.029 c h
103.742 45.029 m f
107.387 43.271 m 107.387 42.806 107.008 42.427 106.543 42.427 c 106.074
 42.427 105.695 42.806 105.695 43.271 c 105.695 43.74 106.074 44.119 106.543
 44.119 c 107.008 44.119 107.387 43.74 107.387 43.271 c h
107.387 43.271 m f
90.414 43.353 m 90.414 43.166 90.262 43.013 90.074 43.013 c 89.887 43.013
 89.734 43.166 89.734 43.353 c 89.734 43.541 89.887 43.693 90.074 43.693
 c 90.262 43.693 90.414 43.541 90.414 43.353 c h
90.414 43.353 m f
1 0.72549 0.172549 rg
111.438 13.673 m 111.438 6.123 105.316 0.002 97.762 0.002 c 90.211 0.002
 84.09 6.123 84.09 13.673 c 84.09 21.228 90.211 27.349 97.762 27.349 c 105.316
 27.349 111.438 21.228 111.438 13.673 c h
111.438 13.673 m f
1 0.568627 0.180392 rg
111.438 13.673 m 111.438 6.119 105.312 0.002 97.762 0.002 c 90.215 0.002
 84.09 6.119 84.09 13.673 c 84.09 21.216 90.215 11.904 97.762 11.904 c 105.312
 11.904 111.438 21.216 111.438 13.673 c h
111.438 13.673 m f
1 0.913725 0.4 rg
103.742 22.439 m 103.742 20.853 101.07 22.22 97.762 22.22 c 94.461 22.22
 91.777 20.853 91.777 22.439 c 91.777 24.029 94.461 25.322 97.762 25.322
 c 101.07 25.318 103.742 24.021 103.742 22.439 c h
103.742 22.439 m f
107.387 20.669 m 107.387 20.201 107.008 19.826 106.543 19.826 c 106.074
 19.826 105.695 20.201 105.695 20.669 c 105.695 21.134 106.074 21.513 106.543
 21.513 c 107.008 21.513 107.387 21.134 107.387 20.669 c h
107.387 20.669 m f
90.414 20.732 m 90.414 20.544 90.262 20.392 90.074 20.392 c 89.887 20.392
 89.734 20.544 89.734 20.732 c 89.734 20.919 89.887 21.072 90.074 21.072
 c 90.262 21.072 90.414 20.919 90.414 20.732 c h
90.414 20.732 m f
0.407843 0.678431 0.152941 rg
98.379 339.767 m 98.379 339.767 108.621 199.568 60.258 147.595 c 17.941
 102.13 24.918 71.138 24.918 71.138 c 24.918 71.138 -23.527 193.669 14.684
 291.201 c 49.098 379.017 98.379 373.857 98.379 373.857 c h
98.379 339.767 m f
0.333333 0.607843 0.0431373 rg
98.379 339.767 m 98.379 347.56 l 82.551 344.564 49.121 330.373 23.75 265.63
 c -3 197.377 12.707 116.919 24.539 74.744 c 24.105 84.095 26.367 111.185
 60.258 147.595 c 108.621 199.568 98.379 339.767 98.379 339.767 c h
98.379 339.767 m f
0.266667 0.478431 0.0431373 rg
98.379 373.857 m 98.379 339.767 l 98.379 339.767 108.621 199.568 60.258
 147.595 c f
0.407843 0.678431 0.152941 rg
97.145 339.767 m 97.145 339.767 86.906 199.568 135.27 147.595 c 177.578
 102.13 170.609 71.138 170.609 71.138 c 170.609 71.138 219.055 193.669 180.836
 291.201 c 146.434 379.017 97.145 373.857 97.145 373.857 c h
97.145 339.767 m f
0.333333 0.607843 0.0431373 rg
97.145 339.767 m 97.145 347.56 l 112.977 344.564 146.398 330.373 171.773
 265.63 c 198.523 197.377 182.82 116.919 170.98 74.744 c 171.422 84.095 
169.16 111.185 135.27 147.595 c 86.906 199.568 97.145 339.767 97.145 339.767
 c h
97.145 339.767 m f
0.266667 0.478431 0.0431373 rg
97.145 373.857 m 97.145 339.767 l 97.145 339.767 86.906 199.568 135.27 
147.595 c f
112.746 390.896 m 112.746 384.052 106.043 367.658 97.762 367.658 c 89.484
 367.658 82.777 384.06 82.777 390.896 c 82.777 397.748 89.477 403.298 97.762
 403.298 c 106.035 403.298 112.746 397.748 112.746 390.896 c h
112.746 390.896 m f
Q Q
showpage
%%Trailer
end restore
%%EOF
