%!PS-Adobe-3.0 EPSF-3.0
%%Creator: cairo 1.14.2 (http://cairographics.org)
%%CreationDate: Thu Aug  4 10:32:10 2016
%%Pages: 1
%%DocumentData: Clean7Bit
%%LanguageLevel: 2
%%BoundingBox: 0 -1 373 294
%%EndComments
%%BeginProlog
save
50 dict begin
/q { gsave } bind def
/Q { grestore } bind def
/cm { 6 array astore concat } bind def
/w { setlinewidth } bind def
/J { setlinecap } bind def
/j { setlinejoin } bind def
/M { setmiterlimit } bind def
/d { setdash } bind def
/m { moveto } bind def
/l { lineto } bind def
/c { curveto } bind def
/h { closepath } bind def
/re { exch dup neg 3 1 roll 5 3 roll moveto 0 rlineto
      0 exch rlineto 0 rlineto closepath } bind def
/S { stroke } bind def
/f { fill } bind def
/f* { eofill } bind def
/n { newpath } bind def
/W { clip } bind def
/W* { eoclip } bind def
/BT { } bind def
/ET { } bind def
/pdfmark where { pop globaldict /?pdfmark /exec load put }
    { globaldict begin /?pdfmark /pop load def /pdfmark
    /cleartomark load def end } ifelse
/BDC { mark 3 1 roll /BDC pdfmark } bind def
/EMC { mark /EMC pdfmark } bind def
/cairo_store_point { /cairo_point_y exch def /cairo_point_x exch def } def
/Tj { show currentpoint cairo_store_point } bind def
/TJ {
  {
    dup
    type /stringtype eq
    { show } { -0.001 mul 0 cairo_font_matrix dtransform rmoveto } ifelse
  } forall
  currentpoint cairo_store_point
} bind def
/cairo_selectfont { cairo_font_matrix aload pop pop pop 0 0 6 array astore
    cairo_font exch selectfont cairo_point_x cairo_point_y moveto } bind def
/Tf { pop /cairo_font exch def /cairo_font_matrix where
      { pop cairo_selectfont } if } bind def
/Td { matrix translate cairo_font_matrix matrix concatmatrix dup
      /cairo_font_matrix exch def dup 4 get exch 5 get cairo_store_point
      /cairo_font where { pop cairo_selectfont } if } bind def
/Tm { 2 copy 8 2 roll 6 array astore /cairo_font_matrix exch def
      cairo_store_point /cairo_font where { pop cairo_selectfont } if } bind def
/g { setgray } bind def
/rg { setrgbcolor } bind def
/d1 { setcachedevice } bind def
%%EndProlog
%%BeginSetup
%%EndSetup
%%Page: 1 1
%%BeginPageSetup
%%PageBoundingBox: 0 -1 373 294
%%EndPageSetup
q 0 -1 373 295 rectclip q
0.776471 0.74902 0.615686 rg
92.199 239.792 m 100.539 226.054 89.047 203.816 66.512 190.132 c 43.977
 176.445 22.383 145.894 14.047 159.632 c 5.703 173.367 -2.711 253.316 19.824
 267.003 c 42.359 280.675 83.855 253.523 92.199 239.792 c h
92.199 239.792 m f
0.858824 0.376471 0.164706 rg
64.98 220.542 m 73.324 206.804 89.047 203.816 66.512 190.132 c 43.977 176.445
 22.383 145.894 14.047 159.632 c 5.703 173.367 -2.711 253.316 19.824 267.003
 c 42.359 280.675 56.637 234.277 64.98 220.542 c h
64.98 220.542 m f
0.768627 0.286275 0.117647 rg
19.824 267.003 m 42.359 280.675 56.637 234.277 64.98 220.542 c 73.324 206.804
 89.047 203.816 66.512 190.128 c f
0.776471 0.74902 0.615686 rg
280.605 239.792 m 272.266 226.054 283.758 203.816 306.293 190.132 c 328.828
 176.445 350.422 145.894 358.758 159.632 c 367.102 173.37 375.516 253.316
 352.98 267.003 c 330.445 280.675 288.949 253.523 280.605 239.792 c h
280.605 239.792 m f
0.858824 0.376471 0.164706 rg
307.816 220.542 m 299.48 206.804 283.758 203.816 306.293 190.132 c 328.828
 176.445 350.422 145.894 358.758 159.632 c 367.102 173.37 375.516 253.316
 352.98 267.003 c 330.445 280.675 316.168 234.277 307.816 220.542 c h
307.816 220.542 m f
0.768627 0.286275 0.117647 rg
352.98 267.003 m 330.445 280.675 316.168 234.277 307.816 220.542 c 299.48
 206.804 283.758 203.816 306.293 190.128 c f
0.937255 0.913725 0.807843 rg
372.801 126.202 m 372.801 50.386 289.348 29.105 186.406 29.105 c 83.465
 29.105 0 50.386 0 126.202 c 0 202.027 83.457 263.492 186.398 263.492 c 
289.34 263.492 372.801 202.034 372.801 126.202 c h
372.801 126.202 m f
0.866667 0.843137 0.701961 rg
372.801 126.202 m 372.801 50.386 289.348 29.105 186.406 29.105 c 83.465
 29.105 0 50.386 0 126.202 c 0 202.027 83.457 244.429 186.398 244.429 c 
289.34 244.429 372.801 202.034 372.801 126.202 c h
372.801 126.202 m f
0.776471 0.74902 0.615686 rg
372.801 126.202 m 372.801 50.386 289.348 29.105 186.406 29.105 c 83.465
 29.105 0 50.386 0 126.202 c 0 202.027 83.457 160.808 186.398 160.808 c 
289.34 160.808 372.801 202.034 372.801 126.202 c h
372.801 126.202 m f
0.0313726 0.156863 0.337255 rg
129.477 172.234 m 129.477 162.988 121.98 155.492 112.734 155.492 c 103.488
 155.492 95.992 162.988 95.992 172.234 c 95.992 181.48 103.488 188.976 112.734
 188.976 c 121.98 188.976 129.477 181.48 129.477 172.234 c h
129.477 172.234 m f
276.809 172.234 m 276.809 162.988 269.312 155.492 260.066 155.492 c 250.816
 155.492 243.32 162.988 243.32 172.234 c 243.32 181.48 250.816 188.976 260.066
 188.976 c 269.312 188.976 276.809 181.48 276.809 172.234 c h
276.809 172.234 m f
0 g
129.477 172.234 m 129.477 162.976 121.984 155.484 112.734 155.484 c 103.484
 155.484 95.992 162.976 95.992 172.234 c f
276.809 172.234 m 276.809 162.976 269.316 155.484 260.07 155.484 c 250.82
 155.484 243.328 162.976 243.328 172.234 c f
0.698039 0.211765 0.0627451 rg
67.23 87.769 m 67.23 136.245 120.586 149.851 186.387 149.851 c 252.199 
149.851 305.566 136.253 305.566 87.769 c 305.566 39.304 252.199 -0.001 186.387
 -0.001 c 120.586 -0.001 67.23 39.296 67.23 87.769 c h
67.23 87.769 m f
0.768627 0.286275 0.117647 rg
67.23 87.769 m 67.23 136.245 120.586 149.851 186.387 149.851 c 252.199 
149.851 305.566 136.253 305.566 87.769 c 305.566 39.304 252.199 12.187 186.387
 12.187 c 120.586 12.187 67.23 39.296 67.23 87.769 c h
67.23 87.769 m f
0.858824 0.376471 0.164706 rg
67.23 87.769 m 67.23 136.245 120.586 149.851 186.387 149.851 c 252.199 
149.851 305.566 136.253 305.566 87.769 c 305.566 39.304 252.199 65.648 186.387
 65.648 c 120.586 65.648 67.23 39.296 67.23 87.769 c h
67.23 87.769 m f
0.768627 0.286275 0.117647 rg
222.793 78.499 m 222.793 84.409 227.574 89.191 233.496 89.191 c 239.41 
89.191 244.184 84.402 244.184 78.499 c 244.184 72.57 239.402 67.792 233.496
 67.792 c 227.574 67.792 222.793 72.57 222.793 78.499 c h
222.793 78.499 m f
128.602 78.499 m 128.602 84.409 133.387 89.191 139.297 89.191 c 145.219
 89.191 150 84.402 150 78.499 c 150 72.57 145.219 67.792 139.297 67.792 
c 133.379 67.792 128.602 72.57 128.602 78.499 c h
128.602 78.499 m f
0.698039 0.211765 0.0627451 rg
222.793 78.499 m 222.793 84.409 227.574 89.191 233.496 89.191 c 239.41 
89.191 244.184 84.402 244.184 78.499 c f
128.602 78.499 m 128.602 84.409 133.387 89.191 139.297 89.191 c 145.219
 89.191 150 84.402 150 78.499 c f
0.886275 0.733333 0.352941 rg
133.625 237.613 m 133.625 224.554 133.277 213.98 120.234 213.98 c 107.184
 213.98 86.363 224.554 86.363 237.613 c 86.363 250.656 96.938 293.538 109.992
 293.538 c 123.051 293.538 133.625 250.656 133.625 237.613 c h
133.625 237.613 m f
0.8 0.631373 0.258824 rg
109.992 293.538 m 123.043 293.538 133.625 250.656 133.625 237.613 c 133.625
 224.554 133.277 213.98 120.234 213.98 c f
0.886275 0.733333 0.352941 rg
239.176 237.613 m 239.176 224.554 239.516 213.98 252.566 213.98 c 265.609
 213.98 286.438 224.554 286.438 237.613 c 286.438 250.656 275.855 293.538
 262.805 293.538 c 249.75 293.538 239.176 250.656 239.176 237.613 c h
239.176 237.613 m f
0.8 0.631373 0.258824 rg
262.805 293.538 m 249.75 293.538 239.176 250.656 239.176 237.613 c 239.176
 224.554 239.516 213.98 252.566 213.98 c f
Q Q
showpage
%%Trailer
end restore
%%EOF
