%!PS-Adobe-3.0 EPSF-3.0
%%Creator: cairo 1.14.2 (http://cairographics.org)
%%CreationDate: Thu Aug  4 10:32:30 2016
%%Pages: 1
%%DocumentData: Clean7Bit
%%LanguageLevel: 2
%%BoundingBox: 0 -1 402 303
%%EndComments
%%BeginProlog
save
50 dict begin
/q { gsave } bind def
/Q { grestore } bind def
/cm { 6 array astore concat } bind def
/w { setlinewidth } bind def
/J { setlinecap } bind def
/j { setlinejoin } bind def
/M { setmiterlimit } bind def
/d { setdash } bind def
/m { moveto } bind def
/l { lineto } bind def
/c { curveto } bind def
/h { closepath } bind def
/re { exch dup neg 3 1 roll 5 3 roll moveto 0 rlineto
      0 exch rlineto 0 rlineto closepath } bind def
/S { stroke } bind def
/f { fill } bind def
/f* { eofill } bind def
/n { newpath } bind def
/W { clip } bind def
/W* { eoclip } bind def
/BT { } bind def
/ET { } bind def
/pdfmark where { pop globaldict /?pdfmark /exec load put }
    { globaldict begin /?pdfmark /pop load def /pdfmark
    /cleartomark load def end } ifelse
/BDC { mark 3 1 roll /BDC pdfmark } bind def
/EMC { mark /EMC pdfmark } bind def
/cairo_store_point { /cairo_point_y exch def /cairo_point_x exch def } def
/Tj { show currentpoint cairo_store_point } bind def
/TJ {
  {
    dup
    type /stringtype eq
    { show } { -0.001 mul 0 cairo_font_matrix dtransform rmoveto } ifelse
  } forall
  currentpoint cairo_store_point
} bind def
/cairo_selectfont { cairo_font_matrix aload pop pop pop 0 0 6 array astore
    cairo_font exch selectfont cairo_point_x cairo_point_y moveto } bind def
/Tf { pop /cairo_font exch def /cairo_font_matrix where
      { pop cairo_selectfont } if } bind def
/Td { matrix translate cairo_font_matrix matrix concatmatrix dup
      /cairo_font_matrix exch def dup 4 get exch 5 get cairo_store_point
      /cairo_font where { pop cairo_selectfont } if } bind def
/Tm { 2 copy 8 2 roll 6 array astore /cairo_font_matrix exch def
      cairo_store_point /cairo_font where { pop cairo_selectfont } if } bind def
/g { setgray } bind def
/rg { setrgbcolor } bind def
/d1 { setcachedevice } bind def
%%EndProlog
%%BeginSetup
%%EndSetup
%%Page: 1 1
%%BeginPageSetup
%%PageBoundingBox: 0 -1 402 303
%%EndPageSetup
q 0 -1 402 304 rectclip q
0.337255 0.145098 0.0588235 rg
5.254 292.246 m -14.02 272.543 23.637 260.285 54.961 229.672 c 86.262 199.039
 99.352 161.648 118.625 181.34 c 137.883 201.031 128.137 241.836 96.832 
272.453 c 65.512 303.082 24.512 311.938 5.254 292.246 c h
5.254 292.246 m f
0.898039 0.529412 0.380392 rg
79.641 260.738 m 54.848 284.988 24.027 295.523 2.672 289.109 c -9.867 271.164
 25.355 258.621 54.961 229.672 c 79.191 205.953 92.512 178.316 106.242 176.121
 c 118.469 197.348 107.84 233.152 79.641 260.738 c h
79.641 260.738 m f
0.847059 0.415686 0.223529 rg
67.035 248.137 m 87.297 228.32 105.281 204.223 105.449 184.383 c 106.242
 176.121 l 118.469 197.34 107.844 233.145 79.641 260.738 c 54.848 284.988
 24.027 295.523 2.672 289.109 c f
0.337255 0.145098 0.0588235 rg
396.371 292.246 m 415.656 272.543 377.992 260.285 346.672 229.672 c 315.379
 199.039 302.285 161.648 283.008 181.34 c 263.75 201.031 273.5 241.836 304.797
 272.453 c 336.117 303.082 377.121 311.938 396.371 292.246 c h
396.371 292.246 m f
0.898039 0.529412 0.380392 rg
321.988 260.738 m 346.781 284.988 377.605 295.523 398.965 289.109 c 411.504
 271.164 376.277 258.621 346.672 229.672 c 322.441 205.953 309.121 178.316
 295.391 176.125 c 283.168 197.348 293.789 233.152 321.988 260.738 c h
321.988 260.738 m f
0.847059 0.415686 0.223529 rg
334.594 248.137 m 314.34 228.32 296.355 204.223 296.18 184.383 c 295.391
 176.121 l 283.164 197.34 293.781 233.145 321.988 260.738 c 346.777 284.988
 377.605 295.523 398.961 289.109 c f
0.898039 0.529412 0.380392 rg
387.211 106.773 m 387.211 30.961 303.758 9.68 200.816 9.68 c 97.875 9.68
 14.418 30.961 14.418 106.773 c 14.418 182.602 97.875 244.066 200.816 244.066
 c 303.758 244.066 387.211 182.602 387.211 106.773 c h
387.211 106.773 m f
0.847059 0.415686 0.223529 rg
387.211 106.773 m 387.211 30.961 303.758 9.68 200.816 9.68 c 97.875 9.68
 14.418 30.961 14.418 106.773 c 14.418 182.602 97.875 225.004 200.816 225.004
 c 303.758 225.004 387.211 182.602 387.211 106.773 c h
387.211 106.773 m f
0.756863 0.301961 0.0784314 rg
387.211 106.773 m 387.211 30.961 303.758 9.68 200.816 9.68 c 97.875 9.68
 14.418 30.961 14.418 106.773 c 14.418 182.602 97.875 141.383 200.816 141.383
 c 303.758 141.383 387.211 182.602 387.211 106.773 c h
387.211 106.773 m f
0.0313726 0.156863 0.337255 rg
143.895 121.312 m 143.895 112.066 136.398 104.57 127.152 104.57 c 117.906
 104.57 110.41 112.066 110.41 121.312 c 110.41 130.559 117.906 138.055 127.152
 138.055 c 136.398 138.055 143.895 130.559 143.895 121.312 c h
143.895 121.312 m f
291.227 121.312 m 291.227 112.066 283.73 104.57 274.48 104.57 c 265.234
 104.57 257.738 112.066 257.738 121.312 c 257.738 130.559 265.234 138.055
 274.48 138.055 c 283.73 138.055 291.227 130.559 291.227 121.312 c h
291.227 121.312 m f
0 g
143.895 121.301 m 143.895 112.043 136.402 104.551 127.152 104.551 c 117.902
 104.551 110.41 112.043 110.41 121.301 c f
291.227 121.301 m 291.227 112.043 283.734 104.551 274.488 104.551 c 265.238
 104.551 257.746 112.043 257.746 121.301 c f
0.337255 0.145098 0.0588235 rg
274.848 72.324 m 274.848 52.926 241.688 10.637 200.816 10.637 c 159.934
 10.637 126.785 52.926 126.785 72.324 c 126.785 91.73 159.934 107.449 200.816
 107.449 c 241.688 107.449 274.848 91.73 274.848 72.324 c h
274.848 72.324 m f
0.14902 0.0627451 0.0196078 rg
274.848 72.324 m 274.848 52.926 241.688 10.637 200.816 10.637 c 159.934
 10.637 126.785 52.926 126.785 72.324 c 126.785 91.73 159.934 75.965 200.816
 75.965 c 241.688 75.965 274.848 91.73 274.848 72.324 c h
274.848 72.324 m f
0.94902 0.333333 0.584314 rg
145.875 21.848 m 128.789 26.945 113.793 34.105 102.344 42.02 c 97.164 27.93
 95.574 9.801 104.578 2.918 c 116.516 -6.188 142.629 7.84 152.824 19.938
 c 150.523 20.52 148.211 21.148 145.875 21.848 c h
145.875 21.848 m f
0.976471 0.501961 0.717647 rg
102.344 42.02 m 100.113 35.953 98.625 29.172 98.285 22.82 c 98.859 20.297
 99.777 17.961 101.379 16.09 c 110.934 4.914 137.027 11.129 151.973 20.172
 c 149.953 20.688 147.922 21.23 145.867 21.848 c 128.789 26.945 113.793 
34.109 102.344 42.02 c h
102.344 42.02 m f
Q Q
showpage
%%Trailer
end restore
%%EOF
