%!PS-Adobe-3.0 EPSF-3.0
%%Creator: cairo 1.14.2 (http://cairographics.org)
%%CreationDate: Thu Aug  4 10:32:38 2016
%%Pages: 1
%%DocumentData: Clean7Bit
%%LanguageLevel: 2
%%BoundingBox: 0 -1 300 404
%%EndComments
%%BeginProlog
save
50 dict begin
/q { gsave } bind def
/Q { grestore } bind def
/cm { 6 array astore concat } bind def
/w { setlinewidth } bind def
/J { setlinecap } bind def
/j { setlinejoin } bind def
/M { setmiterlimit } bind def
/d { setdash } bind def
/m { moveto } bind def
/l { lineto } bind def
/c { curveto } bind def
/h { closepath } bind def
/re { exch dup neg 3 1 roll 5 3 roll moveto 0 rlineto
      0 exch rlineto 0 rlineto closepath } bind def
/S { stroke } bind def
/f { fill } bind def
/f* { eofill } bind def
/n { newpath } bind def
/W { clip } bind def
/W* { eoclip } bind def
/BT { } bind def
/ET { } bind def
/pdfmark where { pop globaldict /?pdfmark /exec load put }
    { globaldict begin /?pdfmark /pop load def /pdfmark
    /cleartomark load def end } ifelse
/BDC { mark 3 1 roll /BDC pdfmark } bind def
/EMC { mark /EMC pdfmark } bind def
/cairo_store_point { /cairo_point_y exch def /cairo_point_x exch def } def
/Tj { show currentpoint cairo_store_point } bind def
/TJ {
  {
    dup
    type /stringtype eq
    { show } { -0.001 mul 0 cairo_font_matrix dtransform rmoveto } ifelse
  } forall
  currentpoint cairo_store_point
} bind def
/cairo_selectfont { cairo_font_matrix aload pop pop pop 0 0 6 array astore
    cairo_font exch selectfont cairo_point_x cairo_point_y moveto } bind def
/Tf { pop /cairo_font exch def /cairo_font_matrix where
      { pop cairo_selectfont } if } bind def
/Td { matrix translate cairo_font_matrix matrix concatmatrix dup
      /cairo_font_matrix exch def dup 4 get exch 5 get cairo_store_point
      /cairo_font where { pop cairo_selectfont } if } bind def
/Tm { 2 copy 8 2 roll 6 array astore /cairo_font_matrix exch def
      cairo_store_point /cairo_font where { pop cairo_selectfont } if } bind def
/g { setgray } bind def
/rg { setrgbcolor } bind def
/d1 { setcachedevice } bind def
%%EndProlog
%%BeginSetup
%%EndSetup
%%Page: 1 1
%%BeginPageSetup
%%PageBoundingBox: 0 -1 300 404
%%EndPageSetup
q 0 -1 300 405 rectclip q
0.592157 0.658824 0.666667 rg
281.781 32.076 m 281.781 14.369 222.59 0.017 149.574 0.017 c 76.559 0.017
 17.367 14.369 17.367 32.076 c 17.367 49.779 76.559 64.13 149.574 64.13 
c 222.59 64.13 281.781 49.779 281.781 32.076 c h
281.781 32.076 m f
0.682353 0.72549 0.729412 rg
281.781 32.056 m 281.781 14.341 222.59 0.002 149.574 0.002 c 76.559 0.002
 17.375 14.341 17.375 32.056 c f
0.909804 0.698039 0.466667 rg
299.16 168.271 m 299.16 85.642 232.207 18.669 149.574 18.669 c 66.992 18.669
 0.008 85.642 0.008 168.271 c 0 250.877 66.984 403.298 149.574 403.298 c
 232.207 403.298 299.16 250.877 299.16 168.271 c h
299.16 168.271 m f
0.937255 0.74902 0.545098 rg
0 168.271 m 0 250.877 66.984 403.298 149.574 403.298 c f
0.847059 0.619608 0.376471 rg
149.574 403.298 m 232.207 403.298 299.16 250.877 299.16 168.271 c 299.16
 85.642 232.207 18.669 149.574 18.669 c f
Q Q
showpage
%%Trailer
end restore
%%EOF
