%!PS-Adobe-3.0 EPSF-3.0
%%Creator: cairo 1.14.2 (http://cairographics.org)
%%CreationDate: Thu Aug  4 10:32:46 2016
%%Pages: 1
%%DocumentData: Clean7Bit
%%LanguageLevel: 2
%%BoundingBox: 0 -1 397 240
%%EndComments
%%BeginProlog
save
50 dict begin
/q { gsave } bind def
/Q { grestore } bind def
/cm { 6 array astore concat } bind def
/w { setlinewidth } bind def
/J { setlinecap } bind def
/j { setlinejoin } bind def
/M { setmiterlimit } bind def
/d { setdash } bind def
/m { moveto } bind def
/l { lineto } bind def
/c { curveto } bind def
/h { closepath } bind def
/re { exch dup neg 3 1 roll 5 3 roll moveto 0 rlineto
      0 exch rlineto 0 rlineto closepath } bind def
/S { stroke } bind def
/f { fill } bind def
/f* { eofill } bind def
/n { newpath } bind def
/W { clip } bind def
/W* { eoclip } bind def
/BT { } bind def
/ET { } bind def
/pdfmark where { pop globaldict /?pdfmark /exec load put }
    { globaldict begin /?pdfmark /pop load def /pdfmark
    /cleartomark load def end } ifelse
/BDC { mark 3 1 roll /BDC pdfmark } bind def
/EMC { mark /EMC pdfmark } bind def
/cairo_store_point { /cairo_point_y exch def /cairo_point_x exch def } def
/Tj { show currentpoint cairo_store_point } bind def
/TJ {
  {
    dup
    type /stringtype eq
    { show } { -0.001 mul 0 cairo_font_matrix dtransform rmoveto } ifelse
  } forall
  currentpoint cairo_store_point
} bind def
/cairo_selectfont { cairo_font_matrix aload pop pop pop 0 0 6 array astore
    cairo_font exch selectfont cairo_point_x cairo_point_y moveto } bind def
/Tf { pop /cairo_font exch def /cairo_font_matrix where
      { pop cairo_selectfont } if } bind def
/Td { matrix translate cairo_font_matrix matrix concatmatrix dup
      /cairo_font_matrix exch def dup 4 get exch 5 get cairo_store_point
      /cairo_font where { pop cairo_selectfont } if } bind def
/Tm { 2 copy 8 2 roll 6 array astore /cairo_font_matrix exch def
      cairo_store_point /cairo_font where { pop cairo_selectfont } if } bind def
/g { setgray } bind def
/rg { setrgbcolor } bind def
/d1 { setcachedevice } bind def
%%EndProlog
%%BeginSetup
%%EndSetup
%%Page: 1 1
%%BeginPageSetup
%%PageBoundingBox: 0 -1 397 240
%%EndPageSetup
q 0 -1 397 241 rectclip q
0.74902 0.670588 0.541176 rg
50.727 8.851 m 50.727 -1.125 42.641 0.043 32.68 0.043 c 22.719 0.043 14.625
 -1.117 14.625 8.851 c 8.211 39.754 l 8.211 49.73 22.719 57.808 32.68 57.808
 c 42.641 57.808 57.156 49.73 57.156 39.754 c h
50.727 8.851 m f
0.678431 0.6 0.482353 rg
43.934 8.851 m 43.934 -1.125 38.879 0.043 32.68 0.043 c 26.48 0.043 21.438
 -1.117 21.438 8.851 c 17.438 39.754 l 17.438 49.73 26.48 57.808 32.68 57.808
 c 38.879 57.808 47.918 49.73 47.918 39.754 c h
43.934 8.851 m f
0.74902 0.670588 0.541176 rg
133.645 8.851 m 133.645 -1.125 125.559 0.043 115.594 0.043 c 105.625 0.043
 97.543 -1.117 97.543 8.851 c 91.109 39.754 l 91.109 49.73 105.625 57.808
 115.598 57.808 c 125.559 57.808 140.059 49.73 140.059 39.754 c h
133.645 8.851 m f
0.678431 0.6 0.482353 rg
126.836 8.851 m 126.836 -1.125 121.789 0.043 115.598 0.043 c 109.383 0.043
 104.355 -1.117 104.355 8.851 c 100.34 39.754 l 100.34 49.73 109.383 57.808
 115.598 57.808 c 121.789 57.808 130.832 49.73 130.832 39.754 c h
126.836 8.851 m f
0.74902 0.670588 0.541176 rg
216.547 8.851 m 216.547 -1.125 208.469 0.043 198.5 0.043 c 188.531 0.043
 180.449 -1.117 180.449 8.851 c 174.016 39.754 l 174.016 49.73 188.531 57.808
 198.5 57.808 c 208.469 57.808 222.973 49.73 222.973 39.754 c h
216.547 8.851 m f
0.678431 0.6 0.482353 rg
209.742 8.851 m 209.742 -1.125 204.707 0.043 198.5 0.043 c 192.305 0.043
 187.258 -1.117 187.258 8.851 c 183.258 39.754 l 183.258 49.73 192.305 57.808
 198.5 57.808 c 204.707 57.808 213.754 49.73 213.754 39.754 c h
209.742 8.851 m f
0.74902 0.670588 0.541176 rg
299.457 8.851 m 299.457 -1.125 291.371 0.043 281.402 0.043 c 271.445 0.043
 263.355 -1.117 263.355 8.851 c 256.938 39.754 l 256.938 49.73 271.445 57.808
 281.402 57.808 c 291.371 57.808 305.883 49.73 305.883 39.754 c h
299.457 8.851 m f
0.678431 0.6 0.482353 rg
292.656 8.851 m 292.656 -1.125 287.613 0.043 281.402 0.043 c 275.199 0.043
 270.16 -1.117 270.16 8.851 c 266.164 39.754 l 266.164 49.73 275.203 57.808
 281.402 57.808 c 287.613 57.808 296.656 49.73 296.656 39.754 c h
292.656 8.851 m f
0.74902 0.670588 0.541176 rg
382.379 8.851 m 382.379 -1.125 374.301 0.043 364.324 0.043 c 354.363 0.043
 346.277 -1.117 346.277 8.851 c 339.848 39.754 l 339.848 49.73 354.363 57.808
 364.324 57.808 c 374.301 57.808 388.793 49.73 388.793 39.754 c h
382.379 8.851 m f
0.678431 0.6 0.482353 rg
375.566 8.851 m 375.566 -1.125 370.523 0.043 364.324 0.043 c 358.117 0.043
 353.082 -1.117 353.082 8.851 c 349.082 39.754 l 349.082 49.73 358.117 57.808
 364.324 57.808 c 370.523 57.808 379.566 49.73 379.566 39.754 c h
375.566 8.851 m f
0.74902 0.670588 0.541176 rg
396.996 63.191 m 396.996 44.418 381.777 28.562 363.02 28.562 c 33.973 28.562
 l 15.219 28.562 0 44.418 0 63.191 c 0 113.023 l 0 131.789 15.219 148.293
 33.973 148.293 c 363.023 148.293 l 381.777 148.293 396.996 131.789 396.996
 113.015 c h
396.996 63.191 m f
0.8 0.713726 0.588235 rg
363.02 148.293 m 33.973 148.293 l 15.219 148.293 0 131.789 0 113.015 c 
0 109.621 l 0 90.855 15.219 72.676 33.973 72.676 c 363.023 72.676 l 381.777
 72.676 396.996 90.855 396.996 109.625 c 396.996 113.023 l 396.996 131.789
 381.777 148.293 363.02 148.293 c h
363.02 148.293 m f
0.858824 0.764706 0.631373 rg
111.43 129.746 m 111.43 124.5 93.875 117.476 72.211 117.476 c 50.543 117.476
 32.988 124.504 32.988 129.746 c 32.988 134.996 50.543 139.254 72.211 139.254
 c 93.875 139.254 111.43 135.004 111.43 129.746 c h
111.43 129.746 m f
0.619608 0.545098 0.411765 rg
111.43 129.746 m 111.43 124.496 93.871 120.238 72.211 120.238 c 50.547 
120.238 32.988 124.496 32.988 129.746 c 32.988 135 50.547 139.254 72.211
 139.254 c 93.871 139.254 111.43 135 111.43 129.746 c h
111.43 129.746 m f
0.498039 0.427451 0.313726 rg
111.43 129.746 m 111.43 124.5 93.875 120.238 72.211 120.238 c 50.543 120.238
 32.988 124.504 32.988 129.746 c f
0.909804 0.698039 0.466667 rg
116.578 170.16 m 116.578 145.64 96.715 125.785 72.211 125.785 c 47.703 
125.785 27.836 145.644 27.836 170.16 c 27.836 194.66 47.703 239.871 72.211
 239.871 c 96.715 239.871 116.578 194.66 116.578 170.16 c h
116.578 170.16 m f
0.937255 0.74902 0.545098 rg
27.832 170.16 m 27.832 194.66 47.703 239.871 72.207 239.871 c f
0.847059 0.619608 0.376471 rg
72.211 239.879 m 96.715 239.879 116.578 194.664 116.578 170.164 c 116.578
 145.644 96.715 125.789 72.211 125.789 c f
0.858824 0.764706 0.631373 rg
237.727 129.746 m 237.727 124.5 220.164 117.476 198.5 117.476 c 176.832
 117.476 159.27 124.504 159.27 129.746 c 159.27 134.996 176.832 139.254 
198.5 139.254 c 220.164 139.254 237.727 135.004 237.727 129.746 c h
237.727 129.746 m f
0.619608 0.545098 0.411765 rg
237.727 129.746 m 237.727 124.496 220.164 120.238 198.5 120.238 c 176.832
 120.238 159.27 124.496 159.27 129.746 c 159.27 135 176.832 139.254 198.5
 139.254 c 220.164 139.254 237.727 135 237.727 129.746 c h
237.727 129.746 m f
0.498039 0.427451 0.313726 rg
237.727 129.746 m 237.727 124.5 220.164 120.238 198.5 120.238 c 176.832
 120.238 159.27 124.504 159.27 129.746 c f
0.909804 0.698039 0.466667 rg
242.867 170.16 m 242.867 145.64 223 125.785 198.5 125.785 c 173.992 125.785
 154.125 145.644 154.125 170.16 c 154.125 194.66 173.992 239.871 198.5 239.871
 c 223 239.879 242.867 194.66 242.867 170.16 c h
242.867 170.16 m f
0.937255 0.74902 0.545098 rg
154.125 170.16 m 154.125 194.66 173.992 239.871 198.5 239.871 c f
0.847059 0.619608 0.376471 rg
198.5 239.879 m 223 239.879 242.867 194.664 242.867 170.164 c 242.867 145.644
 223 125.789 198.5 125.789 c f
0.858824 0.764706 0.631373 rg
364.016 129.746 m 364.016 124.5 346.453 117.476 324.789 117.476 c 303.121
 117.476 285.559 124.504 285.559 129.746 c 285.559 134.996 303.121 139.254
 324.789 139.254 c 346.453 139.254 364.016 135.004 364.016 129.746 c h
364.016 129.746 m f
0.619608 0.545098 0.411765 rg
364.008 129.746 m 364.008 124.496 346.445 120.238 324.781 120.238 c 303.117
 120.238 285.555 124.496 285.555 129.746 c 285.555 135 303.117 139.254 324.781
 139.254 c 346.445 139.254 364.008 135 364.008 129.746 c h
364.008 129.746 m f
0.498039 0.427451 0.313726 rg
364.016 129.746 m 364.016 124.5 346.453 120.238 324.789 120.238 c 303.121
 120.238 285.559 124.504 285.559 129.746 c f
0.909804 0.698039 0.466667 rg
369.156 170.16 m 369.156 145.64 349.289 125.785 324.789 125.785 c 300.281
 125.785 280.414 145.644 280.414 170.16 c 280.414 194.66 300.281 239.871
 324.789 239.871 c 349.289 239.879 369.156 194.66 369.156 170.16 c h
369.156 170.16 m f
0.937255 0.74902 0.545098 rg
280.41 170.16 m 280.41 194.66 300.281 239.871 324.789 239.871 c f
0.847059 0.619608 0.376471 rg
324.789 239.879 m 349.289 239.879 369.156 194.664 369.156 170.164 c 369.156
 145.644 349.289 125.789 324.789 125.789 c f
Q Q
showpage
%%Trailer
end restore
%%EOF
