%!PS-Adobe-3.0 EPSF-3.0
%%Creator: cairo 1.14.2 (http://cairographics.org)
%%CreationDate: Thu Aug  4 10:31:12 2016
%%Pages: 1
%%DocumentData: Clean7Bit
%%LanguageLevel: 2
%%BoundingBox: 0 -1 300 404
%%EndComments
%%BeginProlog
save
50 dict begin
/q { gsave } bind def
/Q { grestore } bind def
/cm { 6 array astore concat } bind def
/w { setlinewidth } bind def
/J { setlinecap } bind def
/j { setlinejoin } bind def
/M { setmiterlimit } bind def
/d { setdash } bind def
/m { moveto } bind def
/l { lineto } bind def
/c { curveto } bind def
/h { closepath } bind def
/re { exch dup neg 3 1 roll 5 3 roll moveto 0 rlineto
      0 exch rlineto 0 rlineto closepath } bind def
/S { stroke } bind def
/f { fill } bind def
/f* { eofill } bind def
/n { newpath } bind def
/W { clip } bind def
/W* { eoclip } bind def
/BT { } bind def
/ET { } bind def
/pdfmark where { pop globaldict /?pdfmark /exec load put }
    { globaldict begin /?pdfmark /pop load def /pdfmark
    /cleartomark load def end } ifelse
/BDC { mark 3 1 roll /BDC pdfmark } bind def
/EMC { mark /EMC pdfmark } bind def
/cairo_store_point { /cairo_point_y exch def /cairo_point_x exch def } def
/Tj { show currentpoint cairo_store_point } bind def
/TJ {
  {
    dup
    type /stringtype eq
    { show } { -0.001 mul 0 cairo_font_matrix dtransform rmoveto } ifelse
  } forall
  currentpoint cairo_store_point
} bind def
/cairo_selectfont { cairo_font_matrix aload pop pop pop 0 0 6 array astore
    cairo_font exch selectfont cairo_point_x cairo_point_y moveto } bind def
/Tf { pop /cairo_font exch def /cairo_font_matrix where
      { pop cairo_selectfont } if } bind def
/Td { matrix translate cairo_font_matrix matrix concatmatrix dup
      /cairo_font_matrix exch def dup 4 get exch 5 get cairo_store_point
      /cairo_font where { pop cairo_selectfont } if } bind def
/Tm { 2 copy 8 2 roll 6 array astore /cairo_font_matrix exch def
      cairo_store_point /cairo_font where { pop cairo_selectfont } if } bind def
/g { setgray } bind def
/rg { setrgbcolor } bind def
/d1 { setcachedevice } bind def
%%EndProlog
%%BeginSetup
%%EndSetup
%%Page: 1 1
%%BeginPageSetup
%%PageBoundingBox: 0 -1 300 404
%%EndPageSetup
q 0 -1 300 405 rectclip q
0.592157 0.658824 0.666667 rg
281.793 32.076 m 281.793 14.369 222.602 0.017 149.59 0.017 c 76.578 0.017
 17.391 14.369 17.391 32.076 c 17.391 49.779 76.578 64.13 149.59 64.13 c
 222.602 64.13 281.793 49.779 281.793 32.076 c h
281.793 32.076 m f
0.682353 0.72549 0.729412 rg
281.797 32.056 m 281.797 14.341 222.605 0.002 149.59 0.002 c 76.574 0.002
 17.391 14.341 17.391 32.056 c f
0.909804 0.698039 0.466667 rg
31.055 274.666 m 47.992 257.728 l 64.93 274.666 l 81.867 257.728 l 98.809
 274.666 l 115.746 257.728 l 132.684 274.666 l 149.621 257.728 l 166.562
 274.666 l 183.5 257.728 l 200.438 274.666 l 217.375 257.728 l 234.312 274.666
 l 251.254 257.728 l 268.191 274.666 l 279.836 263.013 l 254.102 333.662
 205.438 403.298 149.586 403.298 c 93.773 403.298 45.117 333.666 19.422 
263.025 c h
31.055 274.666 m f
287.777 238.587 m 268.148 218.959 l 251.211 235.896 l 234.27 218.959 l 
217.332 235.896 l 200.395 218.959 l 183.457 235.9 l 166.52 218.959 l 149.598
 235.9 l 132.66 218.959 l 115.723 235.9 l 98.781 218.959 l 81.844 235.9 
l 64.906 218.959 l 47.969 235.9 l 31.027 218.959 l 11.398 238.584 l 4.062
 213.13 0 188.58 0 168.271 c 0 85.646 66.98 18.673 149.562 18.673 c 232.191
 18.673 299.145 85.646 299.145 168.271 c 299.172 188.587 295.113 213.13 
287.777 238.587 c h
287.777 238.587 m f
0.937255 0.74902 0.545098 rg
31.055 274.666 m 47.992 257.728 l 64.93 274.666 l 66.637 272.951 l 149.586
 403.298 l 93.773 403.298 45.117 333.666 19.422 263.025 c h
31.055 274.666 m f
31.055 218.959 m 11.426 238.584 l 4.09 213.13 0.023 188.58 0.023 168.271
 c 34.426 222.33 l h
31.055 218.959 m f
0.847059 0.619608 0.376471 rg
149.598 257.728 m 166.535 274.666 l 183.473 257.728 l 200.414 274.666 l
 217.352 257.728 l 234.289 274.666 l 251.227 257.728 l 268.168 274.666 l
 279.812 263.013 l 254.102 333.662 205.438 403.298 149.586 403.298 c 149.586
 257.732 l h
149.598 257.728 m f
287.777 238.587 m 268.148 218.959 l 251.211 235.896 l 234.27 218.959 l 
217.332 235.896 l 200.395 218.959 l 183.457 235.9 l 166.52 218.959 l 149.598
 235.9 l 149.586 235.892 l 149.586 18.673 l 232.215 18.673 299.172 85.646
 299.172 168.271 c 299.172 188.587 295.113 213.13 287.777 238.587 c h
287.777 238.587 m f
Q Q
showpage
%%Trailer
end restore
%%EOF
