%!PS-Adobe-3.0 EPSF-3.0
%%Creator: cairo 1.14.2 (http://cairographics.org)
%%CreationDate: Thu Aug  4 10:32:54 2016
%%Pages: 1
%%DocumentData: Clean7Bit
%%LanguageLevel: 2
%%BoundingBox: 0 -1 397 387
%%EndComments
%%BeginProlog
save
50 dict begin
/q { gsave } bind def
/Q { grestore } bind def
/cm { 6 array astore concat } bind def
/w { setlinewidth } bind def
/J { setlinecap } bind def
/j { setlinejoin } bind def
/M { setmiterlimit } bind def
/d { setdash } bind def
/m { moveto } bind def
/l { lineto } bind def
/c { curveto } bind def
/h { closepath } bind def
/re { exch dup neg 3 1 roll 5 3 roll moveto 0 rlineto
      0 exch rlineto 0 rlineto closepath } bind def
/S { stroke } bind def
/f { fill } bind def
/f* { eofill } bind def
/n { newpath } bind def
/W { clip } bind def
/W* { eoclip } bind def
/BT { } bind def
/ET { } bind def
/pdfmark where { pop globaldict /?pdfmark /exec load put }
    { globaldict begin /?pdfmark /pop load def /pdfmark
    /cleartomark load def end } ifelse
/BDC { mark 3 1 roll /BDC pdfmark } bind def
/EMC { mark /EMC pdfmark } bind def
/cairo_store_point { /cairo_point_y exch def /cairo_point_x exch def } def
/Tj { show currentpoint cairo_store_point } bind def
/TJ {
  {
    dup
    type /stringtype eq
    { show } { -0.001 mul 0 cairo_font_matrix dtransform rmoveto } ifelse
  } forall
  currentpoint cairo_store_point
} bind def
/cairo_selectfont { cairo_font_matrix aload pop pop pop 0 0 6 array astore
    cairo_font exch selectfont cairo_point_x cairo_point_y moveto } bind def
/Tf { pop /cairo_font exch def /cairo_font_matrix where
      { pop cairo_selectfont } if } bind def
/Td { matrix translate cairo_font_matrix matrix concatmatrix dup
      /cairo_font_matrix exch def dup 4 get exch 5 get cairo_store_point
      /cairo_font where { pop cairo_selectfont } if } bind def
/Tm { 2 copy 8 2 roll 6 array astore /cairo_font_matrix exch def
      cairo_store_point /cairo_font where { pop cairo_selectfont } if } bind def
/g { setgray } bind def
/rg { setrgbcolor } bind def
/d1 { setcachedevice } bind def
%%EndProlog
%%BeginSetup
%%EndSetup
%%Page: 1 1
%%BeginPageSetup
%%PageBoundingBox: 0 -1 397 387
%%EndPageSetup
q 0 -1 397 388 rectclip q
0.2 0.329412 0.356863 rg
312.809 12.615 m 311.598 12.615 l 280.871 156.58 l 283.051 156.772 284.793
 158.549 284.793 160.783 c 284.793 161.858 284.375 162.795 283.719 163.553
 c 283.734 163.565 283.746 163.565 283.746 163.565 c 283.746 163.565 283.688
 163.615 283.676 163.635 c 283.348 163.979 282.977 164.252 282.562 164.483
 c 282.465 164.533 282.383 164.627 282.277 164.694 c 281.723 164.924 281.129
 165.084 280.512 165.084 c 229.016 165.084 l 228.387 165.084 227.789 164.932
 227.246 164.694 c 227.121 164.627 227.051 164.533 226.93 164.463 c 226.535
 164.233 226.164 163.967 225.859 163.631 c 225.836 163.6 225.797 163.588
 225.797 163.588 c 225.797 163.588 225.797 163.565 225.805 163.557 c 225.156
 162.795 224.73 161.858 224.73 160.783 c 224.73 158.549 226.457 156.764 
228.656 156.58 c 197.918 12.615 l 196.715 12.615 l 193.223 12.615 190.398
 9.799 190.398 6.307 c 190.398 2.83 193.23 0.002 196.715 0.002 c 312.809
 0.002 l 316.305 0.002 319.133 2.83 319.133 6.307 c 319.137 9.799 316.301
 12.615 312.809 12.615 c h
312.809 12.615 m f
390.004 12.615 m 388.785 12.615 l 358.059 156.58 l 360.246 156.772 361.984
 158.549 361.984 160.783 c 361.984 161.858 361.562 162.795 360.914 163.553
 c 360.922 163.565 360.934 163.565 360.934 163.565 c 360.922 163.588 360.871
 163.615 360.859 163.635 c 360.547 163.979 360.164 164.252 359.75 164.483
 c 359.656 164.533 359.578 164.627 359.473 164.694 c 358.91 164.924 358.332
 165.084 357.695 165.084 c 306.191 165.084 l 305.566 165.084 304.977 164.932
 304.434 164.694 c 304.312 164.627 304.23 164.533 304.105 164.463 c 303.707
 164.233 303.336 163.967 303.039 163.631 c 303.016 163.6 302.973 163.588
 302.945 163.569 c 302.961 163.565 302.973 163.565 302.984 163.557 c 302.328
 162.795 301.914 161.854 301.914 160.783 c 301.914 158.549 303.645 156.764
 305.84 156.58 c 275.113 12.615 l 273.895 12.615 l 270.41 12.615 267.582
 9.799 267.582 6.307 c 267.582 2.83 270.418 -0.002 273.895 -0.002 c 383.844
 -0.002 l 387.344 -0.002 386.555 2.83 386.555 6.307 c 386.547 9.799 393.488
 12.615 390.004 12.615 c h
390.004 12.615 m f
0.407843 0.686275 0.709804 rg
239.637 18.854 m 176.387 315.014 l 76.758 315.014 l 13.512 18.854 l h
239.637 18.854 m f
0.545098 0.811765 0.819608 rg
76.758 315.014 m 13.512 18.854 l 55.102 18.854 l f
0.317647 0.564706 0.588235 rg
239.637 18.854 m 176.387 315.014 l 76.758 315.014 l f
0.407843 0.686275 0.709804 rg
185.629 316.174 m 185.629 311.518 181.855 307.744 177.207 307.744 c 75.941
 307.744 l 71.277 307.744 67.508 311.518 67.508 316.174 c 67.508 320.846
 71.281 324.619 75.941 324.619 c 177.199 324.619 l 181.855 324.619 185.629
 320.846 185.629 316.174 c h
185.629 316.174 m f
0.521569 0.780392 0.788235 rg
177.199 324.619 m 75.941 324.619 l 73.367 324.619 71.102 323.448 69.559
 321.631 c 71.105 319.83 73.371 318.658 75.941 318.658 c 177.199 318.658
 l 179.766 318.658 182.039 319.834 183.582 321.631 c 182.039 323.451 179.766
 324.619 177.199 324.619 c h
177.199 324.619 m f
0.407843 0.686275 0.709804 rg
396.996 12.408 m 396.996 5.553 391.438 0.002 384.59 0.002 c 12.406 0.002
 l 5.559 0.002 0 5.553 0 12.408 c 0 19.26 5.559 24.811 12.406 24.811 c 384.59
 24.811 l 391.438 24.815 396.996 19.264 396.996 12.408 c h
396.996 12.408 m f
0.545098 0.811765 0.819608 rg
69.977 12.408 m 69.977 19.26 64.434 24.811 57.582 24.811 c 12.406 24.811
 l 5.559 24.815 0 19.264 0 12.408 c 0 5.553 5.559 0.002 12.406 0.002 c 57.586
 0.002 l 64.438 0.002 69.977 5.553 69.977 12.408 c h
69.977 12.408 m f
1 0.486275 0.141176 rg
55.277 214.428 m 197.867 214.428 l 189.387 254.135 l 63.758 254.135 l h
55.277 214.428 m f
1 0.654902 0.152941 rg
69.398 214.428 m 72.305 254.135 l 63.758 254.135 l 61.227 242.307 l 55.277
 214.428 l h
69.398 214.428 m f
0.866667 0.356863 0.0117647 rg
132.074 214.428 m 197.867 214.428 l 191.922 242.307 l 189.387 254.135 l
 110.234 254.135 l h
132.074 214.428 m f
0.545098 0.811765 0.819608 rg
241.996 208.858 m 228.297 208.858 217.164 220.006 217.164 233.694 c 217.164
 247.381 228.305 258.53 241.996 258.53 c 241.996 253.795 l 230.914 253.795
 221.891 244.78 221.891 233.694 c 221.891 222.608 230.914 213.584 241.996
 213.584 c h
241.996 208.858 m f
234.902 177.522 m 234.902 182.248 l 245.988 182.248 255.004 191.264 255.004
 202.358 c 255.004 213.44 245.988 222.459 234.902 222.459 c 234.902 227.186
 l 248.598 227.186 259.73 216.041 259.73 202.358 c 259.73 188.662 248.598
 177.522 234.902 177.522 c h
234.902 177.522 m f
280.703 208.858 m 267.004 208.858 255.867 220.006 255.867 233.694 c 255.867
 247.381 267.008 258.53 280.703 258.53 c 280.703 253.795 l 269.617 253.795
 260.594 244.78 260.594 233.694 c 260.594 222.608 269.617 213.584 280.703
 213.584 c h
280.703 208.858 m f
273.605 177.522 m 273.605 182.248 l 284.68 182.248 293.703 191.264 293.703
 202.358 c 293.703 213.44 284.68 222.459 273.605 222.459 c 273.605 227.186
 l 287.293 227.186 298.434 216.041 298.434 202.358 c 298.434 188.662 287.301
 177.522 273.605 177.522 c h
273.605 177.522 m f
319.406 208.858 m 305.711 208.858 294.57 220.006 294.57 233.694 c 294.57
 247.381 305.711 258.53 319.406 258.53 c 319.406 253.795 l 308.324 253.795
 299.297 244.78 299.297 233.694 c 299.297 222.608 308.324 213.584 319.406
 213.584 c h
319.406 208.858 m f
312.309 177.522 m 312.309 182.248 l 323.395 182.248 332.406 191.264 332.406
 202.358 c 332.406 213.44 323.395 222.459 312.309 222.459 c 312.309 227.186
 l 325.996 227.186 337.137 216.041 337.137 202.358 c 337.137 188.662 325.996
 177.522 312.309 177.522 c h
312.309 177.522 m f
358.109 208.858 m 344.41 208.858 333.277 220.006 333.277 233.694 c 333.277
 247.381 344.418 258.53 358.109 258.53 c 358.109 253.795 l 347.027 253.795
 338.004 244.78 338.004 233.694 c 338.004 222.608 347.027 213.584 358.109
 213.584 c h
358.109 208.858 m f
351.016 177.522 m 351.016 182.248 l 362.094 182.248 371.117 191.264 371.117
 202.358 c 371.117 213.44 362.094 222.459 351.016 222.459 c 351.016 227.186
 l 364.707 227.186 375.844 216.041 375.844 202.358 c 375.844 188.662 364.703
 177.522 351.016 177.522 c h
351.016 177.522 m f
84.383 340.295 m 84.383 338.342 82.801 336.756 80.848 336.756 c 78.891 
336.756 77.309 338.338 77.309 340.295 c 77.309 382.717 l 77.309 384.678 
78.883 386.26 80.848 386.26 c 82.797 386.26 84.383 384.686 84.383 382.717
 c h
84.383 340.295 m f
106.617 340.295 m 106.617 338.342 105.035 336.756 103.074 336.756 c 101.121
 336.756 99.531 338.338 99.531 340.295 c 99.531 382.717 l 99.531 384.678
 101.113 386.26 103.074 386.26 c 105.027 386.26 106.617 384.686 106.617 
382.717 c h
106.617 340.295 m f
128.84 340.295 m 128.84 338.342 127.262 336.756 125.301 336.756 c 123.352
 336.756 121.766 338.338 121.766 340.295 c 121.766 382.717 l 121.766 384.678
 123.348 386.26 125.301 386.26 c 127.262 386.26 128.84 384.686 128.84 382.717
 c h
128.84 340.295 m f
151.074 340.295 m 151.074 338.342 149.496 336.756 147.539 336.756 c 145.586
 336.756 143.996 338.338 143.996 340.295 c 143.996 382.717 l 143.996 384.678
 145.578 386.26 147.539 386.26 c 149.492 386.26 151.074 384.686 151.074 
382.717 c h
151.074 340.295 m f
173.297 340.295 m 173.297 338.342 171.723 336.756 169.758 336.756 c 167.809
 336.756 166.223 338.338 166.223 340.295 c 166.223 382.717 l 166.223 384.678
 167.805 386.26 169.758 386.26 c 171.719 386.26 173.297 384.686 173.297 
382.717 c h
173.297 340.295 m f
Q Q
showpage
%%Trailer
end restore
%%EOF
