%!PS-Adobe-3.0 EPSF-3.0
%%Creator: cairo 1.14.2 (http://cairographics.org)
%%CreationDate: Thu Aug  4 10:33:18 2016
%%Pages: 1
%%DocumentData: Clean7Bit
%%LanguageLevel: 2
%%BoundingBox: 0 0 403 400
%%EndComments
%%BeginProlog
save
50 dict begin
/q { gsave } bind def
/Q { grestore } bind def
/cm { 6 array astore concat } bind def
/w { setlinewidth } bind def
/J { setlinecap } bind def
/j { setlinejoin } bind def
/M { setmiterlimit } bind def
/d { setdash } bind def
/m { moveto } bind def
/l { lineto } bind def
/c { curveto } bind def
/h { closepath } bind def
/re { exch dup neg 3 1 roll 5 3 roll moveto 0 rlineto
      0 exch rlineto 0 rlineto closepath } bind def
/S { stroke } bind def
/f { fill } bind def
/f* { eofill } bind def
/n { newpath } bind def
/W { clip } bind def
/W* { eoclip } bind def
/BT { } bind def
/ET { } bind def
/pdfmark where { pop globaldict /?pdfmark /exec load put }
    { globaldict begin /?pdfmark /pop load def /pdfmark
    /cleartomark load def end } ifelse
/BDC { mark 3 1 roll /BDC pdfmark } bind def
/EMC { mark /EMC pdfmark } bind def
/cairo_store_point { /cairo_point_y exch def /cairo_point_x exch def } def
/Tj { show currentpoint cairo_store_point } bind def
/TJ {
  {
    dup
    type /stringtype eq
    { show } { -0.001 mul 0 cairo_font_matrix dtransform rmoveto } ifelse
  } forall
  currentpoint cairo_store_point
} bind def
/cairo_selectfont { cairo_font_matrix aload pop pop pop 0 0 6 array astore
    cairo_font exch selectfont cairo_point_x cairo_point_y moveto } bind def
/Tf { pop /cairo_font exch def /cairo_font_matrix where
      { pop cairo_selectfont } if } bind def
/Td { matrix translate cairo_font_matrix matrix concatmatrix dup
      /cairo_font_matrix exch def dup 4 get exch 5 get cairo_store_point
      /cairo_font where { pop cairo_selectfont } if } bind def
/Tm { 2 copy 8 2 roll 6 array astore /cairo_font_matrix exch def
      cairo_store_point /cairo_font where { pop cairo_selectfont } if } bind def
/g { setgray } bind def
/rg { setrgbcolor } bind def
/d1 { setcachedevice } bind def
%%EndProlog
%%BeginSetup
%%EndSetup
%%Page: 1 1
%%BeginPageSetup
%%PageBoundingBox: 0 0 403 400
%%EndPageSetup
q 0 0 403 400 rectclip q
0.917647 0.215686 0.121569 rg
365.867 0.001 m 360.418 49.267 291.453 88.235 207.145 88.235 c 122.836 
88.235 53.887 49.267 48.43 0.001 c h
365.867 0.001 m f
0.0784314 0.552941 0.878431 rg
326.352 11.556 m 326.352 5.181 321.184 0.001 314.793 0.001 c 99.496 0.001
 l 93.117 0.001 87.949 5.181 87.949 11.556 c 87.949 17.946 93.117 23.114
 99.496 23.114 c 314.793 23.114 l 321.184 23.114 326.352 17.939 326.352 
11.556 c h
326.352 11.556 m f
0.403922 0.745098 0.937255 rg
314.793 23.114 m 99.496 23.114 l 95.715 23.114 92.383 21.267 90.277 18.45
 c 92.383 15.634 95.715 13.786 99.496 13.786 c 314.793 13.786 l 318.586 
13.786 321.914 15.634 324.027 18.45 c 321.914 21.267 318.586 23.114 314.793
 23.114 c h
314.793 23.114 m f
0.756863 0.141176 0.0784314 rg
87.348 55.876 m 119.742 44.614 161.52 40.419 207.152 40.419 c 252.781 40.419
 294.559 44.614 326.957 55.876 c 297.797 75.692 254.953 88.235 207.152 88.235
 c 159.348 88.235 116.496 75.692 87.348 55.876 c h
87.348 55.876 m f
0.776471 0.741176 0.545098 rg
393.543 162.716 m 393.543 86.903 310.094 65.622 207.152 65.622 c 104.207
 65.622 20.758 86.903 20.758 162.716 c 20.758 238.544 104.207 300.009 207.152
 300.009 c 310.094 300.009 393.543 238.544 393.543 162.716 c h
393.543 162.716 m f
0.788235 0.552941 0.380392 rg
393.543 162.716 m 393.543 86.903 310.094 65.622 207.152 65.622 c 104.207
 65.622 20.758 86.903 20.758 162.716 c 20.758 238.544 104.207 280.946 207.152
 280.946 c 310.094 280.946 393.543 238.544 393.543 162.716 c h
393.543 162.716 m f
0.909804 0.658824 0.454902 rg
393.543 162.716 m 393.543 86.903 310.094 65.622 207.152 65.622 c 104.207
 65.622 20.758 86.903 20.758 162.716 c 20.758 238.544 104.207 197.325 207.152
 197.325 c 310.094 197.325 393.543 238.544 393.543 162.716 c h
393.543 162.716 m f
0.917647 0.215686 0.121569 rg
153.215 243.181 m 214.988 250.603 266.828 241.911 269.008 223.763 c 271.188
 205.618 222.883 184.892 161.113 177.47 c 99.34 170.048 47.5 178.743 45.32
 196.888 c 43.141 215.032 91.445 235.759 153.215 243.181 c h
153.215 243.181 m f
0.756863 0.141176 0.0784314 rg
153.215 269.173 m 214.984 276.595 266.828 267.903 269.008 249.755 c 271.188
 231.61 222.879 210.884 161.109 203.462 c 99.34 196.04 47.496 204.735 45.316
 222.88 c 43.137 241.024 91.445 261.751 153.215 269.173 c h
153.215 269.173 m f
0.917647 0.215686 0.121569 rg
90.805 224.763 m 90.805 224.763 50.895 182.755 73.992 73.524 c 25.688 77.735
 l 22.535 98.731 l 13.082 81.935 l 0.48 90.337 l 0.48 90.337 -7.926 191.149
 45.637 239.47 c h
90.805 224.763 m f
0.756863 0.141176 0.0784314 rg
22.445 209.317 m 32.465 206.954 43.984 205.599 56.266 205.599 c 64.68 205.599
 72.707 206.263 80.168 207.419 c 85.684 219.349 90.805 224.763 90.805 224.763
 c 45.637 239.47 l 36.051 230.817 28.465 220.454 22.445 209.317 c h
22.445 209.317 m f
0.917647 0.215686 0.121569 rg
311.926 224.763 m 311.926 224.763 351.84 182.755 328.734 73.524 c 377.047
 77.735 l 380.199 98.731 l 389.648 81.935 l 402.254 90.341 l 402.254 90.341
 410.652 191.149 357.09 239.47 c h
311.926 224.763 m f
0.756863 0.141176 0.0784314 rg
380.285 209.317 m 370.266 206.954 358.746 205.599 346.465 205.599 c 338.055
 205.599 330.023 206.263 322.559 207.419 c 317.051 219.349 311.93 224.763
 311.93 224.763 c 357.09 239.47 l 366.68 230.817 374.27 220.454 380.285 
209.317 c h
380.285 209.317 m f
0.0313726 0.156863 0.337255 rg
150.23 142.056 m 150.23 132.81 142.734 125.314 133.484 125.314 c 124.238
 125.314 116.742 132.81 116.742 142.056 c 116.742 151.302 124.238 158.798
 133.484 158.798 c 142.734 158.798 150.23 151.302 150.23 142.056 c h
150.23 142.056 m f
297.57 142.056 m 297.57 132.81 290.074 125.314 280.828 125.314 c 271.582
 125.314 264.086 132.81 264.086 142.056 c 264.086 151.302 271.582 158.798
 280.828 158.798 c 290.074 158.798 297.57 151.302 297.57 142.056 c h
297.57 142.056 m f
0 g
150.23 142.056 m 150.23 132.798 142.738 125.306 133.484 125.306 c 124.234
 125.306 116.742 132.798 116.742 142.056 c f
297.559 142.056 m 297.559 132.798 290.066 125.306 280.828 125.306 c 271.57
 125.306 264.078 132.798 264.078 142.056 c f
0.807843 0.254902 0.435294 rg
267.016 101.884 m 267.016 92.306 240.453 84.552 207.68 84.552 c 174.906
 84.552 148.34 92.306 148.34 101.884 c 148.34 111.45 174.906 103.458 207.68
 103.458 c 240.453 103.458 267.016 111.442 267.016 101.884 c h
267.016 101.884 m f
0.0784314 0.552941 0.878431 rg
88.23 275.372 m 88.23 275.372 120.133 274.829 125.516 341.021 c 128.539
 377.927 158.742 423.689 203.32 383.165 c 247.898 342.642 237.359 393.7 
264.898 379.114 c 292.473 364.517 285.996 285.095 315.172 272.946 c 344.355
 260.782 179.82 243.763 179.82 243.763 c 97.953 271.317 l h
88.23 275.372 m f
0.0901961 0.345098 0.866667 rg
264.898 356.013 m 237.359 370.591 247.891 319.532 203.32 360.064 c 158.75
 400.595 128.547 354.833 125.516 317.919 c 123.422 292.185 117.316 276.567
 110.637 267.052 c 179.82 243.767 l 179.82 243.767 265.906 252.677 302.488
 262.208 c 287.238 288.528 287.508 344.044 264.898 356.013 c h
264.898 356.013 m f
0.447059 0.243137 0.0784314 rg
327.598 265.388 m 327.598 251.505 316.363 240.259 302.461 240.259 c 109.586
 240.259 l 95.723 240.259 84.453 251.505 84.453 265.388 c 84.453 279.259
 95.723 290.505 109.586 290.505 c 302.461 290.505 l 316.363 290.509 327.598
 279.259 327.598 265.388 c h
327.598 265.388 m f
0.286275 0.160784 0.0392157 rg
268.844 265.388 m 268.844 251.505 263.016 240.259 255.848 240.259 c 156.203
 240.259 l 149.023 240.259 143.215 251.505 143.215 265.388 c 143.215 279.259
 149.027 290.505 156.203 290.505 c 255.844 290.505 l 263.016 290.509 268.844
 279.259 268.844 265.388 c h
268.844 265.388 m f
0.0784314 0.552941 0.878431 rg
400.727 276.481 m 400.727 238.841 311.48 208.353 201.371 208.353 c 91.242
 208.353 2 238.841 2 276.481 c 2 314.106 91.242 264.442 201.371 264.442 
c 311.48 264.442 400.727 314.106 400.727 276.481 c h
400.727 276.481 m f
0.0901961 0.345098 0.866667 rg
201.371 264.442 m 111.348 264.442 35.371 297.564 10.582 289.146 c 35.379
 261.138 111.348 240.763 201.371 240.763 c 291.363 240.763 367.375 261.13
 392.164 289.146 c 367.375 297.564 291.363 264.442 201.371 264.442 c h
201.371 264.442 m f
105.871 0.001 m 105.871 67.356 l 105.871 73.657 100.754 64.591 94.453 64.591
 c 88.141 64.591 83.035 59.481 83.035 53.173 c 83.035 0.001 l h
105.871 0.001 m f
0.0784314 0.552941 0.878431 rg
94.449 64.591 m 88.133 64.591 83.031 59.481 83.031 53.173 c 83.031 18.903
 l 105.871 18.903 l 105.871 67.356 l 105.871 73.657 100.75 64.591 94.449
 64.591 c h
94.449 64.591 m f
0.0901961 0.345098 0.866667 rg
308.43 0.001 m 308.43 67.356 l 308.43 73.657 313.547 64.591 319.848 64.591
 c 326.164 64.591 331.266 59.481 331.266 53.173 c 331.266 0.001 l h
308.43 0.001 m f
0.0784314 0.552941 0.878431 rg
319.855 64.591 m 326.168 64.591 331.273 59.481 331.273 53.173 c 331.273
 18.903 l 308.43 18.903 l 308.43 67.356 l 308.43 73.657 313.551 64.591 319.855
 64.591 c h
319.855 64.591 m f
Q Q
showpage
%%Trailer
end restore
%%EOF
