%!PS-Adobe-3.0 EPSF-3.0
%%Creator: cairo 1.14.2 (http://cairographics.org)
%%CreationDate: Thu Aug  4 10:33:09 2016
%%Pages: 1
%%DocumentData: Clean7Bit
%%LanguageLevel: 2
%%BoundingBox: 0 0 399 400
%%EndComments
%%BeginProlog
save
50 dict begin
/q { gsave } bind def
/Q { grestore } bind def
/cm { 6 array astore concat } bind def
/w { setlinewidth } bind def
/J { setlinecap } bind def
/j { setlinejoin } bind def
/M { setmiterlimit } bind def
/d { setdash } bind def
/m { moveto } bind def
/l { lineto } bind def
/c { curveto } bind def
/h { closepath } bind def
/re { exch dup neg 3 1 roll 5 3 roll moveto 0 rlineto
      0 exch rlineto 0 rlineto closepath } bind def
/S { stroke } bind def
/f { fill } bind def
/f* { eofill } bind def
/n { newpath } bind def
/W { clip } bind def
/W* { eoclip } bind def
/BT { } bind def
/ET { } bind def
/pdfmark where { pop globaldict /?pdfmark /exec load put }
    { globaldict begin /?pdfmark /pop load def /pdfmark
    /cleartomark load def end } ifelse
/BDC { mark 3 1 roll /BDC pdfmark } bind def
/EMC { mark /EMC pdfmark } bind def
/cairo_store_point { /cairo_point_y exch def /cairo_point_x exch def } def
/Tj { show currentpoint cairo_store_point } bind def
/TJ {
  {
    dup
    type /stringtype eq
    { show } { -0.001 mul 0 cairo_font_matrix dtransform rmoveto } ifelse
  } forall
  currentpoint cairo_store_point
} bind def
/cairo_selectfont { cairo_font_matrix aload pop pop pop 0 0 6 array astore
    cairo_font exch selectfont cairo_point_x cairo_point_y moveto } bind def
/Tf { pop /cairo_font exch def /cairo_font_matrix where
      { pop cairo_selectfont } if } bind def
/Td { matrix translate cairo_font_matrix matrix concatmatrix dup
      /cairo_font_matrix exch def dup 4 get exch 5 get cairo_store_point
      /cairo_font where { pop cairo_selectfont } if } bind def
/Tm { 2 copy 8 2 roll 6 array astore /cairo_font_matrix exch def
      cairo_store_point /cairo_font where { pop cairo_selectfont } if } bind def
/g { setgray } bind def
/rg { setrgbcolor } bind def
/d1 { setcachedevice } bind def
%%EndProlog
%%BeginSetup
%%EndSetup
%%Page: 1 1
%%BeginPageSetup
%%PageBoundingBox: 0 0 399 400
%%EndPageSetup
q 0 0 399 400 rectclip q
0.0784314 0.552941 0.878431 rg
363.863 0.002 m 358.41 49.267 289.449 88.236 205.141 88.236 c 120.832 88.236
 51.879 49.267 46.422 0.002 c h
363.863 0.002 m f
0.917647 0.662745 0.0941176 rg
324.348 11.557 m 324.348 5.182 319.18 0.002 312.789 0.002 c 97.492 0.002
 l 91.113 0.002 85.945 5.182 85.945 11.557 c 85.945 17.947 91.113 23.115
 97.492 23.115 c 312.789 23.115 l 319.18 23.115 324.348 17.939 324.348 11.557
 c h
324.348 11.557 m f
1 0.729412 0.192157 rg
312.789 23.115 m 97.492 23.115 l 93.699 23.115 90.375 21.267 88.273 18.451
 c 90.375 15.635 93.699 13.787 97.492 13.787 c 312.789 13.787 l 316.582 
13.787 319.918 15.635 322.023 18.451 c 319.914 21.267 316.582 23.115 312.789
 23.115 c h
312.789 23.115 m f
0.0901961 0.345098 0.866667 rg
85.34 55.877 m 117.738 44.615 159.516 40.42 205.145 40.42 c 250.777 40.42
 292.555 44.615 324.953 55.877 c 295.793 75.693 252.949 88.236 205.145 88.236
 c 157.344 88.236 114.5 75.693 85.34 55.877 c h
85.34 55.877 m f
0.776471 0.741176 0.545098 rg
391.547 162.717 m 391.547 86.904 308.09 65.623 205.145 65.623 c 102.203
 65.623 18.746 86.904 18.746 162.717 c 18.746 238.545 102.203 300.01 205.145
 300.01 c 308.09 300.01 391.547 238.545 391.547 162.717 c h
391.547 162.717 m f
0.788235 0.552941 0.380392 rg
391.547 162.717 m 391.547 86.904 308.09 65.623 205.145 65.623 c 102.203
 65.623 18.746 86.904 18.746 162.717 c 18.746 238.545 102.203 280.947 205.145
 280.947 c 308.09 280.947 391.547 238.545 391.547 162.717 c h
391.547 162.717 m f
0.909804 0.658824 0.454902 rg
391.547 162.717 m 391.547 86.904 308.09 65.623 205.145 65.623 c 102.203
 65.623 18.746 86.904 18.746 162.717 c 18.746 238.545 102.203 197.326 205.145
 197.326 c 308.09 197.326 391.547 238.545 391.547 162.717 c h
391.547 162.717 m f
0.0313726 0.156863 0.337255 rg
148.227 142.057 m 148.227 132.81 140.73 125.314 131.48 125.314 c 122.234
 125.314 114.738 132.81 114.738 142.057 c 114.738 151.303 122.234 158.799
 131.48 158.799 c 140.73 158.799 148.227 151.303 148.227 142.057 c h
148.227 142.057 m f
295.566 142.057 m 295.566 132.81 288.07 125.314 278.824 125.314 c 269.578
 125.314 262.082 132.81 262.082 142.057 c 262.082 151.303 269.578 158.799
 278.824 158.799 c 288.07 158.799 295.566 151.303 295.566 142.057 c h
295.566 142.057 m f
0 g
148.227 142.057 m 148.227 132.799 140.73 125.307 131.488 125.307 c 122.23
 125.307 114.738 132.799 114.738 142.057 c f
295.562 142.057 m 295.562 132.799 288.066 125.307 278.824 125.307 c 269.566
 125.307 262.074 132.799 262.074 142.057 c f
0.807843 0.254902 0.435294 rg
265.023 101.885 m 265.023 92.307 238.449 84.553 205.676 84.553 c 172.902
 84.553 146.34 92.307 146.34 101.885 c 146.34 111.447 172.902 103.459 205.676
 103.459 c 238.449 103.459 265.023 111.443 265.023 101.885 c h
265.023 101.885 m f
0.917647 0.662745 0.0941176 rg
86.23 275.373 m 86.23 275.373 118.129 274.83 123.512 341.021 c 126.535 
377.928 156.738 423.689 201.32 383.166 c 245.887 342.635 235.363 393.701
 262.906 379.115 c 290.477 364.517 283.992 285.096 313.172 272.947 c 342.355
 260.783 177.816 243.764 177.816 243.764 c 95.945 271.318 l h
86.23 275.373 m f
0.788235 0.537255 0.0352941 rg
262.906 356.014 m 235.363 370.592 245.887 319.533 201.32 360.064 c 156.746
 400.596 126.543 354.834 123.512 317.92 c 121.418 292.185 115.312 276.568
 108.633 267.053 c 177.816 243.767 l 177.816 243.767 263.91 252.678 300.488
 262.209 c 285.234 288.529 285.504 344.045 262.906 356.014 c h
262.906 356.014 m f
0.447059 0.243137 0.0784314 rg
325.602 265.389 m 325.602 251.506 314.363 240.26 300.457 240.26 c 107.586
 240.26 l 93.703 240.26 82.457 251.506 82.457 265.389 c 82.457 279.26 93.703
 290.506 107.586 290.506 c 300.457 290.506 l 314.363 290.506 325.602 279.26
 325.602 265.389 c h
325.602 265.389 m f
0.286275 0.160784 0.0392157 rg
266.844 265.389 m 266.844 251.506 261.008 240.26 253.852 240.26 c 154.203
 240.26 l 147.027 240.26 141.219 251.506 141.219 265.389 c 141.219 279.26
 147.027 290.506 154.203 290.506 c 253.844 290.506 l 261.008 290.506 266.844
 279.26 266.844 265.389 c h
266.844 265.389 m f
0.917647 0.662745 0.0941176 rg
398.723 276.478 m 398.723 238.842 309.48 208.353 199.375 208.353 c 89.242
 208.353 0 238.842 0 276.478 c 0 314.107 89.242 264.443 199.375 264.443 
c 309.48 264.443 398.723 314.107 398.723 276.478 c h
398.723 276.478 m f
0.788235 0.537255 0.0352941 rg
199.375 264.443 m 109.355 264.443 33.367 297.564 8.582 289.146 c 33.371
 261.135 109.355 240.764 199.375 240.764 c 289.367 240.764 365.371 261.131
 390.168 289.146 c 365.371 297.564 289.367 264.443 199.375 264.443 c h
199.375 264.443 m f
0.74902 0.509804 0.0313726 rg
103.867 0.002 m 103.867 67.357 l 103.867 73.658 98.75 64.592 92.449 64.592
 c 86.137 64.592 81.031 59.478 81.031 53.174 c 81.031 0.002 l h
103.867 0.002 m f
0.917647 0.662745 0.0941176 rg
92.441 64.592 m 86.129 64.592 81.023 59.482 81.023 53.174 c 81.023 18.904
 l 103.867 18.904 l 103.867 67.357 l 103.867 73.658 98.746 64.592 92.441
 64.592 c h
92.441 64.592 m f
0.74902 0.509804 0.0313726 rg
306.426 0.002 m 306.426 67.357 l 306.426 73.658 311.543 64.592 317.844 
64.592 c 324.156 64.592 329.262 59.478 329.262 53.174 c 329.262 0.002 l 
h
306.426 0.002 m f
0.917647 0.662745 0.0941176 rg
317.848 64.592 m 324.164 64.592 329.27 59.482 329.27 53.174 c 329.27 18.904
 l 306.426 18.904 l 306.426 67.357 l 306.426 73.658 311.547 64.592 317.848
 64.592 c h
317.848 64.592 m f
Q Q
showpage
%%Trailer
end restore
%%EOF
