%!PS-Adobe-3.0 EPSF-3.0
%%Creator: cairo 1.14.2 (http://cairographics.org)
%%CreationDate: Thu Aug  4 10:33:02 2016
%%Pages: 1
%%DocumentData: Clean7Bit
%%LanguageLevel: 2
%%BoundingBox: 0 -1 395 293
%%EndComments
%%BeginProlog
save
50 dict begin
/q { gsave } bind def
/Q { grestore } bind def
/cm { 6 array astore concat } bind def
/w { setlinewidth } bind def
/J { setlinecap } bind def
/j { setlinejoin } bind def
/M { setmiterlimit } bind def
/d { setdash } bind def
/m { moveto } bind def
/l { lineto } bind def
/c { curveto } bind def
/h { closepath } bind def
/re { exch dup neg 3 1 roll 5 3 roll moveto 0 rlineto
      0 exch rlineto 0 rlineto closepath } bind def
/S { stroke } bind def
/f { fill } bind def
/f* { eofill } bind def
/n { newpath } bind def
/W { clip } bind def
/W* { eoclip } bind def
/BT { } bind def
/ET { } bind def
/pdfmark where { pop globaldict /?pdfmark /exec load put }
    { globaldict begin /?pdfmark /pop load def /pdfmark
    /cleartomark load def end } ifelse
/BDC { mark 3 1 roll /BDC pdfmark } bind def
/EMC { mark /EMC pdfmark } bind def
/cairo_store_point { /cairo_point_y exch def /cairo_point_x exch def } def
/Tj { show currentpoint cairo_store_point } bind def
/TJ {
  {
    dup
    type /stringtype eq
    { show } { -0.001 mul 0 cairo_font_matrix dtransform rmoveto } ifelse
  } forall
  currentpoint cairo_store_point
} bind def
/cairo_selectfont { cairo_font_matrix aload pop pop pop 0 0 6 array astore
    cairo_font exch selectfont cairo_point_x cairo_point_y moveto } bind def
/Tf { pop /cairo_font exch def /cairo_font_matrix where
      { pop cairo_selectfont } if } bind def
/Td { matrix translate cairo_font_matrix matrix concatmatrix dup
      /cairo_font_matrix exch def dup 4 get exch 5 get cairo_store_point
      /cairo_font where { pop cairo_selectfont } if } bind def
/Tm { 2 copy 8 2 roll 6 array astore /cairo_font_matrix exch def
      cairo_store_point /cairo_font where { pop cairo_selectfont } if } bind def
/g { setgray } bind def
/rg { setrgbcolor } bind def
/d1 { setcachedevice } bind def
%%EndProlog
%%BeginSetup
%%EndSetup
%%Page: 1 1
%%BeginPageSetup
%%PageBoundingBox: 0 -1 395 293
%%EndPageSetup
q 0 -1 395 294 rectclip q
0.0784314 0.552941 0.878431 rg
394.098 0.005 m 394.098 207.806 l 394.098 254.545 356.215 292.435 309.48
 292.435 c 271.855 292.435 l 225.125 292.435 187.238 254.545 187.238 207.806
 c 187.238 0.002 l 394.098 0.002 l h
394.098 0.005 m f
0.0470588 0.462745 0.74902 rg
394.098 0.005 m 394.098 207.806 l 394.098 254.545 356.215 292.435 309.48
 292.435 c 271.855 292.435 l 225.125 292.435 187.238 254.545 187.238 207.806
 c f
302.184 64.431 m 302.184 61.611 299.91 59.322 297.086 59.322 c 276.113 
59.322 l 273.312 59.322 271.031 61.603 271.031 64.431 c 271.031 67.236 273.305
 69.525 276.113 69.525 c 297.086 69.525 l 299.902 69.517 302.184 67.236 
302.184 64.431 c h
302.184 64.431 m f
302.184 20.673 m 302.184 17.857 299.91 15.572 297.086 15.572 c 276.113 
15.572 l 273.312 15.572 271.031 17.853 271.031 20.673 c 271.031 23.486 273.305
 25.767 276.113 25.767 c 297.086 25.767 l 299.902 25.767 302.184 23.486 
302.184 20.673 c h
302.184 20.673 m f
320.164 46.447 m 320.164 43.63 317.875 41.349 315.066 41.349 c 294.094 
41.349 l 291.289 41.349 288.996 43.627 288.996 46.447 c 288.996 49.252 291.281
 51.541 294.094 51.541 c 315.066 51.541 l 317.875 51.541 320.164 49.252 
320.164 46.447 c h
320.164 46.447 m f
0.0784314 0.552941 0.878431 rg
329.973 131.728 m 329.973 134.548 332.234 136.838 335.07 136.838 c 356.031
 136.838 l 358.836 136.838 361.129 134.556 361.129 131.728 c 361.129 128.923
 358.84 126.634 356.031 126.634 c 335.07 126.634 l 332.234 126.642 329.973
 128.923 329.973 131.728 c h
329.973 131.728 m f
329.973 175.486 m 329.973 178.302 332.234 180.588 335.07 180.588 c 356.031
 180.588 l 358.836 180.588 361.129 178.306 361.129 175.486 c 361.129 172.673
 358.84 170.392 356.031 170.392 c 335.07 170.392 l 332.234 170.392 329.973
 172.67 329.973 175.486 c h
329.973 175.486 m f
311.988 149.713 m 311.988 152.529 314.266 154.81 317.086 154.81 c 338.047
 154.81 l 340.863 154.81 343.145 152.533 343.145 149.713 c 343.145 146.908
 340.867 144.619 338.047 144.619 c 317.086 144.619 l 314.27 144.619 311.988
 146.9 311.988 149.713 c h
311.988 149.713 m f
1 0.486275 0.141176 rg
309.48 292.435 m 271.855 292.435 l 225.121 292.435 187.238 254.545 187.238
 207.806 c 187.609 207.427 l 394.098 207.427 l 394.098 207.806 l 394.098
 254.545 356.215 292.435 309.48 292.435 c h
309.48 292.435 m f
1 0.647059 0.133333 rg
309.48 292.435 m 271.855 292.435 l 225.121 292.435 187.238 254.545 187.238
 207.806 c 187.609 207.427 l f
187.238 207.806 m 187.238 202.701 l 394.098 202.701 l 394.098 207.806 l
 394.098 209.002 393.965 210.173 393.914 211.365 c 187.414 211.365 l 187.363
 210.173 187.238 209.009 187.238 207.806 c h
187.238 207.806 m f
0.819608 0.290196 0.184314 rg
284.273 5.13 m 284.273 106.345 l 207.965 182.65 l 100.035 182.65 l 23.73
 106.345 l 23.73 5.13 l h
284.273 5.13 m f
0.737255 0.235294 0.117647 rg
284.273 5.13 m 284.273 106.345 l 207.965 182.65 l 100.035 182.65 l 23.73
 106.345 l f
0.576471 0.109804 0.0470588 rg
283.078 107.529 m 207.965 182.65 l 100.035 182.65 l 24.93 107.529 l h
283.078 107.529 m f
0.666667 0.176471 0.0823529 rg
100.035 182.65 m 24.93 107.529 l 283.078 107.529 l f
0.498039 0.0666667 0.0196078 rg
100.035 182.65 m 23.73 106.345 l 23.73 94.927 l 24.93 94.927 l 100.035 
170.045 l 207.965 170.045 l 283.078 94.927 l 284.273 94.927 l 284.273 106.345
 l 207.965 182.65 l h
100.035 182.65 m f
0.278431 0.054902 0.054902 rg
308 114.529 m 306.758 118.111 304.832 121.435 302.094 124.166 c 225.789
 200.47 l 221.062 205.205 214.648 207.857 207.969 207.857 c 100.035 207.857
 l 93.352 207.857 86.941 205.205 82.215 200.47 c 5.91 124.166 l 3.176 121.435
 1.246 118.115 0 114.537 c 3.473 110.295 8.676 107.537 14.582 107.537 c 
24.922 107.537 l 100.035 182.658 l 207.965 182.658 l 283.078 107.537 l 293.43
 107.537 l 299.324 107.529 304.535 110.295 308 114.529 c h
308 114.529 m f
0.14902 0.027451 0.027451 rg
207.965 190.134 m 100.035 190.134 l 93.352 190.134 86.941 187.482 82.215
 182.752 c 8.234 108.775 l 10.227 108.045 12.332 107.537 14.59 107.537 c
 24.93 107.537 l 100.043 182.658 l 207.969 182.658 l 283.086 107.537 l 293.438
 107.537 l 295.688 107.537 297.777 108.041 299.777 108.775 c 225.797 182.752
 l 221.062 187.482 214.648 190.134 207.965 190.134 c h
207.965 190.134 m f
0.666667 0.176471 0.0823529 rg
191.625 5.13 m 116.383 5.13 l 113.895 5.13 111.863 7.166 111.863 9.646 
c 111.863 84.888 l 111.863 87.369 113.895 89.404 116.383 89.404 c 191.617
 89.404 l 194.125 89.404 196.137 87.369 196.137 84.888 c 196.137 9.646 l
 196.137 7.17 194.133 5.13 191.625 5.13 c h
120.902 14.166 m 187.105 14.166 l 187.105 80.377 l 120.902 80.377 l h
120.902 14.166 m f
120.645 9.4 m 119.508 9.4 118.344 9.838 117.453 10.705 c 115.707 12.47 
115.707 15.349 117.453 17.103 c 184.137 83.81 l 185.922 85.537 188.773 85.576
 190.527 83.81 c 192.297 82.052 192.297 79.177 190.527 77.416 c 123.855 
10.705 l 122.957 9.849 121.801 9.4 120.645 9.4 c h
120.645 9.4 m f
187.352 9.4 m 186.191 9.4 185.027 9.849 184.137 10.705 c 117.453 77.416
 l 115.707 79.173 115.707 82.045 117.453 83.81 c 119.227 85.576 122.078 
85.576 123.855 83.81 c 190.527 17.103 l 192.297 15.357 192.297 12.478 190.527
 10.705 c 189.652 9.838 188.496 9.4 187.352 9.4 c h
187.352 9.4 m f
289.613 4.732 m 289.613 2.123 287.496 0.005 284.887 0.005 c 25.477 0.005
 l 22.867 0.005 20.75 2.123 20.75 4.732 c 20.75 7.341 22.867 9.459 25.477
 9.459 c 284.887 9.459 l 287.5 9.459 289.613 7.341 289.613 4.732 c h
289.613 4.732 m f
Q Q
showpage
%%Trailer
end restore
%%EOF
