%!PS-Adobe-3.0 EPSF-3.0
%%Creator: cairo 1.14.2 (http://cairographics.org)
%%CreationDate: Thu Aug  4 10:33:27 2016
%%Pages: 1
%%DocumentData: Clean7Bit
%%LanguageLevel: 2
%%BoundingBox: 0 -1 391 349
%%EndComments
%%BeginProlog
save
50 dict begin
/q { gsave } bind def
/Q { grestore } bind def
/cm { 6 array astore concat } bind def
/w { setlinewidth } bind def
/J { setlinecap } bind def
/j { setlinejoin } bind def
/M { setmiterlimit } bind def
/d { setdash } bind def
/m { moveto } bind def
/l { lineto } bind def
/c { curveto } bind def
/h { closepath } bind def
/re { exch dup neg 3 1 roll 5 3 roll moveto 0 rlineto
      0 exch rlineto 0 rlineto closepath } bind def
/S { stroke } bind def
/f { fill } bind def
/f* { eofill } bind def
/n { newpath } bind def
/W { clip } bind def
/W* { eoclip } bind def
/BT { } bind def
/ET { } bind def
/pdfmark where { pop globaldict /?pdfmark /exec load put }
    { globaldict begin /?pdfmark /pop load def /pdfmark
    /cleartomark load def end } ifelse
/BDC { mark 3 1 roll /BDC pdfmark } bind def
/EMC { mark /EMC pdfmark } bind def
/cairo_store_point { /cairo_point_y exch def /cairo_point_x exch def } def
/Tj { show currentpoint cairo_store_point } bind def
/TJ {
  {
    dup
    type /stringtype eq
    { show } { -0.001 mul 0 cairo_font_matrix dtransform rmoveto } ifelse
  } forall
  currentpoint cairo_store_point
} bind def
/cairo_selectfont { cairo_font_matrix aload pop pop pop 0 0 6 array astore
    cairo_font exch selectfont cairo_point_x cairo_point_y moveto } bind def
/Tf { pop /cairo_font exch def /cairo_font_matrix where
      { pop cairo_selectfont } if } bind def
/Td { matrix translate cairo_font_matrix matrix concatmatrix dup
      /cairo_font_matrix exch def dup 4 get exch 5 get cairo_store_point
      /cairo_font where { pop cairo_selectfont } if } bind def
/Tm { 2 copy 8 2 roll 6 array astore /cairo_font_matrix exch def
      cairo_store_point /cairo_font where { pop cairo_selectfont } if } bind def
/g { setgray } bind def
/rg { setrgbcolor } bind def
/d1 { setcachedevice } bind def
%%EndProlog
%%BeginSetup
%%EndSetup
%%Page: 1 1
%%BeginPageSetup
%%PageBoundingBox: 0 -1 391 349
%%EndPageSetup
q 0 -1 391 350 rectclip q
0.752941 0.941176 0.94902 rg
189.277 155.767 m 180.242 155.767 171.91 152.794 165.164 147.814 c 157.734
 155.818 147.141 160.841 135.352 160.841 c 128.223 160.841 121.523 158.993
 115.703 155.786 c 109.055 163.45 100.012 168.931 89.691 171.025 c 84.168
 211.197 49.809 242.161 8.148 242.161 c 5.402 242.161 2.672 242.017 0.008
 241.759 c 0.008 77.743 l 2.672 77.486 5.402 77.341 8.148 77.341 c 23.648
 77.341 38.105 81.7 50.496 89.154 c 58.594 82.411 69.016 78.365 80.371 78.365
 c 91.414 78.365 101.547 82.212 109.559 88.607 c 116.57 82.845 125.562 79.376
 135.355 79.376 c 144.41 79.376 152.723 82.361 159.473 87.325 c 166.914 
79.325 177.496 74.294 189.285 74.294 c 211.781 74.294 230.02 92.544 230.02
 115.04 c 230.012 137.532 211.777 155.767 189.277 155.767 c h
189.277 155.767 m f
0.611765 0.847059 0.886275 rg
189.277 141.513 m 180.242 141.513 171.91 138.54 165.164 133.56 c 157.734
 141.564 147.141 146.607 135.352 146.607 c 128.223 146.607 121.523 144.763
 115.703 141.544 c 109.055 149.197 100.012 154.704 89.691 156.782 c 84.168
 196.943 49.809 227.915 8.148 227.915 c 5.402 227.915 2.672 227.763 0.008
 227.505 c 0.008 63.513 l 2.672 63.228 5.402 63.103 8.148 63.103 c 23.648
 63.103 38.105 67.458 50.496 74.907 c 58.594 68.181 69.016 64.111 80.371
 64.111 c 91.414 64.111 101.547 67.954 109.559 74.353 c 116.57 68.591 125.562
 65.134 135.355 65.134 c 144.41 65.134 152.723 68.118 159.473 73.103 c 166.914
 65.095 177.496 60.06 189.285 60.06 c 211.781 60.06 230.02 78.298 230.02
 100.794 c 230.012 123.29 211.777 141.513 189.277 141.513 c h
189.277 141.513 m f
0.752941 0.941176 0.94902 rg
201.414 155.767 m 210.453 155.767 218.781 152.794 225.531 147.814 c 232.961
 155.818 243.555 160.841 255.344 160.841 c 262.473 160.841 269.172 158.993
 274.988 155.786 c 281.629 163.45 290.691 168.931 301.004 171.025 c 306.52
 211.197 340.887 242.161 382.555 242.161 c 385.293 242.161 388.016 242.017
 390.688 241.759 c 390.688 77.743 l 388.016 77.486 385.293 77.341 382.555
 77.341 c 367.047 77.341 352.59 81.7 340.195 89.154 c 332.102 82.411 321.676
 78.365 310.324 78.365 c 299.273 78.365 289.152 82.212 281.137 88.607 c 
274.121 82.845 265.129 79.376 255.336 79.376 c 246.281 79.376 237.969 82.361
 231.223 87.325 c 223.777 79.325 213.199 74.294 201.41 74.294 c 178.91 74.294
 160.676 92.544 160.676 115.04 c 160.684 137.532 178.918 155.767 201.414
 155.767 c h
201.414 155.767 m f
0.611765 0.847059 0.886275 rg
201.414 141.513 m 210.453 141.513 218.781 138.54 225.531 133.56 c 232.961
 141.564 243.555 146.607 255.344 146.607 c 262.473 146.607 269.172 144.763
 274.988 141.544 c 281.629 149.197 290.691 154.704 301.004 156.782 c 306.52
 196.943 340.887 227.915 382.555 227.915 c 385.293 227.915 388.016 227.763
 390.688 227.505 c 390.688 63.513 l 388.016 63.228 385.293 63.103 382.555
 63.103 c 367.047 63.103 352.59 67.458 340.195 74.907 c 332.102 68.181 321.676
 64.111 310.324 64.111 c 299.273 64.111 289.152 67.954 281.137 74.353 c 
274.121 68.591 265.129 65.134 255.336 65.134 c 246.281 65.134 237.969 68.118
 231.223 73.103 c 223.777 65.095 213.199 60.06 201.41 60.06 c 178.91 60.06
 160.676 78.298 160.676 100.794 c 160.684 123.29 178.918 141.513 201.414
 141.513 c h
201.414 141.513 m f
0.0784314 0.552941 0.878431 rg
389.152 128.079 m 389.152 197.529 l 389.152 213.161 376.477 225.818 360.859
 225.818 c 348.285 225.818 l 332.672 225.818 320.004 213.161 320.004 197.529
 c 320.004 128.079 l h
389.152 128.079 m f
0.0470588 0.462745 0.74902 rg
389.152 128.079 m 389.152 197.529 l 389.152 213.161 376.477 225.818 360.859
 225.818 c 348.285 225.818 l 332.672 225.818 320.004 213.161 320.004 197.529
 c f
358.43 149.618 m 358.43 148.677 357.664 147.911 356.715 147.911 c 349.715
 147.911 l 348.777 147.911 348.02 148.677 348.02 149.618 c 348.02 150.552
 348.77 151.325 349.715 151.325 c 356.715 151.325 l 357.664 151.325 358.43
 150.556 358.43 149.618 c h
358.43 149.618 m f
358.43 134.986 m 358.43 134.052 357.664 133.29 356.715 133.29 c 349.715
 133.29 l 348.777 133.29 348.02 134.044 348.02 134.986 c 348.02 135.935 
348.77 136.693 349.715 136.693 c 356.715 136.693 l 357.664 136.693 358.43
 135.939 358.43 134.986 c h
358.43 134.986 m f
364.438 143.611 m 364.438 142.661 363.668 141.896 362.723 141.896 c 355.727
 141.896 l 354.789 141.896 354.02 142.661 354.02 143.611 c 354.02 144.532
 354.781 145.306 355.727 145.306 c 362.723 145.306 l 363.668 145.306 364.438
 144.532 364.438 143.611 c h
364.438 143.611 m f
0.0784314 0.552941 0.878431 rg
367.699 172.095 m 367.699 173.048 368.469 173.81 369.414 173.81 c 376.402
 173.81 l 377.355 173.81 378.117 173.048 378.117 172.095 c 378.117 171.177
 377.355 170.411 376.402 170.411 c 369.414 170.411 l 368.469 170.419 367.699
 171.177 367.699 172.095 c h
367.699 172.095 m f
367.699 186.728 m 367.699 187.665 368.469 188.435 369.414 188.435 c 376.402
 188.435 l 377.355 188.435 378.117 187.665 378.117 186.728 c 378.117 185.794
 377.355 185.021 376.402 185.021 c 369.414 185.021 l 368.469 185.021 367.699
 185.786 367.699 186.728 c h
367.699 186.728 m f
361.703 178.118 m 361.703 179.064 362.457 179.825 363.41 179.825 c 370.398
 179.825 l 371.355 179.825 372.113 179.072 372.113 178.118 c 372.113 177.185
 371.359 176.411 370.398 176.411 c 363.41 176.411 l 362.465 176.411 361.703
 177.181 361.703 178.118 c h
361.703 178.118 m f
1 0.486275 0.141176 rg
360.859 225.814 m 348.285 225.814 l 332.672 225.814 320.004 213.161 320.004
 197.529 c 320.137 197.407 l 389.152 197.407 l 389.152 197.529 l 389.152
 213.161 376.48 225.814 360.859 225.814 c h
360.859 225.814 m f
1 0.647059 0.133333 rg
360.859 225.814 m 348.285 225.814 l 332.672 225.814 320.004 213.161 320.004
 197.529 c 320.137 197.407 l f
320 197.529 m 320 195.825 l 389.152 195.825 l 389.152 197.529 l 389.152
 197.919 389.102 198.329 389.074 198.724 c 320.062 198.724 l 320.047 198.329
 320 197.919 320 197.529 c h
320 197.529 m f
0.819608 0.290196 0.184314 rg
322.098 119.036 m 322.098 157.728 l 292.922 186.884 l 251.672 186.884 l
 222.512 157.728 l 222.512 119.036 l h
322.098 119.036 m f
0.737255 0.235294 0.117647 rg
322.098 119.036 m 322.098 157.728 l 292.922 186.884 l 251.672 186.884 l
 222.512 157.728 l f
0.576471 0.109804 0.0470588 rg
321.629 158.177 m 292.922 186.884 l 251.672 186.884 l 222.961 158.177 l
 h
321.629 158.177 m f
0.666667 0.176471 0.0823529 rg
251.672 186.884 m 222.961 158.177 l 321.629 158.177 l f
0.498039 0.0666667 0.0196078 rg
251.672 186.884 m 222.512 157.728 l 222.512 153.353 l 222.961 153.353 l
 251.672 182.072 l 292.922 182.072 l 321.629 153.353 l 322.098 153.353 l
 322.098 157.728 l 292.922 186.884 l h
251.672 186.884 m f
0.278431 0.054902 0.054902 rg
331.172 160.853 m 330.688 162.22 329.949 163.497 328.91 164.532 c 299.738
 193.708 l 297.938 195.513 295.484 196.521 292.926 196.521 c 251.672 196.521
 l 249.125 196.521 246.668 195.513 244.867 193.708 c 215.691 164.532 l 214.645
 163.497 213.898 162.22 213.441 160.853 c 214.762 159.232 216.754 158.173
 219.012 158.173 c 222.969 158.173 l 251.676 186.884 l 292.934 186.884 l
 321.645 158.173 l 325.605 158.173 l 327.855 158.177 329.84 159.232 331.172
 160.853 c h
331.172 160.853 m f
0.14902 0.027451 0.027451 rg
292.922 189.747 m 251.664 189.747 l 249.121 189.747 246.66 188.751 244.859
 186.923 c 216.566 158.654 l 217.336 158.376 218.148 158.181 219.004 158.181
 c 222.961 158.181 l 251.672 186.892 l 292.926 186.892 l 321.637 158.181
 l 325.602 158.181 l 326.457 158.181 327.258 158.376 328.027 158.654 c 299.746
 186.923 l 297.93 188.751 295.484 189.747 292.922 189.747 c h
292.922 189.747 m f
0.666667 0.176471 0.0823529 rg
286.684 119.036 m 257.922 119.036 l 256.973 119.036 256.207 119.825 256.207
 120.775 c 256.207 149.525 l 256.207 150.482 256.969 151.251 257.922 151.251
 c 286.684 151.251 l 287.633 151.251 288.402 150.482 288.402 149.525 c 288.402
 120.775 l 288.41 119.825 287.641 119.036 286.684 119.036 c h
259.641 122.49 m 284.949 122.49 l 284.949 147.79 l 259.641 147.79 l h
259.641 122.49 m f
259.543 120.673 m 259.121 120.673 258.66 120.825 258.324 121.173 c 257.672
 121.841 257.672 122.95 258.324 123.611 c 283.82 149.099 l 284.496 149.767
 285.586 149.794 286.266 149.099 c 286.934 148.439 286.934 147.333 286.266
 146.669 c 260.781 121.173 l 260.426 120.837 259.988 120.673 259.543 120.673
 c h
259.543 120.673 m f
285.043 120.673 m 284.602 120.673 284.148 120.833 283.816 121.173 c 258.32
 146.669 l 257.664 147.329 257.664 148.431 258.32 149.099 c 259 149.794 
260.098 149.794 260.777 149.099 c 286.262 123.611 l 286.93 122.954 286.93
 121.845 286.262 121.173 c 285.934 120.833 285.496 120.673 285.043 120.673
 c h
285.043 120.673 m f
324.133 118.896 m 324.133 117.884 323.332 117.072 322.324 117.072 c 223.168
 117.072 l 222.18 117.072 221.367 117.884 221.367 118.896 c 221.367 119.88
 222.18 120.689 223.168 120.689 c 322.316 120.689 l 323.332 120.689 324.133
 119.88 324.133 118.896 c h
324.133 118.896 m f
0.490196 0.658824 0.113725 rg
390.695 136.15 m 204.945 134.482 49.191 77.501 0 0.005 c 390.695 0.005 
l h
390.695 136.15 m f
390.695 136.15 m 204.945 134.482 49.191 77.501 0 0.005 c 390.695 0.005 
l h
390.695 136.15 m f
0.176471 0.447059 0.0862745 rg
390.695 136.15 m 204.945 134.482 49.191 77.501 0 0.005 c 390.695 0.005 
l h
390.695 136.15 m f
0.258824 0.537255 0.180392 rg
72.922 0.005 m 136.383 52.56 253.379 89.884 390.695 96.822 c 390.695 116.685
 l 228.859 111.904 92.438 65.072 33.762 0.001 c 72.922 0.001 l h
72.922 0.005 m f
390.695 55.915 m 390.695 76.532 l 278.699 68.454 181.617 40.142 118.398
 0.001 c 172.012 0.001 l 229.426 27.896 305.191 47.872 390.695 55.915 c 
h
390.695 55.915 m f
390.695 13.29 m 390.695 34.818 l 333.609 28.15 281.258 16.138 236.441 0.005
 c 320.211 0.005 l 342.59 5.361 366.125 9.845 390.695 13.29 c h
390.695 13.29 m f
0.490196 0.658824 0.113725 rg
0 136.15 m 185.75 134.482 341.5 77.501 390.695 0.005 c 0 0.005 l h
0 136.15 m f
0.588235 0.776471 0.0627451 rg
317.77 0.005 m 254.305 52.56 137.309 89.884 0 96.822 c 0 116.685 l 161.828
 111.904 298.254 65.072 356.934 0.001 c 317.77 0.001 l h
317.77 0.005 m f
0 55.915 m 0 76.532 l 111.996 68.454 209.066 40.142 272.301 0.001 c 218.684
 0.001 l 161.27 27.896 85.5 47.872 0 55.915 c h
0 55.915 m f
0 13.29 m 0 34.818 l 57.078 28.15 109.434 16.138 154.254 0.005 c 70.477
 0.005 l 48.102 5.361 24.57 9.845 0 13.29 c h
0 13.29 m f
0.682353 0.72549 0.729412 rg
172.082 113.2 m 172.082 229.532 l 172.082 255.677 150.883 276.888 124.707
 276.888 c 103.648 276.888 l 77.492 276.888 56.273 255.685 56.273 229.532
 c 56.273 113.2 l h
172.082 113.2 m f
0.572549 0.643137 0.647059 rg
172.082 113.2 m 172.082 229.532 l 172.082 255.677 150.883 276.888 124.707
 276.888 c 103.648 276.888 l 77.492 276.888 56.273 255.685 56.273 229.532
 c f
0.780392 0.823529 0.827451 rg
83.59 164.697 m 83.59 163.126 82.316 161.837 80.734 161.837 c 69 161.837
 l 67.426 161.837 66.16 163.126 66.16 164.697 c 66.16 166.267 67.426 167.544
 69 167.544 c 80.734 167.544 l 82.309 167.544 83.59 166.267 83.59 164.697
 c h
83.59 164.697 m f
83.59 140.204 m 83.59 138.626 82.316 137.349 80.734 137.349 c 69 137.349
 l 67.426 137.349 66.16 138.626 66.16 140.204 c 66.16 141.786 67.426 143.052
 69 143.052 c 80.734 143.052 l 82.309 143.052 83.59 141.786 83.59 140.204
 c h
83.59 140.204 m f
93.66 154.634 m 93.66 153.052 92.379 151.775 90.801 151.775 c 79.07 151.775
 l 77.492 151.775 76.199 153.052 76.199 154.634 c 76.199 156.204 77.492 
157.47 79.07 157.47 c 90.801 157.47 l 92.379 157.47 93.66 156.204 93.66 
154.634 c h
93.66 154.634 m f
0.0784314 0.552941 0.878431 rg
159.402 183.462 m 159.402 181.896 158.133 180.626 156.555 180.626 c 144.805
 180.626 l 143.254 180.626 141.969 181.892 141.969 183.462 c 141.969 185.044
 143.254 186.325 144.805 186.325 c 156.555 186.325 l 158.133 186.325 159.402
 185.044 159.402 183.462 c h
159.402 183.462 m f
164.938 169.896 m 164.938 168.314 163.664 167.036 162.094 167.036 c 150.344
 167.036 l 148.781 167.036 147.496 168.314 147.496 169.896 c 147.496 171.466
 148.781 172.732 150.344 172.732 c 162.094 172.732 l 163.664 172.732 164.938
 171.466 164.938 169.896 c h
164.938 169.896 m f
0.27451 0.329412 0.32549 rg
132.301 236.65 m 132.301 226.642 124.191 218.532 114.184 218.532 c 104.18
 218.532 96.066 226.642 96.066 236.65 c 96.066 246.654 104.18 254.763 114.184
 254.763 c 124.191 254.763 132.301 246.654 132.301 236.65 c h
132.301 236.65 m f
0.168627 0.207843 0.203922 rg
114.191 245.704 m 105.754 245.704 98.727 239.919 96.723 232.122 c 98.727
 224.322 105.758 218.529 114.191 218.529 c 122.621 218.529 129.629 224.322
 131.652 232.122 c 129.629 239.919 122.621 245.704 114.191 245.704 c h
114.191 245.704 m f
118.48 240.99 m 117.238 242.232 117.234 244.259 118.477 245.513 c 156.727
 283.751 l 157.973 284.982 159.996 284.982 161.238 283.747 c 162.492 282.49
 162.492 280.462 161.238 279.208 c 123.008 240.99 l 121.738 239.736 119.734
 239.736 118.48 240.99 c h
118.48 240.99 m f
1 0.647059 0.133333 rg
174.797 244.185 m 171.062 240.443 164.992 240.443 161.242 244.185 c 142.742
 262.685 l 139.004 266.431 142.23 269.267 145.977 273.021 c 194.012 321.056
 l 197.77 324.802 203.844 324.786 207.578 321.056 c 222.84 305.794 l 226.586
 302.052 226.586 295.966 222.84 292.228 c h
174.797 244.185 m f
1 0.486275 0.141176 rg
168.59 250.404 m 216.613 298.447 l 220.363 302.185 220.363 308.251 216.613
 311.99 c 207.578 321.052 l 203.836 324.782 197.762 324.794 194.012 321.052
 c 145.973 273.013 l 142.23 269.259 139.012 266.423 142.742 262.681 c 155.035
 250.404 l 158.766 246.665 164.836 246.665 168.59 250.404 c h
168.59 250.404 m f
1 0.647059 0.133333 rg
212.855 289.4 m 212.016 288.568 210.656 288.568 209.836 289.4 c 203.828
 295.427 l 202.98 296.255 202.98 297.595 203.828 298.443 c 204.656 299.279
 206.004 299.279 206.836 298.454 c 212.859 292.423 l 213.68 291.572 213.68
 290.243 212.855 289.4 c h
212.855 289.4 m f
205.883 282.427 m 205.059 281.583 203.703 281.583 202.867 282.427 c 196.84
 288.447 l 196.023 289.286 196.023 290.626 196.848 291.466 c 197.688 292.298
 199.035 292.31 199.859 291.466 c 205.883 285.443 l 206.711 284.611 206.723
 283.255 205.883 282.427 c h
205.883 282.427 m f
198.922 275.454 m 198.082 274.622 196.723 274.622 195.902 275.454 c 189.859
 281.478 l 189.039 282.322 189.047 283.677 189.867 284.493 c 190.699 285.325
 192.059 285.325 192.883 284.509 c 198.914 278.47 l 199.746 277.646 199.746
 276.29 198.922 275.454 c h
198.922 275.454 m f
0.168627 0.207843 0.203922 rg
109.887 232.306 m 111.133 231.064 111.133 229.029 109.887 227.775 c 71.637
 189.544 l 70.395 188.302 68.371 188.302 67.117 189.544 c 65.863 190.798
 65.863 192.822 67.117 194.075 c 105.367 232.306 l 106.629 233.548 108.633
 233.548 109.887 232.306 c h
109.887 232.306 m f
1 0.647059 0.133333 rg
53.559 229.099 m 57.312 232.853 63.379 232.841 67.117 229.099 c 85.621 
210.595 l 89.363 206.853 86.125 204.017 82.379 200.263 c 34.348 152.24 l
 30.602 148.482 24.527 148.493 20.797 152.24 c 5.531 167.509 l 1.777 171.251
 1.777 177.314 5.531 181.075 c h
53.559 229.099 m f
1 0.486275 0.141176 rg
59.777 222.88 m 11.738 174.857 l 7.984 171.099 7.984 165.032 11.727 161.286
 c 20.793 152.247 l 24.531 148.501 30.605 148.49 34.348 152.247 c 82.379
 200.271 l 86.121 204.025 89.355 206.861 85.617 210.603 c 73.336 222.892
 l 69.602 226.634 63.527 226.634 59.777 222.88 c h
59.777 222.88 m f
1 0.647059 0.133333 rg
15.508 183.892 m 16.34 184.736 17.699 184.724 18.527 183.892 c 24.559 177.88
 l 25.383 177.036 25.383 175.693 24.559 174.861 c 23.719 174.029 22.359 
174.029 21.539 174.861 c 15.508 180.884 l 14.688 181.712 14.676 183.064 
15.508 183.892 c h
15.508 183.892 m f
22.473 190.868 m 23.309 191.7 24.656 191.7 25.496 190.868 c 31.512 184.845
 l 32.34 184.013 32.34 182.646 31.508 181.829 c 30.695 180.993 29.328 180.993
 28.5 181.818 c 22.477 187.849 l 21.652 188.689 21.645 190.029 22.473 190.868
 c h
22.473 190.868 m f
29.445 197.837 m 30.285 198.669 31.633 198.669 32.465 197.837 c 38.488 
191.798 l 39.32 190.974 39.32 189.626 38.484 188.782 c 37.652 187.962 36.305
 187.962 35.473 188.782 c 29.453 194.814 l 28.613 195.646 28.613 197.013
 29.445 197.837 c h
29.445 197.837 m f
0.168627 0.207843 0.203922 rg
118.52 232.345 m 119.773 233.599 121.801 233.599 123.051 232.345 c 161.281
 194.115 l 162.535 192.872 162.535 190.829 161.281 189.583 c 160.027 188.341
 158 188.353 156.762 189.583 c 118.52 227.825 l 117.277 229.075 117.273 
231.103 118.52 232.345 c h
118.52 232.345 m f
1 0.647059 0.133333 rg
121.727 176.029 m 117.977 179.763 117.984 185.845 121.727 189.583 c 140.215
 208.083 l 143.973 211.841 146.801 208.595 150.539 204.845 c 198.594 156.814
 l 202.328 153.064 202.328 146.982 198.594 143.247 c 183.332 127.986 l 179.582
 124.247 173.5 124.247 169.758 127.997 c h
121.727 176.029 m f
1 0.486275 0.141176 rg
127.953 182.247 m 175.984 134.208 l 179.734 130.454 185.789 130.454 189.539
 134.197 c 198.594 143.247 l 202.328 146.99 202.328 153.072 198.594 156.814
 c 150.539 204.845 l 146.801 208.591 143.973 211.833 140.215 208.083 c 127.953
 195.806 l 124.191 192.06 124.191 185.99 127.953 182.247 c h
127.953 182.247 m f
1 0.647059 0.133333 rg
166.922 137.966 m 166.098 138.798 166.098 140.154 166.922 140.986 c 172.965
 147.013 l 173.789 147.845 175.125 147.845 175.977 147.001 c 176.816 146.169
 176.816 144.833 175.977 143.99 c 169.953 137.974 l 169.129 137.146 167.758
 137.146 166.922 137.966 c h
166.922 137.966 m f
159.973 144.935 m 159.133 145.767 159.133 147.134 159.973 147.954 c 165.988
 153.986 l 166.828 154.818 168.164 154.802 169.008 153.986 c 169.832 153.146
 169.832 151.79 169.008 150.966 c 162.977 144.935 l 162.145 144.103 160.801
 144.103 159.973 144.935 c h
159.973 144.935 m f
153 151.904 m 152.152 152.743 152.152 154.099 153 154.923 c 159.02 160.935
 l 159.844 161.779 161.199 161.779 162.023 160.935 c 162.871 160.122 162.871
 158.755 162.023 157.923 c 156.012 151.9 l 155.164 151.079 153.832 151.079
 153 151.904 c h
153 151.904 m f
0.168627 0.207843 0.203922 rg
109.844 240.95 m 108.59 239.697 106.57 239.697 105.324 240.95 c 67.078 
279.169 l 65.84 280.423 65.84 282.454 67.078 283.708 c 68.348 284.95 70.363
 284.95 71.605 283.708 c 109.844 245.462 l 111.098 244.224 111.098 242.193
 109.844 240.95 c h
109.844 240.95 m f
1 0.647059 0.133333 rg
106.641 297.267 m 110.391 293.525 110.379 287.458 106.641 283.716 c 88.141
 265.208 l 84.395 261.462 81.559 264.697 77.805 268.462 c 29.781 316.49 
l 26.043 320.232 26.043 326.306 29.781 330.044 c 45.043 345.306 l 48.785
 349.048 54.859 349.048 58.605 345.29 c h
106.641 297.267 m f
1 0.486275 0.141176 rg
100.422 291.048 m 52.391 339.087 l 48.641 342.833 42.555 342.833 38.816
 339.087 c 29.781 330.044 l 26.043 326.298 26.043 320.224 29.781 316.49 
c 77.812 268.466 l 81.566 264.697 84.402 261.47 88.145 265.208 c 100.426
 277.493 l 104.164 281.24 104.164 287.306 100.422 291.048 c h
100.422 291.048 m f
1 0.647059 0.133333 rg
61.434 335.318 m 62.273 334.486 62.273 333.138 61.434 332.306 c 55.41 326.275
 l 54.57 325.439 53.23 325.439 52.391 326.275 c 51.547 327.107 51.559 328.462
 52.391 329.286 c 58.422 335.318 l 59.246 336.15 60.594 336.161 61.434 335.318
 c h
61.434 335.318 m f
68.402 328.361 m 69.234 327.517 69.234 326.15 68.402 325.341 c 62.379 319.314
 l 61.539 318.474 60.18 318.474 59.355 319.314 c 58.543 320.146 58.543 321.505
 59.355 322.325 c 65.391 328.368 l 66.211 329.173 67.57 329.173 68.402 328.361
 c h
68.402 328.361 m f
75.367 321.384 m 76.199 320.552 76.191 319.197 75.367 318.372 c 69.344 
312.341 l 68.516 311.509 67.164 311.509 66.332 312.341 c 65.492 313.173 
65.492 314.521 66.332 315.361 c 72.344 321.38 l 73.18 322.224 74.539 322.224
 75.367 321.384 c h
75.367 321.384 m f
123 236.65 m 123 231.782 119.055 227.837 114.191 227.837 c 109.324 227.837
 105.379 231.782 105.379 236.65 c 105.379 241.513 109.324 245.458 114.191
 245.458 c 119.055 245.458 123 241.513 123 236.65 c h
123 236.65 m f
1 0.486275 0.141176 rg
120.398 242.88 m 123.844 239.431 123.844 233.849 120.398 230.415 c 116.965
 226.982 111.398 226.966 107.938 230.415 c f
0.490196 0.658824 0.113725 rg
210.793 105.154 m 210.793 99.591 218.367 95.091 212.797 95.091 c 15.559
 95.091 l 10.008 95.091 17.574 99.591 17.574 105.154 c 17.574 110.712 22.074
 115.216 27.645 115.216 c 200.73 115.216 l 206.273 115.216 210.793 110.712
 210.793 105.154 c h
210.793 105.154 m f
0.588235 0.776471 0.0627451 rg
200.73 115.216 m 27.645 115.216 l 22.195 115.216 17.789 110.888 17.605 
105.501 c 210.762 105.501 l 210.57 110.896 206.18 115.216 200.73 115.216
 c h
200.73 115.216 m f
Q Q
showpage
%%Trailer
end restore
%%EOF
