%!PS-Adobe-3.0 EPSF-3.0
%%Creator: cairo 1.14.2 (http://cairographics.org)
%%CreationDate: Thu Aug  4 10:30:05 2016
%%Pages: 1
%%DocumentData: Clean7Bit
%%LanguageLevel: 2
%%BoundingBox: 0 -1 390 404
%%EndComments
%%BeginProlog
save
50 dict begin
/q { gsave } bind def
/Q { grestore } bind def
/cm { 6 array astore concat } bind def
/w { setlinewidth } bind def
/J { setlinecap } bind def
/j { setlinejoin } bind def
/M { setmiterlimit } bind def
/d { setdash } bind def
/m { moveto } bind def
/l { lineto } bind def
/c { curveto } bind def
/h { closepath } bind def
/re { exch dup neg 3 1 roll 5 3 roll moveto 0 rlineto
      0 exch rlineto 0 rlineto closepath } bind def
/S { stroke } bind def
/f { fill } bind def
/f* { eofill } bind def
/n { newpath } bind def
/W { clip } bind def
/W* { eoclip } bind def
/BT { } bind def
/ET { } bind def
/pdfmark where { pop globaldict /?pdfmark /exec load put }
    { globaldict begin /?pdfmark /pop load def /pdfmark
    /cleartomark load def end } ifelse
/BDC { mark 3 1 roll /BDC pdfmark } bind def
/EMC { mark /EMC pdfmark } bind def
/cairo_store_point { /cairo_point_y exch def /cairo_point_x exch def } def
/Tj { show currentpoint cairo_store_point } bind def
/TJ {
  {
    dup
    type /stringtype eq
    { show } { -0.001 mul 0 cairo_font_matrix dtransform rmoveto } ifelse
  } forall
  currentpoint cairo_store_point
} bind def
/cairo_selectfont { cairo_font_matrix aload pop pop pop 0 0 6 array astore
    cairo_font exch selectfont cairo_point_x cairo_point_y moveto } bind def
/Tf { pop /cairo_font exch def /cairo_font_matrix where
      { pop cairo_selectfont } if } bind def
/Td { matrix translate cairo_font_matrix matrix concatmatrix dup
      /cairo_font_matrix exch def dup 4 get exch 5 get cairo_store_point
      /cairo_font where { pop cairo_selectfont } if } bind def
/Tm { 2 copy 8 2 roll 6 array astore /cairo_font_matrix exch def
      cairo_store_point /cairo_font where { pop cairo_selectfont } if } bind def
/g { setgray } bind def
/rg { setrgbcolor } bind def
/d1 { setcachedevice } bind def
%%EndProlog
%%BeginSetup
%%EndSetup
%%Page: 1 1
%%BeginPageSetup
%%PageBoundingBox: 0 -1 390 404
%%EndPageSetup
q 0 -1 390 405 rectclip q
0.658824 0.403922 0.262745 rg
380.59 201.645 m 380.59 239.063 378.363 273.88 367.539 303.106 c 383.953
 337.31 389.812 369.833 389.812 384.427 c 389.812 421.81 302.551 392.122
 194.906 392.122 c 87.266 392.122 0 421.81 0 384.431 c 0 370.384 5.387 339.72
 20.441 306.927 c 9.848 276.942 9.219 240.696 9.219 201.645 c 9.219 164.235
 11.449 129.427 22.277 100.196 c 5.859 65.993 0 33.466 0 18.864 c 0 -18.503
 87.266 11.181 194.906 11.181 c 302.547 11.181 389.812 -18.503 389.812 18.864
 c 389.812 32.923 382.68 63.603 366.094 96.411 c 378.207 126.388 380.59 
162.614 380.59 201.645 c h
380.59 201.645 m f
0.54902 0.305882 0.184314 rg
194.906 11.181 m 302.551 11.181 389.812 -18.503 389.812 18.864 c 389.812
 32.923 382.68 63.603 366.094 96.411 c 378.203 126.388 380.586 162.614 380.586
 201.645 c 380.586 239.063 378.363 273.88 367.535 303.106 c 383.953 337.31
 389.812 369.833 389.812 384.427 c 389.812 421.81 302.547 392.122 194.906
 392.122 c f
0.737255 0.47451 0.341176 rg
194.906 392.122 m 96.344 392.122 14.922 416.978 1.871 392.481 c 35.164 
381.833 109.043 374.423 194.906 374.423 c 280.77 374.423 354.656 381.833
 387.941 392.474 c 374.891 416.978 293.469 392.122 194.906 392.122 c h
194.906 392.122 m f
0.658824 0.403922 0.262745 rg
387.941 392.474 m 387.941 392.481 387.93 392.489 387.93 392.489 c 387.543
 393.22 387.086 393.899 386.574 394.544 c 386.535 394.587 386.512 394.63
 386.512 394.63 c 385.969 395.306 385.391 395.884 384.777 396.438 c 384.727
 396.478 384.676 396.528 384.633 396.567 c 383.996 397.114 383.305 397.626
 382.566 398.091 c 382.516 398.118 382.477 398.142 382.434 398.173 c 365.469
 408.677 320.445 400.509 262.414 395.411 c 261.98 395.376 261.531 395.337
 261.098 395.298 c 258.746 395.099 256.371 394.903 253.984 394.7 c 253.172
 394.638 252.359 394.575 251.543 394.513 c 249.461 394.353 247.355 394.196
 245.23 394.044 c 244.246 393.974 243.266 393.907 242.273 393.845 c 240.285
 393.712 238.273 393.579 236.258 393.454 c 235.148 393.384 234.066 393.321
 232.961 393.259 c 231.016 393.145 229.047 393.052 227.074 392.95 c 225.902
 392.892 224.738 392.829 223.566 392.786 c 221.602 392.696 219.613 392.626
 217.637 392.552 c 216.453 392.517 215.285 392.466 214.102 392.427 c 211.961
 392.356 209.805 392.313 207.656 392.267 c 206.621 392.251 205.594 392.22
 204.555 392.2 c 201.355 392.149 198.145 392.122 194.906 392.122 c 194.906
 374.423 l 280.77 374.423 354.652 381.833 387.941 392.474 c h
387.941 392.474 m f
0.54902 0.305882 0.184314 rg
46.031 201.653 m 46.031 251.376 33.52 295.22 14.461 321.122 c 16.27 316.466
 18.242 311.728 20.441 306.927 c 9.848 276.942 9.219 240.696 9.219 201.645
 c 9.219 164.235 11.449 129.423 22.277 100.196 c 19.371 94.134 16.801 88.142
 14.531 82.27 c 33.543 108.2 46.031 151.989 46.031 201.653 c h
46.031 201.653 m f
0.658824 0.403922 0.262745 rg
343.781 201.653 m 343.781 160.36 352.426 123.149 366.266 96.872 c 378.211
 126.751 380.582 162.81 380.582 201.645 c 380.582 239.063 378.355 273.88
 367.531 303.106 c 370.438 309.169 373 315.169 375.277 321.036 c 356.27 
295.103 343.781 251.313 343.781 201.653 c h
343.781 201.653 m f
0.490196 0.658824 0.113725 rg
194.906 51.989 m 163.488 51.985 133.945 64.224 111.73 86.442 c 65.863 132.298
 65.863 206.927 111.73 252.794 c 115.426 256.489 121.406 256.489 125.098
 252.794 c 128.789 249.103 128.789 243.122 125.098 239.431 c 86.609 200.935
 86.609 138.298 125.098 99.806 c 163.594 61.325 226.219 61.325 264.715 99.806
 c 283.359 118.454 293.625 143.251 293.625 169.622 c 293.625 195.993 283.359
 220.782 264.715 239.431 c 261.023 243.122 261.023 249.103 264.715 252.794
 c 268.406 256.489 274.387 256.489 278.078 252.794 c 300.293 230.583 312.531
 201.04 312.531 169.614 c 312.531 138.204 300.301 108.653 278.078 86.442
 c 255.863 64.228 226.328 51.989 194.906 51.989 c h
194.906 51.989 m f
0.298039 0.556863 0.0666667 rg
278.082 86.442 m 300.293 108.653 312.531 138.204 312.531 169.614 c 312.531
 201.04 300.301 230.583 278.082 252.794 c 274.387 256.489 268.406 256.489
 264.715 252.794 c 261.023 249.103 261.023 243.122 264.715 239.431 c 283.363
 220.782 293.625 195.985 293.625 169.622 c 293.625 143.243 283.359 118.454
 264.715 99.806 c 245.465 80.563 220.188 70.946 194.906 70.946 c 194.906
 51.989 l 226.328 51.989 255.867 64.224 278.082 86.442 c h
278.082 86.442 m f
0.490196 0.658824 0.113725 rg
197.012 101.356 m 197.012 100.192 196.066 99.251 194.906 99.251 c 193.746
 99.251 192.801 100.192 192.801 101.356 c 192.801 280.95 l 192.801 282.11
 193.746 283.052 194.906 283.052 c 196.066 283.052 197.012 282.11 197.012
 280.95 c h
197.012 101.356 m f
203.176 95.47 m 203.176 90.903 199.473 87.204 194.906 87.204 c 190.34 87.204
 186.637 90.903 186.637 95.47 c 186.637 100.036 190.34 103.739 194.906 103.739
 c 199.473 103.739 203.176 100.036 203.176 95.47 c h
203.176 95.47 m f
194.98 328.794 m 186.25 324.509 179.637 305.231 179.637 296.032 c 179.637
 286.829 186.254 279.2 194.98 277.567 c h
194.98 328.794 m f
0.27451 0.576471 0.0823529 rg
194.832 328.794 m 203.566 324.509 210.168 305.231 210.168 296.032 c 210.168
 286.829 203.559 279.2 194.832 277.567 c h
194.832 328.794 m f
0.490196 0.658824 0.113725 rg
233.555 271.36 m 224.348 274.497 206.047 265.536 199.539 259.036 c 193.043
 252.532 192.316 242.454 197.332 235.138 c h
233.555 271.36 m f
0.27451 0.576471 0.0823529 rg
233.453 271.454 m 236.594 262.255 227.633 243.95 221.133 237.446 c 214.625
 230.942 204.555 230.224 197.234 235.231 c h
233.453 271.454 m f
0.490196 0.658824 0.113725 rg
233.555 228.825 m 224.348 231.962 206.047 223.001 199.539 216.501 c 193.043
 209.997 192.316 199.919 197.332 192.603 c h
233.555 228.825 m f
0.27451 0.576471 0.0823529 rg
233.453 228.919 m 236.594 219.72 227.633 201.415 221.133 194.911 c 214.625
 188.407 204.555 187.688 197.234 192.696 c h
233.453 228.919 m f
0.490196 0.658824 0.113725 rg
233.555 186.29 m 224.348 189.427 206.047 180.466 199.539 173.962 c 193.043
 167.462 192.316 157.384 197.332 150.067 c h
233.555 186.29 m f
0.27451 0.576471 0.0823529 rg
233.453 186.384 m 236.594 177.185 227.633 158.876 221.133 152.376 c 214.625
 145.872 204.555 145.153 197.234 150.161 c h
233.453 186.384 m f
0.490196 0.658824 0.113725 rg
227.102 137.321 m 219.535 139.899 204.48 132.532 199.137 127.188 c 193.777
 121.837 193.191 113.556 197.312 107.54 c h
227.102 137.321 m f
0.27451 0.576471 0.0823529 rg
227.02 137.403 m 229.602 129.833 222.242 114.778 216.895 109.435 c 211.543
 104.091 203.27 103.501 197.238 107.622 c h
227.02 137.403 m f
0.490196 0.658824 0.113725 rg
156.258 271.36 m 165.465 274.497 183.766 265.536 190.273 259.036 c 196.773
 252.532 197.496 242.454 192.48 235.138 c h
156.258 271.36 m f
0.27451 0.576471 0.0823529 rg
156.359 271.454 m 153.223 262.255 162.184 243.95 168.68 237.446 c 175.188
 230.942 185.258 230.224 192.582 235.231 c h
156.359 271.454 m f
0.490196 0.658824 0.113725 rg
156.258 228.825 m 165.465 231.962 183.766 223.001 190.273 216.501 c 196.773
 209.997 197.496 199.919 192.48 192.603 c h
156.258 228.825 m f
0.27451 0.576471 0.0823529 rg
156.359 228.919 m 153.223 219.72 162.184 201.415 168.68 194.911 c 175.188
 188.407 185.258 187.688 192.582 192.696 c h
156.359 228.919 m f
0.490196 0.658824 0.113725 rg
156.258 186.29 m 165.465 189.427 183.766 180.466 190.273 173.962 c 196.773
 167.462 197.496 157.384 192.48 150.067 c h
156.258 186.29 m f
0.27451 0.576471 0.0823529 rg
156.359 186.384 m 153.223 177.185 162.184 158.876 168.68 152.376 c 175.188
 145.872 185.258 145.153 192.582 150.161 c h
156.359 186.384 m f
0.490196 0.658824 0.113725 rg
162.711 137.321 m 170.281 139.899 185.336 132.532 190.68 127.188 c 196.035
 121.837 196.621 113.556 192.5 107.54 c h
162.711 137.321 m f
0.27451 0.576471 0.0823529 rg
162.793 137.403 m 160.211 129.833 167.57 114.778 172.922 109.435 c 178.27
 104.091 186.543 103.501 192.574 107.622 c h
162.793 137.403 m f
Q Q
showpage
%%Trailer
end restore
%%EOF
