%!PS-Adobe-3.0 EPSF-3.0
%%Creator: cairo 1.14.2 (http://cairographics.org)
%%CreationDate: Thu Aug  4 10:34:00 2016
%%Pages: 1
%%DocumentData: Clean7Bit
%%LanguageLevel: 2
%%BoundingBox: 0 -1 281 404
%%EndComments
%%BeginProlog
save
50 dict begin
/q { gsave } bind def
/Q { grestore } bind def
/cm { 6 array astore concat } bind def
/w { setlinewidth } bind def
/J { setlinecap } bind def
/j { setlinejoin } bind def
/M { setmiterlimit } bind def
/d { setdash } bind def
/m { moveto } bind def
/l { lineto } bind def
/c { curveto } bind def
/h { closepath } bind def
/re { exch dup neg 3 1 roll 5 3 roll moveto 0 rlineto
      0 exch rlineto 0 rlineto closepath } bind def
/S { stroke } bind def
/f { fill } bind def
/f* { eofill } bind def
/n { newpath } bind def
/W { clip } bind def
/W* { eoclip } bind def
/BT { } bind def
/ET { } bind def
/pdfmark where { pop globaldict /?pdfmark /exec load put }
    { globaldict begin /?pdfmark /pop load def /pdfmark
    /cleartomark load def end } ifelse
/BDC { mark 3 1 roll /BDC pdfmark } bind def
/EMC { mark /EMC pdfmark } bind def
/cairo_store_point { /cairo_point_y exch def /cairo_point_x exch def } def
/Tj { show currentpoint cairo_store_point } bind def
/TJ {
  {
    dup
    type /stringtype eq
    { show } { -0.001 mul 0 cairo_font_matrix dtransform rmoveto } ifelse
  } forall
  currentpoint cairo_store_point
} bind def
/cairo_selectfont { cairo_font_matrix aload pop pop pop 0 0 6 array astore
    cairo_font exch selectfont cairo_point_x cairo_point_y moveto } bind def
/Tf { pop /cairo_font exch def /cairo_font_matrix where
      { pop cairo_selectfont } if } bind def
/Td { matrix translate cairo_font_matrix matrix concatmatrix dup
      /cairo_font_matrix exch def dup 4 get exch 5 get cairo_store_point
      /cairo_font where { pop cairo_selectfont } if } bind def
/Tm { 2 copy 8 2 roll 6 array astore /cairo_font_matrix exch def
      cairo_store_point /cairo_font where { pop cairo_selectfont } if } bind def
/g { setgray } bind def
/rg { setrgbcolor } bind def
/d1 { setcachedevice } bind def
%%EndProlog
%%BeginSetup
%%EndSetup
%%Page: 1 1
%%BeginPageSetup
%%PageBoundingBox: 0 -1 281 404
%%EndPageSetup
q 0 -1 281 405 rectclip q
0.0666667 0.647059 0.411765 rg
169.473 374.171 m 169.473 358.085 156.438 294.347 140.348 294.347 c 124.262
 294.347 111.223 358.085 111.223 374.171 c 111.223 390.261 124.262 403.292
 140.348 403.292 c 156.434 403.292 169.473 390.261 169.473 374.171 c h
169.473 374.171 m f
0.0156863 0.537255 0.313726 rg
140.348 403.292 m 156.438 403.292 169.473 390.261 169.473 374.171 c 169.473
 358.085 156.438 294.347 140.348 294.347 c f
0.466667 0.27451 0.737255 rg
113.25 237.522 m 113.25 210.136 91.047 187.933 63.656 187.933 c 36.27 187.933
 14.066 210.136 14.066 237.522 c 14.066 264.913 36.27 287.116 63.656 287.116
 c 91.047 287.116 113.25 264.913 113.25 237.522 c h
113.25 237.522 m f
0.360784 0.2 0.619608 rg
98.727 272.597 m 118.098 253.226 118.098 221.827 98.734 202.444 c 79.363
 183.085 47.961 183.085 28.59 202.456 c 9.211 221.827 48.836 213.608 68.203
 232.979 c 87.57 252.351 79.355 291.968 98.727 272.597 c h
98.727 272.597 m f
0.623529 0.517647 0.827451 rg
56.543 275.366 m 60.621 271.28 50.211 267.929 41.723 259.452 c 33.238 250.972
 29.887 240.55 25.809 244.632 c 21.727 248.729 25.301 258.925 33.773 267.397
 c 42.258 275.882 52.445 279.456 56.543 275.366 c h
56.543 275.366 m f
71.25 278.003 m 71.25 276.315 69.883 274.948 68.195 274.948 c 66.508 274.948
 65.141 276.315 65.141 278.003 c 65.141 279.694 66.508 281.062 68.195 281.062
 c 69.883 281.062 71.25 279.694 71.25 278.003 c h
71.25 278.003 m f
27 235.991 m 27 235.319 26.453 234.769 25.777 234.769 c 25.105 234.769 
24.559 235.319 24.559 235.991 c 24.559 236.667 25.105 237.214 25.777 237.214
 c 26.453 237.214 27 236.667 27 235.991 c h
27 235.991 m f
0.466667 0.27451 0.737255 rg
266.645 237.522 m 266.645 210.132 244.438 187.925 217.043 187.925 c 189.652
 187.925 167.445 210.132 167.445 237.522 c 167.445 264.917 189.652 287.124
 217.043 287.124 c 244.438 287.124 266.645 264.917 266.645 237.522 c h
266.645 237.522 m f
0.360784 0.2 0.619608 rg
181.969 272.597 m 162.598 253.226 162.598 221.827 181.965 202.444 c 201.336
 183.085 232.734 183.085 252.113 202.456 c 271.484 221.827 231.859 213.608
 212.488 232.979 c 193.129 252.351 201.34 291.968 181.969 272.597 c h
181.969 272.597 m f
0.623529 0.517647 0.827451 rg
224.152 275.366 m 220.082 271.28 230.477 267.929 238.973 259.452 c 247.457
 250.972 250.809 240.55 254.887 244.632 c 258.969 248.729 255.402 258.925
 246.922 267.397 c 238.438 275.874 228.246 279.456 224.152 275.366 c h
224.152 275.366 m f
215.551 278.003 m 215.551 276.315 214.184 274.948 212.496 274.948 c 210.805
 274.948 209.438 276.315 209.438 278.003 c 209.438 279.694 210.805 281.062
 212.496 281.062 c 214.184 281.062 215.551 279.694 215.551 278.003 c h
215.551 278.003 m f
256.137 235.991 m 256.137 235.319 255.59 234.769 254.914 234.769 c 254.242
 234.769 253.695 235.319 253.695 235.991 c 253.695 236.667 254.242 237.214
 254.914 237.214 c 255.59 237.214 256.137 236.667 256.137 235.991 c h
256.137 235.991 m f
0.466667 0.27451 0.737255 rg
189.941 272.421 m 189.941 245.034 167.738 222.827 140.348 222.827 c 112.957
 222.827 90.754 245.034 90.754 272.421 c 90.754 299.812 112.957 322.015 
140.348 322.015 c 167.738 322.015 189.941 299.812 189.941 272.421 c h
189.941 272.421 m f
0.360784 0.2 0.619608 rg
189.934 272.421 m 189.934 245.022 167.746 222.823 140.348 222.823 c 112.949
 222.823 90.754 245.022 90.754 272.421 c 90.754 299.819 112.949 265.987 
140.348 265.987 c 167.746 265.987 189.934 299.819 189.934 272.421 c h
189.934 272.421 m f
0.623529 0.517647 0.827451 rg
162.074 304.214 m 162.074 298.44 152.344 303.425 140.348 303.425 c 128.348
 303.425 118.625 298.44 118.625 304.214 c 118.625 309.999 128.348 314.675
 140.348 314.675 c 152.344 314.675 162.074 309.999 162.074 304.214 c h
162.074 304.214 m f
175.254 297.831 m 175.254 296.144 173.883 294.772 172.195 294.772 c 170.508
 294.772 169.141 296.144 169.141 297.831 c 169.141 299.519 170.508 300.886
 172.195 300.886 c 173.883 300.886 175.254 299.519 175.254 297.831 c h
175.254 297.831 m f
113.723 298.14 m 113.723 297.46 113.176 296.909 112.496 296.909 c 111.816
 296.909 111.266 297.46 111.266 298.14 c 111.266 298.815 111.816 299.366
 112.496 299.366 c 113.176 299.366 113.723 298.815 113.723 298.14 c h
113.723 298.14 m f
0.466667 0.27451 0.737255 rg
115.855 173.987 m 115.855 149.222 95.777 129.144 71.012 129.144 c 46.246
 129.144 26.172 149.222 26.172 173.987 c 26.172 198.749 46.246 218.827 71.012
 218.827 c 95.777 218.827 115.855 198.749 115.855 173.987 c h
115.855 173.987 m f
0.360784 0.2 0.619608 rg
102.723 205.694 m 120.227 188.183 120.227 159.788 102.723 142.276 c 85.203
 124.776 56.82 124.776 39.301 142.288 c 21.777 159.788 57.602 152.37 75.133
 169.87 c 92.633 187.39 85.203 223.218 102.723 205.694 c h
102.723 205.694 m f
0.623529 0.517647 0.827451 rg
64.57 208.202 m 68.266 204.511 58.855 201.472 51.188 193.804 c 43.523 186.136
 40.488 176.733 36.801 180.425 c 33.109 184.116 36.336 193.323 44.004 200.991
 c 51.672 208.663 60.867 211.894 64.57 208.202 c h
64.57 208.202 m f
77.895 210.597 m 77.895 209.069 76.652 207.831 75.125 207.831 c 73.598 
207.831 72.359 209.069 72.359 210.597 c 72.359 212.124 73.598 213.362 75.125
 213.362 c 76.652 213.362 77.895 212.124 77.895 210.597 c h
77.895 210.597 m f
37.859 172.601 m 37.859 171.987 37.363 171.491 36.75 171.491 c 36.137 171.491
 35.641 171.987 35.641 172.601 c 35.641 173.21 36.137 173.706 36.75 173.706
 c 37.363 173.706 37.859 173.21 37.859 172.601 c h
37.859 172.601 m f
0.466667 0.27451 0.737255 rg
254.523 173.987 m 254.523 149.226 234.453 129.151 209.691 129.151 c 184.93
 129.151 164.855 149.226 164.855 173.987 c 164.855 198.749 184.93 218.819
 209.691 218.819 c 234.453 218.819 254.523 198.749 254.523 173.987 c h
254.523 173.987 m f
0.360784 0.2 0.619608 rg
177.988 205.694 m 160.469 188.183 160.469 159.788 177.98 142.276 c 195.484
 124.776 223.887 124.776 241.391 142.288 c 258.918 159.788 223.094 152.37
 205.566 169.87 c 188.062 187.39 195.488 223.218 177.988 205.694 c h
177.988 205.694 m f
0.623529 0.517647 0.827451 rg
216.125 208.202 m 212.43 204.511 221.844 201.472 229.508 193.804 c 237.172
 186.136 240.203 176.733 243.902 180.425 c 247.594 184.116 244.363 193.323
 236.691 200.991 c 229.035 208.655 219.816 211.894 216.125 208.202 c h
216.125 208.202 m f
208.34 210.597 m 208.34 209.069 207.102 207.831 205.574 207.831 c 204.047
 207.831 202.809 209.069 202.809 210.597 c 202.809 212.124 204.047 213.362
 205.574 213.362 c 207.102 213.362 208.34 212.124 208.34 210.597 c h
208.34 210.597 m f
245.039 172.601 m 245.039 171.987 244.543 171.491 243.934 171.491 c 243.32
 171.491 242.824 171.987 242.824 172.601 c 242.824 173.21 243.32 173.706
 243.934 173.706 c 244.543 173.706 245.039 173.21 245.039 172.601 c h
245.039 172.601 m f
0.466667 0.27451 0.737255 rg
185.195 205.542 m 185.195 180.772 165.117 160.694 140.348 160.694 c 115.578
 160.694 95.5 180.772 95.5 205.542 c 95.5 230.312 115.578 250.39 140.348
 250.39 c 165.117 250.39 185.195 230.312 185.195 205.542 c h
185.195 205.542 m f
0.360784 0.2 0.619608 rg
185.195 205.542 m 185.195 180.765 165.105 160.694 140.348 160.694 c 115.59
 160.694 95.5 180.772 95.5 205.542 c 95.5 230.308 115.59 199.733 140.348
 199.733 c 165.105 199.733 185.195 230.308 185.195 205.542 c h
185.195 205.542 m f
0.623529 0.517647 0.827451 rg
159.988 234.272 m 159.988 229.065 151.191 233.573 140.348 233.573 c 129.504
 233.573 120.707 229.065 120.707 234.272 c 120.707 239.515 129.504 243.737
 140.348 243.737 c 151.191 243.737 159.988 239.515 159.988 234.272 c h
159.988 234.272 m f
171.91 228.495 m 171.91 226.964 170.672 225.726 169.145 225.726 c 167.617
 225.726 166.379 226.964 166.379 228.495 c 166.379 230.022 167.617 231.261
 169.145 231.261 c 170.672 231.261 171.91 230.022 171.91 228.495 c h
171.91 228.495 m f
116.273 228.808 m 116.273 228.198 115.777 227.698 115.168 227.698 c 114.555
 227.698 114.059 228.198 114.059 228.808 c 114.059 229.421 114.555 229.917
 115.168 229.917 c 115.777 229.917 116.273 229.421 116.273 228.808 c h
116.273 228.808 m f
0.466667 0.27451 0.737255 rg
117.719 110.89 m 117.719 87.999 99.164 69.444 76.273 69.444 c 53.383 69.444
 34.828 87.999 34.828 110.89 c 34.828 133.776 53.383 152.335 76.273 152.335
 c 99.164 152.335 117.719 133.776 117.719 110.89 c h
117.719 110.89 m f
0.360784 0.2 0.619608 rg
105.574 140.19 m 121.746 124.007 121.746 97.769 105.574 81.581 c 89.387
 65.397 63.148 65.397 46.961 81.581 c 30.77 97.761 63.871 90.905 80.066 
107.081 c 96.25 123.269 89.387 156.386 105.574 140.19 c h
105.574 140.19 m f
0.623529 0.517647 0.827451 rg
70.32 142.515 m 73.727 139.093 65.02 136.288 57.949 129.214 c 50.855 122.124
 48.062 113.433 44.652 116.831 c 41.227 120.265 44.219 128.772 51.301 135.851
 c 58.391 142.937 66.898 145.925 70.32 142.515 c h
70.32 142.515 m f
82.605 144.714 m 82.605 143.304 81.465 142.163 80.055 142.163 c 78.645 
142.163 77.504 143.304 77.504 144.714 c 77.504 146.124 78.645 147.265 80.055
 147.265 c 81.465 147.265 82.605 146.124 82.605 144.714 c h
82.605 144.714 m f
45.648 109.647 m 45.648 109.077 45.188 108.62 44.621 108.62 c 44.055 108.62
 43.594 109.077 43.594 109.647 c 43.594 110.214 44.055 110.675 44.621 110.675
 c 45.188 110.675 45.648 110.214 45.648 109.647 c h
45.648 109.647 m f
0.466667 0.27451 0.737255 rg
245.879 110.89 m 245.879 88.003 227.328 69.448 204.441 69.448 c 181.555
 69.448 163 88.003 163 110.89 c 163 133.772 181.555 152.327 204.441 152.327
 c 227.328 152.327 245.879 133.772 245.879 110.89 c h
245.879 110.89 m f
0.360784 0.2 0.619608 rg
175.137 140.19 m 158.941 124.007 158.941 97.769 175.121 81.581 c 191.309
 65.397 217.547 65.397 233.742 81.581 c 249.926 97.761 216.809 90.905 200.633
 107.081 c 184.445 123.269 191.312 156.386 175.137 140.19 c h
175.137 140.19 m f
0.623529 0.517647 0.827451 rg
210.383 142.515 m 206.969 139.093 215.672 136.288 222.758 129.214 c 229.848
 122.124 232.645 113.433 236.055 116.831 c 239.469 120.265 236.477 128.772
 229.395 135.851 c 222.32 142.937 213.805 145.925 210.383 142.515 c h
210.383 142.515 m f
203.207 144.714 m 203.207 143.304 202.062 142.163 200.652 142.163 c 199.246
 142.163 198.102 143.304 198.102 144.714 c 198.102 146.124 199.246 147.265
 200.652 147.265 c 202.062 147.265 203.207 146.124 203.207 144.714 c h
203.207 144.714 m f
237.121 109.647 m 237.121 109.077 236.656 108.612 236.086 108.612 c 235.516
 108.612 235.055 109.077 235.055 109.647 c 235.055 110.218 235.516 110.679
 236.086 110.679 c 236.656 110.679 237.121 110.218 237.121 109.647 c h
237.121 109.647 m f
0.466667 0.27451 0.737255 rg
181.793 140.046 m 181.793 117.163 163.242 98.62 140.348 98.62 c 117.461
 98.62 98.906 117.163 98.906 140.046 c 98.906 162.952 117.461 181.495 140.348
 181.495 c 163.242 181.495 181.793 162.944 181.793 140.046 c h
181.793 140.046 m f
0.360784 0.2 0.619608 rg
181.793 140.046 m 181.793 117.163 163.242 98.62 140.348 98.62 c 117.461
 98.62 98.906 117.163 98.906 140.046 c 98.906 162.952 117.461 134.679 140.348
 134.679 c 163.242 134.675 181.793 162.944 181.793 140.046 c h
181.793 140.046 m f
0.623529 0.517647 0.827451 rg
158.508 166.612 m 158.508 161.784 150.379 165.956 140.348 165.956 c 130.316
 165.956 122.195 161.784 122.195 166.612 c 122.195 171.452 130.316 175.354
 140.348 175.354 c 150.379 175.354 158.508 171.452 158.508 166.612 c h
158.508 166.612 m f
169.512 161.288 m 169.512 159.874 168.367 158.729 166.953 158.729 c 165.539
 158.729 164.395 159.874 164.395 161.288 c 164.395 162.702 165.539 163.847
 166.953 163.847 c 168.367 163.847 169.512 162.702 169.512 161.288 c h
169.512 161.288 m f
118.102 161.546 m 118.102 160.979 117.645 160.519 117.074 160.519 c 116.508
 160.519 116.047 160.979 116.047 161.546 c 116.047 162.112 116.508 162.573
 117.074 162.573 c 117.645 162.573 118.102 162.112 118.102 161.546 c h
118.102 161.546 m f
0.466667 0.27451 0.737255 rg
123.07 61.546 m 123.07 44.112 108.934 29.976 91.5 29.976 c 74.062 29.976
 59.93 44.112 59.93 61.546 c 59.93 78.983 74.062 93.116 91.5 93.116 c 108.934
 93.116 123.07 78.983 123.07 61.546 c h
123.07 61.546 m f
0.360784 0.2 0.619608 rg
113.844 83.886 m 126.168 71.542 126.168 51.538 113.844 39.206 c 101.492
 26.862 81.496 26.862 69.145 39.206 c 56.809 51.538 82.047 46.312 94.398
 58.655 c 106.734 70.987 101.492 96.229 113.844 83.886 c h
113.844 83.886 m f
0.623529 0.517647 0.827451 rg
86.961 85.655 m 89.562 83.05 82.914 80.905 77.535 75.519 c 72.129 70.116
 69.996 63.483 67.387 66.077 c 64.793 68.687 67.055 75.171 72.473 80.577
 c 77.875 85.979 84.352 88.265 86.961 85.655 c h
86.961 85.655 m f
96.355 87.327 m 96.355 86.253 95.484 85.378 94.41 85.378 c 93.336 85.378
 92.461 86.253 92.461 87.327 c 92.461 88.401 93.336 89.272 94.41 89.272 
c 95.484 89.272 96.355 88.401 96.355 87.327 c h
96.355 87.327 m f
67.93 61.124 m 68.227 60.827 68.227 60.323 67.93 60.015 c 67.613 59.722
 67.109 59.722 66.816 60.03 c 66.512 60.323 66.512 60.827 66.816 61.124 
c 67.109 61.448 67.613 61.448 67.93 61.124 c h
67.93 61.124 m f
0.466667 0.27451 0.737255 rg
220.754 61.546 m 220.754 44.112 206.621 29.976 189.184 29.976 c 171.75 
29.976 157.613 44.112 157.613 61.546 c 157.613 78.983 171.75 93.116 189.184
 93.116 c 206.621 93.116 220.754 78.983 220.754 61.546 c h
220.754 61.546 m f
0.360784 0.2 0.619608 rg
166.871 83.886 m 154.527 71.542 154.527 51.538 166.859 39.206 c 179.195
 26.862 199.199 26.862 211.543 39.206 c 223.887 51.538 198.637 46.312 186.305
 58.655 c 173.961 70.987 179.195 96.229 166.871 83.886 c h
166.871 83.886 m f
0.623529 0.517647 0.827451 rg
193.734 85.655 m 191.137 83.05 197.773 80.905 203.168 75.519 c 208.574 
70.116 210.699 63.483 213.309 66.077 c 215.91 68.687 213.637 75.171 208.234
 80.577 c 202.828 85.979 196.348 88.265 193.734 85.655 c h
193.734 85.655 m f
188.254 87.327 m 188.254 86.253 187.379 85.378 186.305 85.378 c 185.23 
85.378 184.359 86.253 184.359 87.327 c 184.359 88.401 185.23 89.272 186.305
 89.272 c 187.379 89.272 188.254 88.401 188.254 87.327 c h
188.254 87.327 m f
212.77 61.124 m 212.477 60.827 212.477 60.323 212.77 60.015 c 213.094 59.722
 213.586 59.722 213.887 60.03 c 214.184 60.323 214.184 60.827 213.887 61.124
 c 213.586 61.448 213.094 61.448 212.77 61.124 c h
212.77 61.124 m f
0.466667 0.27451 0.737255 rg
171.918 83.749 m 171.918 66.312 157.785 52.179 140.348 52.179 c 122.914
 52.179 108.777 66.312 108.777 83.749 c 108.777 101.183 122.914 115.319 
140.348 115.319 c 157.785 115.319 171.918 101.183 171.918 83.749 c h
171.918 83.749 m f
0.360784 0.2 0.619608 rg
171.941 83.772 m 171.941 66.319 157.801 52.19 140.348 52.19 c 122.898 52.19
 108.75 66.319 108.75 83.772 c 108.75 101.229 122.898 79.69 140.348 79.69
 c 157.805 79.69 171.941 101.222 171.941 83.772 c h
171.941 83.772 m f
0.623529 0.517647 0.827451 rg
154.188 104.03 m 154.188 100.351 147.996 103.526 140.348 103.526 c 132.691
 103.526 126.504 100.351 126.504 104.03 c 126.504 107.714 132.691 110.694
 140.348 110.694 c 147.996 110.687 154.188 107.714 154.188 104.03 c h
154.188 104.03 m f
162.586 99.968 m 162.586 98.89 161.711 98.015 160.633 98.015 c 159.555 
98.015 158.68 98.89 158.68 99.968 c 158.68 101.046 159.555 101.921 160.633
 101.921 c 161.711 101.921 162.586 101.046 162.586 99.968 c h
162.586 99.968 m f
123.398 100.155 m 123.398 99.722 123.043 99.37 122.609 99.37 c 122.172 
99.37 121.82 99.722 121.82 100.155 c 121.82 100.593 122.172 100.944 122.609
 100.944 c 123.043 100.944 123.398 100.593 123.398 100.155 c h
123.398 100.155 m f
0.466667 0.27451 0.737255 rg
171.918 31.569 m 171.918 14.136 157.785 -0.001 140.348 -0.001 c 122.914
 -0.001 108.777 14.136 108.777 31.569 c 108.777 49.007 122.914 63.14 140.348
 63.14 c 157.785 63.14 171.918 49.007 171.918 31.569 c h
171.918 31.569 m f
0.360784 0.2 0.619608 rg
171.941 31.589 m 171.941 14.136 157.801 0.007 140.348 0.007 c 122.898 0.007
 108.75 14.136 108.75 31.589 c 108.75 49.046 122.898 27.507 140.348 27.507
 c 157.805 27.499 171.941 49.038 171.941 31.589 c h
171.941 31.589 m f
0.623529 0.517647 0.827451 rg
154.188 51.835 m 154.188 48.155 147.996 51.347 140.348 51.347 c 132.691
 51.347 126.504 48.155 126.504 51.835 c 126.504 55.53 132.691 58.511 140.348
 58.511 c 147.996 58.503 154.188 55.53 154.188 51.835 c h
154.188 51.835 m f
162.578 47.784 m 162.578 46.702 161.711 45.819 160.621 45.819 c 159.555
 45.819 158.672 46.706 158.672 47.784 c 158.672 48.843 159.555 49.733 160.621
 49.733 c 161.715 49.729 162.578 48.843 162.578 47.784 c h
162.578 47.784 m f
123.398 47.968 m 123.398 47.53 123.043 47.179 122.609 47.179 c 122.172 
47.179 121.82 47.53 121.82 47.968 c 121.82 48.401 122.172 48.757 122.609
 48.757 c 123.043 48.757 123.398 48.401 123.398 47.968 c h
123.398 47.968 m f
0.0156863 0.537255 0.313726 rg
101.727 334.737 m 101.727 334.737 65.102 366.206 30.922 347.995 c 30.922
 347.995 42.398 347.468 45.359 336.968 c 48.332 326.468 54.426 326.354 54.426
 326.354 c 54.426 326.354 44.859 332.854 35.855 314.479 c 26.871 296.089
 0 290.796 0 290.796 c 0 290.796 51.621 267.155 72.133 280.683 c 72.133 
280.683 70.98 270.69 77.805 263.499 c 77.805 263.499 88.008 278.905 99.527
 285.749 c 111.039 292.604 114.77 305.815 115.91 315.808 c 115.91 315.808
 97.504 329.124 50.141 305.972 c 50.141 305.972 76.746 329.565 115.223 324.409
 c h
101.727 334.737 m f
0.0666667 0.647059 0.411765 rg
113.383 317.101 m 106.957 319.784 87.66 324.315 50.148 305.972 c 50.148
 305.972 76.754 329.562 115.23 324.409 c 101.727 334.737 l 101.727 334.737
 65.102 366.206 30.922 347.995 c 30.922 347.995 42.398 347.464 45.359 336.968
 c 47.027 331.069 49.656 328.511 51.668 327.347 c 48.176 327.937 41.895 
326.804 35.855 314.483 c 26.871 296.097 0 290.804 0 290.804 c 0 290.804 
0.922 290.386 2.5 289.718 c 11.625 287.808 21.324 286.788 31.375 286.788
 c 65.922 286.788 96.172 298.913 113.383 317.101 c h
113.383 317.101 m f
0.0156863 0.537255 0.313726 rg
178.969 334.737 m 178.969 334.737 215.594 366.206 249.773 347.995 c 249.773
 347.995 238.297 347.468 235.336 336.968 c 232.363 326.468 226.262 326.354
 226.262 326.354 c 226.262 326.354 235.836 332.854 244.832 314.479 c 253.824
 296.089 280.695 290.796 280.695 290.796 c 280.695 290.796 229.066 267.155
 208.562 280.683 c 208.562 280.683 209.715 270.69 202.891 263.499 c 202.891
 263.499 192.688 278.905 181.168 285.749 c 169.656 292.604 165.926 305.815
 164.785 315.808 c 164.785 315.808 183.191 329.124 230.555 305.972 c 230.555
 305.972 203.949 329.565 165.473 324.409 c h
178.969 334.737 m f
0.0666667 0.647059 0.411765 rg
167.312 317.101 m 173.734 319.784 193.035 324.315 230.547 305.972 c 230.547
 305.972 203.941 329.562 165.465 324.409 c 178.969 334.737 l 178.969 334.737
 215.594 366.206 249.773 347.995 c 249.773 347.995 238.297 347.464 235.336
 336.968 c 233.668 331.069 231.039 328.511 229.027 327.347 c 232.52 327.937
 238.801 326.804 244.832 314.483 c 253.824 296.097 280.695 290.804 280.695
 290.804 c 280.695 290.804 279.773 290.386 278.195 289.718 c 269.07 287.808
 259.363 286.788 249.32 286.788 c 214.773 286.788 184.523 298.913 167.312
 317.101 c h
167.312 317.101 m f
Q Q
showpage
%%Trailer
end restore
%%EOF
