%!PS-Adobe-3.0 EPSF-3.0
%%Creator: cairo 1.14.2 (http://cairographics.org)
%%CreationDate: Thu Aug  4 10:33:51 2016
%%Pages: 1
%%DocumentData: Clean7Bit
%%LanguageLevel: 2
%%BoundingBox: 0 -1 328 396
%%EndComments
%%BeginProlog
save
50 dict begin
/q { gsave } bind def
/Q { grestore } bind def
/cm { 6 array astore concat } bind def
/w { setlinewidth } bind def
/J { setlinecap } bind def
/j { setlinejoin } bind def
/M { setmiterlimit } bind def
/d { setdash } bind def
/m { moveto } bind def
/l { lineto } bind def
/c { curveto } bind def
/h { closepath } bind def
/re { exch dup neg 3 1 roll 5 3 roll moveto 0 rlineto
      0 exch rlineto 0 rlineto closepath } bind def
/S { stroke } bind def
/f { fill } bind def
/f* { eofill } bind def
/n { newpath } bind def
/W { clip } bind def
/W* { eoclip } bind def
/BT { } bind def
/ET { } bind def
/pdfmark where { pop globaldict /?pdfmark /exec load put }
    { globaldict begin /?pdfmark /pop load def /pdfmark
    /cleartomark load def end } ifelse
/BDC { mark 3 1 roll /BDC pdfmark } bind def
/EMC { mark /EMC pdfmark } bind def
/cairo_store_point { /cairo_point_y exch def /cairo_point_x exch def } def
/Tj { show currentpoint cairo_store_point } bind def
/TJ {
  {
    dup
    type /stringtype eq
    { show } { -0.001 mul 0 cairo_font_matrix dtransform rmoveto } ifelse
  } forall
  currentpoint cairo_store_point
} bind def
/cairo_selectfont { cairo_font_matrix aload pop pop pop 0 0 6 array astore
    cairo_font exch selectfont cairo_point_x cairo_point_y moveto } bind def
/Tf { pop /cairo_font exch def /cairo_font_matrix where
      { pop cairo_selectfont } if } bind def
/Td { matrix translate cairo_font_matrix matrix concatmatrix dup
      /cairo_font_matrix exch def dup 4 get exch 5 get cairo_store_point
      /cairo_font where { pop cairo_selectfont } if } bind def
/Tm { 2 copy 8 2 roll 6 array astore /cairo_font_matrix exch def
      cairo_store_point /cairo_font where { pop cairo_selectfont } if } bind def
/g { setgray } bind def
/rg { setrgbcolor } bind def
/d1 { setcachedevice } bind def
%%EndProlog
%%BeginSetup
%%EndSetup
%%Page: 1 1
%%BeginPageSetup
%%PageBoundingBox: 0 -1 328 396
%%EndPageSetup
q 0 -1 328 397 rectclip q
1 0.52549 0.0509804 rg
290.375 335.273 m 290.375 318.246 276.566 199.312 259.555 199.312 c 242.52
 199.312 228.715 318.246 228.715 335.273 c 228.715 352.3 242.512 359.781
 259.555 359.781 c 276.566 359.781 290.375 352.3 290.375 335.273 c h
290.375 335.273 m f
0.898039 0.380392 0.027451 rg
276.934 335.273 m 276.934 318.246 269.156 199.312 259.555 199.312 c 249.945
 199.312 242.148 318.246 242.148 335.273 c 242.148 352.3 249.938 359.781
 259.555 359.781 c 269.156 359.781 276.934 352.3 276.934 335.273 c h
276.934 335.273 m f
247.812 336.195 m 247.812 335.254 247.059 334.48 246.105 334.48 c 239.004
 334.48 l 238.066 334.48 237.285 335.254 237.285 336.195 c 237.285 337.132
 238.066 337.902 239.004 337.902 c 246.105 337.902 l 247.059 337.902 247.812
 337.132 247.812 336.195 c h
247.812 336.195 m f
1 0.52549 0.0509804 rg
257.047 324.863 m 257.047 323.918 256.27 323.148 255.332 323.148 c 248.219
 323.148 l 247.27 323.148 246.508 323.918 246.508 324.863 c 246.508 325.808
 247.27 326.578 248.219 326.578 c 255.332 326.578 l 256.27 326.578 257.047
 325.808 257.047 324.863 c h
257.047 324.863 m f
0.898039 0.380392 0.027451 rg
247.812 311.289 m 247.812 310.343 247.059 309.574 246.105 309.574 c 239.004
 309.574 l 238.066 309.574 237.285 310.343 237.285 311.289 c 237.285 312.23
 238.066 312.996 239.004 312.996 c 246.105 312.996 l 247.059 313.004 247.812
 312.234 247.812 311.289 c h
247.812 311.289 m f
1 0.52549 0.0509804 rg
257.047 299.961 m 257.047 299.015 256.27 298.246 255.332 298.246 c 248.219
 298.246 l 247.27 298.246 246.508 299.015 246.508 299.961 c 246.508 300.898
 247.27 301.668 248.219 301.668 c 255.332 301.668 l 256.27 301.668 257.047
 300.898 257.047 299.961 c h
257.047 299.961 m f
0.898039 0.380392 0.027451 rg
247.812 286.379 m 247.812 285.449 247.059 284.671 246.105 284.671 c 239.004
 284.671 l 238.066 284.671 237.285 285.449 237.285 286.379 c 237.285 287.332
 238.066 288.101 239.004 288.101 c 246.105 288.101 l 247.059 288.101 247.812
 287.332 247.812 286.379 c h
247.812 286.379 m f
1 0.52549 0.0509804 rg
257.047 275.062 m 257.047 274.117 256.27 273.343 255.332 273.343 c 248.219
 273.343 l 247.27 273.343 246.508 274.117 246.508 275.062 c 246.508 276.004
 247.27 276.769 248.219 276.769 c 255.332 276.769 l 256.27 276.769 257.047
 276 257.047 275.062 c h
257.047 275.062 m f
0.898039 0.380392 0.027451 rg
251.312 259.586 m 251.312 258.754 250.637 258.074 249.785 258.074 c 243.543
 258.074 l 242.711 258.074 242.031 258.75 242.031 259.586 c 242.031 260.41
 242.711 261.093 243.543 261.093 c 249.785 261.093 l 250.629 261.089 251.312
 260.41 251.312 259.586 c h
251.312 259.586 m f
1 0.52549 0.0509804 rg
252.504 249.609 m 252.504 248.785 251.828 248.105 250.992 248.105 c 244.727
 248.105 l 243.902 248.105 243.227 248.777 243.227 249.609 c 243.227 250.441
 243.902 251.121 244.727 251.121 c 250.992 251.121 l 251.828 251.121 252.504
 250.449 252.504 249.609 c h
252.504 249.609 m f
0.898039 0.380392 0.027451 rg
252.113 235.156 m 252.113 234.48 251.574 233.937 250.91 233.937 c 245.879
 233.937 l 245.211 233.937 244.672 234.48 244.672 235.156 c 244.672 235.808
 245.211 236.363 245.879 236.363 c 250.91 236.363 l 251.574 236.363 252.113
 235.808 252.113 235.156 c h
252.113 235.156 m f
1 0.52549 0.0509804 rg
258.629 227.144 m 258.629 226.484 258.086 225.929 257.418 225.929 c 252.391
 225.929 l 251.727 225.929 251.184 226.476 251.184 227.144 c 251.184 227.808
 251.727 228.347 252.391 228.347 c 257.418 228.347 l 258.086 228.347 258.629
 227.808 258.629 227.144 c h
258.629 227.144 m f
0.898039 0.380392 0.027451 rg
271.27 336.195 m 271.27 335.254 272.035 334.48 272.988 334.48 c 280.098
 334.48 l 281.035 334.48 281.809 335.254 281.809 336.195 c 281.809 337.132
 281.035 337.902 280.098 337.902 c 272.988 337.902 l 272.035 337.902 271.27
 337.132 271.27 336.195 c h
271.27 336.195 m f
1 0.52549 0.0509804 rg
262.055 324.863 m 262.055 323.918 262.824 323.148 263.77 323.148 c 270.879
 323.148 l 271.824 323.148 272.586 323.918 272.586 324.863 c 272.586 325.808
 271.824 326.578 270.879 326.578 c 263.77 326.578 l 262.824 326.578 262.055
 325.808 262.055 324.863 c h
262.055 324.863 m f
0.898039 0.380392 0.027451 rg
271.27 311.289 m 271.27 310.343 272.035 309.574 272.988 309.574 c 280.098
 309.574 l 281.035 309.574 281.809 310.343 281.809 311.289 c 281.809 312.23
 281.035 312.996 280.098 312.996 c 272.988 312.996 l 272.035 313.004 271.27
 312.234 271.27 311.289 c h
271.27 311.289 m f
1 0.52549 0.0509804 rg
262.055 299.961 m 262.055 299.015 262.824 298.246 263.77 298.246 c 270.879
 298.246 l 271.824 298.246 272.586 299.015 272.586 299.961 c 272.586 300.898
 271.824 301.668 270.879 301.668 c 263.77 301.668 l 262.824 301.668 262.055
 300.898 262.055 299.961 c h
262.055 299.961 m f
0.898039 0.380392 0.027451 rg
271.27 286.379 m 271.27 285.449 272.035 284.671 272.988 284.671 c 280.098
 284.671 l 281.035 284.671 281.809 285.449 281.809 286.379 c 281.809 287.332
 281.035 288.101 280.098 288.101 c 272.988 288.101 l 272.035 288.101 271.27
 287.332 271.27 286.379 c h
271.27 286.379 m f
1 0.52549 0.0509804 rg
262.055 275.062 m 262.055 274.117 262.824 273.343 263.77 273.343 c 270.879
 273.343 l 271.824 273.343 272.586 274.117 272.586 275.062 c 272.586 276.004
 271.824 276.769 270.879 276.769 c 263.77 276.769 l 262.824 276.769 262.055
 276 262.055 275.062 c h
262.055 275.062 m f
0.898039 0.380392 0.027451 rg
267.789 259.586 m 267.789 258.754 268.465 258.074 269.297 258.074 c 275.559
 258.074 l 276.379 258.074 277.066 258.75 277.066 259.586 c 277.066 260.41
 276.379 261.093 275.559 261.093 c 269.297 261.093 l 268.469 261.089 267.789
 260.41 267.789 259.586 c h
267.789 259.586 m f
1 0.52549 0.0509804 rg
266.008 249.609 m 266.008 248.785 266.66 248.105 267.512 248.105 c 273.766
 248.105 l 274.598 248.105 275.27 248.777 275.27 249.609 c 275.27 250.441
 274.598 251.121 273.766 251.121 c 267.512 251.121 l 266.66 251.121 266.008
 250.449 266.008 249.609 c h
266.008 249.609 m f
0.898039 0.380392 0.027451 rg
266.984 235.156 m 266.984 234.48 267.523 233.937 268.191 233.937 c 273.215
 233.937 l 273.875 233.937 274.418 234.48 274.418 235.156 c 274.418 235.808
 273.879 236.363 273.215 236.363 c 268.191 236.363 l 267.527 236.363 266.984
 235.808 266.984 235.156 c h
266.984 235.156 m f
1 0.52549 0.0509804 rg
260.469 227.144 m 260.469 226.484 261.004 225.929 261.676 225.929 c 266.707
 225.929 l 267.367 225.929 267.91 226.476 267.91 227.144 c 267.91 227.808
 267.367 228.347 266.707 228.347 c 261.676 228.347 l 261.004 228.347 260.469
 227.808 260.469 227.144 c h
260.469 227.144 m f
1 0.686275 0.0627451 rg
285.938 349.425 m 280.543 356.515 270.77 359.781 259.555 359.781 c 248.332
 359.781 238.543 356.515 233.156 349.425 c 234.715 343.32 245.918 345.199
 259.555 345.199 c 273.172 345.199 284.383 343.316 285.938 349.425 c h
285.938 349.425 m f
1 0.52549 0.0509804 rg
259.555 345.199 m 265.719 345.199 271.383 344.82 275.887 344.964 c 273.469
 355.156 267.07 359.781 259.555 359.781 c 252.016 359.781 245.621 355.156
 243.199 344.964 c 247.727 344.82 253.387 345.199 259.555 345.199 c h
259.555 345.199 m f
0.407843 0.678431 0.152941 rg
244.992 382.824 m 246.516 380.695 262.066 355.191 259.945 353.675 c 257.801
 352.156 238.797 375.199 237.266 377.316 c 235.746 379.453 236.246 382.414
 238.379 383.933 c 240.516 385.453 243.473 384.953 244.992 382.824 c h
244.992 382.824 m f
0.360784 0.529412 0.160784 rg
241.715 371.836 m 243.289 370.613 260.211 355.418 258.988 353.843 c 257.766
 352.273 238.848 364.91 237.277 366.132 c 235.711 367.359 235.418 369.621
 236.648 371.199 c 237.871 372.773 240.137 373.058 241.715 371.836 c h
241.715 371.836 m f
0.498039 0.8 0.180392 rg
253.77 385.605 m 254.605 383.121 262.145 354.214 259.656 353.371 c 257.164
 352.539 245.621 380.078 244.789 382.566 c 243.949 385.043 245.273 387.734
 247.77 388.578 c 250.234 389.41 252.93 388.082 253.77 385.605 c h
253.77 385.605 m f
0.407843 0.678431 0.152941 rg
274.098 382.824 m 272.578 380.695 257.027 355.191 259.156 353.675 c 261.293
 352.156 280.305 375.199 281.828 377.316 c 283.348 379.453 282.855 382.414
 280.723 383.933 c 278.578 385.453 275.609 384.953 274.098 382.824 c h
274.098 382.824 m f
0.360784 0.529412 0.160784 rg
277.379 371.836 m 275.801 370.613 258.891 355.418 260.113 353.843 c 261.332
 352.273 280.242 364.91 281.816 366.132 c 283.375 367.359 283.676 369.621
 282.445 371.199 c 281.227 372.773 278.957 373.058 277.379 371.836 c h
277.379 371.836 m f
0.498039 0.8 0.180392 rg
265.324 385.605 m 264.488 383.121 256.965 354.214 259.441 353.371 c 261.93
 352.539 273.469 380.078 274.301 382.566 c 275.145 385.043 273.809 387.734
 271.332 388.578 c 268.859 389.41 266.156 388.082 265.324 385.605 c h
265.324 385.605 m f
0.360784 0.529412 0.160784 rg
264.691 390.48 m 264.691 387.64 262.395 353.195 259.559 353.195 c 256.719
 353.195 254.418 387.64 254.418 390.48 c 254.418 393.316 256.719 395.617
 259.559 395.617 c 262.395 395.617 264.691 393.312 264.691 390.48 c h
264.691 390.48 m f
0.498039 0.8 0.180392 rg
233.594 376.972 m 233.594 376.277 233.031 375.714 232.336 375.714 c 231.645
 375.714 231.082 376.277 231.082 376.972 c 231.082 377.664 231.645 378.226
 232.336 378.226 c 233.031 378.226 233.594 377.664 233.594 376.972 c h
233.594 376.972 m f
284.762 359.781 m 284.762 359.086 284.199 358.527 283.504 358.527 c 282.812
 358.527 282.25 359.086 282.25 359.781 c 282.25 360.472 282.812 361.035 
283.504 361.035 c 284.199 361.035 284.762 360.472 284.762 359.781 c h
284.762 359.781 m f
233.055 372.554 m 233.055 372.191 232.762 371.898 232.402 371.898 c 232.039
 371.898 231.746 372.191 231.746 372.554 c 231.746 372.914 232.039 373.207
 232.402 373.207 c 232.762 373.207 233.055 372.914 233.055 372.554 c h
233.055 372.554 m f
283.914 374.796 m 283.914 374.433 283.617 374.136 283.254 374.136 c 282.887
 374.136 282.594 374.433 282.594 374.796 c 282.594 375.164 282.887 375.457
 283.254 375.457 c 283.617 375.457 283.914 375.164 283.914 374.796 c h
283.914 374.796 m f
243.207 391.402 m 243.207 390.093 242.148 389.031 240.84 389.031 c 239.531
 389.031 238.469 390.093 238.469 391.402 c 238.469 392.711 239.531 393.769
 240.84 393.769 c 242.148 393.769 243.207 392.711 243.207 391.402 c h
243.207 391.402 m f
0.360784 0.529412 0.160784 rg
240.043 359.906 m 240.043 359.234 239.5 358.691 238.828 358.691 c 238.156
 358.691 237.613 359.234 237.613 359.906 c 237.613 360.578 238.156 361.121
 238.828 361.121 c 239.5 361.121 240.043 360.578 240.043 359.906 c h
240.043 359.906 m f
279.895 389.093 m 279.895 388.043 279.043 387.191 277.992 387.191 c 276.941
 387.191 276.09 388.043 276.09 389.093 c 276.09 390.144 276.941 390.996 
277.992 390.996 c 279.043 390.996 279.895 390.144 279.895 389.093 c h
279.895 389.093 m f
0.498039 0.678431 0.560784 rg
293.363 279.648 m 281.598 279.648 271.207 273.707 265.031 264.683 c 258.859
 273.714 248.469 279.648 236.703 279.648 c 217.754 279.648 201.719 264.273
 202.406 245.339 c 203.664 210.199 247.934 209.136 262.961 170.816 c 263.719
 168.871 264.41 168.086 265.031 168.152 c 265.66 168.086 266.348 168.871
 267.102 170.816 c 282.133 209.136 326.395 210.203 327.66 245.339 c 328.348
 264.273 312.305 279.648 293.363 279.648 c h
293.363 279.648 m f
0.568627 0.737255 0.635294 rg
265.031 230.402 m 287.789 230.402 308.512 229.648 323.973 230.707 c 326.117
 234.894 327.453 239.668 327.66 245.339 c 327.988 254.168 324.637 262.203
 319.078 268.281 c 315.797 269.214 312.316 270.078 308.66 270.828 c 307.094
 270.984 305.504 271.074 303.898 271.074 c 287.754 271.074 273.504 262.929
 265.031 250.531 c 256.547 262.929 242.312 271.074 226.156 271.074 c 224.543
 271.074 222.965 270.984 221.391 270.828 c 217.742 270.07 214.258 269.214
 210.988 268.281 c 205.43 262.207 202.078 254.179 202.406 245.339 c 202.602
 239.668 203.941 234.894 206.086 230.707 c 221.535 229.648 242.25 230.402
 265.031 230.402 c h
265.031 230.402 m f
0.654902 0.776471 0.713726 rg
265.031 250.015 m 294.762 250.015 319.684 248.261 326.406 255.425 c 323.598
 265.035 316.344 272.851 307.098 276.808 c 303.941 277.816 300.512 278.711
 296.832 279.472 c 295.691 279.593 294.527 279.648 293.359 279.648 c 281.598
 279.648 271.203 273.707 265.027 264.683 c 258.859 273.714 248.469 279.648
 236.703 279.648 c 235.531 279.648 234.371 279.586 233.23 279.472 c 229.562
 278.703 226.109 277.816 222.965 276.808 c 213.723 272.855 206.48 265.035
 203.656 255.425 c 210.375 248.261 235.312 250.015 265.031 250.015 c h
265.031 250.015 m f
0.74902 0.847059 0.8 rg
255.262 265.199 m 255.262 259.781 247.574 264.984 238.109 264.984 c 228.625
 264.984 220.949 259.781 220.949 265.199 c 220.949 270.613 228.625 275.004
 238.109 275.004 c 247.574 275.007 255.262 270.613 255.262 265.199 c h
255.262 265.199 m f
217.887 261.726 m 217.887 260.203 216.652 258.968 215.129 258.968 c 213.605
 258.968 212.367 260.203 212.367 261.726 c 212.367 263.254 213.605 264.488
 215.129 264.488 c 216.652 264.488 217.887 263.254 217.887 261.726 c h
217.887 261.726 m f
211.922 256.668 m 211.922 256.16 211.508 255.75 211 255.75 c 210.492 255.75
 210.082 256.16 210.082 256.668 c 210.082 257.175 210.492 257.589 211 257.589
 c 211.508 257.589 211.922 257.175 211.922 256.668 c h
211.922 256.668 m f
310.797 265.199 m 310.797 259.781 303.121 264.984 293.652 264.984 c 284.168
 264.984 276.492 259.781 276.492 265.199 c 276.492 270.613 284.168 275.004
 293.652 275.004 c 303.129 275.007 310.797 270.613 310.797 265.199 c h
310.797 265.199 m f
273.402 261.726 m 273.402 260.207 272.172 258.976 270.652 258.976 c 269.129
 258.976 267.898 260.207 267.898 261.726 c 267.898 263.25 269.129 264.48
 270.652 264.48 c 272.172 264.48 273.402 263.25 273.402 261.726 c h
273.402 261.726 m f
267.461 256.668 m 267.461 256.16 267.051 255.75 266.543 255.75 c 266.035
 255.75 265.621 256.16 265.621 256.668 c 265.621 257.175 266.035 257.589
 266.543 257.589 c 267.051 257.589 267.461 257.175 267.461 256.668 c h
267.461 256.668 m f
0.184314 0.466667 0.270588 rg
265 264.675 m 265 264.675 268.465 304.343 246.699 313.754 c 232.23 320.023
 233.504 301.652 241.582 298.722 c 241.582 298.722 227.699 308.742 224.031
 299.707 c 221.07 292.464 231.688 287.722 239.746 287.722 c 239.746 287.722
 225.398 290.066 225.438 284.062 c 225.477 279.605 229.105 278.195 242.309
 279.668 c 255.5 281.129 265 264.675 265 264.675 c h
265 264.675 m f
0.239216 0.6 0.333333 rg
246.691 313.754 m 241.758 315.882 238.656 315.16 237.039 313.156 c 237.34
 308.437 248.52 303.546 255.105 292.058 c 259.145 285 259.02 274.793 261.293
 269.8 c 263.668 266.992 264.992 264.683 264.992 264.683 c 264.992 264.683
 268.465 304.351 246.691 313.754 c h
246.691 313.754 m f
0.184314 0.466667 0.270588 rg
265.062 264.675 m 265.062 264.675 261.598 304.343 283.344 313.754 c 297.824
 320.023 296.551 301.652 288.473 298.722 c 288.473 298.722 302.359 308.742
 306.023 299.707 c 308.984 292.464 298.367 287.722 290.32 287.722 c 290.32
 287.722 304.648 290.066 304.605 284.062 c 304.578 279.605 300.949 278.195
 287.746 279.668 c 274.551 281.129 265.062 264.675 265.062 264.675 c h
265.062 264.675 m f
0.239216 0.6 0.333333 rg
283.348 313.754 m 288.289 315.882 291.402 315.16 293.02 313.156 c 292.719
 308.437 281.531 303.546 274.949 292.058 c 270.902 285 271.027 274.793 268.746
 269.8 c 266.398 266.992 265.066 264.683 265.066 264.683 c 265.066 264.683
 261.602 304.351 283.348 313.754 c h
283.348 313.754 m f
0.184314 0.466667 0.270588 rg
270.031 313.238 m 270.031 310.472 267.793 308.234 265.031 308.234 c 262.266
 308.234 260.027 310.472 260.027 313.238 c 260.027 316 262.266 318.242 265.031
 318.242 c 267.793 318.242 270.031 316 270.031 313.238 c h
270.031 313.238 m f
0.239216 0.6 0.333333 rg
270.035 313.238 m 270.035 310.476 267.797 312.574 265.031 312.574 c 262.266
 312.574 260.027 310.476 260.027 313.238 c 260.027 315.996 262.258 318.242
 265.031 318.242 c 267.789 318.242 270.035 315.996 270.035 313.238 c h
270.035 313.238 m f
0.184314 0.466667 0.270588 rg
267.703 302.882 m 267.703 301.406 266.504 300.207 265.023 300.207 c 263.543
 300.207 262.344 301.406 262.344 302.882 c 262.344 304.363 263.543 305.562
 265.023 305.562 c 266.504 305.562 267.703 304.363 267.703 302.882 c h
267.703 302.882 m f
0.239216 0.6 0.333333 rg
267.703 302.882 m 267.703 301.41 266.516 302.539 265.023 302.539 c 263.543
 302.539 262.34 301.41 262.34 302.882 c 262.34 304.371 263.535 305.57 265.023
 305.57 c 266.523 305.57 267.703 304.371 267.703 302.882 c h
267.703 302.882 m f
0.262745 0.647059 0.184314 rg
202.121 275.875 m 201.461 275.875 l 192.652 273.507 l 183.828 275.875 l
 183.172 275.875 l 183.172 275.875 179.746 273.281 180.57 270.664 c 183.5
 271.476 l 185.777 267.562 l 187.082 269.843 l 189.203 268.382 l 190.188
 270.171 l 192.418 267.941 l 192.5 267.57 l 192.645 267.714 l 192.781 267.57
 l 192.863 267.941 l 195.094 270.171 l 196.078 268.382 l 198.195 269.843
 l 199.496 267.562 l 201.781 271.476 l 204.711 270.664 l 205.543 273.277
 202.121 275.875 202.121 275.875 c h
202.121 275.875 m f
192.457 346.949 m 192.457 346.949 195.719 363.41 190.012 382.32 c 190.012
 382.32 190.816 368.632 189.508 363.418 c 188.215 358.207 190.168 357.226
 190.652 354.461 c 191.145 351.683 192.457 346.949 192.457 346.949 c h
192.457 346.949 m f
193.816 345.242 m 193.816 345.242 187.629 349.324 187.453 364.152 c 187.301
 378.988 183.707 392.351 183.707 392.351 c 183.707 392.351 188.434 382.574
 189.406 375.722 c 190.395 368.886 190.715 356.984 190.715 356.984 c 192.996
 352.414 l h
193.816 345.242 m f
193.008 343.617 m 193.008 343.617 188.625 355.105 194.484 368.804 c 200.352
 382.492 208.676 383.718 208.676 383.718 c 208.676 383.718 196.438 378.093
 195.953 359.754 c 195.953 359.754 194.969 355.351 194.484 351.683 c 194
 348.015 193.008 343.617 193.008 343.617 c h
193.008 343.617 m f
0.847059 0.290196 0.505882 rg
173.512 273.511 m 181.453 273.511 188.465 277.527 192.645 283.621 c 196.82
 277.527 203.809 273.511 211.773 273.511 c 224.562 273.511 235.406 283.898
 234.941 296.687 c 234.082 320.425 204.199 321.144 194.043 347.019 c 193.527
 348.336 193.066 348.867 192.645 348.82 c 192.223 348.867 191.75 348.336
 191.238 347.019 c 181.086 321.152 151.199 320.425 150.336 296.687 c 149.883
 283.898 160.723 273.511 173.512 273.511 c h
173.512 273.511 m f
0.776471 0.235294 0.454902 rg
192.645 306.777 m 177.27 306.777 163.277 307.277 152.824 306.578 c 151.387
 303.742 150.473 300.515 150.336 296.683 c 150.129 290.722 152.383 285.3
 156.133 281.195 c 158.359 280.562 160.707 279.976 163.168 279.468 c 164.238
 279.359 165.297 279.308 166.387 279.308 c 177.301 279.308 186.922 284.812
 192.645 293.179 c 198.367 284.812 207.988 279.308 218.898 279.308 c 219.973
 279.308 221.039 279.375 222.117 279.468 c 224.582 279.984 226.93 280.562
 229.145 281.187 c 232.898 285.289 235.156 290.722 234.941 296.683 c 234.809
 300.515 233.902 303.742 232.445 306.578 c 222.004 307.277 208.027 306.777
 192.645 306.777 c h
192.645 306.777 m f
0.658824 0.176471 0.396078 rg
192.645 293.539 m 172.566 293.539 155.734 294.718 151.188 289.871 c 153.098
 283.382 157.969 278.105 164.23 275.433 c 166.359 274.754 168.688 274.156
 171.168 273.632 c 171.949 273.55 172.727 273.507 173.512 273.507 c 181.453
 273.507 188.465 277.519 192.645 283.613 c 196.82 277.519 203.809 273.507
 211.773 273.507 c 212.559 273.507 213.344 273.55 214.121 273.632 c 216.598
 274.148 218.922 274.746 221.039 275.433 c 227.297 278.105 232.188 283.382
 234.082 289.871 c 229.559 294.718 212.715 293.539 192.645 293.539 c h
192.645 293.539 m f
211.102 280.531 m 211.102 275.394 202.836 271.23 192.637 271.23 c 182.441
 271.23 174.176 275.394 174.176 280.531 c 174.176 285.668 182.441 289.832
 192.637 289.832 c 202.836 289.832 211.102 285.668 211.102 280.531 c h
211.102 280.531 m f
0.462745 0.639216 0.184314 rg
163.133 283.273 m 163.133 268.144 139.723 255.879 110.844 255.879 c 81.965
 255.879 58.555 268.144 58.555 283.273 c 58.555 298.402 81.965 310.664 110.844
 310.664 c 139.723 310.664 163.133 298.402 163.133 283.273 c h
163.133 283.273 m f
0.898039 0.380392 0.027451 rg
173.297 195.73 m 173.297 179.871 145.352 160.644 110.875 160.644 c 76.379
 160.644 48.438 179.871 48.438 195.73 c 48.438 211.605 76.387 224.461 110.875
 224.461 c 145.352 224.461 173.297 211.605 173.297 195.73 c h
173.297 195.73 m f
1 0.54902 0.101961 rg
70.672 235.488 m 70.672 200.804 94.805 172.683 63.605 172.683 c 32.422 
172.683 7.133 200.8 7.133 235.488 c 7.133 270.191 32.422 298.32 63.605 298.32
 c 94.805 298.316 70.672 270.183 70.672 235.488 c h
70.672 235.488 m f
1 0.454902 0.0823529 rg
70.672 235.488 m 70.672 200.804 94.805 172.683 63.605 172.683 c 32.422 
172.683 7.133 200.8 7.133 235.488 c f
0.898039 0.380392 0.027451 rg
29.637 235.488 m 29.637 205.589 48.445 180.629 73.609 174.277 c 88.52 180.679
 70.672 205.644 70.672 235.488 c 70.672 265.359 88.516 290.332 73.609 296.714
 c 48.445 290.371 29.637 265.402 29.637 235.488 c h
29.637 235.488 m f
1 0.54902 0.101961 rg
151.066 235.488 m 151.066 270.183 126.926 298.32 158.117 298.32 c 189.309
 298.32 214.598 270.187 214.598 235.488 c 214.598 200.804 189.309 172.683
 158.117 172.683 c 126.926 172.683 151.066 200.796 151.066 235.488 c h
151.066 235.488 m f
1 0.454902 0.0823529 rg
214.598 235.488 m 214.598 200.804 189.309 172.683 158.117 172.683 c 126.926
 172.683 151.066 200.8 151.066 235.488 c f
0.898039 0.380392 0.027451 rg
192.09 235.488 m 192.09 265.402 173.285 290.371 148.117 296.714 c 133.215
 290.332 151.062 265.359 151.062 235.488 c 151.062 205.632 133.215 180.664
 148.117 174.277 c 173.285 180.621 192.09 205.582 192.09 235.488 c h
192.09 235.488 m f
1 0.54902 0.101961 rg
168.762 234.406 m 168.762 197.722 142.832 167.988 110.844 167.988 c 78.855
 167.988 52.926 197.722 52.926 234.406 c 52.926 271.086 78.855 300.824 110.844
 300.824 c 142.832 300.824 168.762 271.086 168.762 234.406 c h
168.762 234.406 m f
1 0.454902 0.0823529 rg
52.953 234.406 m 52.953 197.738 78.871 167.988 110.867 167.988 c 142.855
 167.988 168.785 197.738 168.785 234.406 c f
0.462745 0.639216 0.184314 rg
100.754 303.66 m 99.824 303.66 98.883 304.004 98.16 304.722 c 85.051 317.836
 85.051 339.179 98.16 352.293 c 108.945 363.062 126.477 363.074 137.266 
352.293 c 146.164 343.39 146.164 328.89 137.254 319.984 c 129.844 312.57
 117.773 312.57 110.371 319.984 c 104.172 326.199 104.176 336.308 110.379
 342.527 c 111.82 343.949 114.133 343.949 115.559 342.527 c 116.988 341.089
 116.988 338.769 115.559 337.351 c 112.199 333.988 112.191 328.523 115.543
 325.16 c 120.105 320.589 127.52 320.605 132.078 325.16 c 138.137 331.211
 138.137 341.062 132.078 347.113 c 124.145 355.023 111.254 355.023 103.34
 347.113 c 93.066 336.847 93.066 320.148 103.34 309.898 c 104.762 308.461
 104.762 306.148 103.34 304.722 c 102.625 304.004 101.695 303.66 100.754
 303.66 c h
100.754 303.66 m f
0.956863 0.0862745 0.313726 rg
237.277 243.648 m 224.316 230.691 195.965 223.332 183.008 236.3 c 170.059
 249.25 177.414 277.601 190.375 290.57 c 203.324 303.519 218.371 297.558
 231.328 284.605 c 244.277 271.652 250.234 256.605 237.277 243.648 c h
237.277 243.648 m f
0.878431 0.0627451 0.239216 rg
237.277 243.648 m 224.316 230.691 195.965 223.332 183.008 236.3 c 170.059
 249.25 177.414 277.601 190.375 290.57 c 203.324 303.519 215.656 294.847
 228.605 281.906 c 241.562 268.945 250.234 256.605 237.277 243.648 c h
237.277 243.648 m f
0.756863 0.0470588 0.235294 rg
237.277 243.648 m 224.316 230.691 195.965 223.332 183.008 236.3 c 170.059
 249.25 177.414 277.601 190.375 290.57 c 203.324 303.519 202.594 281.785
 215.543 268.836 c 228.508 255.886 250.234 256.605 237.277 243.648 c h
237.277 243.648 m f
183.008 236.308 m 195.973 223.339 224.32 230.699 237.277 243.656 c 250.234
 256.609 244.273 271.66 231.328 284.617 c f
0.666667 0.0196078 0.223529 rg
215.543 268.843 m 183.008 236.308 l 195.973 223.339 224.32 230.699 237.277
 243.656 c 250.234 256.605 228.508 255.886 215.543 268.843 c h
215.543 268.843 m f
0.627451 0.0627451 0.294118 rg
210.941 292.14 m 210.941 291.328 210.285 290.671 209.477 290.671 c 208.664
 290.671 208.008 291.328 208.008 292.14 c 208.008 292.949 208.664 293.609
 209.477 293.609 c 210.285 293.609 210.941 292.949 210.941 292.14 c h
210.941 292.14 m f
0.556863 0.0352941 0.223529 rg
210.508 291.097 m 209.949 290.511 209.008 290.511 208.438 291.093 c 207.855
 291.671 207.855 292.597 208.441 293.183 c 209.008 293.757 209.477 293.285
 210.055 292.726 c 210.637 292.132 211.094 291.671 210.508 291.097 c h
210.508 291.097 m f
0.627451 0.0627451 0.294118 rg
216.828 286.265 m 216.828 285.449 216.168 284.785 215.348 284.785 c 214.531
 284.785 213.867 285.449 213.867 286.265 c 213.867 287.086 214.531 287.746
 215.348 287.746 c 216.168 287.746 216.828 287.086 216.828 286.265 c h
216.828 286.265 m f
0.556863 0.0352941 0.223529 rg
216.395 285.226 m 215.812 284.64 214.883 284.64 214.316 285.218 c 213.723
 285.793 213.723 286.73 214.301 287.32 c 214.883 287.886 215.355 287.425
 215.934 286.839 c 216.496 286.265 216.969 285.793 216.395 285.226 c h
216.395 285.226 m f
0.627451 0.0627451 0.294118 rg
222.703 280.394 m 222.703 279.578 222.043 278.918 221.227 278.918 c 220.414
 278.918 219.754 279.578 219.754 280.394 c 219.754 281.207 220.414 281.867
 221.227 281.867 c 222.043 281.867 222.703 281.207 222.703 280.394 c h
222.703 280.394 m f
0.556863 0.0352941 0.223529 rg
222.266 279.347 m 221.688 278.773 220.762 278.769 220.18 279.339 c 219.609
 279.921 219.602 280.867 220.18 281.441 c 220.762 282.019 221.227 281.546
 221.809 280.961 c 222.379 280.394 222.848 279.921 222.266 279.347 c h
222.266 279.347 m f
0.627451 0.0627451 0.294118 rg
228.574 274.507 m 228.574 273.691 227.914 273.031 227.102 273.031 c 226.285
 273.031 225.625 273.691 225.625 274.507 c 225.625 275.32 226.285 275.98
 227.102 275.98 c 227.914 275.98 228.574 275.32 228.574 274.507 c h
228.574 274.507 m f
0.556863 0.0352941 0.223529 rg
228.141 273.468 m 227.566 272.886 226.641 272.886 226.055 273.468 c 225.469
 274.046 225.48 274.976 226.062 275.554 c 226.641 276.132 227.102 275.675
 227.676 275.093 c 228.266 274.504 228.719 274.043 228.141 273.468 c h
228.141 273.468 m f
0.627451 0.0627451 0.294118 rg
234.449 268.64 m 234.449 267.824 233.785 267.16 232.969 267.16 c 232.148
 267.16 231.488 267.824 231.488 268.64 c 231.488 269.461 232.148 270.121
 232.969 270.121 c 233.785 270.121 234.449 269.461 234.449 268.64 c h
234.449 268.64 m f
0.556863 0.0352941 0.223529 rg
234.039 267.593 m 233.441 267.015 232.527 267.015 231.934 267.593 c 231.359
 268.168 231.359 269.101 231.934 269.687 c 232.527 270.261 232.973 269.793
 233.559 269.214 c 234.129 268.636 234.605 268.168 234.039 267.593 c h
234.039 267.593 m f
0.627451 0.0627451 0.294118 rg
240.367 262.781 m 240.367 261.964 239.707 261.304 238.891 261.304 c 238.078
 261.304 237.418 261.964 237.418 262.781 c 237.418 263.593 238.078 264.254
 238.891 264.254 c 239.707 264.254 240.367 263.593 240.367 262.781 c h
240.367 262.781 m f
0.556863 0.0352941 0.223529 rg
239.898 261.722 m 239.32 261.148 238.395 261.148 237.812 261.722 c 237.234
 262.3 237.234 263.234 237.812 263.808 c 238.395 264.386 238.848 263.925
 239.434 263.347 c 240.012 262.769 240.465 262.3 239.898 261.722 c h
239.898 261.722 m f
0.627451 0.0627451 0.294118 rg
205.051 286.226 m 205.051 285.41 204.391 284.746 203.57 284.746 c 202.754
 284.746 202.09 285.41 202.09 286.226 c 202.09 287.046 202.754 287.711 203.57
 287.711 c 204.391 287.711 205.051 287.046 205.051 286.226 c h
205.051 286.226 m f
0.556863 0.0352941 0.223529 rg
204.617 285.183 m 204.023 284.597 203.098 284.597 202.512 285.183 c 201.938
 285.75 201.938 286.683 202.523 287.273 c 203.098 287.847 203.566 287.375
 204.137 286.8 c 204.719 286.222 205.184 285.75 204.617 285.183 c h
204.617 285.183 m f
0.627451 0.0627451 0.294118 rg
210.91 280.347 m 210.91 279.535 210.25 278.875 209.438 278.875 c 208.625
 278.875 207.965 279.535 207.965 280.347 c 207.965 281.164 208.625 281.824
 209.438 281.824 c 210.25 281.824 210.91 281.164 210.91 280.347 c h
210.91 280.347 m f
0.556863 0.0352941 0.223529 rg
210.477 279.308 m 209.898 278.722 208.973 278.722 208.398 279.296 c 207.82
 279.879 207.82 280.816 208.398 281.394 c 208.973 281.968 209.438 281.504
 210.023 280.929 c 210.59 280.343 211.059 279.879 210.477 279.308 c h
210.477 279.308 m f
0.627451 0.0627451 0.294118 rg
216.793 274.476 m 216.793 273.66 216.129 272.996 215.309 272.996 c 214.492
 272.996 213.828 273.66 213.828 274.476 c 213.828 275.293 214.492 275.957
 215.309 275.957 c 216.129 275.957 216.793 275.293 216.793 274.476 c h
216.793 274.476 m f
0.556863 0.0352941 0.223529 rg
216.355 273.429 m 215.777 272.851 214.84 272.851 214.266 273.421 c 213.691
 274.004 213.684 274.941 214.266 275.523 c 214.84 276.089 215.312 275.617
 215.883 275.05 c 216.465 274.468 216.926 274.004 216.355 273.429 c h
216.355 273.429 m f
0.627451 0.0627451 0.294118 rg
222.664 268.597 m 222.664 267.781 222.004 267.121 221.191 267.121 c 220.375
 267.121 219.715 267.781 219.715 268.597 c 219.715 269.41 220.375 270.07
 221.191 270.07 c 222.004 270.07 222.664 269.41 222.664 268.597 c h
222.664 268.597 m f
0.556863 0.0352941 0.223529 rg
222.234 267.55 m 221.645 266.972 220.719 266.972 220.152 267.55 c 219.57
 268.129 219.57 269.058 220.152 269.644 c 220.719 270.222 221.191 269.757
 221.77 269.171 c 222.336 268.597 222.809 268.129 222.234 267.55 c h
222.234 267.55 m f
0.627451 0.0627451 0.294118 rg
228.543 262.718 m 228.543 261.902 227.883 261.242 227.07 261.242 c 226.254
 261.242 225.594 261.902 225.594 262.718 c 225.594 263.531 226.254 264.191
 227.07 264.191 c 227.883 264.191 228.543 263.531 228.543 262.718 c h
228.543 262.718 m f
0.556863 0.0352941 0.223529 rg
228.109 261.679 m 227.523 261.097 226.598 261.105 226.023 261.679 c 225.438
 262.25 225.438 263.183 226.023 263.761 c 226.598 264.343 227.062 263.871
 227.637 263.304 c 228.223 262.73 228.684 262.25 228.109 261.679 c h
228.109 261.679 m f
0.627451 0.0627451 0.294118 rg
234.449 256.855 m 234.449 256.039 233.785 255.375 232.969 255.375 c 232.148
 255.375 231.488 256.039 231.488 256.855 c 231.488 257.675 232.148 258.339
 232.969 258.339 c 233.785 258.339 234.449 257.675 234.449 256.855 c h
234.449 256.855 m f
0.556863 0.0352941 0.223529 rg
233.988 255.804 m 233.402 255.226 232.469 255.226 231.891 255.804 c 231.316
 256.379 231.316 257.316 231.891 257.898 c 232.469 258.472 232.938 258.011
 233.516 257.425 c 234.082 256.851 234.562 256.379 233.988 255.804 c h
233.988 255.804 m f
0.627451 0.0627451 0.294118 rg
196.656 283.718 m 196.656 282.906 195.996 282.246 195.184 282.246 c 194.367
 282.246 193.707 282.906 193.707 283.718 c 193.707 284.535 194.367 285.195
 195.184 285.195 c 195.996 285.195 196.656 284.535 196.656 283.718 c h
196.656 283.718 m f
0.556863 0.0352941 0.223529 rg
196.223 282.675 m 195.648 282.093 194.719 282.093 194.145 282.668 c 193.562
 283.242 193.562 284.187 194.145 284.765 c 194.719 285.336 195.184 284.875
 195.762 284.293 c 196.332 283.714 196.797 283.25 196.223 282.675 c h
196.223 282.675 m f
0.627451 0.0627451 0.294118 rg
202.555 277.847 m 202.555 277.035 201.895 276.375 201.082 276.375 c 200.266
 276.375 199.605 277.035 199.605 277.847 c 199.605 278.66 200.266 279.32
 201.082 279.32 c 201.895 279.32 202.555 278.66 202.555 277.847 c h
202.555 277.847 m f
0.556863 0.0352941 0.223529 rg
202.098 276.808 m 201.516 276.226 200.59 276.226 200.012 276.8 c 199.438
 277.382 199.426 278.32 200.012 278.894 c 200.59 279.472 201.062 279 201.637
 278.421 c 202.215 277.847 202.676 277.375 202.098 276.808 c h
202.098 276.808 m f
0.627451 0.0627451 0.294118 rg
208.418 271.976 m 208.418 271.16 207.758 270.5 206.941 270.5 c 206.129 
270.5 205.469 271.16 205.469 271.976 c 205.469 272.789 206.129 273.449 206.941
 273.449 c 207.758 273.449 208.418 272.789 208.418 271.976 c h
208.418 271.976 m f
0.556863 0.0352941 0.223529 rg
207.977 270.933 m 207.402 270.355 206.469 270.347 205.891 270.929 c 205.309
 271.504 205.309 272.441 205.891 273.027 c 206.469 273.601 206.93 273.132
 207.508 272.546 c 208.082 271.976 208.562 271.504 207.977 270.933 c h
207.977 270.933 m f
0.627451 0.0627451 0.294118 rg
214.277 266.093 m 214.277 265.281 213.617 264.621 212.801 264.621 c 211.988
 264.621 211.328 265.281 211.328 266.093 c 211.328 266.91 211.988 267.57
 212.801 267.57 c 213.617 267.57 214.277 266.91 214.277 266.093 c h
214.277 266.093 m f
0.556863 0.0352941 0.223529 rg
213.855 265.05 m 213.27 264.468 212.336 264.468 211.762 265.05 c 211.176
 265.629 211.176 266.562 211.77 267.136 c 212.344 267.714 212.797 267.261
 213.375 266.668 c 213.961 266.089 214.422 265.629 213.855 265.05 c h
213.855 265.05 m f
0.627451 0.0627451 0.294118 rg
220.137 260.222 m 220.137 259.406 219.477 258.746 218.664 258.746 c 217.848
 258.746 217.188 259.406 217.188 260.222 c 217.188 261.035 217.848 261.695
 218.664 261.695 c 219.477 261.695 220.137 261.035 220.137 260.222 c h
220.137 260.222 m f
0.556863 0.0352941 0.223529 rg
219.727 259.175 m 219.148 258.597 218.215 258.597 217.637 259.175 c 217.055
 259.75 217.07 260.683 217.637 261.261 c 218.215 261.843 218.688 261.375
 219.262 260.796 c 219.836 260.222 220.301 259.757 219.727 259.175 c h
219.727 259.175 m f
0.627451 0.0627451 0.294118 rg
225.996 254.343 m 225.996 253.527 225.336 252.867 224.523 252.867 c 223.707
 252.867 223.047 253.527 223.047 254.343 c 223.047 255.156 223.707 255.816
 224.523 255.816 c 225.336 255.816 225.996 255.156 225.996 254.343 c h
225.996 254.343 m f
0.556863 0.0352941 0.223529 rg
225.602 253.304 m 225.027 252.718 224.094 252.718 223.516 253.289 c 222.941
 253.879 222.941 254.816 223.516 255.39 c 224.102 255.968 224.562 255.496
 225.141 254.91 c 225.707 254.343 226.18 253.875 225.602 253.304 c h
225.602 253.304 m f
0.627451 0.0627451 0.294118 rg
231.922 248.464 m 231.922 247.648 231.262 246.988 230.445 246.988 c 229.633
 246.988 228.973 247.648 228.973 248.464 c 228.973 249.277 229.633 249.937
 230.445 249.937 c 231.262 249.937 231.922 249.277 231.922 248.464 c h
231.922 248.464 m f
0.556863 0.0352941 0.223529 rg
231.48 247.421 m 230.895 246.851 229.969 246.851 229.383 247.421 c 228.809
 248.004 228.809 248.929 229.395 249.515 c 229.969 250.089 230.441 249.621
 231.004 249.05 c 231.586 248.468 232.055 248.004 231.48 247.421 c h
231.48 247.421 m f
0.627451 0.0627451 0.294118 rg
193.438 274.613 m 193.438 273.796 192.773 273.132 191.957 273.132 c 191.141
 273.132 190.477 273.796 190.477 274.613 c 190.477 275.433 191.141 276.093
 191.957 276.093 c 192.773 276.093 193.438 275.433 193.438 274.613 c h
193.438 274.613 m f
0.556863 0.0352941 0.223529 rg
193.004 273.57 m 192.43 272.996 191.504 273.004 190.91 273.582 c 190.336
 274.16 190.336 275.093 190.91 275.668 c 191.496 276.246 191.965 275.773
 192.535 275.203 c 193.117 274.621 193.582 274.16 193.004 273.57 c h
193.004 273.57 m f
0.627451 0.0627451 0.294118 rg
198.875 267.703 m 198.297 267.129 197.375 267.129 196.805 267.703 c 196.211
 268.281 196.211 269.207 196.805 269.793 c 197.375 270.367 198.305 270.367
 198.883 269.793 c 199.457 269.207 199.457 268.281 198.875 267.703 c h
198.875 267.703 m f
0.556863 0.0352941 0.223529 rg
198.875 267.703 m 198.297 267.129 197.375 267.129 196.805 267.703 c 196.211
 268.281 196.211 269.207 196.805 269.793 c 197.375 270.367 197.844 269.902
 198.414 269.32 c 198.984 268.734 199.457 268.281 198.875 267.703 c h
198.875 267.703 m f
0.627451 0.0627451 0.294118 rg
204.742 261.828 m 204.176 261.25 203.25 261.254 202.672 261.828 c 202.086
 262.402 202.086 263.328 202.672 263.921 c 203.25 264.5 204.176 264.496 
204.742 263.921 c 205.336 263.343 205.336 262.41 204.742 261.828 c h
204.742 261.828 m f
0.556863 0.0352941 0.223529 rg
204.742 261.828 m 204.176 261.25 203.25 261.254 202.672 261.828 c 202.086
 262.402 202.086 263.328 202.672 263.921 c 203.25 264.5 203.703 264.023 
204.297 263.453 c 204.867 262.875 205.336 262.41 204.742 261.828 c h
204.742 261.828 m f
0.627451 0.0627451 0.294118 rg
211.062 256.984 m 211.062 256.168 210.402 255.507 209.59 255.507 c 208.773
 255.507 208.113 256.168 208.113 256.984 c 208.113 257.796 208.773 258.457
 209.59 258.457 c 210.402 258.457 211.062 257.796 211.062 256.984 c h
211.062 256.984 m f
0.556863 0.0352941 0.223529 rg
210.637 255.957 m 210.055 255.375 209.125 255.375 208.543 255.957 c 207.969
 256.531 207.969 257.461 208.543 258.043 c 209.125 258.617 209.59 258.156
 210.164 257.57 c 210.723 256.996 211.203 256.531 210.637 255.957 c h
210.637 255.957 m f
0.627451 0.0627451 0.294118 rg
216.496 250.078 m 215.914 249.496 214.988 249.496 214.422 250.078 c 213.844
 250.652 213.832 251.589 214.41 252.164 c 215 252.738 215.93 252.738 216.496
 252.164 c 217.074 251.593 217.09 250.648 216.496 250.078 c h
216.496 250.078 m f
0.556863 0.0352941 0.223529 rg
216.496 250.078 m 215.914 249.496 214.988 249.496 214.422 250.078 c 213.844
 250.652 213.832 251.589 214.41 252.164 c 215 252.738 215.461 252.269 216.035
 251.695 c 216.609 251.121 217.09 250.648 216.496 250.078 c h
216.496 250.078 m f
0.627451 0.0627451 0.294118 rg
222.809 245.242 m 222.809 244.429 222.148 243.769 221.336 243.769 c 220.52
 243.769 219.859 244.429 219.859 245.242 c 219.859 246.058 220.52 246.718
 221.336 246.718 c 222.148 246.718 222.809 246.058 222.809 245.242 c h
222.809 245.242 m f
0.556863 0.0352941 0.223529 rg
222.375 244.203 m 221.801 243.625 220.875 243.629 220.289 244.203 c 219.715
 244.785 219.715 245.703 220.289 246.289 c 220.875 246.871 221.336 246.402
 221.914 245.824 c 222.492 245.242 222.961 244.785 222.375 244.203 c h
222.375 244.203 m f
0.627451 0.0627451 0.294118 rg
188.008 269.144 m 188.008 268.328 187.344 267.664 186.527 267.664 c 185.707
 267.664 185.043 268.328 185.043 269.144 c 185.043 269.964 185.707 270.625
 186.527 270.625 c 187.344 270.625 188.008 269.964 188.008 269.144 c h
188.008 269.144 m f
0.556863 0.0352941 0.223529 rg
187.566 268.129 m 186.992 267.562 186.059 267.562 185.473 268.136 c 184.898
 268.718 184.898 269.648 185.473 270.222 c 186.059 270.804 186.52 270.336
 187.098 269.761 c 187.664 269.175 188.137 268.718 187.566 268.129 c h
187.566 268.129 m f
0.627451 0.0627451 0.294118 rg
193.859 263.285 m 193.859 262.472 193.199 261.812 192.387 261.812 c 191.57
 261.812 190.91 262.472 190.91 263.285 c 190.91 264.097 191.57 264.757 192.387
 264.757 c 193.199 264.757 193.859 264.097 193.859 263.285 c h
193.859 263.285 m f
0.556863 0.0352941 0.223529 rg
193.426 262.265 m 192.852 261.683 191.926 261.679 191.352 262.265 c 190.766
 262.839 190.766 263.777 191.352 264.355 c 191.926 264.929 192.395 264.464
 192.965 263.882 c 193.551 263.304 194.012 262.836 193.426 262.265 c h
193.426 262.265 m f
0.627451 0.0627451 0.294118 rg
199.738 257.425 m 199.738 256.609 199.078 255.949 198.266 255.949 c 197.449
 255.949 196.789 256.609 196.789 257.425 c 196.789 258.238 197.449 258.898
 198.266 258.898 c 199.078 258.898 199.738 258.238 199.738 257.425 c h
199.738 257.425 m f
0.556863 0.0352941 0.223529 rg
199.312 256.39 m 198.73 255.816 197.805 255.816 197.227 256.39 c 196.645
 256.964 196.645 257.902 197.227 258.476 c 197.805 259.054 198.273 258.578
 198.852 258.011 c 199.418 257.425 199.891 256.972 199.312 256.39 c h
199.312 256.39 m f
0.627451 0.0627451 0.294118 rg
205.617 251.55 m 205.617 250.738 204.957 250.078 204.145 250.078 c 203.328
 250.078 202.668 250.738 202.668 251.55 c 202.668 252.367 203.328 253.027
 204.145 253.027 c 204.957 253.027 205.617 252.367 205.617 251.55 c h
205.617 251.55 m f
0.556863 0.0352941 0.223529 rg
205.191 250.511 m 204.609 249.929 203.672 249.929 203.098 250.511 c 202.52
 251.086 202.52 252.019 203.098 252.597 c 203.672 253.171 204.137 252.703
 204.719 252.125 c 205.297 251.558 205.77 251.086 205.191 250.511 c h
205.191 250.511 m f
0.627451 0.0627451 0.294118 rg
211.492 245.671 m 211.492 244.859 210.832 244.199 210.02 244.199 c 209.203
 244.199 208.543 244.859 208.543 245.671 c 208.543 246.488 209.203 247.148
 210.02 247.148 c 210.832 247.148 211.492 246.488 211.492 245.671 c h
211.492 245.671 m f
0.556863 0.0352941 0.223529 rg
211.059 244.632 m 210.484 244.058 209.551 244.058 208.973 244.632 c 208.402
 245.211 208.402 246.156 208.973 246.722 c 209.562 247.304 210.023 246.839
 210.59 246.25 c 211.164 245.683 211.648 245.211 211.059 244.632 c h
211.059 244.632 m f
0.627451 0.0627451 0.294118 rg
216.926 238.757 m 216.363 238.191 215.438 238.191 214.852 238.757 c 214.277
 239.339 214.277 240.273 214.859 240.843 c 215.438 241.425 216.363 241.425
 216.926 240.843 c 217.516 240.273 217.516 239.339 216.926 238.757 c h
216.926 238.757 m f
0.556863 0.0352941 0.223529 rg
216.926 238.757 m 216.363 238.191 215.438 238.191 214.852 238.757 c 214.277
 239.339 214.277 240.273 214.859 240.843 c 215.438 241.425 215.898 240.957
 216.473 240.386 c 217.055 239.804 217.516 239.339 216.926 238.757 c h
216.926 238.757 m f
0.627451 0.0627451 0.294118 rg
185.012 260.328 m 185.012 259.515 184.352 258.855 183.539 258.855 c 182.723
 258.855 182.062 259.515 182.062 260.328 c 182.062 261.144 182.723 261.804
 183.539 261.804 c 184.352 261.804 185.012 261.144 185.012 260.328 c h
185.012 260.328 m f
0.556863 0.0352941 0.223529 rg
184.586 259.285 m 184.012 258.703 183.078 258.703 182.5 259.285 c 181.91
 259.855 181.91 260.789 182.5 261.375 c 183.07 261.949 183.539 261.476 184.117
 260.902 c 184.699 260.316 185.156 259.855 184.586 259.285 c h
184.586 259.285 m f
0.627451 0.0627451 0.294118 rg
190.891 254.449 m 190.891 253.636 190.23 252.976 189.418 252.976 c 188.602
 252.976 187.941 253.636 187.941 254.449 c 187.941 255.265 188.602 255.925
 189.418 255.925 c 190.23 255.925 190.891 255.265 190.891 254.449 c h
190.891 254.449 m f
0.556863 0.0352941 0.223529 rg
190.465 253.41 m 189.883 252.824 188.953 252.824 188.371 253.402 c 187.797
 253.976 187.797 254.91 188.371 255.488 c 188.953 256.062 189.426 255.609
 189.996 255.023 c 190.566 254.449 191.035 253.984 190.465 253.41 c h
190.465 253.41 m f
0.627451 0.0627451 0.294118 rg
196.766 248.57 m 196.766 247.757 196.105 247.097 195.289 247.097 c 194.477
 247.097 193.816 247.757 193.816 248.57 c 193.816 249.386 194.477 250.046
 195.289 250.046 c 196.105 250.046 196.766 249.386 196.766 248.57 c h
196.766 248.57 m f
0.556863 0.0352941 0.223529 rg
196.332 247.531 m 195.758 246.957 194.832 246.957 194.25 247.531 c 193.676
 248.109 193.676 249.05 194.25 249.621 c 194.832 250.203 195.293 249.73 
195.875 249.156 c 196.449 248.578 196.918 248.105 196.332 247.531 c h
196.332 247.531 m f
0.627451 0.0627451 0.294118 rg
202.215 241.656 m 201.637 241.066 200.703 241.078 200.125 241.656 c 199.551
 242.226 199.551 243.152 200.125 243.742 c 200.703 244.316 201.637 244.312
 202.215 243.742 c 202.789 243.164 202.789 242.23 202.215 241.656 c h
202.215 241.656 m f
0.556863 0.0352941 0.223529 rg
202.215 241.656 m 201.637 241.066 200.703 241.078 200.125 241.656 c 199.551
 242.226 199.551 243.152 200.125 243.742 c 200.703 244.316 201.176 243.851
 201.742 243.277 c 202.324 242.699 202.789 242.23 202.215 241.656 c h
202.215 241.656 m f
0.627451 0.0627451 0.294118 rg
208.543 236.824 m 208.543 236.011 207.883 235.351 207.066 235.351 c 206.254
 235.351 205.594 236.011 205.594 236.824 c 205.594 237.64 206.254 238.296
 207.066 238.296 c 207.883 238.296 208.543 237.64 208.543 236.824 c h
208.543 236.824 m f
0.556863 0.0352941 0.223529 rg
208.082 235.785 m 207.504 235.207 206.578 235.211 205.996 235.785 c 205.418
 236.363 205.418 237.293 205.996 237.871 c 206.586 238.445 207.039 237.984
 207.617 237.406 c 208.195 236.824 208.668 236.359 208.082 235.785 c h
208.082 235.785 m f
0.627451 0.0627451 0.294118 rg
182.52 251.953 m 182.52 251.14 181.859 250.48 181.043 250.48 c 180.23 250.48
 179.57 251.14 179.57 251.953 c 179.57 252.769 180.23 253.429 181.043 253.429
 c 181.859 253.429 182.52 252.769 182.52 251.953 c h
182.52 251.953 m f
0.556863 0.0352941 0.223529 rg
182.082 250.91 m 181.504 250.328 180.582 250.328 179.996 250.902 c 179.41
 251.48 179.422 252.414 179.996 252.992 c 180.582 253.566 181.031 253.101
 181.621 252.519 c 182.195 251.941 182.648 251.48 182.082 250.91 c h
182.082 250.91 m f
0.627451 0.0627451 0.294118 rg
188.379 246.082 m 188.379 245.269 187.719 244.609 186.902 244.609 c 186.09
 244.609 185.43 245.269 185.43 246.082 c 185.43 246.894 186.09 247.554 186.902
 247.554 c 187.719 247.554 188.379 246.894 188.379 246.082 c h
188.379 246.082 m f
0.556863 0.0352941 0.223529 rg
187.961 245.043 m 187.375 244.457 186.438 244.457 185.871 245.027 c 185.289
 245.609 185.289 246.543 185.871 247.129 c 186.441 247.703 186.922 247.234
 187.488 246.656 c 188.07 246.082 188.535 245.609 187.961 245.043 c h
187.961 245.043 m f
0.627451 0.0627451 0.294118 rg
194.238 240.195 m 194.238 239.382 193.578 238.722 192.766 238.722 c 191.949
 238.722 191.289 239.382 191.289 240.195 c 191.289 241.011 191.949 241.671
 192.766 241.671 c 193.578 241.671 194.238 241.011 194.238 240.195 c h
194.238 240.195 m f
0.556863 0.0352941 0.223529 rg
193.828 239.156 m 193.254 238.57 192.336 238.57 191.742 239.156 c 191.164
 239.73 191.164 240.668 191.75 241.242 c 192.336 241.82 192.789 241.367 
193.375 240.777 c 193.938 240.203 194.41 239.73 193.828 239.156 c h
193.828 239.156 m f
0.627451 0.0627451 0.294118 rg
200.16 234.324 m 200.16 233.507 199.5 232.847 198.688 232.847 c 197.871
 232.847 197.211 233.507 197.211 234.324 c 197.211 235.136 197.871 235.796
 198.688 235.796 c 199.5 235.796 200.16 235.136 200.16 234.324 c h
200.16 234.324 m f
0.556863 0.0352941 0.223529 rg
199.707 233.277 m 199.129 232.703 198.195 232.703 197.617 233.277 c 197.035
 233.855 197.035 234.796 197.621 235.371 c 198.195 235.949 198.664 235.476
 199.246 234.902 c 199.82 234.324 200.289 233.855 199.707 233.277 c h
199.707 233.277 m f
0.227451 0.529412 0.0313726 rg
246.43 283.687 m 246.43 283.687 249.227 285.945 246.883 288.769 c 244.539
 291.605 238.242 288.023 238.242 288.023 c 238.242 288.023 241.375 291.156
 241.078 293.593 c 241.07 293.875 240.965 294.023 240.832 294.113 c 240.75
 294.246 240.582 294.351 240.309 294.379 c 237.871 294.668 234.734 291.527
 234.734 291.527 c 234.734 291.527 238.312 297.832 235.48 300.179 c 232.66
 302.523 230.391 299.707 230.391 299.707 c 231.828 303.597 225.941 314.043
 221.43 304.351 c 217.496 295.933 225.816 284.73 228.055 281.957 c 228.027
 281.918 228.004 281.886 228.004 281.886 c 228.004 281.886 228.121 281.793
 228.312 281.617 c 228.492 281.406 228.594 281.3 228.594 281.3 c 228.594
 281.3 228.613 281.312 228.652 281.351 c 231.441 279.113 242.633 270.789
 251.059 274.714 c 260.758 279.242 250.309 285.121 246.43 283.687 c h
246.43 283.687 m f
0.286275 0.627451 0.0627451 rg
224.926 308.254 m 224.797 308.007 224.648 307.73 224.52 307.425 c 220.594
 299.007 228.914 287.796 231.141 285.031 c 231.098 284.961 l 231.098 284.961
 231.211 284.867 231.418 284.691 c 231.59 284.488 231.684 284.375 231.684
 284.375 c 231.684 284.375 231.723 284.394 231.758 284.418 c 234.527 282.183
 245.73 273.863 254.156 277.789 c 254.457 277.933 254.723 278.066 254.98
 278.211 c 255.965 281.711 249.34 284.754 246.441 283.687 c 246.441 283.687
 249.238 285.945 246.895 288.765 c 244.551 291.601 238.258 288.023 238.258
 288.023 c 238.258 288.023 241.391 291.156 241.094 293.593 c 241.086 293.871
 240.98 294.023 240.848 294.109 c 240.766 294.242 240.594 294.351 240.324
 294.375 c 237.887 294.664 234.746 291.527 234.746 291.527 c 234.746 291.527
 238.328 297.828 235.496 300.179 c 232.672 302.523 230.406 299.707 230.406
 299.707 c 231.48 302.632 228.426 309.242 224.926 308.254 c h
224.926 308.254 m f
0.686275 0.552941 0.372549 rg
326.238 189.254 m 326.238 181.433 319.891 175.082 312.07 175.082 c 14.172
 175.082 l 6.332 175.082 0 181.433 0 189.254 c 0 216.004 l 0 223.832 6.332
 230.175 14.172 230.175 c 312.07 230.175 l 319.891 230.175 326.238 223.839
 326.238 216.004 c h
326.238 189.254 m f
0.776471 0.615686 0.419608 rg
312.07 230.171 m 14.172 230.171 l 6.332 230.171 0 223.832 0 215.996 c 0
 200.457 l 0 192.625 6.332 186.3 14.172 186.3 c 312.07 186.3 l 319.891 186.3
 326.238 192.625 326.238 200.457 c 326.238 215.996 l 326.238 223.824 319.898
 230.171 312.07 230.171 c h
312.07 230.171 m f
0.686275 0.552941 0.372549 rg
29.32 202.632 m 29.32 199.207 26.543 196.429 23.121 196.429 c 19.695 196.429
 16.918 199.207 16.918 202.632 c 16.918 206.058 19.695 208.832 23.121 208.832
 c 26.543 208.832 29.32 206.058 29.32 202.632 c h
29.32 202.632 m f
312.645 202.632 m 312.645 199.207 309.867 196.429 306.441 196.429 c 303.02
 196.429 300.242 199.207 300.242 202.632 c 300.242 206.058 303.02 208.832
 306.441 208.832 c 309.867 208.832 312.645 206.058 312.645 202.632 c h
312.645 202.632 m f
326.238 133.75 m 326.238 125.929 319.891 119.597 312.07 119.597 c 14.172
 119.597 l 6.332 119.597 0 125.929 0 133.75 c 0 160.519 l 0 168.339 6.332
 174.679 14.172 174.679 c 312.07 174.679 l 319.891 174.679 326.238 168.339
 326.238 160.519 c h
326.238 133.75 m f
0.776471 0.615686 0.419608 rg
312.07 174.679 m 14.172 174.679 l 6.332 174.679 0 168.339 0 160.519 c 0
 144.98 l 0 137.16 6.332 130.808 14.172 130.808 c 312.07 130.808 l 319.891
 130.808 326.238 137.16 326.238 144.98 c 326.238 160.519 l 326.238 168.339
 319.898 174.679 312.07 174.679 c h
312.07 174.679 m f
0.686275 0.552941 0.372549 rg
29.32 147.14 m 29.32 143.714 26.543 140.941 23.121 140.941 c 19.695 140.941
 16.918 143.714 16.918 147.14 c 16.918 150.566 19.695 153.343 23.121 153.343
 c 26.543 153.343 29.32 150.566 29.32 147.14 c h
29.32 147.14 m f
312.645 147.14 m 312.645 143.714 309.867 140.941 306.441 140.941 c 303.02
 140.941 300.242 143.714 300.242 147.14 c 300.242 150.566 303.02 153.343
 306.441 153.343 c 309.867 153.343 312.645 150.566 312.645 147.14 c h
312.645 147.14 m f
326.238 78.277 m 326.238 70.437 319.891 64.097 312.07 64.097 c 14.172 64.097
 l 6.332 64.097 0 70.437 0 78.277 c 0 105.027 l 0 112.855 6.332 119.195 
14.172 119.195 c 312.07 119.195 l 319.891 119.195 326.238 112.855 326.238
 105.027 c h
326.238 78.277 m f
0.776471 0.615686 0.419608 rg
312.07 119.195 m 14.172 119.195 l 6.332 119.195 0 112.855 0 105.027 c 0
 89.496 l 0 81.668 6.332 75.316 14.172 75.316 c 312.07 75.316 l 319.891 
75.316 326.238 81.668 326.238 89.496 c 326.238 105.027 l 326.238 112.859
 319.898 119.195 312.07 119.195 c h
312.07 119.195 m f
0.686275 0.552941 0.372549 rg
29.32 91.629 m 29.32 88.207 26.543 85.429 23.121 85.429 c 19.695 85.429
 16.918 88.207 16.918 91.629 c 16.918 95.054 19.695 97.832 23.121 97.832
 c 26.543 97.832 29.32 95.054 29.32 91.629 c h
29.32 91.629 m f
312.645 91.629 m 312.645 88.207 309.867 85.429 306.441 85.429 c 303.02 
85.429 300.242 88.207 300.242 91.629 c 300.242 95.054 303.02 97.832 306.441
 97.832 c 309.867 97.832 312.645 95.054 312.645 91.629 c h
312.645 91.629 m f
326.238 22.793 m 326.238 14.961 319.891 8.621 312.07 8.621 c 14.172 8.621
 l 6.332 8.621 0 14.961 0 22.793 c 0 49.55 l 0 57.371 6.332 63.703 14.172
 63.703 c 312.07 63.703 l 319.891 63.703 326.238 57.371 326.238 49.55 c 
h
326.238 22.793 m f
0.776471 0.615686 0.419608 rg
312.07 63.703 m 14.172 63.703 l 6.332 63.703 0 57.371 0 49.55 c 0 34.004
 l 0 26.175 6.332 19.843 14.172 19.843 c 312.07 19.843 l 319.891 19.843 
326.238 26.175 326.238 34.004 c 326.238 49.55 l 326.238 57.371 319.898 63.703
 312.07 63.703 c h
312.07 63.703 m f
0.686275 0.552941 0.372549 rg
29.32 36.175 m 29.32 32.754 26.543 29.976 23.121 29.976 c 19.695 29.976
 16.918 32.754 16.918 36.175 c 16.918 39.601 19.695 42.379 23.121 42.379
 c 26.543 42.379 29.32 39.601 29.32 36.175 c h
29.32 36.175 m f
312.645 36.175 m 312.645 32.754 309.867 29.976 306.441 29.976 c 303.02 
29.976 300.242 32.754 300.242 36.175 c 300.242 39.601 303.02 42.379 306.441
 42.379 c 309.867 42.379 312.645 39.601 312.645 36.175 c h
312.645 36.175 m f
0.8 0.615686 0.431373 rg
73.488 238.773 m 81.043 238.773 87.168 232.64 87.168 225.086 c 87.168 13.699
 l 87.168 6.125 81.043 -0 73.488 -0 c 47.625 -0 l 40.066 -0 33.938 6.125
 33.938 13.699 c 33.938 225.089 l 33.938 232.648 40.062 238.777 47.625 238.777
 c 73.488 238.777 l h
73.488 238.773 m f
0.886275 0.705882 0.505882 rg
33.945 225.089 m 33.945 13.707 l 33.945 6.132 40.07 0.007 47.633 0.007 
c 62.645 0.007 l 70.219 0.007 76.344 6.132 76.344 13.707 c 76.344 225.089
 l 76.344 232.648 70.219 238.777 62.645 238.777 c 47.633 238.777 l 40.066
 238.773 33.945 232.64 33.945 225.089 c h
33.945 225.089 m f
0.686275 0.552941 0.372549 rg
66.543 34.285 m 66.543 30.98 63.863 28.3 60.559 28.3 c 57.25 28.3 54.57
 30.98 54.57 34.285 c 54.57 37.593 57.25 40.273 60.559 40.273 c 63.863 40.273
 66.543 37.593 66.543 34.285 c h
66.543 34.285 m f
66.543 201.187 m 66.543 197.882 63.863 195.203 60.559 195.203 c 57.25 195.203
 54.57 197.882 54.57 201.187 c 54.57 204.496 57.25 207.175 60.559 207.175
 c 63.863 207.175 66.543 204.496 66.543 201.187 c h
66.543 201.187 m f
0.8 0.615686 0.431373 rg
243.855 238.773 m 236.301 238.773 230.184 232.64 230.184 225.086 c 230.184
 13.699 l 230.184 6.125 236.301 -0 243.855 -0 c 269.727 -0 l 277.27 -0 283.406
 6.125 283.406 13.699 c 283.406 225.089 l 283.406 232.648 277.27 238.777
 269.727 238.777 c 243.855 238.777 l h
243.855 238.773 m f
0.886275 0.705882 0.505882 rg
283.41 225.089 m 283.41 13.707 l 283.41 6.132 277.273 0.007 269.73 0.007
 c 254.703 0.007 l 247.141 0.007 241.027 6.132 241.027 13.707 c 241.027 
225.089 l 241.027 232.648 247.141 238.777 254.703 238.777 c 269.73 238.777
 l 277.273 238.773 283.41 232.64 283.41 225.089 c h
283.41 225.089 m f
0.686275 0.552941 0.372549 rg
262.773 34.285 m 262.773 30.98 260.094 28.3 256.789 28.3 c 253.48 28.3 
250.801 30.98 250.801 34.285 c 250.801 37.593 253.48 40.273 256.789 40.273
 c 260.094 40.273 262.773 37.593 262.773 34.285 c h
262.773 34.285 m f
262.773 201.187 m 262.773 197.882 260.094 195.203 256.789 195.203 c 253.48
 195.203 250.801 197.882 250.801 201.187 c 250.801 204.496 253.48 207.175
 256.789 207.175 c 260.094 207.175 262.773 204.496 262.773 201.187 c h
262.773 201.187 m f
Q Q
showpage
%%Trailer
end restore
%%EOF
