%!PS-Adobe-3.0 EPSF-3.0
%%Creator: cairo 1.14.2 (http://cairographics.org)
%%CreationDate: Thu Aug  4 10:31:44 2016
%%Pages: 1
%%DocumentData: Clean7Bit
%%LanguageLevel: 2
%%BoundingBox: 0 -1 385 336
%%EndComments
%%BeginProlog
save
50 dict begin
/q { gsave } bind def
/Q { grestore } bind def
/cm { 6 array astore concat } bind def
/w { setlinewidth } bind def
/J { setlinecap } bind def
/j { setlinejoin } bind def
/M { setmiterlimit } bind def
/d { setdash } bind def
/m { moveto } bind def
/l { lineto } bind def
/c { curveto } bind def
/h { closepath } bind def
/re { exch dup neg 3 1 roll 5 3 roll moveto 0 rlineto
      0 exch rlineto 0 rlineto closepath } bind def
/S { stroke } bind def
/f { fill } bind def
/f* { eofill } bind def
/n { newpath } bind def
/W { clip } bind def
/W* { eoclip } bind def
/BT { } bind def
/ET { } bind def
/pdfmark where { pop globaldict /?pdfmark /exec load put }
    { globaldict begin /?pdfmark /pop load def /pdfmark
    /cleartomark load def end } ifelse
/BDC { mark 3 1 roll /BDC pdfmark } bind def
/EMC { mark /EMC pdfmark } bind def
/cairo_store_point { /cairo_point_y exch def /cairo_point_x exch def } def
/Tj { show currentpoint cairo_store_point } bind def
/TJ {
  {
    dup
    type /stringtype eq
    { show } { -0.001 mul 0 cairo_font_matrix dtransform rmoveto } ifelse
  } forall
  currentpoint cairo_store_point
} bind def
/cairo_selectfont { cairo_font_matrix aload pop pop pop 0 0 6 array astore
    cairo_font exch selectfont cairo_point_x cairo_point_y moveto } bind def
/Tf { pop /cairo_font exch def /cairo_font_matrix where
      { pop cairo_selectfont } if } bind def
/Td { matrix translate cairo_font_matrix matrix concatmatrix dup
      /cairo_font_matrix exch def dup 4 get exch 5 get cairo_store_point
      /cairo_font where { pop cairo_selectfont } if } bind def
/Tm { 2 copy 8 2 roll 6 array astore /cairo_font_matrix exch def
      cairo_store_point /cairo_font where { pop cairo_selectfont } if } bind def
/g { setgray } bind def
/rg { setrgbcolor } bind def
/d1 { setcachedevice } bind def
%%EndProlog
%%BeginSetup
%%EndSetup
%%Page: 1 1
%%BeginPageSetup
%%PageBoundingBox: 0 -1 385 336
%%EndPageSetup
q 0 -1 385 337 rectclip q
0.776471 0.741176 0.545098 rg
378.723 137.732 m 378.723 61.92 295.27 40.638 192.328 40.638 c 89.387 40.638
 5.922 61.92 5.922 137.732 c 5.922 213.56 89.379 275.025 192.324 275.025
 c 295.266 275.025 378.723 213.564 378.723 137.732 c h
378.723 137.732 m f
0.709804 0.678431 0.454902 rg
378.723 137.732 m 378.723 61.92 295.27 40.638 192.328 40.638 c 89.387 40.638
 5.922 61.92 5.922 137.732 c 5.922 213.56 89.379 255.963 192.324 255.963
 c 295.266 255.963 378.723 213.564 378.723 137.732 c h
378.723 137.732 m f
0.619608 0.580392 0.352941 rg
378.723 137.732 m 378.723 61.92 295.27 40.638 192.328 40.638 c 89.387 40.638
 5.922 61.92 5.922 137.732 c 5.922 213.56 89.379 172.342 192.324 172.342
 c 295.266 172.342 378.723 213.564 378.723 137.732 c h
378.723 137.732 m f
0.0313726 0.156863 0.337255 rg
135.402 152.26 m 135.402 143.01 127.906 135.513 118.656 135.513 c 109.41
 135.513 101.914 143.01 101.914 152.26 c 101.914 161.506 109.41 169.002 
118.656 169.002 c 127.906 169.002 135.402 161.506 135.402 152.26 c h
135.402 152.26 m f
282.73 152.26 m 282.73 143.01 275.234 135.513 265.988 135.513 c 256.742
 135.513 249.246 143.01 249.246 152.26 c 249.246 161.506 256.742 169.002
 265.988 169.002 c 275.234 169.002 282.73 161.506 282.73 152.26 c h
282.73 152.26 m f
0 g
135.402 152.26 m 135.402 143.002 127.906 135.51 118.656 135.51 c 109.406
 135.51 101.914 143.002 101.914 152.26 c f
282.73 152.26 m 282.73 143.002 275.238 135.51 265.996 135.51 c 256.742 
135.51 249.25 143.002 249.25 152.26 c f
0.619608 0.580392 0.352941 rg
66.293 57.092 m 66.293 25.56 55.008 0.002 41.086 0.002 c 27.164 0.002 15.879
 25.56 15.879 57.092 c 15.879 88.623 27.164 114.185 41.086 114.185 c 55.008
 114.185 66.293 88.623 66.293 57.092 c h
66.293 57.092 m f
104.102 57.092 m 104.102 25.56 92.816 0.002 78.895 0.002 c 64.973 0.002
 53.688 25.56 53.688 57.092 c 53.688 88.623 64.973 114.185 78.895 114.185
 c 92.816 114.185 104.102 88.623 104.102 57.092 c h
104.102 57.092 m f
141.91 57.092 m 141.91 25.56 130.625 0.002 116.703 0.002 c 102.785 0.002
 91.5 25.56 91.5 57.092 c 91.5 88.623 102.785 114.185 116.703 114.185 c 
130.625 114.185 141.91 88.623 141.91 57.092 c h
141.91 57.092 m f
179.719 57.092 m 179.719 25.56 168.434 0.002 154.512 0.002 c 140.594 0.002
 129.309 25.56 129.309 57.092 c 129.309 88.623 140.594 114.185 154.512 114.185
 c 168.434 114.185 179.719 88.623 179.719 57.092 c h
179.719 57.092 m f
217.531 57.092 m 217.531 25.56 206.246 0.002 192.324 0.002 c 178.402 0.002
 167.117 25.56 167.117 57.092 c 167.117 88.623 178.402 114.185 192.324 114.185
 c 206.246 114.185 217.531 88.623 217.531 57.092 c h
217.531 57.092 m f
255.34 57.092 m 255.34 25.56 244.055 0.002 230.133 0.002 c 216.211 0.002
 204.926 25.56 204.926 57.092 c 204.926 88.623 216.211 114.185 230.133 114.185
 c 244.055 114.185 255.34 88.623 255.34 57.092 c h
255.34 57.092 m f
293.148 57.092 m 293.148 25.56 281.863 0.002 267.941 0.002 c 254.02 0.002
 242.734 25.56 242.734 57.092 c 242.734 88.623 254.02 114.185 267.941 114.185
 c 281.863 114.185 293.148 88.623 293.148 57.092 c h
293.148 57.092 m f
330.957 57.092 m 330.957 25.56 319.672 0.002 305.75 0.002 c 291.828 0.002
 280.543 25.56 280.543 57.092 c 280.543 88.623 291.828 114.185 305.75 114.185
 c 319.672 114.185 330.957 88.623 330.957 57.092 c h
330.957 57.092 m f
368.766 57.092 m 368.766 25.56 357.48 0.002 343.559 0.002 c 329.641 0.002
 318.355 25.56 318.355 57.092 c 318.355 88.623 329.641 114.185 343.559 114.185
 c 357.48 114.185 368.766 88.623 368.766 57.092 c h
368.766 57.092 m f
52.77 99.185 m 52.77 56.767 40.957 22.385 26.387 22.385 c 11.812 22.385
 0 56.767 0 99.185 c 0 141.603 11.812 175.99 26.387 175.99 c 40.957 175.99
 52.77 141.603 52.77 99.185 c h
52.77 99.185 m f
384.645 99.185 m 384.645 56.767 372.832 22.385 358.262 22.385 c 343.691
 22.385 331.875 56.767 331.875 99.185 c 331.875 141.603 343.691 175.99 358.262
 175.99 c 372.832 175.99 384.645 141.603 384.645 99.185 c h
384.645 99.185 m f
0.988235 0.847059 0.152941 rg
224.039 117.701 m 192.293 85.963 l 160.555 117.713 l 192.301 149.451 l 
h
224.039 117.701 m f
0.878431 0.65098 0.141176 rg
224.078 117.724 m 192.324 85.978 l 160.574 117.724 l 192.324 110.51 l h
224.078 117.724 m f
0.709804 0.0627451 0.388235 rg
187.445 213.959 m 187.445 213.959 196.898 247.568 140.184 267.263 c 83.469
 286.955 130.73 321.611 159.09 301.92 c 159.09 301.92 149.145 308.627 145.691
 320.037 c 141.496 333.943 192.172 349.97 203.199 308.22 c 203.199 308.22
 194.969 319.15 199.254 326.338 c 204.512 335.131 226.547 333.302 237.594
 318.189 c 252.566 297.709 244.16 276.713 223.68 268.838 c 203.199 260.959
 187.445 213.959 187.445 213.959 c h
187.445 213.959 m f
0.807843 0.113725 0.494118 rg
199.254 326.338 m 198.082 324.361 197.887 322.115 198.172 319.881 c 181.605
 346.353 141.953 332.42 145.691 320.037 c 149.145 308.627 159.09 301.92 
159.09 301.92 c 130.73 321.611 83.469 286.955 140.184 267.263 c 140.32 267.213
 140.461 267.146 140.598 267.103 c 152.098 266.463 164.746 266.97 177.961
 268.873 c 206.418 272.982 230.699 282.498 244.953 293.771 c 245.871 301.377
 243.711 309.822 237.594 318.189 c 226.547 333.302 204.512 335.131 199.254
 326.338 c h
199.254 326.338 m f
0.94902 0.494118 0.764706 rg
160.398 294.756 m 160.398 291.385 151.785 294.56 141.887 294.56 c 131.984
 294.56 124.555 291.385 124.555 294.756 c 124.555 298.127 132.578 300.861
 142.477 300.861 c 152.379 300.861 160.398 298.127 160.398 294.756 c h
160.398 294.756 m f
182.234 325.381 m 182.223 322.615 176.086 325.279 169.027 325.33 c 161.957
 325.381 156.633 322.81 156.645 325.576 c 156.664 328.353 162.414 330.56
 169.473 330.51 c 176.551 330.459 182.258 328.158 182.234 325.381 c h
182.234 325.381 m f
223.195 321.935 m 223.18 318.951 219.035 321.802 214.258 321.834 c 209.469
 321.869 205.859 319.084 205.879 322.064 c 205.891 325.033 209.797 327.42
 214.582 327.396 c 219.363 327.361 223.219 324.908 223.195 321.935 c h
223.195 321.935 m f
Q Q
showpage
%%Trailer
end restore
%%EOF
