%!PS-Adobe-3.0 EPSF-3.0
%%Creator: cairo 1.14.2 (http://cairographics.org)
%%CreationDate: Thu Aug  4 10:34:17 2016
%%Pages: 1
%%DocumentData: Clean7Bit
%%LanguageLevel: 2
%%BoundingBox: 0 -1 374 295
%%EndComments
%%BeginProlog
save
50 dict begin
/q { gsave } bind def
/Q { grestore } bind def
/cm { 6 array astore concat } bind def
/w { setlinewidth } bind def
/J { setlinecap } bind def
/j { setlinejoin } bind def
/M { setmiterlimit } bind def
/d { setdash } bind def
/m { moveto } bind def
/l { lineto } bind def
/c { curveto } bind def
/h { closepath } bind def
/re { exch dup neg 3 1 roll 5 3 roll moveto 0 rlineto
      0 exch rlineto 0 rlineto closepath } bind def
/S { stroke } bind def
/f { fill } bind def
/f* { eofill } bind def
/n { newpath } bind def
/W { clip } bind def
/W* { eoclip } bind def
/BT { } bind def
/ET { } bind def
/pdfmark where { pop globaldict /?pdfmark /exec load put }
    { globaldict begin /?pdfmark /pop load def /pdfmark
    /cleartomark load def end } ifelse
/BDC { mark 3 1 roll /BDC pdfmark } bind def
/EMC { mark /EMC pdfmark } bind def
/cairo_store_point { /cairo_point_y exch def /cairo_point_x exch def } def
/Tj { show currentpoint cairo_store_point } bind def
/TJ {
  {
    dup
    type /stringtype eq
    { show } { -0.001 mul 0 cairo_font_matrix dtransform rmoveto } ifelse
  } forall
  currentpoint cairo_store_point
} bind def
/cairo_selectfont { cairo_font_matrix aload pop pop pop 0 0 6 array astore
    cairo_font exch selectfont cairo_point_x cairo_point_y moveto } bind def
/Tf { pop /cairo_font exch def /cairo_font_matrix where
      { pop cairo_selectfont } if } bind def
/Td { matrix translate cairo_font_matrix matrix concatmatrix dup
      /cairo_font_matrix exch def dup 4 get exch 5 get cairo_store_point
      /cairo_font where { pop cairo_selectfont } if } bind def
/Tm { 2 copy 8 2 roll 6 array astore /cairo_font_matrix exch def
      cairo_store_point /cairo_font where { pop cairo_selectfont } if } bind def
/g { setgray } bind def
/rg { setrgbcolor } bind def
/d1 { setcachedevice } bind def
%%EndProlog
%%BeginSetup
%%EndSetup
%%Page: 1 1
%%BeginPageSetup
%%PageBoundingBox: 0 -1 374 295
%%EndPageSetup
q 0 -1 374 296 rectclip q
0.517647 0.278431 0.0980392 rg
366.512 20.902 m 366.512 10.453 355.949 0 345.512 0 c 28.332 0 l 17.883
 0 7.324 10.453 7.324 20.902 c 7.324 145.875 l 7.324 156.317 17.883 163.84
 28.332 163.84 c 345.512 163.84 l 355.949 163.84 366.512 156.317 366.512
 145.875 c h
366.512 20.902 m f
0.756863 0.435294 0.2 rg
92.184 247.031 m 100.527 233.297 89.035 211.059 66.5 197.371 c 43.965 183.684
 22.375 153.133 14.035 166.871 c 5.691 180.61 -2.723 260.563 19.812 274.25
 c 42.352 287.918 83.84 260.77 92.184 247.031 c h
92.184 247.031 m f
0.858824 0.376471 0.164706 rg
64.969 227.781 m 73.312 214.043 89.027 211.059 66.492 197.371 c 43.961 
183.684 22.371 153.133 14.027 166.871 c 5.684 180.61 -2.723 260.563 19.812
 274.25 c 42.352 287.918 56.625 241.52 64.969 227.781 c h
64.969 227.781 m f
0.768627 0.286275 0.117647 rg
19.812 274.25 m 42.348 287.926 56.625 241.527 64.969 227.789 c 73.312 214.051
 89.027 211.063 66.492 197.375 c f
0.756863 0.435294 0.2 rg
280.59 247.031 m 272.246 233.297 283.738 211.059 306.273 197.371 c 328.809
 183.684 350.41 153.133 358.738 166.871 c 367.082 180.61 375.504 260.555
 352.969 274.242 c 330.434 287.918 288.934 260.77 280.59 247.031 c h
280.59 247.031 m f
0.858824 0.376471 0.164706 rg
307.816 227.781 m 299.473 214.043 283.746 211.059 306.281 197.371 c 328.812
 183.684 350.414 153.133 358.746 166.871 c 367.09 180.61 375.508 260.555
 352.973 274.242 c 330.434 287.918 316.16 241.52 307.816 227.781 c h
307.816 227.781 m f
0.768627 0.286275 0.117647 rg
352.973 274.25 m 330.441 287.926 316.16 241.527 307.816 227.789 c 299.473
 214.051 283.746 211.063 306.281 197.375 c f
0.866667 0.498039 0.243137 rg
372.785 133.449 m 372.785 57.633 289.328 36.352 186.387 36.352 c 83.445
 36.352 0 57.633 0 133.449 c 0 209.274 83.445 270.738 186.387 270.738 c 
289.328 270.738 372.785 209.274 372.785 133.449 c h
372.785 133.449 m f
0.756863 0.435294 0.2 rg
373.832 136.598 m 373.832 60.785 290.387 39.504 187.445 39.504 c 84.504
 39.504 1.047 60.785 1.047 136.598 c 1.047 212.426 84.504 254.828 187.445
 254.828 c 290.387 254.828 373.832 212.426 373.832 136.598 c h
373.832 136.598 m f
0.639216 0.380392 0.168627 rg
372.785 133.449 m 372.785 57.633 289.328 36.352 186.387 36.352 c 83.445
 36.352 0 57.633 0 133.449 c 0 209.274 83.445 168.055 186.387 168.055 c 
289.328 168.055 372.785 209.274 372.785 133.449 c h
372.785 133.449 m f
0.0313726 0.156863 0.337255 rg
129.465 179.473 m 129.465 170.231 121.973 162.738 112.727 162.738 c 103.484
 162.738 95.992 170.231 95.992 179.473 c 95.992 188.719 103.484 196.211 
112.727 196.211 c 121.973 196.211 129.465 188.719 129.465 179.473 c h
129.465 179.473 m f
276.82 179.473 m 276.82 170.227 269.324 162.731 260.078 162.731 c 250.828
 162.731 243.332 170.227 243.332 179.473 c 243.332 188.723 250.828 196.219
 260.078 196.219 c 269.324 196.219 276.82 188.723 276.82 179.473 c h
276.82 179.473 m f
0 g
129.465 179.473 m 129.465 170.219 121.973 162.727 112.727 162.727 c 103.473
 162.727 95.992 170.219 95.992 179.473 c f
276.801 179.473 m 276.801 170.219 269.309 162.727 260.066 162.727 c 250.809
 162.727 243.316 170.219 243.316 179.473 c f
0.117647 0.0431373 0.027451 rg
67.227 95.02 m 67.227 143.485 120.578 157.09 186.387 157.09 c 252.195 157.09
 305.562 143.492 305.562 95.02 c 305.562 46.547 252.195 7.238 186.387 7.238
 c 120.582 7.238 67.227 46.555 67.227 95.02 c h
67.227 95.02 m f
0.219608 0.0980392 0.0666667 rg
67.227 95.02 m 67.227 143.485 120.578 157.09 186.387 157.09 c 252.195 157.09
 305.562 143.492 305.562 95.02 c 305.562 46.547 252.195 19.426 186.387 19.426
 c 120.582 19.426 67.227 46.555 67.227 95.02 c h
67.227 95.02 m f
0.298039 0.14902 0.0980392 rg
67.227 95.02 m 67.227 143.485 120.578 157.09 186.387 157.09 c 252.195 157.09
 305.562 143.492 305.562 95.02 c 305.562 46.547 252.195 72.902 186.387 72.902
 c 120.582 72.902 67.227 46.555 67.227 95.02 c h
67.227 95.02 m f
0.768627 0.286275 0.117647 rg
222.777 85.75 m 222.777 91.664 227.566 96.434 233.484 96.434 c 239.395 
96.434 244.18 91.656 244.18 85.75 c 244.18 79.82 239.391 75.031 233.484 
75.031 c 227.566 75.031 222.777 79.82 222.777 85.75 c h
222.777 85.75 m f
128.59 85.75 m 128.59 91.664 133.379 96.434 139.281 96.434 c 145.199 96.434
 149.988 91.656 149.988 85.75 c 149.988 79.82 145.199 75.031 139.281 75.031
 c 133.379 75.031 128.59 79.82 128.59 85.75 c h
128.59 85.75 m f
0.698039 0.211765 0.0627451 rg
222.777 85.75 m 222.777 91.664 227.566 96.434 233.484 96.434 c 239.395 
96.434 244.18 91.656 244.18 85.75 c f
128.59 85.75 m 128.59 91.664 133.379 96.434 139.281 96.434 c 145.199 96.434
 149.988 91.656 149.988 85.75 c f
0.298039 0.14902 0.0980392 rg
134.398 285.039 m 134.398 285.039 96.59 266.922 116.281 236.988 c 135.977
 207.055 229.488 236.067 213.957 213.36 c 208.84 205.871 200.168 208.242
 187.961 215.719 c 187.961 215.719 215.375 169.379 241.914 202.332 c 287.602
 259.043 261.211 286.215 206.867 292.52 c 152.523 298.82 134.398 285.039
 134.398 285.039 c h
134.398 285.039 m f
Q Q
showpage
%%Trailer
end restore
%%EOF
