%!PS-Adobe-3.0 EPSF-3.0
%%Creator: cairo 1.14.2 (http://cairographics.org)
%%CreationDate: Thu Aug  4 10:34:25 2016
%%Pages: 1
%%DocumentData: Clean7Bit
%%LanguageLevel: 2
%%BoundingBox: 0 -1 379 397
%%EndComments
%%BeginProlog
save
50 dict begin
/q { gsave } bind def
/Q { grestore } bind def
/cm { 6 array astore concat } bind def
/w { setlinewidth } bind def
/J { setlinecap } bind def
/j { setlinejoin } bind def
/M { setmiterlimit } bind def
/d { setdash } bind def
/m { moveto } bind def
/l { lineto } bind def
/c { curveto } bind def
/h { closepath } bind def
/re { exch dup neg 3 1 roll 5 3 roll moveto 0 rlineto
      0 exch rlineto 0 rlineto closepath } bind def
/S { stroke } bind def
/f { fill } bind def
/f* { eofill } bind def
/n { newpath } bind def
/W { clip } bind def
/W* { eoclip } bind def
/BT { } bind def
/ET { } bind def
/pdfmark where { pop globaldict /?pdfmark /exec load put }
    { globaldict begin /?pdfmark /pop load def /pdfmark
    /cleartomark load def end } ifelse
/BDC { mark 3 1 roll /BDC pdfmark } bind def
/EMC { mark /EMC pdfmark } bind def
/cairo_store_point { /cairo_point_y exch def /cairo_point_x exch def } def
/Tj { show currentpoint cairo_store_point } bind def
/TJ {
  {
    dup
    type /stringtype eq
    { show } { -0.001 mul 0 cairo_font_matrix dtransform rmoveto } ifelse
  } forall
  currentpoint cairo_store_point
} bind def
/cairo_selectfont { cairo_font_matrix aload pop pop pop 0 0 6 array astore
    cairo_font exch selectfont cairo_point_x cairo_point_y moveto } bind def
/Tf { pop /cairo_font exch def /cairo_font_matrix where
      { pop cairo_selectfont } if } bind def
/Td { matrix translate cairo_font_matrix matrix concatmatrix dup
      /cairo_font_matrix exch def dup 4 get exch 5 get cairo_store_point
      /cairo_font where { pop cairo_selectfont } if } bind def
/Tm { 2 copy 8 2 roll 6 array astore /cairo_font_matrix exch def
      cairo_store_point /cairo_font where { pop cairo_selectfont } if } bind def
/g { setgray } bind def
/rg { setrgbcolor } bind def
/d1 { setcachedevice } bind def
%%EndProlog
%%BeginSetup
%%EndSetup
%%Page: 1 1
%%BeginPageSetup
%%PageBoundingBox: 0 -1 379 397
%%EndPageSetup
q 0 -1 379 398 rectclip q
0.513726 0.576471 0.572549 rg
189.047 -0.002 m 189.035 -0.002 l 138.516 -0.002 91.035 19.748 55.305 55.479
 c -18.43 129.213 -18.438 277.866 55.293 351.608 c 99.043 307.885 l 49.418
 258.26 49.418 177.522 99.043 127.901 c 123.098 103.854 155.043 90.616 189.027
 90.616 c 223.039 90.616 254.988 103.854 279.035 127.897 c 328.66 177.526
 328.664 258.28 279.039 307.905 c 322.785 351.639 l 396.527 277.897 396.512
 129.202 322.773 55.459 c 287.055 19.741 239.566 -0.002 189.047 -0.002 c
 h
189.047 -0.002 m f
0.588235 0.666667 0.658824 rg
55.293 351.643 m 28.32 324.655 11.262 287.635 4.023 247.932 c 11.262 208.229
 28.328 170.905 55.309 143.928 c 91.035 108.198 138.516 88.221 189.035 88.221
 c 189.047 88.221 l 239.566 88.221 287.055 108.19 322.777 143.912 c 349.762
 170.905 366.84 208.084 374.074 247.795 c 366.84 287.494 349.781 324.592
 322.793 351.573 c 311.602 340.428 l 318.66 314.741 317.512 287.35 308.203
 262.225 c 324.945 217.006 315.305 164.159 279.039 127.897 c 254.996 103.862
 223.047 90.623 189.035 90.623 c 155.051 90.623 123.102 103.862 99.051 127.909
 c 62.785 164.174 53.145 217.037 69.898 262.244 c 60.586 287.35 59.438 314.768
 66.492 340.452 c h
55.293 351.643 m f
139.965 334.307 m 141.66 332.76 141.754 330.131 140.203 328.448 c 109.246
 294.912 l 107.703 293.229 105.074 293.123 103.398 294.678 c 36.816 356.119
 l 35.133 357.662 35.027 360.295 36.59 361.979 c 67.547 395.522 l 69.094
 397.205 71.727 397.307 73.41 395.76 c h
139.965 334.307 m f
0.647059 0.74902 0.737255 rg
140.211 328.455 m 141.762 330.139 141.668 332.764 139.973 334.315 c 73.402
 395.76 l 71.719 397.311 69.086 397.205 67.543 395.522 c 51.945 378.627 
l 124.629 311.561 l h
140.211 328.455 m f
0.588235 0.666667 0.658824 rg
238.125 334.307 m 236.438 332.76 236.34 330.131 237.887 328.448 c 268.852
 294.905 l 270.395 293.221 273.016 293.116 274.707 294.67 c 341.281 356.112
 l 342.957 357.662 343.066 360.295 341.508 361.979 c 310.547 395.522 l 308.996
 397.205 306.371 397.307 304.688 395.76 c h
238.125 334.307 m f
0.647059 0.74902 0.737255 rg
237.887 328.455 m 236.34 330.139 236.438 332.764 238.125 334.315 c 304.695
 395.76 l 306.375 397.311 309.004 397.205 310.555 395.522 c 326.152 378.627
 l 253.469 311.561 l h
237.887 328.455 m f
0.333333 0.376471 0.372549 rg
45.652 253.487 m 45.652 247.08 40.457 241.885 34.051 241.885 c 27.645 241.885
 22.449 247.08 22.449 253.487 c 22.449 259.893 27.645 265.088 34.051 265.088
 c 40.457 265.088 45.652 259.893 45.652 253.487 c h
45.652 253.487 m f
0.196078 0.247059 0.243137 rg
34.043 265.088 m 31.207 265.088 28.629 264.03 26.621 262.334 c 24.926 260.315
 23.859 257.741 23.859 254.909 c 23.859 248.502 29.059 243.307 35.469 243.307
 c 38.305 243.307 40.867 244.366 42.891 246.057 c 44.586 248.077 45.645 
250.651 45.645 253.487 c 45.645 259.893 40.457 265.088 34.043 265.088 c 
h
34.043 265.088 m f
0.27451 0.329412 0.32549 rg
34.043 265.088 m 31.207 265.088 28.629 264.03 26.621 262.334 c 24.926 260.315
 23.859 257.741 23.859 254.909 c 23.859 248.502 29.059 243.307 35.469 243.307
 c 38.305 243.307 40.867 244.366 42.891 246.057 c f
0.333333 0.376471 0.372549 rg
53.004 157.475 m 53.004 150.385 47.258 144.639 40.168 144.639 c 33.078 
144.639 27.332 150.385 27.332 157.475 c 27.332 164.565 33.078 170.311 40.168
 170.311 c 47.258 170.311 53.004 164.565 53.004 157.475 c h
53.004 157.475 m f
0.196078 0.247059 0.243137 rg
37.137 169.94 m 34.074 169.198 31.605 167.381 29.871 165.03 c 28.578 162.416
 28.113 159.385 28.863 156.33 c 30.547 149.455 37.484 145.233 44.371 146.92
 c 47.422 147.659 49.906 149.471 51.625 151.83 c 52.91 154.44 53.383 157.471
 52.641 160.526 c 50.949 167.401 44.004 171.623 37.137 169.94 c h
37.137 169.94 m f
0.27451 0.329412 0.32549 rg
37.137 169.94 m 34.074 169.198 31.605 167.381 29.871 165.03 c 28.578 162.416
 28.113 159.385 28.863 156.33 c 30.547 149.455 37.484 145.233 44.371 146.92
 c 47.422 147.659 49.906 149.471 51.625 151.83 c f
0.333333 0.376471 0.372549 rg
101.32 75.643 m 101.32 67.955 95.086 61.725 87.398 61.725 c 79.711 61.725
 73.477 67.955 73.477 75.643 c 73.477 83.33 79.711 89.565 87.398 89.565 
c 95.086 89.565 101.32 83.33 101.32 75.643 c h
101.32 75.643 m f
0.196078 0.247059 0.243137 rg
84.098 89.178 m 80.781 88.366 78.09 86.393 76.219 83.842 c 74.809 81.006
 74.297 77.717 75.117 74.397 c 76.949 66.916 84.48 62.342 91.953 64.174 
c 95.262 64.975 97.961 66.948 99.836 69.498 c 101.23 72.342 101.742 75.623
 100.914 78.952 c 99.113 86.432 91.551 91.006 84.098 89.178 c h
84.098 89.178 m f
0.27451 0.329412 0.32549 rg
84.098 89.178 m 80.781 88.366 78.09 86.393 76.219 83.842 c 74.809 81.006
 74.297 77.717 75.117 74.397 c 76.949 66.916 84.48 62.342 91.953 64.174 
c 95.262 64.975 97.961 66.948 99.836 69.498 c f
0.333333 0.376471 0.372549 rg
355.66 253.487 m 355.66 247.08 350.469 241.889 344.066 241.889 c 337.664
 241.889 332.473 247.08 332.473 253.487 c 332.473 259.889 337.664 265.08
 344.066 265.08 c 350.469 265.08 355.66 259.889 355.66 253.487 c h
355.66 253.487 m f
0.196078 0.247059 0.243137 rg
344.047 265.088 m 346.883 265.088 349.461 264.03 351.477 262.334 c 353.172
 260.315 354.23 257.741 354.23 254.909 c 354.23 248.502 349.039 243.307 
342.637 243.307 c 339.793 243.307 337.223 244.366 335.207 246.057 c 333.512
 248.077 332.445 250.651 332.445 253.487 c 332.445 259.893 337.633 265.088
 344.047 265.088 c h
344.047 265.088 m f
0.27451 0.329412 0.32549 rg
344.047 265.088 m 346.883 265.088 349.461 264.03 351.477 262.334 c 353.172
 260.315 354.23 257.741 354.23 254.909 c 354.23 248.502 349.039 243.307 
342.637 243.307 c 339.793 243.307 337.223 244.366 335.207 246.057 c f
0.333333 0.376471 0.372549 rg
350.719 157.475 m 350.719 150.389 344.977 144.647 337.891 144.647 c 330.805
 144.647 325.062 150.389 325.062 157.475 c 325.062 164.561 330.805 170.303
 337.891 170.303 c 344.977 170.303 350.719 164.561 350.719 157.475 c h
350.719 157.475 m f
0.196078 0.247059 0.243137 rg
340.961 169.94 m 344.016 169.198 346.492 167.381 348.219 165.03 c 349.512
 162.416 349.977 159.385 349.219 156.33 c 347.551 149.455 340.613 145.233
 333.727 146.92 c 330.668 147.659 328.191 149.471 326.473 151.83 c 325.188
 154.44 324.715 157.471 325.465 160.526 c 327.141 167.401 334.09 171.623
 340.961 169.94 c h
340.961 169.94 m f
0.27451 0.329412 0.32549 rg
340.961 169.94 m 344.016 169.198 346.492 167.381 348.219 165.03 c 349.512
 162.416 349.977 159.385 349.219 156.33 c 347.551 149.455 340.613 145.233
 333.727 146.92 c 330.668 147.659 328.191 149.471 326.473 151.83 c f
0.333333 0.376471 0.372549 rg
304.617 75.643 m 304.617 67.955 298.387 61.725 290.699 61.725 c 283.012
 61.725 276.777 67.955 276.777 75.643 c 276.777 83.33 283.012 89.565 290.699
 89.565 c 298.387 89.565 304.617 83.33 304.617 75.643 c h
304.617 75.643 m f
0.196078 0.247059 0.243137 rg
294 89.178 m 297.309 88.366 300.008 86.393 301.871 83.842 c 303.297 81.006
 303.793 77.717 302.973 74.397 c 301.145 66.916 293.617 62.342 286.137 64.174
 c 282.836 64.975 280.137 66.948 278.258 69.498 c 276.859 72.342 276.348
 75.623 277.176 78.952 c 278.984 86.432 286.539 91.006 294 89.178 c h
294 89.178 m f
0.27451 0.329412 0.32549 rg
294 89.178 m 297.309 88.366 300.008 86.393 301.871 83.842 c 303.297 81.006
 303.793 77.717 302.973 74.397 c 301.145 66.916 293.617 62.342 286.137 64.174
 c 282.836 64.975 280.137 66.948 278.258 69.498 c f
0.333333 0.376471 0.372549 rg
206.414 41.842 m 206.414 32.248 198.641 24.475 189.047 24.475 c 179.457
 24.475 171.68 32.248 171.68 41.842 c 171.68 51.432 179.457 59.209 189.047
 59.209 c 198.641 59.209 206.414 51.432 206.414 41.842 c h
206.414 41.842 m f
0.196078 0.247059 0.243137 rg
174.195 50.858 m 171.992 47.229 171.348 43.108 171.961 39.202 c 173.215
 35.463 175.684 32.112 179.324 29.909 c 187.531 24.928 198.211 27.53 203.191
 35.741 c 205.402 39.373 206.039 43.487 205.434 47.401 c 204.168 51.143 
201.715 54.475 198.059 56.69 c 189.875 61.678 179.156 59.057 174.195 50.858
 c h
174.195 50.858 m f
0.27451 0.329412 0.32549 rg
174.195 50.858 m 171.992 47.229 171.348 43.108 171.961 39.202 c 173.215
 35.463 175.684 32.112 179.324 29.909 c 187.531 24.928 198.211 27.53 203.191
 35.741 c 205.402 39.373 206.039 43.487 205.434 47.401 c f
Q Q
showpage
%%Trailer
end restore
%%EOF
