%!PS-Adobe-3.0 EPSF-3.0
%%Creator: cairo 1.14.2 (http://cairographics.org)
%%CreationDate: Thu Aug  4 10:37:33 2016
%%Pages: 1
%%DocumentData: Clean7Bit
%%LanguageLevel: 2
%%BoundingBox: 0 -1 404 388
%%EndComments
%%BeginProlog
save
50 dict begin
/q { gsave } bind def
/Q { grestore } bind def
/cm { 6 array astore concat } bind def
/w { setlinewidth } bind def
/J { setlinecap } bind def
/j { setlinejoin } bind def
/M { setmiterlimit } bind def
/d { setdash } bind def
/m { moveto } bind def
/l { lineto } bind def
/c { curveto } bind def
/h { closepath } bind def
/re { exch dup neg 3 1 roll 5 3 roll moveto 0 rlineto
      0 exch rlineto 0 rlineto closepath } bind def
/S { stroke } bind def
/f { fill } bind def
/f* { eofill } bind def
/n { newpath } bind def
/W { clip } bind def
/W* { eoclip } bind def
/BT { } bind def
/ET { } bind def
/pdfmark where { pop globaldict /?pdfmark /exec load put }
    { globaldict begin /?pdfmark /pop load def /pdfmark
    /cleartomark load def end } ifelse
/BDC { mark 3 1 roll /BDC pdfmark } bind def
/EMC { mark /EMC pdfmark } bind def
/cairo_store_point { /cairo_point_y exch def /cairo_point_x exch def } def
/Tj { show currentpoint cairo_store_point } bind def
/TJ {
  {
    dup
    type /stringtype eq
    { show } { -0.001 mul 0 cairo_font_matrix dtransform rmoveto } ifelse
  } forall
  currentpoint cairo_store_point
} bind def
/cairo_selectfont { cairo_font_matrix aload pop pop pop 0 0 6 array astore
    cairo_font exch selectfont cairo_point_x cairo_point_y moveto } bind def
/Tf { pop /cairo_font exch def /cairo_font_matrix where
      { pop cairo_selectfont } if } bind def
/Td { matrix translate cairo_font_matrix matrix concatmatrix dup
      /cairo_font_matrix exch def dup 4 get exch 5 get cairo_store_point
      /cairo_font where { pop cairo_selectfont } if } bind def
/Tm { 2 copy 8 2 roll 6 array astore /cairo_font_matrix exch def
      cairo_store_point /cairo_font where { pop cairo_selectfont } if } bind def
/g { setgray } bind def
/rg { setrgbcolor } bind def
/d1 { setcachedevice } bind def
%%EndProlog
%%BeginSetup
%%EndSetup
%%Page: 1 1
%%BeginPageSetup
%%PageBoundingBox: 0 -1 404 388
%%EndPageSetup
q 0 -1 404 389 rectclip q
0.956863 0.611765 0 rg
377.992 336.604 m 272.836 317.698 l 272.836 379.929 l 377.992 361.022 l
 h
377.992 336.604 m f
0.94902 0.541176 0 rg
377.992 336.604 m 272.836 317.698 l 272.836 356.694 l 377.992 361.022 l
 h
377.992 336.604 m f
0.0784314 0.552941 0.878431 rg
264.273 367.229 m 264.273 329.421 l 193.383 329.421 l 193.383 232.534 l
 264.273 232.534 l 264.273 194.726 l 193.383 194.726 l 172.531 194.726 155.57
 211.683 155.57 232.534 c 155.57 329.421 l 155.57 350.272 172.531 367.229
 193.383 367.229 c h
264.273 367.229 m f
0.0156863 0.458824 0.729412 rg
218.977 341.628 m 198.125 341.628 181.168 324.667 181.168 303.815 c 181.168
 206.929 l 181.168 203.226 181.723 199.659 182.719 196.276 c 186.102 195.284
 189.676 194.726 193.375 194.726 c 264.266 194.726 l 264.266 206.929 l 218.977
 206.929 l 218.977 232.526 l 193.383 232.526 l 193.383 329.421 l 264.273
 329.421 l 264.273 341.628 l h
218.977 341.628 m f
0.345098 0.392157 0.407843 rg
403.297 -0.001 m 403.297 15.284 l 403.297 25.843 394.734 34.409 384.172
 34.409 c 19.125 34.409 l 8.562 34.409 0 25.843 0 15.28 c 0 -0.001 l h
403.297 -0.001 m f
0.109804 0.65098 0.956863 rg
281.465 211.89 m 281.465 201.448 273.008 192.983 262.559 192.983 c 18.906
 192.983 l 8.469 192.987 0 201.448 0 211.89 c 0 213.987 l 0 224.429 8.469
 232.893 18.906 232.893 c 262.559 232.893 l 273.008 232.893 281.465 224.429
 281.465 213.987 c h
281.465 211.89 m f
0.0784314 0.552941 0.878431 rg
18.906 217.663 m 10.781 217.663 3.914 212.515 1.242 205.323 c 3.914 198.132
 10.781 192.987 18.906 192.987 c 262.559 192.987 l 270.688 192.987 277.559
 198.132 280.234 205.323 c 277.559 212.515 270.688 217.663 262.559 217.663
 c h
18.906 217.663 m f
0.313726 0.788235 1 rg
85.078 223.964 m 23.113 223.964 l 21.375 223.964 19.965 225.374 19.965 
227.116 c 19.965 228.854 21.375 230.265 23.113 230.265 c 85.078 230.265 
l 86.816 230.265 88.227 228.854 88.227 227.116 c 88.227 225.374 86.816 223.964
 85.078 223.964 c h
85.078 223.964 m f
100.832 223.964 m 95.848 223.964 l 94.105 223.964 92.695 225.374 92.695
 227.116 c 92.695 228.854 94.105 230.265 95.848 230.265 c 100.832 230.265
 l 102.57 230.265 103.98 228.854 103.98 227.116 c 103.98 225.374 102.57 
223.964 100.832 223.964 c h
100.832 223.964 m f
0.109804 0.65098 0.956863 rg
281.465 171.718 m 281.465 161.276 273.008 152.811 262.559 152.811 c 18.906
 152.811 l 8.469 152.811 0 161.276 0 171.718 c 0 173.815 l 0 184.257 8.469
 192.722 18.906 192.722 c 262.559 192.722 l 273.008 192.722 281.465 184.257
 281.465 173.815 c h
281.465 171.718 m f
0.0784314 0.552941 0.878431 rg
18.906 177.491 m 10.781 177.491 3.914 172.343 1.242 165.151 c 3.914 157.96
 10.781 152.811 18.906 152.811 c 262.559 152.811 l 270.688 152.811 277.559
 157.96 280.234 165.151 c 277.559 172.343 270.688 177.491 262.559 177.491
 c h
18.906 177.491 m f
0.313726 0.788235 1 rg
85.078 183.792 m 23.113 183.792 l 21.375 183.792 19.965 185.202 19.965 
186.94 c 19.965 188.683 21.375 190.093 23.113 190.093 c 85.078 190.093 l
 86.816 190.093 88.227 188.683 88.227 186.94 c 88.227 185.202 86.816 183.792
 85.078 183.792 c h
85.078 183.792 m f
100.832 183.792 m 95.848 183.792 l 94.105 183.792 92.695 185.202 92.695
 186.94 c 92.695 188.683 94.105 190.093 95.848 190.093 c 100.832 190.093
 l 102.57 190.093 103.98 188.683 103.98 186.94 c 103.98 185.202 102.57 183.792
 100.832 183.792 c h
100.832 183.792 m f
0.109804 0.65098 0.956863 rg
281.465 131.546 m 281.465 121.104 273.008 112.64 262.559 112.64 c 18.906
 112.64 l 8.469 112.64 0 121.104 0 131.546 c 0 133.643 l 0 144.085 8.469
 152.55 18.906 152.55 c 262.559 152.55 l 273.008 152.55 281.465 144.085 
281.465 133.643 c h
281.465 131.546 m f
0.0784314 0.552941 0.878431 rg
18.906 137.319 m 10.781 137.319 3.914 132.171 1.242 124.979 c 3.914 117.788
 10.781 112.64 18.906 112.64 c 262.559 112.64 l 270.688 112.64 277.559 117.788
 280.234 124.979 c 277.559 132.171 270.688 137.319 262.559 137.319 c h
18.906 137.319 m f
0.313726 0.788235 1 rg
85.078 143.62 m 23.113 143.62 l 21.375 143.62 19.965 145.03 19.965 146.768
 c 19.965 148.511 21.375 149.921 23.113 149.921 c 85.078 149.921 l 86.816
 149.921 88.227 148.511 88.227 146.768 c 88.227 145.03 86.816 143.62 85.078
 143.62 c h
85.078 143.62 m f
100.832 143.62 m 95.848 143.62 l 94.105 143.62 92.695 145.03 92.695 146.768
 c 92.695 148.511 94.105 149.921 95.848 149.921 c 100.832 149.921 l 102.57
 149.921 103.98 148.511 103.98 146.768 c 103.98 145.03 102.57 143.62 100.832
 143.62 c h
100.832 143.62 m f
0.109804 0.65098 0.956863 rg
281.465 91.374 m 281.465 80.933 273.008 72.468 262.559 72.468 c 18.906 
72.468 l 8.469 72.468 0 80.933 0 91.374 c 0 93.472 l 0 103.913 8.469 112.378
 18.906 112.378 c 262.559 112.378 l 273.008 112.378 281.465 103.913 281.465
 93.472 c h
281.465 91.374 m f
0.0784314 0.552941 0.878431 rg
18.906 97.147 m 10.781 97.147 3.914 91.999 1.242 84.808 c 3.914 77.616 
10.781 72.468 18.906 72.468 c 262.559 72.468 l 270.688 72.468 277.559 77.616
 280.234 84.808 c 277.559 91.999 270.688 97.147 262.559 97.147 c h
18.906 97.147 m f
0.313726 0.788235 1 rg
85.078 103.448 m 23.113 103.448 l 21.375 103.448 19.965 104.858 19.965 
106.597 c 19.965 108.335 21.375 109.749 23.113 109.749 c 85.078 109.749 
l 86.816 109.749 88.227 108.335 88.227 106.597 c 88.227 104.858 86.816 103.448
 85.078 103.448 c h
85.078 103.448 m f
100.832 103.448 m 95.848 103.448 l 94.105 103.448 92.695 104.858 92.695
 106.597 c 92.695 108.335 94.105 109.749 95.848 109.749 c 100.832 109.749
 l 102.57 109.749 103.98 108.335 103.98 106.597 c 103.98 104.858 102.57 
103.448 100.832 103.448 c h
100.832 103.448 m f
0.109804 0.65098 0.956863 rg
281.465 51.202 m 281.465 40.761 273.008 32.296 262.559 32.296 c 18.906 
32.296 l 8.469 32.296 0 40.761 0 51.202 c 0 53.3 l 0 63.741 8.469 72.202
 18.906 72.202 c 262.559 72.202 l 273.008 72.202 281.465 63.741 281.465 
53.3 c h
281.465 51.202 m f
0.0784314 0.552941 0.878431 rg
18.906 56.972 m 10.781 56.972 3.914 51.823 1.242 44.636 c 3.914 37.444 
10.781 32.296 18.906 32.296 c 262.559 32.296 l 270.688 32.296 277.559 37.444
 280.234 44.636 c 277.559 51.823 270.688 56.972 262.559 56.972 c h
18.906 56.972 m f
0.313726 0.788235 1 rg
85.078 63.276 m 23.113 63.276 l 21.375 63.276 19.965 64.686 19.965 66.425
 c 19.965 68.163 21.375 69.577 23.113 69.577 c 85.078 69.577 l 86.816 69.577
 88.227 68.163 88.227 66.425 c 88.227 64.686 86.816 63.276 85.078 63.276
 c h
85.078 63.276 m f
100.832 63.276 m 95.848 63.276 l 94.105 63.276 92.695 64.686 92.695 66.425
 c 92.695 68.163 94.105 69.577 95.848 69.577 c 100.832 69.577 l 102.57 69.577
 103.98 68.163 103.98 66.425 c 103.98 64.686 102.57 63.276 100.832 63.276
 c h
100.832 63.276 m f
0.0156863 0.458824 0.729412 rg
268.898 322.034 m 268.898 318.335 265.898 315.343 262.207 315.343 c 258.508
 315.343 255.516 318.343 255.516 322.034 c 255.516 375.597 l 255.516 379.296
 258.516 382.288 262.207 382.288 c 265.906 382.288 268.898 379.292 268.898
 375.597 c h
268.898 322.034 m f
0.94902 0.541176 0 rg
276.531 318.253 m 276.531 314.03 273.121 310.608 268.898 310.608 c 264.676
 310.608 261.254 314.03 261.254 318.253 c 261.254 379.378 l 261.254 383.601
 264.676 387.022 268.898 387.022 c 273.121 387.022 276.531 383.601 276.531
 379.378 c h
276.531 318.253 m f
378.938 336.37 m 378.938 334.655 377.543 333.257 375.832 333.257 c 374.109
 333.257 372.719 334.655 372.719 336.37 c 372.719 361.261 l 372.719 362.976
 374.109 364.374 375.832 364.374 c 377.543 364.374 378.938 362.976 378.938
 361.261 c h
378.938 336.37 m f
0.956863 0.611765 0 rg
265.492 386.12 m 263 384.862 261.258 382.354 261.258 379.378 c 261.258 
318.261 l 261.258 315.28 263 312.78 265.492 311.518 c 267.969 312.78 269.711
 315.288 269.711 318.261 c 269.711 379.378 l 269.711 382.354 267.961 384.862
 265.492 386.12 c h
265.492 386.12 m f
0.313726 0.788235 1 rg
167.418 268.604 m 167.418 267.003 166.129 265.71 164.527 265.71 c 162.926
 265.71 161.648 267.003 161.648 268.604 c 161.648 328.468 l 161.648 330.061
 162.926 331.354 164.527 331.354 c 166.129 331.354 167.418 330.061 167.418
 328.468 c h
167.418 268.604 m f
182.129 338.179 m 182.129 334.409 179.07 331.354 175.301 331.354 c 171.531
 331.354 168.477 334.409 168.477 338.179 c 168.477 341.948 171.531 345.003
 175.301 345.003 c 179.07 345.003 182.129 341.948 182.129 338.179 c h
182.129 338.179 m f
186.855 351.569 m 186.855 349.976 185.562 348.683 183.969 348.683 c 182.375
 348.683 181.082 349.976 181.082 351.569 c 181.082 353.163 182.375 354.456
 183.969 354.456 c 185.562 354.456 186.855 353.163 186.855 351.569 c h
186.855 351.569 m f
Q Q
showpage
%%Trailer
end restore
%%EOF
