%!PS-Adobe-3.0 EPSF-3.0
%%Creator: cairo 1.14.2 (http://cairographics.org)
%%CreationDate: Thu Aug  4 10:34:58 2016
%%Pages: 1
%%DocumentData: Clean7Bit
%%LanguageLevel: 2
%%BoundingBox: 0 -1 274 404
%%EndComments
%%BeginProlog
save
50 dict begin
/q { gsave } bind def
/Q { grestore } bind def
/cm { 6 array astore concat } bind def
/w { setlinewidth } bind def
/J { setlinecap } bind def
/j { setlinejoin } bind def
/M { setmiterlimit } bind def
/d { setdash } bind def
/m { moveto } bind def
/l { lineto } bind def
/c { curveto } bind def
/h { closepath } bind def
/re { exch dup neg 3 1 roll 5 3 roll moveto 0 rlineto
      0 exch rlineto 0 rlineto closepath } bind def
/S { stroke } bind def
/f { fill } bind def
/f* { eofill } bind def
/n { newpath } bind def
/W { clip } bind def
/W* { eoclip } bind def
/BT { } bind def
/ET { } bind def
/pdfmark where { pop globaldict /?pdfmark /exec load put }
    { globaldict begin /?pdfmark /pop load def /pdfmark
    /cleartomark load def end } ifelse
/BDC { mark 3 1 roll /BDC pdfmark } bind def
/EMC { mark /EMC pdfmark } bind def
/cairo_store_point { /cairo_point_y exch def /cairo_point_x exch def } def
/Tj { show currentpoint cairo_store_point } bind def
/TJ {
  {
    dup
    type /stringtype eq
    { show } { -0.001 mul 0 cairo_font_matrix dtransform rmoveto } ifelse
  } forall
  currentpoint cairo_store_point
} bind def
/cairo_selectfont { cairo_font_matrix aload pop pop pop 0 0 6 array astore
    cairo_font exch selectfont cairo_point_x cairo_point_y moveto } bind def
/Tf { pop /cairo_font exch def /cairo_font_matrix where
      { pop cairo_selectfont } if } bind def
/Td { matrix translate cairo_font_matrix matrix concatmatrix dup
      /cairo_font_matrix exch def dup 4 get exch 5 get cairo_store_point
      /cairo_font where { pop cairo_selectfont } if } bind def
/Tm { 2 copy 8 2 roll 6 array astore /cairo_font_matrix exch def
      cairo_store_point /cairo_font where { pop cairo_selectfont } if } bind def
/g { setgray } bind def
/rg { setrgbcolor } bind def
/d1 { setcachedevice } bind def
%%EndProlog
%%BeginSetup
%%EndSetup
%%Page: 1 1
%%BeginPageSetup
%%PageBoundingBox: 0 -1 274 404
%%EndPageSetup
q 0 -1 274 405 rectclip q
0.262745 0.647059 0.184314 rg
167.383 28.357 m 165.277 28.357 l 136.77 20.673 l 108.262 28.357 l 106.156
 28.357 l 106.156 28.357 95.086 19.193 97.719 10.763 c 107.203 13.021 l 
114.582 0.185 l 118.801 7.474 l 125.648 2.677 l 128.812 8.451 l 136.035 
1.228 l 136.316 0.005 l 136.777 0.466 l 137.238 0.002 l 137.516 1.216 l 
144.734 8.431 l 147.898 2.634 l 154.742 7.384 l 158.965 0.002 l 166.352 
12.654 l 175.82 10.763 l 178.453 19.193 167.383 28.357 167.383 28.357 c 
h
167.383 28.357 m f
136.152 256.572 m 136.152 256.572 146.684 309.779 128.242 370.896 c 128.242
 370.896 130.879 326.638 126.664 309.783 c 122.441 292.927 128.766 289.763
 130.348 280.81 c 131.926 271.849 136.152 256.572 136.152 256.572 c h
136.152 256.572 m f
140.562 251.041 m 140.562 251.041 120.539 264.216 120.016 312.154 c 119.492
 360.087 107.898 403.298 107.898 403.298 c 107.898 403.298 123.18 371.685
 126.34 349.564 c 129.5 327.435 130.559 288.974 130.559 288.974 c 137.93
 274.224 l h
140.562 251.041 m f
137.984 245.771 m 137.984 245.771 123.758 282.919 142.723 327.169 c 161.691
 371.419 188.555 375.369 188.555 375.369 c 188.555 375.369 149.039 357.197
 147.465 297.931 c 147.465 297.931 144.301 283.701 142.719 271.849 c 141.137
 259.994 137.984 245.771 137.984 245.771 c h
137.984 245.771 m f
0.847059 0.290196 0.505882 rg
74.938 19.224 m 100.617 19.224 123.289 32.189 136.77 51.892 c 150.254 32.189
 172.895 19.224 198.602 19.224 c 239.945 19.224 274.961 52.787 273.469 94.095
 c 270.707 170.834 174.105 173.134 141.281 256.775 c 139.629 261.017 138.125
 262.724 136.762 262.599 c 135.391 262.728 133.883 261.017 132.23 256.775
 c 99.422 173.134 2.816 170.83 0.047 94.095 c -1.434 52.787 33.574 19.224
 74.938 19.224 c h
74.938 19.224 m f
0.776471 0.235294 0.454902 rg
136.777 126.716 m 87.062 126.716 41.855 128.341 8.098 126.064 c 3.43 116.892
 0.52 106.47 0.066 94.087 c -0.621 74.826 6.668 57.314 18.793 44.037 c 25.977
 41.994 33.562 40.123 41.527 38.47 c 44.965 38.127 48.43 37.955 51.918 37.955
 c 87.176 37.955 118.262 55.724 136.777 82.779 c 155.285 55.724 186.352 
37.955 221.625 37.955 c 225.117 37.955 228.582 38.138 232.012 38.47 c 239.977
 40.123 247.562 41.994 254.723 44.025 c 266.867 57.302 274.176 74.834 273.477
 94.091 c 273.035 106.47 270.117 116.896 265.449 126.064 c 231.691 128.341
 186.488 126.716 136.777 126.716 c h
136.777 126.716 m f
0.658824 0.176471 0.396078 rg
136.777 83.923 m 71.883 83.923 17.48 87.748 2.812 72.107 c 8.957 51.111
 24.754 34.068 44.949 25.416 c 51.824 23.22 59.344 21.279 67.371 19.619 
c 69.867 19.357 72.395 19.228 74.945 19.228 c 100.625 19.228 123.297 32.189
 136.777 51.892 c 150.262 32.189 172.902 19.228 198.605 19.228 c 201.152
 19.228 203.684 19.357 206.176 19.619 c 214.188 21.267 221.703 23.22 228.582
 25.4 c 248.766 34.068 264.578 51.111 270.727 72.107 c 256.047 87.755 201.656
 83.923 136.777 83.923 c h
136.777 83.923 m f
196.426 41.892 m 196.426 25.306 169.719 11.861 136.77 11.861 c 103.824 
11.861 77.113 25.306 77.113 41.892 c 77.113 58.478 103.824 71.927 136.77
 71.927 c 169.719 71.927 196.426 58.478 196.426 41.892 c h
196.426 41.892 m f
Q Q
showpage
%%Trailer
end restore
%%EOF
