%!PS-Adobe-3.0 EPSF-3.0
%%Creator: cairo 1.14.2 (http://cairographics.org)
%%CreationDate: Thu Aug  4 10:35:07 2016
%%Pages: 1
%%DocumentData: Clean7Bit
%%LanguageLevel: 2
%%BoundingBox: 0 -1 358 404
%%EndComments
%%BeginProlog
save
50 dict begin
/q { gsave } bind def
/Q { grestore } bind def
/cm { 6 array astore concat } bind def
/w { setlinewidth } bind def
/J { setlinecap } bind def
/j { setlinejoin } bind def
/M { setmiterlimit } bind def
/d { setdash } bind def
/m { moveto } bind def
/l { lineto } bind def
/c { curveto } bind def
/h { closepath } bind def
/re { exch dup neg 3 1 roll 5 3 roll moveto 0 rlineto
      0 exch rlineto 0 rlineto closepath } bind def
/S { stroke } bind def
/f { fill } bind def
/f* { eofill } bind def
/n { newpath } bind def
/W { clip } bind def
/W* { eoclip } bind def
/BT { } bind def
/ET { } bind def
/pdfmark where { pop globaldict /?pdfmark /exec load put }
    { globaldict begin /?pdfmark /pop load def /pdfmark
    /cleartomark load def end } ifelse
/BDC { mark 3 1 roll /BDC pdfmark } bind def
/EMC { mark /EMC pdfmark } bind def
/cairo_store_point { /cairo_point_y exch def /cairo_point_x exch def } def
/Tj { show currentpoint cairo_store_point } bind def
/TJ {
  {
    dup
    type /stringtype eq
    { show } { -0.001 mul 0 cairo_font_matrix dtransform rmoveto } ifelse
  } forall
  currentpoint cairo_store_point
} bind def
/cairo_selectfont { cairo_font_matrix aload pop pop pop 0 0 6 array astore
    cairo_font exch selectfont cairo_point_x cairo_point_y moveto } bind def
/Tf { pop /cairo_font exch def /cairo_font_matrix where
      { pop cairo_selectfont } if } bind def
/Td { matrix translate cairo_font_matrix matrix concatmatrix dup
      /cairo_font_matrix exch def dup 4 get exch 5 get cairo_store_point
      /cairo_font where { pop cairo_selectfont } if } bind def
/Tm { 2 copy 8 2 roll 6 array astore /cairo_font_matrix exch def
      cairo_store_point /cairo_font where { pop cairo_selectfont } if } bind def
/g { setgray } bind def
/rg { setrgbcolor } bind def
/d1 { setcachedevice } bind def
%%EndProlog
%%BeginSetup
%%EndSetup
%%Page: 1 1
%%BeginPageSetup
%%PageBoundingBox: 0 -1 358 404
%%EndPageSetup
q 0 -1 358 405 rectclip q
0.258824 0.537255 0.180392 rg
285.418 402.762 m 279.582 404.656 273.27 401.43 271.422 395.66 c 269.539
 389.824 272.703 383.559 278.539 381.664 c 299.598 374.781 312.422 354.227
 310.438 333.047 c 280.801 319.531 253.809 234.641 188.191 169.012 c 130.734
 111.559 58.527 83.734 32.363 57.797 c 28.211 58.961 23.516 59.094 18.758
 57.953 c 6.129 54.91 -2.07 43.977 0.457 33.523 c 2.973 23.066 15.246 17.074
 27.895 20.125 c 28.941 20.383 29.91 20.77 30.898 21.121 c 31.297 20.688
 31.617 20.277 32.047 19.844 c 76.379 -24.477 180.648 7.938 264.965 92.246
 c 349.262 176.563 381.68 280.84 337.355 325.164 c 335.676 326.852 334.035
 328.227 332.434 329.457 c 336.121 361.27 317.039 392.445 285.418 402.762
 c h
285.418 402.762 m f
0.341176 0.686275 0.227451 rg
244.473 111.156 m 328.785 195.465 361.203 299.742 316.875 344.066 c 315.195
 345.758 313.562 347.129 311.949 348.359 c 313.945 365.613 309.207 382.645
 299.453 396.301 c 295.109 398.91 290.441 401.129 285.418 402.762 c 279.582
 404.656 273.27 401.43 271.422 395.66 c 271.227 395.047 271.113 394.43 271.031
 393.813 c 276.34 389.926 280.629 384.996 283.836 379.406 c 301.664 371.027
 312.238 352.359 310.441 333.051 c 280.805 319.535 253.816 234.648 188.199
 169.016 c 130.742 111.566 58.531 83.738 32.367 57.801 c 28.215 58.965 23.52
 59.098 18.762 57.957 c 8.082 55.383 0.648 47.145 0.117 38.344 c 2.492 38.277
 4.938 38.441 7.414 39.035 c 8.461 39.293 9.438 39.676 10.418 40.031 c 10.816
 39.594 11.133 39.188 11.574 38.75 c 55.891 -5.574 160.164 26.848 244.473
 111.156 c h
244.473 111.156 m f
0.258824 0.356863 0.211765 rg
274.832 232.289 m 287.145 251.012 292.199 269.438 305.199 260.867 c 318.207
 252.313 318.773 230.191 306.461 211.477 c 294.145 192.754 273.609 184.531
 260.59 193.09 c 247.598 201.66 262.523 213.582 274.832 232.289 c h
274.832 232.289 m f
0.14902 0.227451 0.117647 rg
287.102 224.231 m 299.422 242.934 292.207 269.438 305.207 260.867 c 318.211
 252.313 318.777 230.191 306.465 211.477 c 294.152 192.754 273.617 184.531
 260.598 193.09 c 247.598 201.66 274.789 205.508 287.102 224.231 c h
287.102 224.231 m f
0.258824 0.356863 0.211765 rg
204.172 145.656 m 220.07 161.441 228.805 178.43 239.77 167.371 c 250.742
 156.313 246.734 134.555 230.836 118.773 c 214.926 102.996 193.145 99.172
 182.156 110.231 c 171.203 121.297 188.262 129.883 204.172 145.656 c h
204.172 145.656 m f
0.14902 0.227451 0.117647 rg
214.5 135.246 m 230.414 151.012 228.805 178.438 239.77 167.379 c 250.742
 156.32 246.734 134.559 230.836 118.781 c 214.922 103 193.145 99.176 182.156
 110.234 c 171.203 121.297 198.602 119.461 214.5 135.246 c h
214.5 135.246 m f
0.258824 0.356863 0.211765 rg
119.273 78.949 m 138.352 90.676 150.734 105.227 158.895 91.949 c 167.043
 78.68 158.18 58.406 139.078 46.672 c 119.992 34.957 97.91 36.207 89.75 
49.477 c 81.613 62.766 100.18 67.227 119.273 78.949 c h
119.273 78.949 m f
0.14902 0.227451 0.117647 rg
126.961 66.445 m 146.047 78.16 150.738 105.227 158.895 91.957 c 167.043
 78.684 158.18 58.414 139.078 46.68 c 119.992 34.965 97.91 36.211 89.75 
49.484 c 81.613 62.766 107.859 54.719 126.961 66.445 c h
126.961 66.445 m f
Q Q
showpage
%%Trailer
end restore
%%EOF
