%!PS-Adobe-3.0 EPSF-3.0
%%Creator: cairo 1.14.2 (http://cairographics.org)
%%CreationDate: Thu Aug  4 10:35:15 2016
%%Pages: 1
%%DocumentData: Clean7Bit
%%LanguageLevel: 2
%%BoundingBox: 0 -1 303 398
%%EndComments
%%BeginProlog
save
50 dict begin
/q { gsave } bind def
/Q { grestore } bind def
/cm { 6 array astore concat } bind def
/w { setlinewidth } bind def
/J { setlinecap } bind def
/j { setlinejoin } bind def
/M { setmiterlimit } bind def
/d { setdash } bind def
/m { moveto } bind def
/l { lineto } bind def
/c { curveto } bind def
/h { closepath } bind def
/re { exch dup neg 3 1 roll 5 3 roll moveto 0 rlineto
      0 exch rlineto 0 rlineto closepath } bind def
/S { stroke } bind def
/f { fill } bind def
/f* { eofill } bind def
/n { newpath } bind def
/W { clip } bind def
/W* { eoclip } bind def
/BT { } bind def
/ET { } bind def
/pdfmark where { pop globaldict /?pdfmark /exec load put }
    { globaldict begin /?pdfmark /pop load def /pdfmark
    /cleartomark load def end } ifelse
/BDC { mark 3 1 roll /BDC pdfmark } bind def
/EMC { mark /EMC pdfmark } bind def
/cairo_store_point { /cairo_point_y exch def /cairo_point_x exch def } def
/Tj { show currentpoint cairo_store_point } bind def
/TJ {
  {
    dup
    type /stringtype eq
    { show } { -0.001 mul 0 cairo_font_matrix dtransform rmoveto } ifelse
  } forall
  currentpoint cairo_store_point
} bind def
/cairo_selectfont { cairo_font_matrix aload pop pop pop 0 0 6 array astore
    cairo_font exch selectfont cairo_point_x cairo_point_y moveto } bind def
/Tf { pop /cairo_font exch def /cairo_font_matrix where
      { pop cairo_selectfont } if } bind def
/Td { matrix translate cairo_font_matrix matrix concatmatrix dup
      /cairo_font_matrix exch def dup 4 get exch 5 get cairo_store_point
      /cairo_font where { pop cairo_selectfont } if } bind def
/Tm { 2 copy 8 2 roll 6 array astore /cairo_font_matrix exch def
      cairo_store_point /cairo_font where { pop cairo_selectfont } if } bind def
/g { setgray } bind def
/rg { setrgbcolor } bind def
/d1 { setcachedevice } bind def
%%EndProlog
%%BeginSetup
%%EndSetup
%%Page: 1 1
%%BeginPageSetup
%%PageBoundingBox: 0 -1 303 398
%%EndPageSetup
q 0 -1 303 399 rectclip q
0.713726 0.717647 0.517647 rg
267.508 369.701 m 267.508 351.876 215.457 337.427 151.238 337.427 c 87.012
 337.427 34.969 351.876 34.969 369.701 c 34.969 387.533 87.012 397.697 151.238
 397.697 c 215.457 397.705 267.508 387.533 267.508 369.701 c h
267.508 369.701 m f
0.156863 0.686275 0.537255 rg
286.719 46.044 m 286.719 20.884 268.457 0.591 243.301 0.591 c 59.172 0.591
 l 34.008 0.591 15.754 20.884 15.754 46.044 c 15.754 290.931 l 15.754 316.08
 34.008 334.576 59.172 334.576 c 243.301 334.576 l 268.457 334.576 286.719
 316.08 286.719 290.931 c h
286.719 46.044 m f
0.101961 0.588235 0.517647 rg
13.605 289.978 m 13.605 315.126 34.008 334.576 59.164 334.576 c 243.301
 334.576 l 268.457 334.576 286.719 316.08 286.719 290.931 c 286.719 46.044
 l 286.719 20.884 267.387 0.001 242.23 0.001 c f
13.605 289.978 m 13.605 315.126 34.008 334.576 59.164 334.576 c 243.301
 334.576 l 268.457 334.576 286.719 316.08 286.719 290.931 c 286.719 46.044
 l 286.719 20.884 267.387 0.001 242.23 0.001 c f
0.713726 0.717647 0.517647 rg
302.473 293.462 m 302.473 253.97 58.219 328.896 31.645 256.763 c 2.766 
178.384 0 253.97 0 293.462 c 0 317.459 25.004 338.697 63.363 351.666 c 88.133
 360.037 117.82 350.404 150.602 350.404 c 185.43 350.404 218.152 359.396
 243.719 350.037 c 279.461 336.955 302.473 316.482 302.473 293.462 c h
302.473 293.462 m f
0.760784 0.776471 0.576471 rg
110.434 308.005 m 181.98 308.005 263.977 292.884 302.078 298.396 c 299.059
 319.396 276.883 337.908 243.719 350.037 c 218.152 359.388 185.43 350.404
 150.602 350.404 c 117.82 350.404 88.133 360.041 63.363 351.666 c 27.312
 339.462 3.082 319.998 0.285 297.779 c 22.363 299.986 58.219 308.005 110.434
 308.005 c h
110.434 308.005 m f
0.101961 0.588235 0.517647 rg
166.426 58.865 m 166.426 40.255 151.34 25.169 132.73 25.169 c 114.121 25.169
 99.035 40.255 99.035 58.865 c 99.035 77.47 114.121 92.556 132.73 92.556
 c 151.34 92.556 166.426 77.47 166.426 58.865 c h
166.426 58.865 m f
73.406 56.927 m 73.406 46.709 65.121 38.419 54.898 38.419 c 44.676 38.419
 36.391 46.709 36.391 56.927 c 36.391 67.15 44.676 75.435 54.898 75.435 
c 65.121 75.435 73.406 67.15 73.406 56.927 c h
73.406 56.927 m f
0.156863 0.686275 0.537255 rg
214.832 246.787 m 214.832 241.283 210.367 236.818 204.863 236.818 c 199.359
 236.818 194.895 241.283 194.895 246.787 c 194.895 252.294 199.359 256.755
 204.863 256.755 c 210.367 256.755 214.832 252.294 214.832 246.787 c h
214.832 246.787 m f
0.0509804 0.490196 0.498039 rg
240.453 113.896 m 240.453 103.673 232.168 95.388 221.945 95.388 c 211.727
 95.388 203.438 103.673 203.438 113.896 c 203.438 124.115 211.727 132.404
 221.945 132.404 c 232.168 132.404 240.453 124.115 240.453 113.896 c h
240.453 113.896 m f
0.101961 0.588235 0.517647 rg
106.406 179.341 m 79.77 154.47 65.906 126.044 54.629 138.119 c 43.359 150.177
 55.805 180.119 82.426 204.99 c 109.043 229.861 139.77 240.248 151.027 228.197
 c 162.309 216.123 133.02 204.209 106.406 179.341 c h
106.406 179.341 m f
78.566 230.341 m 55.945 215.779 42.125 196.955 35.508 207.201 c 28.918 
217.455 41.906 237.576 64.523 252.138 c 87.145 266.701 110.824 270.185 117.418
 259.959 c 124.02 249.701 101.176 244.904 78.566 230.341 c h
78.566 230.341 m f
169.504 143.873 m 131.348 121.697 107.281 91.884 97.207 109.193 c 87.168
 126.478 109.957 158.49 148.117 180.666 c 186.305 202.841 225.387 206.791
 235.438 189.501 c 245.488 172.189 207.672 166.044 169.504 143.873 c h
169.504 143.873 m f
0.0509804 0.490196 0.498039 rg
82.426 204.998 m 82.262 204.845 82.102 204.681 81.934 204.525 c 103.832
 176.849 l 104.676 177.685 105.52 178.509 106.406 179.341 c 133.02 204.201
 162.309 216.126 151.031 228.197 c 139.77 240.248 109.043 229.869 82.426
 204.998 c h
82.426 204.998 m f
64.523 252.138 m 59.859 249.13 55.625 245.888 51.875 242.552 c 67.66 222.603
 l 71.043 225.193 74.672 227.837 78.574 230.349 c 101.184 244.912 124.027
 249.705 117.422 259.966 c 110.82 270.185 87.145 266.701 64.523 252.138 
c h
64.523 252.138 m f
148.117 180.666 m 136.609 173.974 126.527 166.369 118.281 158.568 c 143.512
 126.662 l 151.293 132.306 159.965 138.337 169.504 143.873 c 207.672 166.044
 245.488 172.189 235.445 189.501 c 225.387 206.791 186.305 202.841 148.117
 180.666 c h
148.117 180.666 m f
0.156863 0.686275 0.537255 rg
149.34 266.72 m 149.34 264.884 147.852 263.4 146.02 263.4 c 144.184 263.4
 142.699 264.884 142.699 266.72 c 142.699 268.552 144.184 270.041 146.02
 270.041 c 147.852 270.041 149.34 268.552 149.34 266.72 c h
149.34 266.72 m f
184.453 246.787 m 184.453 242.857 181.266 239.673 177.336 239.673 c 173.41
 239.673 170.223 242.857 170.223 246.787 c 170.223 250.716 173.41 253.9 
177.336 253.9 c 181.266 253.9 184.453 250.716 184.453 246.787 c h
184.453 246.787 m f
269.863 233.056 m 269.863 228.865 266.465 225.462 262.27 225.462 c 258.078
 225.462 254.676 228.865 254.676 233.056 c 254.676 237.251 258.078 240.65
 262.27 240.65 c 266.465 240.65 269.863 237.251 269.863 233.056 c h
269.863 233.056 m f
0.101961 0.588235 0.517647 rg
47.789 115.326 m 47.789 111.658 44.816 108.685 41.148 108.685 c 37.48 108.685
 34.508 111.658 34.508 115.326 c 34.508 118.994 37.48 121.966 41.148 121.966
 c 44.816 121.966 47.789 118.994 47.789 115.326 c h
47.789 115.326 m f
0.0509804 0.490196 0.498039 rg
229.992 62.662 m 229.992 60.302 228.082 58.392 225.723 58.392 c 223.359
 58.392 221.449 60.302 221.449 62.662 c 221.449 65.025 223.359 66.935 225.723
 66.935 c 228.082 66.935 229.992 65.025 229.992 62.662 c h
229.992 62.662 m f
274.629 75.959 m 274.629 70.978 270.59 66.943 265.609 66.943 c 260.629 
66.943 256.594 70.978 256.594 75.959 c 256.594 80.939 260.629 84.978 265.609
 84.978 c 270.59 84.978 274.629 80.939 274.629 75.959 c h
274.629 75.959 m f
0.843137 0.866667 0.670588 rg
212.266 319.162 m 212.266 314.314 176.02 317.623 131.297 317.623 c 86.59
 317.623 50.344 314.322 50.344 319.162 c 50.344 324.013 86.59 327.943 131.297
 327.943 c 176.02 327.939 212.266 324.005 212.266 319.162 c h
212.266 319.162 m f
244.746 314.181 m 244.746 310.775 241.984 308.013 238.574 308.013 c 235.168
 308.013 232.406 310.775 232.406 314.181 c 232.406 317.591 235.168 320.353
 238.574 320.353 c 241.984 320.353 244.746 317.591 244.746 314.181 c h
244.746 314.181 m f
261.816 308.99 m 261.816 307.154 260.328 305.662 258.488 305.662 c 256.652
 305.662 255.16 307.154 255.16 308.99 c 255.16 310.83 256.652 312.318 258.488
 312.318 c 260.328 312.318 261.816 310.83 261.816 308.99 c h
261.816 308.99 m f
0.498039 0.407843 0.286275 rg
263.711 350.322 m 263.711 346.126 260.309 340.876 256.113 340.876 c 46.355
 340.876 l 42.156 340.876 38.754 346.123 38.754 350.322 c 38.762 354.533
 42.156 359.779 46.355 359.779 c 256.113 359.779 l 260.316 359.783 263.711
 354.533 263.711 350.322 c h
263.711 350.322 m f
0.388235 0.298039 0.196078 rg
263.711 350.322 m 263.711 346.126 260.309 340.876 256.113 340.876 c 46.355
 340.876 l 42.156 340.876 38.754 346.123 38.754 350.322 c 38.762 354.533
 42.156 359.779 46.355 359.779 c 256.113 359.779 l 260.316 359.783 263.711
 354.533 263.711 350.322 c h
263.711 350.322 m f
0.498039 0.407843 0.286275 rg
256.121 359.783 m 46.355 359.783 l 43.262 359.783 39.973 356.435 39.441
 353.478 c 40.625 350.834 43.262 347.177 46.355 347.177 c 256.113 347.177
 l 259.207 347.177 261.836 350.834 263.027 353.478 c 262.301 356.529 259.207
 359.783 256.121 359.783 c h
256.121 359.783 m f
0.760784 0.776471 0.576471 rg
243.629 379.189 m 243.629 374.83 202.262 376.341 151.238 376.341 c 100.215
 376.341 58.844 374.83 58.844 379.189 c 58.844 383.548 100.215 392.166 151.238
 392.166 c 202.262 392.166 243.629 383.548 243.629 379.189 c h
243.629 379.189 m f
Q Q
showpage
%%Trailer
end restore
%%EOF
