%!PS-Adobe-3.0 EPSF-3.0
%%Creator: cairo 1.14.2 (http://cairographics.org)
%%CreationDate: Thu Aug  4 10:35:23 2016
%%Pages: 1
%%DocumentData: Clean7Bit
%%LanguageLevel: 2
%%BoundingBox: 0 -1 389 248
%%EndComments
%%BeginProlog
save
50 dict begin
/q { gsave } bind def
/Q { grestore } bind def
/cm { 6 array astore concat } bind def
/w { setlinewidth } bind def
/J { setlinecap } bind def
/j { setlinejoin } bind def
/M { setmiterlimit } bind def
/d { setdash } bind def
/m { moveto } bind def
/l { lineto } bind def
/c { curveto } bind def
/h { closepath } bind def
/re { exch dup neg 3 1 roll 5 3 roll moveto 0 rlineto
      0 exch rlineto 0 rlineto closepath } bind def
/S { stroke } bind def
/f { fill } bind def
/f* { eofill } bind def
/n { newpath } bind def
/W { clip } bind def
/W* { eoclip } bind def
/BT { } bind def
/ET { } bind def
/pdfmark where { pop globaldict /?pdfmark /exec load put }
    { globaldict begin /?pdfmark /pop load def /pdfmark
    /cleartomark load def end } ifelse
/BDC { mark 3 1 roll /BDC pdfmark } bind def
/EMC { mark /EMC pdfmark } bind def
/cairo_store_point { /cairo_point_y exch def /cairo_point_x exch def } def
/Tj { show currentpoint cairo_store_point } bind def
/TJ {
  {
    dup
    type /stringtype eq
    { show } { -0.001 mul 0 cairo_font_matrix dtransform rmoveto } ifelse
  } forall
  currentpoint cairo_store_point
} bind def
/cairo_selectfont { cairo_font_matrix aload pop pop pop 0 0 6 array astore
    cairo_font exch selectfont cairo_point_x cairo_point_y moveto } bind def
/Tf { pop /cairo_font exch def /cairo_font_matrix where
      { pop cairo_selectfont } if } bind def
/Td { matrix translate cairo_font_matrix matrix concatmatrix dup
      /cairo_font_matrix exch def dup 4 get exch 5 get cairo_store_point
      /cairo_font where { pop cairo_selectfont } if } bind def
/Tm { 2 copy 8 2 roll 6 array astore /cairo_font_matrix exch def
      cairo_store_point /cairo_font where { pop cairo_selectfont } if } bind def
/g { setgray } bind def
/rg { setrgbcolor } bind def
/d1 { setcachedevice } bind def
%%EndProlog
%%BeginSetup
%%EndSetup
%%Page: 1 1
%%BeginPageSetup
%%PageBoundingBox: 0 -1 389 248
%%EndPageSetup
q 0 -1 389 249 rectclip q
0.94902 0.333333 0.584314 rg
4.656 147.683 m 18.785 124.015 40.262 157.292 77.863 179.745 c 115.477 
202.171 154.969 205.273 140.852 228.941 c 126.738 252.585 84.801 253.593
 47.191 231.159 c 9.594 208.702 -9.457 171.331 4.656 147.683 c h
4.656 147.683 m f
0.866667 0.262745 0.537255 rg
54.137 211.542 m 24.363 193.773 6.297 166.655 7.035 144.382 c 21.176 127.667
 42.309 158.507 77.863 179.738 c 106.98 197.105 137.109 202.913 142.738 
215.624 c 125.344 232.886 88.02 231.753 54.137 211.542 c h
54.137 211.542 m f
0.94902 0.333333 0.584314 rg
383.848 147.683 m 369.73 124.015 348.242 157.292 310.641 179.745 c 273.039
 202.171 233.535 205.273 247.652 228.941 c 261.766 252.585 303.703 253.593
 341.312 231.159 c 378.91 208.702 397.961 171.331 383.848 147.683 c h
383.848 147.683 m f
0.866667 0.262745 0.537255 rg
334.379 211.542 m 364.152 193.773 382.207 166.655 381.469 144.382 c 367.328
 127.667 346.207 158.507 310.641 179.738 c 281.535 197.105 251.395 202.913
 245.777 215.624 c 263.172 232.886 300.484 231.753 334.379 211.542 c h
334.379 211.542 m f
1 0.501961 0.729412 rg
380.652 97.093 m 380.652 21.28 297.199 -0.001 194.258 -0.001 c 91.316 -0.001
 7.859 21.28 7.859 97.093 c 7.859 172.921 91.316 234.386 194.258 234.386
 c 297.199 234.386 380.652 172.921 380.652 97.093 c h
380.652 97.093 m f
0.94902 0.333333 0.584314 rg
380.652 97.093 m 380.652 21.28 297.199 -0.001 194.258 -0.001 c 91.316 -0.001
 7.859 21.28 7.859 97.093 c 7.859 172.921 91.316 215.323 194.258 215.323
 c 297.199 215.323 380.652 172.921 380.652 97.093 c h
380.652 97.093 m f
0.866667 0.262745 0.537255 rg
380.652 97.093 m 380.652 21.28 297.199 -0.001 194.258 -0.001 c 91.316 -0.001
 7.859 21.28 7.859 97.093 c 7.859 172.921 91.316 131.702 194.258 131.702
 c 297.199 131.702 380.652 172.921 380.652 97.093 c h
380.652 97.093 m f
0.0313726 0.156863 0.337255 rg
137.336 111.62 m 137.336 102.37 129.84 94.874 120.594 94.874 c 111.348 
94.874 103.852 102.37 103.852 111.62 c 103.852 120.866 111.348 128.363 120.594
 128.363 c 129.84 128.363 137.336 120.866 137.336 111.62 c h
137.336 111.62 m f
284.66 111.62 m 284.66 102.37 277.164 94.874 267.918 94.874 c 258.668 94.874
 251.172 102.37 251.172 111.62 c 251.172 120.866 258.668 128.363 267.918
 128.363 c 277.164 128.363 284.66 120.866 284.66 111.62 c h
284.66 111.62 m f
0 g
137.336 111.62 m 137.336 102.363 129.844 94.87 120.594 94.87 c 111.344 
94.87 103.852 102.363 103.852 111.62 c f
284.668 111.62 m 284.668 102.363 277.172 94.87 267.93 94.87 c 258.68 94.87
 251.188 102.363 251.188 111.62 c f
0.886275 0.462745 0.717647 rg
133.152 71.03 m 133.152 95.878 160.5 102.859 194.258 102.859 c 228.004 
102.859 255.363 95.886 255.363 71.03 c 255.363 46.171 228.004 26.007 194.258
 26.007 c 160.5 26.007 133.152 46.163 133.152 71.03 c h
133.152 71.03 m f
0.94902 0.560784 0.772549 rg
133.152 71.03 m 133.152 95.878 160.5 102.859 194.258 102.859 c 228.004 
102.859 255.363 95.886 255.363 71.03 c 255.363 46.171 228.004 32.265 194.258
 32.265 c 160.5 32.257 133.152 46.163 133.152 71.03 c h
133.152 71.03 m f
1 0.643137 0.823529 rg
133.152 71.03 m 133.152 95.878 160.5 102.859 194.258 102.859 c 228.004 
102.859 255.363 95.886 255.363 71.03 c 255.363 46.171 228.004 59.671 194.258
 59.671 c 160.5 59.671 133.152 46.163 133.152 71.03 c h
133.152 71.03 m f
0.866667 0.262745 0.537255 rg
223.875 66.269 m 223.875 63.238 221.418 60.777 218.387 60.777 c 215.355
 60.777 212.898 63.238 212.898 66.269 c 212.898 69.3 215.355 71.757 218.387
 71.757 c 221.418 71.757 223.875 69.3 223.875 66.269 c h
223.875 66.269 m f
175.598 66.269 m 175.598 63.238 173.141 60.777 170.109 60.777 c 167.078
 60.777 164.621 63.238 164.621 66.269 c 164.621 69.3 167.078 71.757 170.109
 71.757 c 173.141 71.757 175.598 69.3 175.598 66.269 c h
175.598 66.269 m f
0.729412 0.164706 0.47451 rg
212.918 66.269 m 212.918 69.292 215.379 71.757 218.418 71.757 c 221.441
 71.757 223.895 69.292 223.895 66.269 c f
164.621 66.269 m 164.621 69.292 167.074 71.757 170.109 71.757 c 173.137
 71.757 175.602 69.292 175.602 66.269 c f
Q Q
showpage
%%Trailer
end restore
%%EOF
