%!PS-Adobe-3.0 EPSF-3.0
%%Creator: cairo 1.14.2 (http://cairographics.org)
%%CreationDate: Thu Aug  4 10:35:31 2016
%%Pages: 1
%%DocumentData: Clean7Bit
%%LanguageLevel: 2
%%BoundingBox: 0 -1 391 375
%%EndComments
%%BeginProlog
save
50 dict begin
/q { gsave } bind def
/Q { grestore } bind def
/cm { 6 array astore concat } bind def
/w { setlinewidth } bind def
/J { setlinecap } bind def
/j { setlinejoin } bind def
/M { setmiterlimit } bind def
/d { setdash } bind def
/m { moveto } bind def
/l { lineto } bind def
/c { curveto } bind def
/h { closepath } bind def
/re { exch dup neg 3 1 roll 5 3 roll moveto 0 rlineto
      0 exch rlineto 0 rlineto closepath } bind def
/S { stroke } bind def
/f { fill } bind def
/f* { eofill } bind def
/n { newpath } bind def
/W { clip } bind def
/W* { eoclip } bind def
/BT { } bind def
/ET { } bind def
/pdfmark where { pop globaldict /?pdfmark /exec load put }
    { globaldict begin /?pdfmark /pop load def /pdfmark
    /cleartomark load def end } ifelse
/BDC { mark 3 1 roll /BDC pdfmark } bind def
/EMC { mark /EMC pdfmark } bind def
/cairo_store_point { /cairo_point_y exch def /cairo_point_x exch def } def
/Tj { show currentpoint cairo_store_point } bind def
/TJ {
  {
    dup
    type /stringtype eq
    { show } { -0.001 mul 0 cairo_font_matrix dtransform rmoveto } ifelse
  } forall
  currentpoint cairo_store_point
} bind def
/cairo_selectfont { cairo_font_matrix aload pop pop pop 0 0 6 array astore
    cairo_font exch selectfont cairo_point_x cairo_point_y moveto } bind def
/Tf { pop /cairo_font exch def /cairo_font_matrix where
      { pop cairo_selectfont } if } bind def
/Td { matrix translate cairo_font_matrix matrix concatmatrix dup
      /cairo_font_matrix exch def dup 4 get exch 5 get cairo_store_point
      /cairo_font where { pop cairo_selectfont } if } bind def
/Tm { 2 copy 8 2 roll 6 array astore /cairo_font_matrix exch def
      cairo_store_point /cairo_font where { pop cairo_selectfont } if } bind def
/g { setgray } bind def
/rg { setrgbcolor } bind def
/d1 { setcachedevice } bind def
%%EndProlog
%%BeginSetup
%%EndSetup
%%Page: 1 1
%%BeginPageSetup
%%PageBoundingBox: 0 -1 391 375
%%EndPageSetup
q 0 -1 391 376 rectclip q
0.427451 0.266667 0.0901961 rg
390.695 18.569 m 390.695 8.323 382.375 -0.002 372.125 -0.002 c 19.164 -0.002
 l 8.91 -0.002 0.578 8.319 0.578 18.569 c 0.578 191.959 l 0.578 202.217 
8.91 210.53 19.164 210.53 c 372.125 210.53 l 382.379 210.53 390.695 202.217
 390.695 191.959 c h
390.695 18.569 m f
0.509804 0.34902 0.188235 rg
0 193.791 m 389.742 193.791 l 388.816 203.174 380.977 210.534 371.363 210.534
 c 18.395 210.534 l 8.766 210.534 0.945 203.174 0 193.791 c h
0 193.791 m f
0.807843 0.54902 0.290196 rg
272.082 86.358 m 272.082 43.717 237.516 9.151 194.875 9.151 c 152.234 9.151
 117.668 43.717 117.668 86.358 c 117.668 128.998 152.234 163.565 194.875
 163.565 c 237.516 163.565 272.082 128.998 272.082 86.358 c h
272.082 86.358 m f
182.68 210.534 24.383 -59.938 re f
0.886275 0.619608 0.376471 rg
182.68 210.534 24.383 -16.742 re f
0.317647 0.556863 0.219608 rg
191.566 89.666 m 173.344 71.44 162.477 52.745 150.684 64.541 c 138.887 
76.342 144.086 100.698 162.32 118.916 c 180.539 137.139 204.906 142.338 
216.703 130.541 c 228.5 118.741 209.777 107.881 191.566 89.666 c h
191.566 89.666 m f
0.239216 0.439216 0.14902 rg
216.703 130.541 m 228.5 118.741 209.777 107.889 191.574 89.666 c 173.348
 71.44 162.484 52.745 150.691 64.541 c f
198.191 83.034 m 216.422 101.264 227.266 119.955 239.062 108.159 c 250.859
 96.358 245.66 72.014 227.434 53.791 c 209.223 35.573 184.855 30.366 173.059
 42.162 c 161.27 53.967 179.973 64.823 198.191 83.034 c h
198.191 83.034 m f
0.654902 0.788235 0.592157 rg
190.941 131.198 m 193.918 128.217 183.66 121.752 173.344 111.432 c 163.027
 101.12 156.57 90.858 153.574 93.838 c 150.594 96.811 156.57 107.588 166.863
 117.897 c 177.199 128.217 187.957 134.174 190.941 131.198 c h
190.941 131.198 m f
199.348 131.034 m 199.348 129.912 198.441 129.006 197.32 129.006 c 196.199
 129.006 195.293 129.912 195.293 131.034 c 195.293 132.155 196.199 133.065
 197.32 133.065 c 198.441 133.065 199.348 132.155 199.348 131.034 c h
199.348 131.034 m f
0.317647 0.556863 0.219608 rg
201.73 204.959 m 201.73 201.17 198.664 202.17 194.875 202.17 c 191.09 202.17
 188.02 201.174 188.02 204.959 c 188.02 307.319 l 188.02 311.108 191.09 
314.174 194.875 314.174 c 198.664 314.174 201.73 311.108 201.73 307.319 
c h
201.73 204.959 m f
0.211765 0.4 0.12549 rg
194.875 314.174 m 191.09 314.174 188.02 311.108 188.02 307.319 c 188.02
 252.202 l 188.02 248.412 191.09 249.409 194.875 249.409 c 198.664 249.409
 201.73 248.412 201.73 252.202 c 201.73 307.319 l 201.73 311.1 198.656 314.174
 194.875 314.174 c h
194.875 314.174 m f
0.317647 0.556863 0.219608 rg
194.812 308.838 m 194.812 308.838 198.238 356.842 151.004 361.42 c 103.77
 365.987 97.805 374.866 97.805 374.866 c 97.805 374.866 90.055 261.217 194.312
 293.6 c h
194.812 308.838 m f
0.396078 0.686275 0.262745 rg
194.773 314.202 m 194.062 326.811 188.535 357.787 151.004 361.42 c 103.77
 365.987 97.805 374.866 97.805 374.866 c 97.805 374.866 97.742 373.94 97.707
 372.327 c 103.875 355.08 132.508 287.784 194.773 314.202 c h
194.773 314.202 m f
0.317647 0.556863 0.219608 rg
194.938 308.838 m 194.938 308.838 191.516 356.842 238.746 361.42 c 285.988
 365.987 291.965 374.866 291.965 374.866 c 291.965 374.866 299.703 261.217
 195.457 293.6 c h
194.938 308.838 m f
0.396078 0.686275 0.262745 rg
194.988 314.202 m 195.688 326.811 201.234 357.787 238.738 361.42 c 285.98
 365.987 291.957 374.866 291.957 374.866 c 291.957 374.866 292.012 373.94
 292.062 372.327 c 285.887 355.08 257.262 287.784 194.988 314.202 c h
194.988 314.202 m f
0.317647 0.556863 0.219608 rg
196.594 288.592 m 196.594 287.647 195.832 286.877 194.875 286.877 c 193.941
 286.877 193.168 287.647 193.168 288.592 c 193.168 308.405 l 193.168 309.35
 193.938 310.12 194.875 310.12 c 195.832 310.12 196.594 309.35 196.594 308.405
 c h
196.594 288.592 m f
0.509804 0.34902 0.188235 rg
85.039 151.389 m 85.039 144.655 79.578 139.194 72.844 139.194 c 66.109 
139.194 60.652 144.655 60.652 151.389 c 60.652 158.123 66.109 163.58 72.844
 163.58 c 79.578 163.58 85.039 158.123 85.039 151.389 c h
85.039 151.389 m f
45.445 169.151 m 45.445 166.623 43.398 164.577 40.871 164.577 c 38.344 
164.577 36.297 166.623 36.297 169.151 c 36.297 171.678 38.344 173.729 40.871
 173.729 c 43.398 173.729 45.445 171.678 45.445 169.151 c h
45.445 169.151 m f
133.832 166.608 m 133.832 162.682 130.648 159.498 126.723 159.498 c 122.797
 159.498 119.617 162.682 119.617 166.608 c 119.617 170.534 122.797 173.713
 126.723 173.713 c 130.648 173.713 133.832 170.534 133.832 166.608 c h
133.832 166.608 m f
56.625 94.991 m 56.625 88.537 51.395 83.307 44.941 83.307 c 38.488 83.307
 33.258 88.537 33.258 94.991 c 33.258 101.444 38.488 106.674 44.941 106.674
 c 51.395 106.674 56.625 101.444 56.625 94.991 c h
56.625 94.991 m f
281.156 171.174 m 281.156 168.088 278.652 165.584 275.566 165.584 c 272.48
 165.584 269.977 168.088 269.977 171.174 c 269.977 174.264 272.48 176.764
 275.566 176.764 c 278.652 176.764 281.156 174.264 281.156 171.174 c h
281.156 171.174 m f
332.949 122.924 m 332.949 120.12 330.668 117.846 327.875 117.846 c 325.059
 117.846 322.781 120.12 322.781 122.924 c 322.781 125.729 325.051 128.01
 327.875 128.01 c 330.668 128.01 332.949 125.729 332.949 122.924 c h
332.949 122.924 m f
349.207 159.491 m 349.207 152.76 343.75 147.303 337.02 147.303 c 330.289
 147.303 324.832 152.76 324.832 159.491 c 324.832 166.221 330.289 171.678
 337.02 171.678 c 343.75 171.678 349.207 166.221 349.207 159.491 c h
349.207 159.491 m f
304.527 141.209 m 304.527 138.405 302.254 136.131 299.449 136.131 c 296.645
 136.131 294.371 138.405 294.371 141.209 c 294.371 144.018 296.645 146.291
 299.449 146.291 c 302.254 146.291 304.527 144.018 304.527 141.209 c h
304.527 141.209 m f
372.57 134.104 m 372.57 130.737 369.844 128.01 366.477 128.01 c 363.113
 128.01 360.387 130.737 360.387 134.104 c 360.387 137.467 363.113 140.198
 366.477 140.198 c 369.844 140.198 372.57 137.467 372.57 134.104 c h
372.57 134.104 m f
325.816 86.862 m 325.816 80.409 320.586 75.178 314.133 75.178 c 307.68 
75.178 302.449 80.409 302.449 86.862 c 302.449 93.315 307.68 98.545 314.133
 98.545 c 320.586 98.545 325.816 93.315 325.816 86.862 c h
325.816 86.862 m f
244.574 174.225 m 244.574 171.698 242.527 169.651 240 169.651 c 237.473
 169.651 235.426 171.698 235.426 174.225 c 235.426 176.752 237.473 178.799
 240 178.799 c 242.527 178.799 244.574 176.752 244.574 174.225 c h
244.574 174.225 m f
Q Q
showpage
%%Trailer
end restore
%%EOF
