%!PS-Adobe-3.0 EPSF-3.0
%%Creator: cairo 1.14.2 (http://cairographics.org)
%%CreationDate: Thu Aug  4 10:30:41 2016
%%Pages: 1
%%DocumentData: Clean7Bit
%%LanguageLevel: 2
%%BoundingBox: 0 -1 360 395
%%EndComments
%%BeginProlog
save
50 dict begin
/q { gsave } bind def
/Q { grestore } bind def
/cm { 6 array astore concat } bind def
/w { setlinewidth } bind def
/J { setlinecap } bind def
/j { setlinejoin } bind def
/M { setmiterlimit } bind def
/d { setdash } bind def
/m { moveto } bind def
/l { lineto } bind def
/c { curveto } bind def
/h { closepath } bind def
/re { exch dup neg 3 1 roll 5 3 roll moveto 0 rlineto
      0 exch rlineto 0 rlineto closepath } bind def
/S { stroke } bind def
/f { fill } bind def
/f* { eofill } bind def
/n { newpath } bind def
/W { clip } bind def
/W* { eoclip } bind def
/BT { } bind def
/ET { } bind def
/pdfmark where { pop globaldict /?pdfmark /exec load put }
    { globaldict begin /?pdfmark /pop load def /pdfmark
    /cleartomark load def end } ifelse
/BDC { mark 3 1 roll /BDC pdfmark } bind def
/EMC { mark /EMC pdfmark } bind def
/cairo_store_point { /cairo_point_y exch def /cairo_point_x exch def } def
/Tj { show currentpoint cairo_store_point } bind def
/TJ {
  {
    dup
    type /stringtype eq
    { show } { -0.001 mul 0 cairo_font_matrix dtransform rmoveto } ifelse
  } forall
  currentpoint cairo_store_point
} bind def
/cairo_selectfont { cairo_font_matrix aload pop pop pop 0 0 6 array astore
    cairo_font exch selectfont cairo_point_x cairo_point_y moveto } bind def
/Tf { pop /cairo_font exch def /cairo_font_matrix where
      { pop cairo_selectfont } if } bind def
/Td { matrix translate cairo_font_matrix matrix concatmatrix dup
      /cairo_font_matrix exch def dup 4 get exch 5 get cairo_store_point
      /cairo_font where { pop cairo_selectfont } if } bind def
/Tm { 2 copy 8 2 roll 6 array astore /cairo_font_matrix exch def
      cairo_store_point /cairo_font where { pop cairo_selectfont } if } bind def
/g { setgray } bind def
/rg { setrgbcolor } bind def
/d1 { setcachedevice } bind def
%%EndProlog
%%BeginSetup
%%EndSetup
%%Page: 1 1
%%BeginPageSetup
%%PageBoundingBox: 0 -1 360 395
%%EndPageSetup
q 0 -1 360 396 rectclip q
0.737255 0.454902 0.247059 rg
254.629 363.472 m 254.629 324.12 221.035 292.21 179.598 292.21 c 138.16
 292.21 104.566 324.12 104.566 363.472 c 104.566 402.827 138.16 393.354 
179.598 393.354 c 221.035 393.354 254.629 402.827 254.629 363.472 c h
254.629 363.472 m f
339.562 73.483 m 340.059 78.19 340.332 83.159 340.332 88.479 c 340.332 
177.249 268.375 296.561 179.598 296.561 c 90.82 296.561 18.863 177.249 18.863
 88.479 c 18.863 83.163 19.137 78.19 19.633 73.483 c 2.316 57.628 -4.887
 36.323 3.496 19.905 c 14.145 -0.978 45.941 -6.13 75.199 7.948 c 103.293
 -0.036 139.73 -0.001 179.594 -0.001 c 219.457 -0.001 255.891 -0.036 283.984
 7.948 c 313.242 -6.126 345.031 -0.978 355.688 19.905 c 364.074 36.323 356.879
 57.628 339.562 73.483 c h
339.562 73.483 m f
0.639216 0.380392 0.168627 rg
339.562 73.483 m 340.059 78.19 340.332 83.159 340.332 88.479 c 340.332 
177.249 268.375 124.604 179.598 124.604 c 90.82 124.604 18.863 177.249 18.863
 88.479 c 18.863 83.163 19.137 78.19 19.633 73.483 c 2.316 57.628 -4.887
 36.323 3.496 19.905 c 14.145 -0.978 45.941 -6.13 75.199 7.948 c 103.293
 -0.036 139.73 -0.001 179.594 -0.001 c 219.457 -0.001 255.891 -0.036 283.984
 7.948 c 313.242 -6.126 345.031 -0.978 355.688 19.905 c 364.074 36.323 356.879
 57.628 339.562 73.483 c h
339.562 73.483 m f
0.0901961 0.686275 0.243137 rg
237.527 292.819 m 237.527 288.686 234.195 285.339 230.055 285.339 c 129.137
 285.339 l 125 285.339 121.656 288.679 121.656 292.819 c 121.656 307.772
 l 121.656 311.901 124.996 315.253 129.137 315.253 c 230.062 315.253 l 234.195
 315.253 237.535 311.909 237.535 307.772 c 237.535 292.819 l h
237.527 292.819 m f
0.137255 0.8 0.32549 rg
230.062 315.249 m 129.137 315.249 l 125 315.249 121.656 311.901 121.656
 307.768 c 121.656 303.413 l 121.656 299.272 124.996 295.94 129.137 295.94
 c 230.062 295.94 l 234.195 295.94 237.535 299.265 237.535 303.413 c 237.535
 307.768 l 237.527 311.901 234.195 315.249 230.062 315.249 c h
230.062 315.249 m f
0.807843 0.6 0.372549 rg
238.938 255.05 m 238.938 247.624 212.371 255.979 179.598 255.979 c 146.816
 255.979 120.258 247.624 120.258 255.05 c 120.258 262.464 146.816 273.198
 179.598 273.198 c 212.371 273.19 238.938 262.46 238.938 255.05 c h
238.938 255.05 m f
125.457 383.015 m 125.457 390.858 149.699 382.038 179.598 382.038 c 209.492
 382.038 233.734 390.858 233.734 383.015 c 233.734 375.183 209.492 363.827
 179.598 363.827 c 149.695 363.827 125.457 375.183 125.457 383.015 c h
125.457 383.015 m f
Q Q
showpage
%%Trailer
end restore
%%EOF
