%!PS-Adobe-3.0 EPSF-3.0
%%Creator: cairo 1.14.2 (http://cairographics.org)
%%CreationDate: Thu Aug  4 10:35:39 2016
%%Pages: 1
%%DocumentData: Clean7Bit
%%LanguageLevel: 2
%%BoundingBox: 0 -1 397 383
%%EndComments
%%BeginProlog
save
50 dict begin
/q { gsave } bind def
/Q { grestore } bind def
/cm { 6 array astore concat } bind def
/w { setlinewidth } bind def
/J { setlinecap } bind def
/j { setlinejoin } bind def
/M { setmiterlimit } bind def
/d { setdash } bind def
/m { moveto } bind def
/l { lineto } bind def
/c { curveto } bind def
/h { closepath } bind def
/re { exch dup neg 3 1 roll 5 3 roll moveto 0 rlineto
      0 exch rlineto 0 rlineto closepath } bind def
/S { stroke } bind def
/f { fill } bind def
/f* { eofill } bind def
/n { newpath } bind def
/W { clip } bind def
/W* { eoclip } bind def
/BT { } bind def
/ET { } bind def
/pdfmark where { pop globaldict /?pdfmark /exec load put }
    { globaldict begin /?pdfmark /pop load def /pdfmark
    /cleartomark load def end } ifelse
/BDC { mark 3 1 roll /BDC pdfmark } bind def
/EMC { mark /EMC pdfmark } bind def
/cairo_store_point { /cairo_point_y exch def /cairo_point_x exch def } def
/Tj { show currentpoint cairo_store_point } bind def
/TJ {
  {
    dup
    type /stringtype eq
    { show } { -0.001 mul 0 cairo_font_matrix dtransform rmoveto } ifelse
  } forall
  currentpoint cairo_store_point
} bind def
/cairo_selectfont { cairo_font_matrix aload pop pop pop 0 0 6 array astore
    cairo_font exch selectfont cairo_point_x cairo_point_y moveto } bind def
/Tf { pop /cairo_font exch def /cairo_font_matrix where
      { pop cairo_selectfont } if } bind def
/Td { matrix translate cairo_font_matrix matrix concatmatrix dup
      /cairo_font_matrix exch def dup 4 get exch 5 get cairo_store_point
      /cairo_font where { pop cairo_selectfont } if } bind def
/Tm { 2 copy 8 2 roll 6 array astore /cairo_font_matrix exch def
      cairo_store_point /cairo_font where { pop cairo_selectfont } if } bind def
/g { setgray } bind def
/rg { setrgbcolor } bind def
/d1 { setcachedevice } bind def
%%EndProlog
%%BeginSetup
%%EndSetup
%%Page: 1 1
%%BeginPageSetup
%%PageBoundingBox: 0 -1 397 383
%%EndPageSetup
q 0 -1 397 384 rectclip q
0.462745 0.639216 0.184314 rg
298.547 234.657 m 298.547 205.7 253.75 182.227 198.492 182.227 c 143.234
 182.227 98.438 205.7 98.438 234.657 c 98.438 263.614 143.234 287.086 198.492
 287.086 c 253.75 287.086 298.547 263.614 298.547 234.657 c h
298.547 234.657 m f
0.898039 0.380392 0.027451 rg
317.969 67.129 m 317.969 36.77 264.469 0 198.5 0 c 132.508 0 79.027 36.77
 79.027 67.129 c 79.027 97.512 132.508 122.11 198.5 122.11 c 264.469 122.11
 317.969 97.512 317.969 67.129 c h
317.969 67.129 m f
1 0.54902 0.101961 rg
121.59 143.223 m 121.59 76.836 167.758 23.02 108.07 23.02 c 48.375 23.02
 0 76.836 0 143.223 c 0 209.614 48.375 263.43 108.07 263.43 c 167.758 263.43
 121.59 209.614 121.59 143.223 c h
121.59 143.223 m f
1 0.454902 0.0823529 rg
121.59 143.223 m 121.59 76.836 167.758 23.02 108.07 23.02 c 48.375 23.02
 0 76.836 0 143.223 c f
0.898039 0.380392 0.027451 rg
43.07 143.223 m 43.07 85.992 79.047 38.207 127.223 26.071 c 155.734 38.301
 121.59 86.086 121.59 143.223 c 121.59 200.356 155.734 248.149 127.223 260.36
 c 79.047 248.239 43.07 200.457 43.07 143.223 c h
43.07 143.223 m f
1 0.54902 0.101961 rg
275.41 143.215 m 275.41 209.61 229.227 263.43 288.918 263.43 c 348.613 
263.43 396.996 209.61 396.996 143.215 c 396.996 76.836 348.613 23.02 288.918
 23.02 c 229.227 23.02 275.41 76.836 275.41 143.215 c h
275.41 143.215 m f
1 0.454902 0.0823529 rg
396.996 143.215 m 396.996 76.836 348.613 23.02 288.918 23.02 c 229.227 
23.02 275.41 76.836 275.41 143.215 c f
0.898039 0.380392 0.027451 rg
353.934 143.215 m 353.934 200.453 317.945 248.239 269.773 260.36 c 241.266
 248.149 275.414 200.356 275.414 143.215 c 275.414 86.078 241.266 38.282
 269.773 26.071 c 317.945 38.207 353.934 85.992 353.934 143.215 c h
353.934 143.215 m f
1 0.54902 0.101961 rg
309.316 141.121 m 309.316 70.926 259.703 14.02 198.5 14.02 c 137.293 14.02
 87.68 70.926 87.68 141.121 c 87.68 211.321 137.293 268.227 198.5 268.227
 c 259.703 268.227 309.316 211.321 309.316 141.121 c h
309.316 141.121 m f
1 0.454902 0.0823529 rg
87.672 141.141 m 87.672 70.969 137.285 14.067 198.5 14.067 c 259.711 14.067
 309.316 70.969 309.316 141.141 c f
0.462745 0.639216 0.184314 rg
179.16 273.649 m 177.371 273.649 175.566 274.332 174.199 275.7 c 149.105
 300.789 149.105 341.625 174.199 366.723 c 194.82 387.336 228.379 387.348
 249.012 366.723 c 266.051 349.684 266.051 321.95 249.004 304.899 c 234.82
 290.723 211.746 290.723 197.559 304.899 c 185.68 316.789 185.688 336.145
 197.578 348.028 c 200.312 350.77 204.75 350.77 207.48 348.028 c 210.219
 345.293 210.219 340.864 207.48 338.129 c 201.047 331.696 201.039 321.227
 207.465 314.801 c 216.188 306.071 230.379 306.09 239.105 314.801 c 250.688
 326.387 250.695 345.242 239.113 356.817 c 223.945 371.969 199.27 371.969
 184.105 356.817 c 164.473 337.188 164.473 305.235 184.105 285.606 c 186.836
 282.871 186.836 278.442 184.105 275.703 c 182.738 274.332 180.941 273.649
 179.16 273.649 c h
179.16 273.649 m f
Q Q
showpage
%%Trailer
end restore
%%EOF
