%!PS-Adobe-3.0 EPSF-3.0
%%Creator: cairo 1.14.2 (http://cairographics.org)
%%CreationDate: Thu Aug  4 10:35:48 2016
%%Pages: 1
%%DocumentData: Clean7Bit
%%LanguageLevel: 2
%%BoundingBox: 0 -1 402 296
%%EndComments
%%BeginProlog
save
50 dict begin
/q { gsave } bind def
/Q { grestore } bind def
/cm { 6 array astore concat } bind def
/w { setlinewidth } bind def
/J { setlinecap } bind def
/j { setlinejoin } bind def
/M { setmiterlimit } bind def
/d { setdash } bind def
/m { moveto } bind def
/l { lineto } bind def
/c { curveto } bind def
/h { closepath } bind def
/re { exch dup neg 3 1 roll 5 3 roll moveto 0 rlineto
      0 exch rlineto 0 rlineto closepath } bind def
/S { stroke } bind def
/f { fill } bind def
/f* { eofill } bind def
/n { newpath } bind def
/W { clip } bind def
/W* { eoclip } bind def
/BT { } bind def
/ET { } bind def
/pdfmark where { pop globaldict /?pdfmark /exec load put }
    { globaldict begin /?pdfmark /pop load def /pdfmark
    /cleartomark load def end } ifelse
/BDC { mark 3 1 roll /BDC pdfmark } bind def
/EMC { mark /EMC pdfmark } bind def
/cairo_store_point { /cairo_point_y exch def /cairo_point_x exch def } def
/Tj { show currentpoint cairo_store_point } bind def
/TJ {
  {
    dup
    type /stringtype eq
    { show } { -0.001 mul 0 cairo_font_matrix dtransform rmoveto } ifelse
  } forall
  currentpoint cairo_store_point
} bind def
/cairo_selectfont { cairo_font_matrix aload pop pop pop 0 0 6 array astore
    cairo_font exch selectfont cairo_point_x cairo_point_y moveto } bind def
/Tf { pop /cairo_font exch def /cairo_font_matrix where
      { pop cairo_selectfont } if } bind def
/Td { matrix translate cairo_font_matrix matrix concatmatrix dup
      /cairo_font_matrix exch def dup 4 get exch 5 get cairo_store_point
      /cairo_font where { pop cairo_selectfont } if } bind def
/Tm { 2 copy 8 2 roll 6 array astore /cairo_font_matrix exch def
      cairo_store_point /cairo_font where { pop cairo_selectfont } if } bind def
/g { setgray } bind def
/rg { setrgbcolor } bind def
/d1 { setcachedevice } bind def
%%EndProlog
%%BeginSetup
%%EndSetup
%%Page: 1 1
%%BeginPageSetup
%%PageBoundingBox: 0 -1 402 296
%%EndPageSetup
q 0 -1 402 297 rectclip q
0.67451 0.909804 0.901961 rg
387.215 97.096 m 387.215 21.28 303.766 -0.001 200.824 -0.001 c 97.879 -0.001
 14.418 21.276 14.418 97.096 c 14.418 172.92 97.875 234.385 200.816 234.385
 c 303.758 234.385 387.215 172.92 387.215 97.096 c h
387.215 97.096 m f
0.556863 0.839216 0.839216 rg
387.215 97.096 m 387.215 21.28 303.766 -0.001 200.824 -0.001 c 97.879 -0.001
 14.418 21.276 14.418 97.096 c 14.418 172.92 97.875 215.323 200.816 215.323
 c 303.758 215.323 387.215 172.92 387.215 97.096 c h
387.215 97.096 m f
0.462745 0.756863 0.74902 rg
387.215 97.096 m 387.215 21.28 303.766 -0.001 200.824 -0.001 c 97.879 -0.001
 14.418 21.276 14.418 97.096 c 14.418 172.92 97.875 131.702 200.816 131.702
 c 303.758 131.702 387.215 172.92 387.215 97.096 c h
387.215 97.096 m f
0.0313726 0.156863 0.337255 rg
143.895 86.381 m 143.895 77.135 136.398 69.639 127.152 69.639 c 117.906
 69.639 110.41 77.135 110.41 86.381 c 110.41 95.628 117.906 103.128 127.152
 103.128 c 136.398 103.128 143.895 95.628 143.895 86.381 c h
143.895 86.381 m f
291.227 86.381 m 291.227 77.135 283.73 69.639 274.48 69.639 c 265.234 69.639
 257.738 77.135 257.738 86.381 c 257.738 95.628 265.234 103.128 274.48 103.128
 c 283.73 103.128 291.227 95.628 291.227 86.381 c h
291.227 86.381 m f
0 g
143.895 86.409 m 143.895 77.151 136.402 69.659 127.152 69.659 c 117.902
 69.659 110.41 77.151 110.41 86.409 c f
291.227 86.409 m 291.227 77.151 283.734 69.659 274.488 69.659 c 265.238
 69.659 257.746 77.151 257.746 86.409 c f
0.556863 0.839216 0.839216 rg
5.254 285.409 m -14.02 265.706 23.637 253.448 54.961 222.835 c 86.262 192.202
 99.352 154.811 118.625 174.503 c 137.883 194.194 128.137 234.999 96.832
 265.616 c 65.516 296.241 24.52 305.104 5.254 285.409 c h
5.254 285.409 m f
0.866667 0.262745 0.537255 rg
79.641 253.901 m 54.848 278.151 24.027 288.686 2.672 282.272 c -9.867 264.327
 25.355 251.784 54.961 222.835 c 79.191 199.116 92.512 171.479 106.242 169.284
 c 118.469 190.51 107.844 226.315 79.641 253.901 c h
79.641 253.901 m f
0.607843 0.105882 0.380392 rg
67.035 241.299 m 87.289 221.479 105.281 197.385 105.449 177.545 c 106.242
 169.284 l 118.469 190.503 107.844 226.307 79.641 253.901 c 54.848 278.151
 24.027 288.686 2.672 282.272 c f
0.556863 0.839216 0.839216 rg
396.379 285.409 m 415.66 265.706 377.996 253.448 346.68 222.835 c 315.387
 192.202 302.289 154.811 283.016 174.503 c 263.758 194.194 273.504 234.999
 304.805 265.616 c 336.125 296.241 377.121 305.104 396.379 285.409 c h
396.379 285.409 m f
0.866667 0.262745 0.537255 rg
321.996 253.901 m 346.785 278.151 377.613 288.686 398.969 282.272 c 411.508
 264.327 376.285 251.784 346.68 222.835 c 322.449 199.116 309.129 171.479
 295.398 169.284 c 283.172 190.51 293.789 226.315 321.996 253.901 c h
321.996 253.901 m f
0.607843 0.105882 0.380392 rg
334.598 241.299 m 314.348 221.479 296.363 197.385 296.184 177.545 c 295.398
 169.284 l 283.172 190.503 293.789 226.307 321.996 253.901 c 346.785 278.151
 377.613 288.686 398.969 282.272 c f
0.717647 0.145098 0.486275 rg
236.73 68.292 m 236.73 58.1 220.648 42.592 200.824 42.592 c 180.984 42.592
 164.918 58.1 164.918 68.292 c 164.918 78.479 180.984 77.51 200.824 77.51
 c 220.648 77.51 236.73 78.487 236.73 68.292 c h
236.73 68.292 m f
0.607843 0.105882 0.380392 rg
236.73 68.292 m 236.73 58.1 220.648 42.592 200.824 42.592 c 180.984 42.592
 164.918 58.1 164.918 68.292 c 164.918 78.479 180.984 65.436 200.824 65.436
 c 220.648 65.436 236.73 78.487 236.73 68.292 c h
236.73 68.292 m f
0.921569 0.941176 0.94902 rg
200.816 19.737 m 192.766 19.737 185.062 20.034 178.762 20.526 c 178.762
 15.604 l 178.762 8.897 183.727 3.452 190.438 3.452 c 195.215 3.452 199.078
 6.245 201.062 10.272 c 203.043 6.245 206.551 3.452 211.336 3.452 c 218.027
 3.452 222.879 8.893 222.879 15.604 c 222.879 20.526 l 216.57 20.034 208.871
 19.737 200.816 19.737 c h
200.816 19.737 m f
Q Q
showpage
%%Trailer
end restore
%%EOF
