%!PS-Adobe-3.0 EPSF-3.0
%%Creator: cairo 1.14.2 (http://cairographics.org)
%%CreationDate: Thu Aug  4 10:35:56 2016
%%Pages: 1
%%DocumentData: Clean7Bit
%%LanguageLevel: 2
%%BoundingBox: 0 -1 337 404
%%EndComments
%%BeginProlog
save
50 dict begin
/q { gsave } bind def
/Q { grestore } bind def
/cm { 6 array astore concat } bind def
/w { setlinewidth } bind def
/J { setlinecap } bind def
/j { setlinejoin } bind def
/M { setmiterlimit } bind def
/d { setdash } bind def
/m { moveto } bind def
/l { lineto } bind def
/c { curveto } bind def
/h { closepath } bind def
/re { exch dup neg 3 1 roll 5 3 roll moveto 0 rlineto
      0 exch rlineto 0 rlineto closepath } bind def
/S { stroke } bind def
/f { fill } bind def
/f* { eofill } bind def
/n { newpath } bind def
/W { clip } bind def
/W* { eoclip } bind def
/BT { } bind def
/ET { } bind def
/pdfmark where { pop globaldict /?pdfmark /exec load put }
    { globaldict begin /?pdfmark /pop load def /pdfmark
    /cleartomark load def end } ifelse
/BDC { mark 3 1 roll /BDC pdfmark } bind def
/EMC { mark /EMC pdfmark } bind def
/cairo_store_point { /cairo_point_y exch def /cairo_point_x exch def } def
/Tj { show currentpoint cairo_store_point } bind def
/TJ {
  {
    dup
    type /stringtype eq
    { show } { -0.001 mul 0 cairo_font_matrix dtransform rmoveto } ifelse
  } forall
  currentpoint cairo_store_point
} bind def
/cairo_selectfont { cairo_font_matrix aload pop pop pop 0 0 6 array astore
    cairo_font exch selectfont cairo_point_x cairo_point_y moveto } bind def
/Tf { pop /cairo_font exch def /cairo_font_matrix where
      { pop cairo_selectfont } if } bind def
/Td { matrix translate cairo_font_matrix matrix concatmatrix dup
      /cairo_font_matrix exch def dup 4 get exch 5 get cairo_store_point
      /cairo_font where { pop cairo_selectfont } if } bind def
/Tm { 2 copy 8 2 roll 6 array astore /cairo_font_matrix exch def
      cairo_store_point /cairo_font where { pop cairo_selectfont } if } bind def
/g { setgray } bind def
/rg { setrgbcolor } bind def
/d1 { setcachedevice } bind def
%%EndProlog
%%BeginSetup
%%EndSetup
%%Page: 1 1
%%BeginPageSetup
%%PageBoundingBox: 0 -1 337 404
%%EndPageSetup
q 0 -1 337 405 rectclip q
0.498039 0.678431 0.560784 rg
244.457 299.602 m 212.836 299.602 184.945 283.653 168.34 259.387 c 151.734
 283.653 123.855 299.602 92.219 299.602 c 41.324 299.602 -1.789 258.289 
0.059 207.43 c 3.453 112.981 122.375 110.141 162.777 7.172 c 164.812 1.957
 166.656 -0.148 168.34 0.008 c 170.027 -0.148 171.883 1.957 173.918 7.172
 c 214.305 110.141 333.219 112.981 336.621 207.43 c 338.469 258.289 295.371
 299.602 244.457 299.602 c h
244.457 299.602 m f
0.568627 0.737255 0.635294 rg
168.34 167.281 m 229.527 167.281 285.184 165.266 326.727 168.082 c 332.488
 179.356 336.066 192.192 336.621 207.43 c 337.484 231.149 328.5 252.719 
313.578 269.055 c 304.742 271.567 295.398 273.867 285.586 275.91 c 281.363
 276.332 277.098 276.559 272.793 276.559 c 229.402 276.559 191.125 254.672
 168.348 221.375 c 145.566 254.672 107.309 276.559 63.898 276.559 c 59.586
 276.559 55.32 276.324 51.105 275.91 c 41.301 273.875 31.957 271.574 23.141
 269.067 c 8.207 252.719 -0.793 231.149 0.07 207.43 c 0.617 192.196 4.203
 179.356 9.957 168.082 c 51.496 165.266 107.145 167.281 168.34 167.281 c
 h
168.34 167.281 m f
0.654902 0.776471 0.713726 rg
168.34 219.965 m 248.219 219.965 315.18 215.242 333.246 234.516 c 325.684
 260.352 306.23 281.328 281.383 291.977 c 272.906 294.68 263.664 297.074
 253.781 299.129 c 250.715 299.438 247.602 299.602 244.461 299.602 c 212.84
 299.602 184.949 283.656 168.348 259.387 c 151.742 283.653 123.863 299.602
 92.223 299.602 c 89.09 299.602 85.98 299.434 82.902 299.129 c 73.043 297.082
 63.789 294.688 55.328 291.985 c 30.477 281.34 11.016 260.344 3.441 234.508
 c 21.512 215.242 88.469 219.965 168.34 219.965 c h
168.34 219.965 m f
0.74902 0.847059 0.8 rg
142.086 260.785 m 142.086 246.231 121.457 260.211 95.996 260.211 c 70.551
 260.211 49.922 246.231 49.922 260.785 c 49.922 275.328 70.551 287.121 95.996
 287.121 c 121.457 287.113 142.086 275.324 142.086 260.785 c h
142.086 260.785 m f
41.68 251.453 m 41.68 247.363 38.363 244.047 34.273 244.047 c 30.184 244.047
 26.871 247.363 26.871 251.453 c 26.871 255.543 30.184 258.856 34.273 258.856
 c 38.363 258.856 41.68 255.543 41.68 251.453 c h
41.68 251.453 m f
25.637 237.871 m 25.637 236.508 24.527 235.403 23.164 235.403 c 21.801 
235.403 20.695 236.508 20.695 237.871 c 20.695 239.238 21.801 240.344 23.164
 240.344 c 24.527 240.344 25.637 239.238 25.637 237.871 c h
25.637 237.871 m f
291.34 260.785 m 291.34 246.231 270.703 260.211 245.254 260.211 c 219.797
 260.211 199.164 246.231 199.164 260.785 c 199.164 275.328 219.797 287.121
 245.254 287.121 c 270.695 287.113 291.34 275.324 291.34 260.785 c h
291.34 260.785 m f
190.93 251.453 m 190.93 247.36 187.613 244.043 183.52 244.043 c 179.426
 244.043 176.109 247.36 176.109 251.453 c 176.109 255.547 179.426 258.863
 183.52 258.863 c 187.613 258.863 190.93 255.547 190.93 251.453 c h
190.93 251.453 m f
174.906 237.871 m 174.906 236.508 173.801 235.403 172.438 235.403 c 171.07
 235.403 169.965 236.508 169.965 237.871 c 169.965 239.238 171.07 240.344
 172.438 240.344 c 173.801 240.344 174.906 239.238 174.906 237.871 c h
174.906 237.871 m f
0.184314 0.466667 0.270588 rg
168.25 259.387 m 168.25 259.387 177.547 365.969 119.094 391.246 c 80.211
 408.078 83.641 358.742 105.305 350.86 c 105.305 350.86 68.012 377.785 58.137
 353.512 c 50.215 334.039 78.719 321.313 100.371 321.313 c 100.371 321.313
 61.836 327.59 61.957 311.457 c 62.051 299.488 71.797 295.696 107.27 299.649
 c 142.742 303.574 168.25 259.387 168.25 259.387 c h
168.25 259.387 m f
0.239216 0.6 0.333333 rg
119.098 391.246 m 105.828 396.992 97.484 395.02 93.125 389.621 c 93.949
 376.953 123.996 363.801 141.684 332.93 c 152.547 313.988 152.215 286.567
 158.344 273.125 c 164.68 265.578 168.258 259.387 168.258 259.387 c 168.258
 259.387 177.547 365.969 119.098 391.246 c h
119.098 391.246 m f
0.184314 0.466667 0.270588 rg
168.434 259.387 m 168.434 259.387 159.133 365.969 217.586 391.246 c 256.461
 408.078 253.039 358.742 231.375 350.86 c 231.375 350.86 268.668 377.785
 278.535 353.512 c 286.461 334.039 257.961 321.313 236.301 321.313 c 236.301
 321.313 274.836 327.59 274.715 311.457 c 274.621 299.488 264.875 295.696
 229.41 299.649 c 193.938 303.574 168.434 259.387 168.434 259.387 c h
168.434 259.387 m f
0.239216 0.6 0.333333 rg
217.578 391.246 m 230.844 396.992 239.195 395.02 243.547 389.621 c 242.73
 376.953 212.684 363.801 194.996 332.93 c 184.129 313.988 184.465 286.567
 178.328 273.125 c 172 265.578 168.426 259.387 168.426 259.387 c 168.426
 259.387 159.133 365.969 217.578 391.246 c h
217.578 391.246 m f
0.184314 0.466667 0.270588 rg
181.781 389.86 m 181.781 382.438 175.762 376.418 168.34 376.418 c 160.918
 376.418 154.898 382.438 154.898 389.86 c 154.898 397.281 160.918 403.301
 168.34 403.301 c 175.762 403.301 181.781 397.281 181.781 389.86 c h
181.781 389.86 m f
0.239216 0.6 0.333333 rg
181.781 389.86 m 181.781 382.438 175.762 388.078 168.34 388.078 c 160.918
 388.078 154.898 382.438 154.898 389.86 c 154.898 397.281 160.918 403.301
 168.34 403.301 c 175.762 403.301 181.781 397.281 181.781 389.86 c h
181.781 389.86 m f
0.184314 0.466667 0.270588 rg
175.535 362.028 m 175.535 358.051 172.312 354.828 168.34 354.828 c 164.367
 354.828 161.145 358.051 161.145 362.028 c 161.145 366 164.367 369.223 168.34
 369.223 c 172.312 369.223 175.535 366 175.535 362.028 c h
175.535 362.028 m f
0.239216 0.6 0.333333 rg
175.535 362.051 m 175.535 358.074 172.316 361.102 168.34 361.102 c 164.363
 361.102 161.145 358.082 161.145 362.051 c 161.145 366.02 164.363 369.254
 168.34 369.254 c 172.316 369.254 175.535 366.028 175.535 362.051 c h
175.535 362.051 m f
Q Q
showpage
%%Trailer
end restore
%%EOF
