%!PS-Adobe-3.0 EPSF-3.0
%%Creator: cairo 1.14.2 (http://cairographics.org)
%%CreationDate: Thu Aug  4 10:33:42 2016
%%Pages: 1
%%DocumentData: Clean7Bit
%%LanguageLevel: 2
%%BoundingBox: 0 -1 309 404
%%EndComments
%%BeginProlog
save
50 dict begin
/q { gsave } bind def
/Q { grestore } bind def
/cm { 6 array astore concat } bind def
/w { setlinewidth } bind def
/J { setlinecap } bind def
/j { setlinejoin } bind def
/M { setmiterlimit } bind def
/d { setdash } bind def
/m { moveto } bind def
/l { lineto } bind def
/c { curveto } bind def
/h { closepath } bind def
/re { exch dup neg 3 1 roll 5 3 roll moveto 0 rlineto
      0 exch rlineto 0 rlineto closepath } bind def
/S { stroke } bind def
/f { fill } bind def
/f* { eofill } bind def
/n { newpath } bind def
/W { clip } bind def
/W* { eoclip } bind def
/BT { } bind def
/ET { } bind def
/pdfmark where { pop globaldict /?pdfmark /exec load put }
    { globaldict begin /?pdfmark /pop load def /pdfmark
    /cleartomark load def end } ifelse
/BDC { mark 3 1 roll /BDC pdfmark } bind def
/EMC { mark /EMC pdfmark } bind def
/cairo_store_point { /cairo_point_y exch def /cairo_point_x exch def } def
/Tj { show currentpoint cairo_store_point } bind def
/TJ {
  {
    dup
    type /stringtype eq
    { show } { -0.001 mul 0 cairo_font_matrix dtransform rmoveto } ifelse
  } forall
  currentpoint cairo_store_point
} bind def
/cairo_selectfont { cairo_font_matrix aload pop pop pop 0 0 6 array astore
    cairo_font exch selectfont cairo_point_x cairo_point_y moveto } bind def
/Tf { pop /cairo_font exch def /cairo_font_matrix where
      { pop cairo_selectfont } if } bind def
/Td { matrix translate cairo_font_matrix matrix concatmatrix dup
      /cairo_font_matrix exch def dup 4 get exch 5 get cairo_store_point
      /cairo_font where { pop cairo_selectfont } if } bind def
/Tm { 2 copy 8 2 roll 6 array astore /cairo_font_matrix exch def
      cairo_store_point /cairo_font where { pop cairo_selectfont } if } bind def
/g { setgray } bind def
/rg { setrgbcolor } bind def
/d1 { setcachedevice } bind def
%%EndProlog
%%BeginSetup
%%EndSetup
%%Page: 1 1
%%BeginPageSetup
%%PageBoundingBox: 0 -1 309 404
%%EndPageSetup
q 0 -1 309 405 rectclip q
0.666667 0.101961 0.494118 rg
308.336 132.136 m 308.336 59.152 239.309 -0.001 154.168 -0.001 c 69.027
 -0.001 0 59.152 0 132.136 c 0 205.121 69.027 212.218 154.168 212.218 c 
239.309 212.218 308.336 205.121 308.336 132.136 c h
308.336 132.136 m f
0.537255 0.105882 0.384314 rg
308.336 132.136 m 308.336 59.152 239.309 -0.001 154.168 -0.001 c 69.027
 -0.001 0 59.152 0 132.136 c 0 205.121 69.027 158.831 154.168 158.831 c 
239.309 158.831 308.336 205.121 308.336 132.136 c h
308.336 132.136 m f
0.74902 0.180392 0.603922 rg
218.227 200.206 m 218.227 190.621 189.555 190.199 154.168 190.199 c 118.77
 190.199 90.098 190.613 90.098 200.206 c 90.098 209.785 118.77 217.542 154.168
 217.542 c 189.555 217.546 218.227 209.785 218.227 200.206 c h
218.227 200.206 m f
0.666667 0.101961 0.494118 rg
19.77 147.222 m 28.93 150.078 34.418 133.906 40.715 113.781 c 47.016 93.66
 51.703 77.226 42.547 74.371 c 33.406 71.503 20.895 85.499 14.594 105.609
 c 8.312 125.734 10.625 144.355 19.77 147.222 c h
19.77 147.222 m f
64.062 59.355 m 64.062 56.777 61.973 54.691 59.398 54.691 c 56.824 54.691
 54.734 56.777 54.734 59.355 c 54.734 61.929 56.824 64.015 59.398 64.015
 c 61.973 64.015 64.062 61.929 64.062 59.355 c h
64.062 59.355 m f
86.773 38.683 m 86.773 34.996 83.781 32.003 80.094 32.003 c 76.402 32.003
 73.41 34.996 73.41 38.683 c 73.41 42.374 76.402 45.367 80.094 45.367 c 
83.781 45.367 86.773 42.374 86.773 38.683 c h
86.773 38.683 m f
0.662745 0.129412 0.494118 rg
151.531 202.23 m 149.484 202.23 147.438 203.003 145.875 204.566 c 123.145
 227.285 110.629 257.499 110.629 289.636 c 110.637 321.761 123.152 351.976
 145.875 374.695 c 184.004 412.812 246.07 412.824 284.227 374.695 c 315.359
 343.546 315.359 292.874 284.227 261.734 c 258.699 236.206 217.156 236.195
 191.598 261.734 c 170.543 282.792 170.543 317.042 191.598 338.089 c 209.059
 355.55 237.48 355.566 254.953 338.101 c 258.078 334.976 258.078 329.906
 254.953 326.777 c 251.824 323.652 246.762 323.652 243.625 326.777 c 232.406
 337.988 214.145 338.003 202.922 326.765 c 188.113 311.956 188.113 287.874
 202.922 273.058 c 222.219 253.761 253.633 253.781 272.895 273.058 c 297.793
 297.956 297.793 338.46 272.895 363.371 c 240.988 395.269 189.07 395.265
 157.199 363.371 c 137.508 343.667 126.648 317.476 126.648 289.636 c 126.648
 261.785 137.492 235.597 157.199 215.902 c 160.324 212.765 160.324 207.71
 157.199 204.574 c 155.629 203.003 153.582 202.23 151.531 202.23 c h
151.531 202.23 m f
Q Q
showpage
%%Trailer
end restore
%%EOF
