%!PS-Adobe-3.0 EPSF-3.0
%%Creator: cairo 1.14.2 (http://cairographics.org)
%%CreationDate: Thu Aug  4 10:36:05 2016
%%Pages: 1
%%DocumentData: Clean7Bit
%%LanguageLevel: 2
%%BoundingBox: 0 -1 404 369
%%EndComments
%%BeginProlog
save
50 dict begin
/q { gsave } bind def
/Q { grestore } bind def
/cm { 6 array astore concat } bind def
/w { setlinewidth } bind def
/J { setlinecap } bind def
/j { setlinejoin } bind def
/M { setmiterlimit } bind def
/d { setdash } bind def
/m { moveto } bind def
/l { lineto } bind def
/c { curveto } bind def
/h { closepath } bind def
/re { exch dup neg 3 1 roll 5 3 roll moveto 0 rlineto
      0 exch rlineto 0 rlineto closepath } bind def
/S { stroke } bind def
/f { fill } bind def
/f* { eofill } bind def
/n { newpath } bind def
/W { clip } bind def
/W* { eoclip } bind def
/BT { } bind def
/ET { } bind def
/pdfmark where { pop globaldict /?pdfmark /exec load put }
    { globaldict begin /?pdfmark /pop load def /pdfmark
    /cleartomark load def end } ifelse
/BDC { mark 3 1 roll /BDC pdfmark } bind def
/EMC { mark /EMC pdfmark } bind def
/cairo_store_point { /cairo_point_y exch def /cairo_point_x exch def } def
/Tj { show currentpoint cairo_store_point } bind def
/TJ {
  {
    dup
    type /stringtype eq
    { show } { -0.001 mul 0 cairo_font_matrix dtransform rmoveto } ifelse
  } forall
  currentpoint cairo_store_point
} bind def
/cairo_selectfont { cairo_font_matrix aload pop pop pop 0 0 6 array astore
    cairo_font exch selectfont cairo_point_x cairo_point_y moveto } bind def
/Tf { pop /cairo_font exch def /cairo_font_matrix where
      { pop cairo_selectfont } if } bind def
/Td { matrix translate cairo_font_matrix matrix concatmatrix dup
      /cairo_font_matrix exch def dup 4 get exch 5 get cairo_store_point
      /cairo_font where { pop cairo_selectfont } if } bind def
/Tm { 2 copy 8 2 roll 6 array astore /cairo_font_matrix exch def
      cairo_store_point /cairo_font where { pop cairo_selectfont } if } bind def
/g { setgray } bind def
/rg { setrgbcolor } bind def
/d1 { setcachedevice } bind def
%%EndProlog
%%BeginSetup
%%EndSetup
%%Page: 1 1
%%BeginPageSetup
%%PageBoundingBox: 0 -1 404 369
%%EndPageSetup
q 0 -1 404 370 rectclip q
0.572549 0.643137 0.647059 rg
349.406 220.95 m 349.406 139.341 283.242 100.743 201.645 100.743 c 120.039
 100.743 53.879 139.341 53.879 220.95 c 53.879 302.556 120.039 342.704 201.645
 342.704 c 283.242 342.704 349.406 302.556 349.406 220.95 c h
349.406 220.95 m f
0.780392 0.823529 0.827451 rg
349.406 220.95 m 349.406 139.341 283.242 118.267 201.645 118.267 c 120.039
 118.267 53.879 139.341 53.879 220.95 c 53.879 302.556 120.039 368.716 201.645
 368.716 c 283.242 368.716 349.406 302.556 349.406 220.95 c h
349.406 220.95 m f
0.682353 0.72549 0.729412 rg
349.406 220.95 m 349.406 139.341 283.242 118.267 201.645 118.267 c 120.039
 118.267 53.879 139.341 53.879 220.95 c 53.879 302.556 120.039 342.704 201.645
 342.704 c 283.242 342.704 349.406 302.556 349.406 220.95 c h
349.406 220.95 m f
201.461 188.271 m 201.461 132.642 156.371 118.275 100.734 118.275 c 45.094
 118.275 0 132.642 0 188.271 c 0 243.904 45.094 289.001 100.734 289.001 
c 156.367 289.001 201.461 243.9 201.461 188.271 c h
201.461 188.271 m f
403.293 188.271 m 403.293 132.642 358.199 118.275 302.555 118.275 c 246.91
 118.275 201.824 132.642 201.824 188.271 c 201.824 243.904 246.91 289.001
 302.555 289.001 c 358.199 289.001 403.293 243.9 403.293 188.271 c h
403.293 188.271 m f
0.0352941 0.317647 0.427451 rg
155.094 254.154 m 155.094 243.325 146.305 244.349 135.488 244.349 c 124.676
 244.349 115.906 243.329 115.906 254.154 c 115.906 264.974 124.676 273.739
 135.488 273.739 c 146.305 273.739 155.094 264.966 155.094 254.154 c h
155.094 254.154 m f
0.0313726 0.129412 0.188235 rg
155.094 254.154 m 155.094 243.325 146.305 244.349 135.488 244.349 c 124.676
 244.349 115.906 243.329 115.906 254.154 c 115.906 264.974 124.676 265.825
 135.488 265.825 c 146.305 265.825 155.094 264.966 155.094 254.154 c h
155.094 254.154 m f
0.0352941 0.317647 0.427451 rg
287.383 254.154 m 287.383 243.325 278.598 244.349 267.789 244.349 c 256.965
 244.349 248.191 243.329 248.191 254.154 c 248.191 264.974 256.973 273.739
 267.789 273.739 c 278.605 273.739 287.383 264.966 287.383 254.154 c h
287.383 254.154 m f
0.0313726 0.129412 0.188235 rg
287.383 254.154 m 287.383 243.325 278.598 244.349 267.789 244.349 c 256.965
 244.349 248.191 243.329 248.191 254.154 c 248.191 264.974 256.973 265.825
 267.789 265.825 c 278.605 265.818 287.383 264.966 287.383 254.154 c h
287.383 254.154 m f
0.686275 0.227451 0.415686 rg
237.258 229.704 m 237.258 220.775 221.309 213.536 201.645 213.536 c 181.965
 213.536 166.027 220.775 166.027 229.704 c 166.027 238.626 181.965 228.618
 201.645 228.618 c 221.309 228.618 237.258 238.626 237.258 229.704 c h
237.258 229.704 m f
0.509804 0.0862745 0.278431 rg
201.645 228.618 m 185.746 228.618 172.305 235.142 167.715 232.943 c 172.152
 226.314 185.566 221.454 201.645 221.454 c 217.711 221.454 231.133 226.314
 235.562 232.943 c 230.977 235.142 217.527 228.618 201.645 228.618 c h
201.645 228.618 m f
0.780392 0.823529 0.827451 rg
89.703 220.032 m 89.703 213.47 76.281 221.728 59.73 221.728 c 43.191 221.728
 29.762 213.47 29.762 220.032 c 29.762 226.591 43.191 231.904 59.73 231.904
 c 76.281 231.896 89.703 226.591 89.703 220.032 c h
89.703 220.032 m f
373.512 220.032 m 373.512 213.47 360.09 221.728 343.535 221.728 c 326.992
 221.728 313.578 213.47 313.578 220.032 c 313.578 226.591 326.992 231.904
 343.535 231.904 c 360.094 231.896 373.512 226.591 373.512 220.032 c h
373.512 220.032 m f
160.098 296.716 m 160.098 292.443 151.352 297.818 140.582 297.818 c 129.816
 297.818 121.07 292.443 121.07 296.716 c 121.07 300.986 129.816 304.446 
140.582 304.446 c 151.355 304.439 160.098 300.982 160.098 296.716 c h
160.098 296.716 m f
282.203 296.716 m 282.203 292.443 273.457 297.818 262.688 297.818 c 251.922
 297.818 243.176 292.443 243.176 296.716 c 243.176 300.986 251.922 304.446
 262.688 304.446 c 273.457 304.439 282.203 300.982 282.203 296.716 c h
282.203 296.716 m f
0.356863 0.662745 0.756863 rg
86.105 61.212 m 86.105 55.763 81.691 51.345 76.242 51.345 c 70.793 51.345
 66.363 55.763 66.363 61.212 c 66.363 66.665 70.793 89.263 76.242 89.263
 c 81.695 89.263 86.105 66.669 86.105 61.212 c h
86.105 61.212 m f
0.176471 0.6 0.698039 rg
76.242 89.267 m 81.695 89.267 86.105 66.669 86.105 61.22 c 86.105 55.771
 81.691 51.353 76.242 51.353 c f
0.356863 0.662745 0.756863 rg
136.277 61.212 m 136.277 55.763 131.848 51.345 126.395 51.345 c 120.945
 51.345 116.527 55.763 116.527 61.212 c 116.527 66.665 120.945 89.263 126.395
 89.263 c 131.848 89.263 136.277 66.669 136.277 61.212 c h
136.277 61.212 m f
0.176471 0.6 0.698039 rg
126.395 89.267 m 131.848 89.267 136.277 66.669 136.277 61.22 c 136.277 
55.771 131.848 51.353 126.395 51.353 c f
0.356863 0.662745 0.756863 rg
186.43 61.212 m 186.43 55.763 182.012 51.345 176.562 51.345 c 171.113 51.345
 166.688 55.763 166.688 61.212 c 166.688 66.665 171.113 89.263 176.562 89.263
 c 182.012 89.263 186.43 66.669 186.43 61.212 c h
186.43 61.212 m f
0.176471 0.6 0.698039 rg
176.562 89.267 m 182.016 89.267 186.43 66.669 186.43 61.22 c 186.43 55.771
 182.012 51.353 176.562 51.353 c f
0.356863 0.662745 0.756863 rg
236.598 61.212 m 236.598 55.763 232.18 51.345 226.723 51.345 c 221.266 
51.345 216.863 55.763 216.863 61.212 c 216.863 66.665 221.266 89.263 226.723
 89.263 c 232.18 89.263 236.598 66.669 236.598 61.212 c h
236.598 61.212 m f
0.176471 0.6 0.698039 rg
226.715 89.267 m 232.172 89.267 236.59 66.669 236.59 61.22 c 236.59 55.771
 232.172 51.353 226.715 51.353 c f
0.356863 0.662745 0.756863 rg
286.75 61.212 m 286.75 55.763 282.348 51.345 276.895 51.345 c 271.445 51.345
 267.016 55.763 267.016 61.212 c 267.016 66.665 271.445 89.263 276.895 89.263
 c 282.348 89.263 286.75 66.669 286.75 61.212 c h
286.75 61.212 m f
0.176471 0.6 0.698039 rg
276.891 89.267 m 282.34 89.267 286.746 66.669 286.746 61.22 c 286.746 55.771
 282.34 51.353 276.891 51.353 c f
0.356863 0.662745 0.756863 rg
336.93 61.212 m 336.93 55.763 332.5 51.345 327.051 51.345 c 321.598 51.345
 317.18 55.763 317.18 61.212 c 317.18 66.665 321.598 89.263 327.051 89.263
 c 332.5 89.263 336.93 66.669 336.93 61.212 c h
336.93 61.212 m f
0.176471 0.6 0.698039 rg
327.043 89.267 m 332.496 89.267 336.926 66.669 336.926 61.22 c 336.926 
55.771 332.496 51.353 327.043 51.353 c f
0.356863 0.662745 0.756863 rg
111.184 9.868 m 111.184 4.415 106.777 0.001 101.328 0.001 c 95.875 0.001
 91.445 4.419 91.445 9.868 c 91.445 15.318 95.875 37.915 101.328 37.915 
c 106.777 37.915 111.184 15.318 111.184 9.868 c h
111.184 9.868 m f
0.176471 0.6 0.698039 rg
101.324 37.915 m 106.773 37.915 111.176 15.318 111.176 9.868 c 111.176 
4.419 106.773 0.001 101.324 0.001 c f
0.356863 0.662745 0.756863 rg
161.359 9.868 m 161.359 4.415 156.93 0.001 151.477 0.001 c 146.027 0.001
 141.609 4.419 141.609 9.868 c 141.609 15.318 146.027 37.915 151.477 37.915
 c 156.926 37.915 161.359 15.318 161.359 9.868 c h
161.359 9.868 m f
0.176471 0.6 0.698039 rg
151.477 37.915 m 156.926 37.915 161.355 15.318 161.355 9.868 c 161.355 
4.419 156.926 0.001 151.477 0.001 c f
0.356863 0.662745 0.756863 rg
211.512 9.868 m 211.512 4.415 207.094 0.001 201.645 0.001 c 196.191 0.001
 191.773 4.419 191.773 9.868 c 191.773 15.318 196.191 37.915 201.645 37.915
 c 207.094 37.915 211.512 15.318 211.512 9.868 c h
211.512 9.868 m f
0.176471 0.6 0.698039 rg
201.645 37.915 m 207.094 37.915 211.512 15.318 211.512 9.868 c 211.512 
4.419 207.094 0.001 201.645 0.001 c f
0.356863 0.662745 0.756863 rg
261.676 9.868 m 261.676 4.415 257.262 0.001 251.809 0.001 c 246.352 0.001
 241.941 4.419 241.941 9.868 c 241.941 15.318 246.352 37.915 251.809 37.915
 c 257.262 37.915 261.676 15.318 261.676 9.868 c h
261.676 9.868 m f
0.176471 0.6 0.698039 rg
251.809 37.915 m 257.262 37.915 261.676 15.318 261.676 9.868 c 261.676 
4.419 257.262 0.001 251.809 0.001 c f
0.356863 0.662745 0.756863 rg
311.836 9.868 m 311.836 4.415 307.426 0.001 301.977 0.001 c 296.523 0.001
 292.094 4.419 292.094 9.868 c 292.094 15.318 296.523 37.915 301.977 37.915
 c 307.426 37.915 311.836 15.318 311.836 9.868 c h
311.836 9.868 m f
0.176471 0.6 0.698039 rg
301.977 37.915 m 307.426 37.915 311.836 15.318 311.836 9.868 c 311.836 
4.419 307.426 0.001 301.977 0.001 c f
Q Q
showpage
%%Trailer
end restore
%%EOF
