%!PS-Adobe-3.0 EPSF-3.0
%%Creator: cairo 1.14.2 (http://cairographics.org)
%%CreationDate: Thu Aug  4 10:37:50 2016
%%Pages: 1
%%DocumentData: Clean7Bit
%%LanguageLevel: 2
%%BoundingBox: 0 -1 319 404
%%EndComments
%%BeginProlog
save
50 dict begin
/q { gsave } bind def
/Q { grestore } bind def
/cm { 6 array astore concat } bind def
/w { setlinewidth } bind def
/J { setlinecap } bind def
/j { setlinejoin } bind def
/M { setmiterlimit } bind def
/d { setdash } bind def
/m { moveto } bind def
/l { lineto } bind def
/c { curveto } bind def
/h { closepath } bind def
/re { exch dup neg 3 1 roll 5 3 roll moveto 0 rlineto
      0 exch rlineto 0 rlineto closepath } bind def
/S { stroke } bind def
/f { fill } bind def
/f* { eofill } bind def
/n { newpath } bind def
/W { clip } bind def
/W* { eoclip } bind def
/BT { } bind def
/ET { } bind def
/pdfmark where { pop globaldict /?pdfmark /exec load put }
    { globaldict begin /?pdfmark /pop load def /pdfmark
    /cleartomark load def end } ifelse
/BDC { mark 3 1 roll /BDC pdfmark } bind def
/EMC { mark /EMC pdfmark } bind def
/cairo_store_point { /cairo_point_y exch def /cairo_point_x exch def } def
/Tj { show currentpoint cairo_store_point } bind def
/TJ {
  {
    dup
    type /stringtype eq
    { show } { -0.001 mul 0 cairo_font_matrix dtransform rmoveto } ifelse
  } forall
  currentpoint cairo_store_point
} bind def
/cairo_selectfont { cairo_font_matrix aload pop pop pop 0 0 6 array astore
    cairo_font exch selectfont cairo_point_x cairo_point_y moveto } bind def
/Tf { pop /cairo_font exch def /cairo_font_matrix where
      { pop cairo_selectfont } if } bind def
/Td { matrix translate cairo_font_matrix matrix concatmatrix dup
      /cairo_font_matrix exch def dup 4 get exch 5 get cairo_store_point
      /cairo_font where { pop cairo_selectfont } if } bind def
/Tm { 2 copy 8 2 roll 6 array astore /cairo_font_matrix exch def
      cairo_store_point /cairo_font where { pop cairo_selectfont } if } bind def
/g { setgray } bind def
/rg { setrgbcolor } bind def
/d1 { setcachedevice } bind def
%%EndProlog
%%BeginSetup
%%EndSetup
%%Page: 1 1
%%BeginPageSetup
%%PageBoundingBox: 0 -1 319 404
%%EndPageSetup
q 0 -1 319 405 rectclip q
1 0.694118 0.2 rg
253.398 270.243 m 253.398 218.2 211.211 176.013 159.172 176.013 c 107.129
 176.013 64.941 218.2 64.941 270.243 c 64.941 322.282 107.129 364.47 159.172
 364.47 c 211.211 364.47 253.398 322.282 253.398 270.243 c h
253.398 270.243 m f
0.956863 0.611765 0 rg
253.398 270.243 m 253.398 218.204 211.207 176.028 159.172 176.028 c 107.133
 176.028 64.941 218.204 64.941 270.243 c 64.941 322.29 107.133 346.466 159.172
 346.466 c 211.207 346.466 253.398 322.29 253.398 270.243 c h
253.398 270.243 m f
0.94902 0.541176 0 rg
253.398 270.243 m 253.398 218.204 211.207 176.028 159.172 176.028 c 107.133
 176.028 64.941 218.204 64.941 270.243 c f
232.98 340.54 m 232.32 341.196 231.91 342.103 231.91 343.114 c 231.91 348.587
 234.051 353.751 237.926 357.626 c 241.801 361.501 246.965 363.642 252.453
 363.642 c 254.441 363.63 256.07 362.017 256.07 360.028 c 256.07 358.009
 254.441 356.396 252.453 356.396 c 248.898 356.396 245.559 355.017 243.062
 352.509 c 240.555 350.001 239.16 346.673 239.16 343.118 c 239.16 341.114
 237.547 339.489 235.543 339.489 c 234.543 339.481 233.629 339.892 232.98
 340.54 c h
232.98 340.54 m f
85.359 199.942 m 86.016 199.278 86.434 198.38 86.434 197.384 c 86.434 191.907
 84.289 186.728 80.426 182.872 c 76.539 178.981 71.379 176.853 65.902 176.853
 c 63.887 176.853 62.258 178.466 62.258 180.481 c 62.258 182.462 63.887 
184.099 65.902 184.099 c 69.441 184.099 72.781 185.478 75.293 187.985 c 
77.781 190.481 79.168 193.821 79.168 197.376 c 79.168 199.38 80.793 200.993
 82.797 200.993 c 83.797 200.993 84.711 200.591 85.359 199.942 c h
85.359 199.942 m f
161.648 372.138 m 160.727 372.138 159.789 372.497 159.09 373.208 c 155.199
 377.083 153.07 382.247 153.07 387.72 c 153.07 393.212 155.199 398.376 159.09
 402.247 c 160.508 403.665 162.793 403.665 164.207 402.247 c 165.609 400.829
 165.609 398.54 164.207 397.13 c 161.711 394.61 160.316 391.271 160.316 
387.728 c 160.316 384.189 161.711 380.86 164.207 378.337 c 165.609 376.919
 165.609 374.634 164.207 373.22 c 163.508 372.489 162.578 372.138 161.648
 372.138 c h
161.648 372.138 m f
156.68 168.345 m 157.613 168.345 158.539 167.985 159.254 167.286 c 163.129
 163.411 165.258 158.251 165.258 152.763 c 165.258 147.274 163.129 142.126
 159.254 138.251 c 157.836 136.817 155.547 136.817 154.137 138.251 c 152.707
 139.653 152.707 141.954 154.137 143.36 c 156.633 145.88 158.012 149.22 
158.012 152.763 c 158.012 156.302 156.633 159.653 154.137 162.165 c 152.707
 163.579 152.707 165.868 154.137 167.278 c 154.836 167.985 155.762 168.345
 156.68 168.345 c h
156.68 168.345 m f
261.066 267.778 m 261.066 268.692 261.426 269.61 262.125 270.321 c 266 
274.2 271.172 276.341 276.637 276.341 c 282.141 276.341 287.293 274.2 291.164
 270.321 c 292.578 268.907 292.594 266.606 291.164 265.208 c 289.758 263.79
 287.469 263.79 286.047 265.208 c 283.539 267.716 280.199 269.083 276.645
 269.083 c 273.109 269.083 269.762 267.716 267.266 265.208 c 265.848 263.79
 263.551 263.79 262.137 265.208 c 261.426 265.907 261.078 266.833 261.066
 267.778 c h
261.066 267.778 m f
57.25 272.712 m 57.25 271.79 56.902 270.853 56.203 270.153 c 52.34 266.267
 47.18 264.138 41.691 264.138 c 36.203 264.138 31.047 266.267 27.164 270.153
 c 25.746 271.583 25.746 273.872 27.164 275.271 c 28.582 276.7 30.871 276.7
 32.281 275.271 c 34.805 272.774 38.129 271.384 41.684 271.384 c 45.219 
271.384 48.566 272.774 51.062 275.271 c 52.477 276.7 54.777 276.7 56.191
 275.271 c 56.902 274.571 57.25 273.638 57.25 272.712 c h
57.25 272.712 m f
229.469 196.442 m 230.125 197.099 231.02 197.489 232.016 197.489 c 237.504
 197.505 242.672 195.36 246.555 191.497 c 250.43 187.599 252.559 182.435
 252.559 176.962 c 252.559 174.981 250.934 173.345 248.941 173.345 c 246.938
 173.345 245.324 174.958 245.324 176.962 c 245.324 180.513 243.934 183.841
 241.426 186.36 c 238.918 188.856 235.578 190.251 232.023 190.251 c 230.031
 190.251 228.406 191.864 228.406 193.868 c 228.41 194.868 228.82 195.774
 229.469 196.442 c h
229.469 196.442 m f
88.844 344.052 m 88.203 343.396 87.297 342.993 86.301 342.993 c 80.824 
342.966 75.656 345.122 71.789 348.985 c 67.898 352.872 65.758 358.021 65.758
 363.524 c 65.758 365.528 67.383 367.142 69.398 367.142 c 71.379 367.142
 73.016 365.528 73.016 363.524 c 73.016 359.97 74.41 356.642 76.902 354.11
 c 79.41 351.614 82.738 350.235 86.293 350.247 c 88.297 350.247 89.922 348.606
 89.922 346.63 c 89.93 345.614 89.508 344.7 88.844 344.052 c h
88.844 344.052 m f
110.371 359.716 m 109.57 359.263 108.59 359.11 107.605 359.356 c 102.312
 360.786 97.883 364.185 95.148 368.923 c 92.398 373.673 91.664 379.212 93.094
 384.509 c 93.598 386.454 95.59 387.595 97.535 387.079 c 99.469 386.564 
100.609 384.571 100.094 382.649 c 99.16 379.2 99.652 375.61 101.41 372.54
 c 103.18 369.478 106.047 367.286 109.48 366.364 c 111.418 365.86 112.543
 363.856 112.055 361.935 c 111.781 360.958 111.16 360.185 110.371 359.716
 c h
110.371 359.716 m f
207.969 180.755 m 208.77 181.22 209.754 181.384 210.73 181.114 c 216.012
 179.708 220.453 176.298 223.188 171.56 c 225.934 166.798 226.672 161.255
 225.254 155.966 c 224.727 154.028 222.723 152.888 220.801 153.407 c 218.879
 153.935 217.727 155.915 218.242 157.849 c 219.16 161.282 218.672 164.86
 216.91 167.931 c 215.141 171.005 212.285 173.2 208.852 174.118 c 206.918
 174.622 205.766 176.614 206.281 178.548 c 206.547 179.517 207.168 180.294
 207.969 180.755 c h
207.969 180.755 m f
248.645 319.052 m 248.191 319.841 248.027 320.825 248.289 321.802 c 249.703
 327.095 253.113 331.524 257.852 334.271 c 262.617 337.017 268.129 337.743
 273.438 336.314 c 275.371 335.782 276.512 333.817 276.008 331.884 c 275.477
 329.935 273.5 328.794 271.555 329.325 c 268.133 330.239 264.551 329.767
 261.496 327.997 c 258.395 326.224 256.191 323.356 255.281 319.923 c 254.777
 317.978 252.785 316.837 250.852 317.364 c 249.883 317.61 249.125 318.239
 248.645 319.052 c h
248.645 319.052 m f
69.672 221.431 m 70.16 220.63 70.289 219.646 70.043 218.681 c 68.625 213.388
 65.215 208.946 60.5 206.212 c 55.711 203.466 50.199 202.739 44.879 204.169
 c 42.945 204.673 41.805 206.665 42.348 208.599 c 42.852 210.536 44.824 
211.689 46.777 211.157 c 50.199 210.239 53.777 210.704 56.859 212.489 c 
59.922 214.259 62.113 217.114 63.035 220.548 c 63.551 222.481 65.527 223.638
 67.477 223.118 c 68.453 222.853 69.203 222.231 69.672 221.431 c h
69.672 221.431 m f
256.945 241.462 m 257.18 242.353 257.77 243.169 258.648 243.669 c 263.387
 246.415 268.926 247.142 274.23 245.724 c 279.523 244.29 283.969 240.896
 286.691 236.157 c 287.688 234.423 287.117 232.204 285.371 231.196 c 283.641
 230.189 281.434 230.794 280.426 232.528 c 278.656 235.603 275.801 237.794
 272.355 238.728 c 268.934 239.642 265.355 239.181 262.273 237.384 c 260.527
 236.388 258.32 236.981 257.324 238.716 c 256.82 239.591 256.711 240.579
 256.945 241.462 c h
256.945 241.462 m f
61.371 299.013 m 61.137 298.114 60.547 297.306 59.684 296.798 c 54.945 
294.036 49.379 293.325 44.125 294.743 c 38.793 296.157 34.375 299.556 31.633
 304.321 c 30.625 306.052 31.23 308.271 32.965 309.267 c 34.695 310.263 
36.902 309.681 37.922 307.939 c 39.695 304.876 42.535 302.669 45.996 301.747
 c 49.402 300.829 52.984 301.294 56.055 303.091 c 57.785 304.087 60.004 
303.493 61 301.747 c 61.496 300.884 61.609 299.903 61.371 299.013 c h
61.371 299.013 m f
72.141 323.325 m 71.688 322.524 70.91 321.907 69.934 321.638 c 64.641 320.22
 59.113 320.95 54.363 323.692 c 49.613 326.431 46.215 330.868 44.797 336.161
 c 44.27 338.095 45.43 340.087 47.344 340.603 c 49.305 341.122 51.27 339.962
 51.785 338.044 c 52.707 334.61 54.91 331.743 57.988 329.974 c 61.035 328.204
 64.633 327.735 68.07 328.646 c 69.992 329.161 71.98 328.001 72.512 326.087
 c 72.781 325.122 72.613 324.138 72.141 323.325 c h
72.141 323.325 m f
246.164 217.146 m 246.629 217.935 247.406 218.587 248.383 218.821 c 253.676
 220.271 259.215 219.521 263.941 216.778 c 268.715 214.032 272.113 209.603
 273.523 204.31 c 274.055 202.376 272.895 200.372 270.953 199.88 c 269.02
 199.376 267.039 200.497 266.523 202.439 c 265.59 205.872 263.387 208.728
 260.324 210.509 c 257.273 212.278 253.676 212.747 250.242 211.841 c 248.32
 211.31 246.34 212.458 245.812 214.384 c 245.547 215.36 245.703 216.345 
246.164 217.146 c h
246.164 217.146 m f
212.242 357.239 m 211.453 357.696 210.824 358.47 210.578 359.446 c 209.148
 364.739 209.879 370.278 212.633 375.032 c 215.379 379.782 219.797 383.165
 225.078 384.595 c 227.027 385.114 229.02 383.966 229.535 382.036 c 230.027
 380.091 228.891 378.11 226.965 377.606 c 223.543 376.696 220.676 374.481
 218.902 371.419 c 217.121 368.345 216.641 364.759 217.574 361.325 c 218.09
 359.376 216.941 357.399 215.016 356.884 c 214.039 356.618 213.066 356.786
 212.242 357.239 c h
212.242 357.239 m f
106.074 183.224 m 106.875 182.771 107.492 181.981 107.75 181.017 c 109.195
 175.724 108.449 170.173 105.707 165.462 c 102.949 160.685 98.543 157.286
 93.238 155.876 c 91.293 155.356 89.312 156.493 88.797 158.446 c 88.277 
160.368 89.426 162.36 91.367 162.864 c 94.789 163.782 97.668 165.978 99.453
 169.079 c 101.199 172.126 101.684 175.712 100.742 179.146 c 100.238 181.083
 101.375 183.048 103.328 183.591 c 104.289 183.841 105.262 183.677 106.074
 183.224 c h
106.074 183.224 m f
258.238 294.212 m 257.992 295.103 258.094 296.099 258.598 296.962 c 261.332
 301.7 265.773 305.106 271.066 306.544 c 276.371 307.939 281.898 307.208
 286.652 304.478 c 288.371 303.47 288.988 301.251 287.969 299.517 c 286.973
 297.786 284.766 297.204 283.023 298.2 c 279.961 299.985 276.387 300.431
 272.953 299.532 c 269.52 298.61 266.652 296.431 264.867 293.329 c 263.871
 291.61 261.668 291.017 259.922 292.013 c 259.051 292.505 258.469 293.329
 258.238 294.212 c h
258.238 294.212 m f
60.094 246.251 m 60.324 245.364 60.219 244.368 59.719 243.493 c 56.984 
238.739 52.543 235.333 47.273 233.939 c 41.957 232.497 36.43 233.239 31.664
 235.981 c 29.934 236.989 29.34 239.181 30.359 240.927 c 31.344 242.661 
33.562 243.267 35.309 242.255 c 38.355 240.474 41.93 240.009 45.391 240.939
 c 48.797 241.841 51.68 244.028 53.426 247.114 c 54.434 248.837 56.664 249.442
 58.383 248.446 c 59.277 247.954 59.832 247.142 60.094 246.251 c h
60.094 246.251 m f
72.141 323.325 m 71.688 322.524 70.91 321.907 69.934 321.638 c 64.641 320.22
 59.113 320.95 54.363 323.692 c 49.613 326.431 46.215 330.868 44.797 336.161
 c 44.27 338.095 45.43 340.087 47.344 340.603 c 49.305 341.122 51.27 339.962
 51.785 338.044 c 52.707 334.61 54.91 331.743 57.988 329.974 c 61.035 328.204
 64.633 327.735 68.07 328.646 c 69.992 329.161 71.98 328.001 72.512 326.087
 c 72.781 325.122 72.613 324.138 72.141 323.325 c h
72.141 323.325 m f
246.164 217.146 m 246.629 217.935 247.406 218.587 248.383 218.821 c 253.676
 220.271 259.215 219.521 263.941 216.778 c 268.715 214.032 272.113 209.603
 273.523 204.31 c 274.055 202.376 272.895 200.372 270.953 199.88 c 269.02
 199.376 267.039 200.497 266.523 202.439 c 265.59 205.872 263.387 208.728
 260.324 210.509 c 257.273 212.278 253.676 212.747 250.242 211.841 c 248.32
 211.31 246.34 212.458 245.812 214.384 c 245.547 215.36 245.703 216.345 
246.164 217.146 c h
246.164 217.146 m f
212.242 357.239 m 211.453 357.696 210.824 358.47 210.578 359.446 c 209.148
 364.739 209.879 370.278 212.633 375.032 c 215.379 379.782 219.797 383.165
 225.078 384.595 c 227.027 385.114 229.02 383.966 229.535 382.036 c 230.027
 380.091 228.891 378.11 226.965 377.606 c 223.543 376.696 220.676 374.481
 218.902 371.419 c 217.121 368.345 216.641 364.759 217.574 361.325 c 218.09
 359.376 216.941 357.399 215.016 356.884 c 214.039 356.618 213.066 356.786
 212.242 357.239 c h
212.242 357.239 m f
106.074 183.224 m 106.875 182.771 107.492 181.981 107.75 181.017 c 109.195
 175.724 108.449 170.173 105.707 165.462 c 102.949 160.685 98.543 157.286
 93.238 155.876 c 91.293 155.356 89.312 156.493 88.797 158.446 c 88.277 
160.368 89.426 162.36 91.367 162.864 c 94.789 163.782 97.668 165.978 99.453
 169.079 c 101.199 172.126 101.684 175.712 100.742 179.146 c 100.238 181.083
 101.375 183.048 103.328 183.591 c 104.289 183.841 105.262 183.677 106.074
 183.224 c h
106.074 183.224 m f
258.238 294.212 m 257.992 295.103 258.094 296.099 258.598 296.962 c 261.332
 301.7 265.773 305.106 271.066 306.544 c 276.371 307.939 281.898 307.208
 286.652 304.478 c 288.371 303.47 288.988 301.251 287.969 299.517 c 286.973
 297.786 284.766 297.204 283.023 298.2 c 279.961 299.985 276.387 300.431
 272.953 299.532 c 269.52 298.61 266.652 296.431 264.867 293.329 c 263.871
 291.61 261.668 291.017 259.922 292.013 c 259.051 292.505 258.469 293.329
 258.238 294.212 c h
258.238 294.212 m f
60.094 246.251 m 60.324 245.364 60.219 244.368 59.719 243.493 c 56.984 
238.739 52.543 235.333 47.273 233.939 c 41.957 232.497 36.43 233.239 31.664
 235.981 c 29.934 236.989 29.34 239.181 30.359 240.927 c 31.344 242.661 
33.562 243.267 35.309 242.255 c 38.355 240.474 41.93 240.009 45.391 240.939
 c 48.797 241.841 51.68 244.028 53.426 247.114 c 54.434 248.837 56.664 249.442
 58.383 248.446 c 59.277 247.954 59.832 247.142 60.094 246.251 c h
60.094 246.251 m f
69.695 221.419 m 70.16 220.618 70.289 219.634 70.043 218.657 c 68.625 213.364
 65.215 208.935 60.477 206.2 c 55.711 203.45 50.199 202.728 44.879 204.134
 c 42.945 204.661 41.805 206.653 42.336 208.575 c 42.852 210.536 44.824 
211.649 46.754 211.146 c 50.199 210.224 53.777 210.704 56.859 212.474 c 
59.922 214.247 62.113 217.103 63.035 220.548 c 63.551 222.47 65.543 223.599
 67.477 223.118 c 68.453 222.853 69.23 222.231 69.695 221.419 c h
69.695 221.419 m f
248.645 319.028 m 248.191 319.829 248.016 320.825 248.312 321.786 c 249.707
 327.095 253.113 331.513 257.84 334.247 c 262.605 336.993 268.133 337.72
 273.438 336.302 c 275.371 335.782 276.512 333.794 275.996 331.856 c 275.477
 329.939 273.5 328.782 271.555 329.325 c 268.105 330.212 264.551 329.739
 261.484 327.981 c 258.395 326.212 256.191 323.333 255.281 319.923 c 254.793
 317.989 252.789 316.849 250.852 317.337 c 249.883 317.599 249.125 318.239
 248.645 319.028 c h
248.645 319.028 m f
110.359 359.704 m 109.57 359.251 108.59 359.087 107.613 359.356 c 102.305
 360.763 97.875 364.173 95.141 368.923 c 92.395 373.689 91.656 379.2 93.074
 384.509 c 93.617 386.431 95.582 387.571 97.531 387.079 c 99.465 386.524
 100.605 384.56 100.09 382.622 c 99.156 379.204 99.648 375.61 101.418 372.54
 c 103.176 369.466 106.043 367.263 109.477 366.353 c 111.426 365.837 112.566
 363.856 112.047 361.911 c 111.781 360.935 111.16 360.185 110.359 359.704
 c h
110.359 359.704 m f
207.969 180.739 m 208.77 181.208 209.754 181.356 210.73 181.099 c 216.023
 179.696 220.465 176.298 223.188 171.548 c 225.934 166.782 226.672 161.255
 225.23 155.962 c 224.727 154.028 222.742 152.864 220.801 153.403 c 218.879
 153.907 217.727 155.896 218.242 157.821 c 219.176 161.255 218.707 164.849
 216.926 167.935 c 215.156 170.985 212.289 173.181 208.852 174.091 c 206.93
 174.622 205.766 176.583 206.293 178.548 c 206.547 179.505 207.184 180.267
 207.969 180.739 c h
207.969 180.739 m f
187.93 368.021 m 187.02 368.243 186.223 368.837 185.738 369.7 c 182.977
 374.45 182.266 379.989 183.672 385.294 c 185.102 390.575 188.5 395.017 
193.258 397.751 c 194.977 398.735 197.195 398.169 198.203 396.411 c 199.199
 394.689 198.594 392.485 196.871 391.489 c 193.785 389.704 191.594 386.853
 190.672 383.415 c 189.758 379.981 190.219 376.403 192.016 373.321 c 192.996
 371.575 192.418 369.384 190.672 368.376 c 189.816 367.876 188.809 367.778
 187.93 368.021 c h
187.93 368.021 m f
130.41 172.442 m 131.301 172.196 132.098 171.603 132.629 170.751 c 135.363
 165.989 136.074 160.45 134.656 155.181 c 133.227 149.849 129.844 145.435
 125.074 142.704 c 123.352 141.696 121.148 142.29 120.152 144.036 c 119.129
 145.755 119.734 147.974 121.469 148.993 c 124.531 150.751 126.762 153.587
 127.656 157.052 c 128.574 160.462 128.109 164.056 126.312 167.11 c 125.332
 168.845 125.922 171.075 127.656 172.071 c 128.512 172.567 129.508 172.677
 130.41 172.442 c h
130.41 172.442 m f
106.098 183.224 m 106.887 182.759 107.492 181.981 107.75 180.993 c 109.195
 175.7 108.449 170.173 105.707 165.423 c 102.949 160.673 98.543 157.286 
93.25 155.856 c 91.289 155.341 89.324 156.501 88.797 158.403 c 88.277 160.364
 89.438 162.341 91.355 162.845 c 94.801 163.767 97.668 165.97 99.426 169.044
 c 101.195 172.106 101.676 175.692 100.742 179.13 c 100.238 181.036 101.398
 183.028 103.328 183.583 c 104.289 183.841 105.285 183.677 106.098 183.224
 c h
106.098 183.224 m f
212.254 357.228 m 211.469 357.696 210.824 358.47 210.594 359.446 c 209.148
 364.739 209.906 370.278 212.609 375.005 c 215.367 379.755 219.801 383.165
 225.078 384.583 c 227.027 385.114 229.02 383.954 229.508 382.024 c 230.027
 380.091 228.891 378.099 226.965 377.606 c 223.527 376.661 220.688 374.431
 218.902 371.407 c 217.121 368.333 216.668 364.731 217.574 361.325 c 218.113
 359.403 216.941 357.411 215.016 356.856 c 214.051 356.618 213.066 356.786
 212.254 357.228 c h
212.254 357.228 m f
72.141 323.302 m 71.699 322.524 70.91 321.896 69.945 321.638 c 64.668 320.208
 59.129 320.939 54.363 323.692 c 49.613 326.439 46.215 330.856 44.797 336.149
 c 44.281 338.083 45.441 340.075 47.344 340.606 c 49.305 341.083 51.27 339.95
 51.785 338.021 c 52.707 334.61 54.91 331.743 58 329.974 c 61.047 328.177
 64.633 327.7 68.07 328.63 c 70.004 329.161 72.008 328.013 72.512 326.071
 c 72.797 325.099 72.613 324.126 72.141 323.302 c h
72.141 323.302 m f
246.188 217.134 m 246.629 217.919 247.406 218.548 248.395 218.794 c 253.676
 220.243 259.215 219.521 263.941 216.767 c 268.715 214.021 272.113 209.603
 273.523 204.298 c 274.055 202.36 272.895 200.372 270.953 199.88 c 269.043
 199.349 267.039 200.481 266.523 202.423 c 265.609 205.872 263.438 208.724
 260.348 210.521 c 257.285 212.267 253.676 212.739 250.254 211.814 c 248.344
 211.31 246.352 212.419 245.824 214.384 c 245.559 215.349 245.73 216.333
 246.188 217.134 c h
246.188 217.134 m f
135.207 369.302 m 134.305 369.044 133.285 369.157 132.461 369.649 c 127.695
 372.396 124.297 376.825 122.863 382.126 c 121.457 387.419 122.176 392.958
 124.93 397.708 c 125.949 399.415 128.141 400.036 129.875 399.024 c 131.621
 398.028 132.188 395.814 131.203 394.079 c 129.41 391.005 128.957 387.442
 129.848 383.985 c 130.812 380.567 132.98 377.7 136.07 375.939 c 137.801
 374.915 138.371 372.724 137.387 370.978 c 136.883 370.114 136.07 369.528
 135.207 369.302 c h
135.207 369.302 m f
183.148 171.161 m 184.035 171.396 185.043 171.29 185.914 170.79 c 190.652
 168.044 194.062 163.587 195.457 158.345 c 196.906 153.013 196.156 147.485
 193.414 142.735 c 192.43 140.989 190.199 140.399 188.469 141.431 c 186.746
 142.403 186.129 144.618 187.125 146.376 c 188.934 149.427 189.398 153.001
 188.469 156.446 c 187.566 159.868 185.355 162.724 182.277 164.493 c 180.57
 165.501 179.965 167.735 180.949 169.454 c 181.445 170.325 182.273 170.903
 183.148 171.161 c h
183.148 171.161 m f
0.0352941 0.317647 0.427451 rg
128.449 315.751 m 128.449 308.599 122.652 309.278 115.512 309.278 c 108.375
 309.278 102.59 308.606 102.59 315.751 c 102.59 322.892 108.375 328.677 
115.512 328.677 c 122.652 328.677 128.449 322.892 128.449 315.751 c h
128.449 315.751 m f
0.0313726 0.129412 0.188235 rg
128.449 315.751 m 128.449 308.599 122.652 309.278 115.512 309.278 c 108.375
 309.278 102.59 308.606 102.59 315.751 c 102.59 322.892 108.375 323.446 
115.512 323.446 c 122.652 323.446 128.449 322.892 128.449 315.751 c h
128.449 315.751 m f
0.0352941 0.317647 0.427451 rg
215.754 315.751 m 215.754 308.599 209.953 309.278 202.816 309.278 c 195.676
 309.278 189.891 308.606 189.891 315.751 c 189.891 322.892 195.676 328.677
 202.816 328.677 c 209.957 328.677 215.754 322.892 215.754 315.751 c h
215.754 315.751 m f
0.0313726 0.129412 0.188235 rg
215.754 315.751 m 215.754 308.599 209.953 309.278 202.816 309.278 c 195.676
 309.278 189.891 308.606 189.891 315.751 c 189.891 322.892 195.676 323.446
 202.816 323.446 c 209.957 323.446 215.754 322.892 215.754 315.751 c h
215.754 315.751 m f
0.686275 0.227451 0.415686 rg
164.711 294.868 m 164.711 291.806 162.223 289.329 159.172 289.329 c 156.109
 289.329 153.617 291.806 153.617 294.868 c 153.617 297.942 156.105 300.419
 159.172 300.419 c 162.223 300.419 164.711 297.942 164.711 294.868 c h
164.711 294.868 m f
0.572549 0.643137 0.647059 rg
275.812 133.884 m 275.812 69.462 223.578 38.985 159.172 38.985 c 94.75 
38.985 42.527 69.462 42.527 133.884 c 42.527 198.302 94.75 229.993 159.172
 229.993 c 223.578 229.993 275.812 198.302 275.812 133.884 c h
275.812 133.884 m f
0.780392 0.823529 0.827451 rg
275.812 133.884 m 275.812 69.462 223.578 52.825 159.172 52.825 c 94.75 
52.825 42.527 69.47 42.527 133.884 c 42.527 198.298 94.75 250.524 159.172
 250.524 c 223.578 250.524 275.812 198.302 275.812 133.884 c h
275.812 133.884 m f
0.682353 0.72549 0.729412 rg
275.812 133.884 m 275.812 69.462 223.578 52.825 159.172 52.825 c 94.75 
52.825 42.527 69.47 42.527 133.884 c 42.527 198.298 94.75 229.993 159.172
 229.993 c 223.578 229.993 275.812 198.302 275.812 133.884 c h
275.812 133.884 m f
159.027 108.083 m 159.027 64.169 123.434 52.817 79.508 52.817 c 35.59 52.817
 0 64.169 0 108.083 c 0 152.001 35.59 187.599 79.5 187.599 c 123.43 187.599
 159.027 152.001 159.027 108.083 c h
159.027 108.083 m f
318.348 108.083 m 318.348 64.169 282.742 52.817 238.828 52.817 c 194.902
 52.817 159.309 64.169 159.309 108.083 c 159.309 152.001 194.902 187.599
 238.828 187.599 c 282.738 187.599 318.348 152.001 318.348 108.083 c h
318.348 108.083 m f
0.0352941 0.317647 0.427451 rg
122.434 160.083 m 122.434 151.544 115.488 152.353 106.949 152.353 c 98.41
 152.353 91.492 151.54 91.492 160.083 c 91.492 168.63 98.41 175.556 106.949
 175.556 c 115.488 175.556 122.434 168.63 122.434 160.083 c h
122.434 160.083 m f
0.0313726 0.129412 0.188235 rg
122.434 160.083 m 122.434 151.544 115.488 152.353 106.949 152.353 c 98.41
 152.353 91.492 151.54 91.492 160.083 c 91.492 168.63 98.41 169.302 106.949
 169.302 c 115.488 169.302 122.434 168.63 122.434 160.083 c h
122.434 160.083 m f
0.0352941 0.317647 0.427451 rg
226.848 160.083 m 226.848 151.544 219.918 152.353 211.379 152.353 c 202.84
 152.353 195.91 151.54 195.91 160.083 c 195.91 168.63 202.84 175.556 211.379
 175.556 c 219.918 175.556 226.848 168.63 226.848 160.083 c h
226.848 160.083 m f
0.0313726 0.129412 0.188235 rg
226.848 160.083 m 226.848 151.544 219.918 152.353 211.379 152.353 c 202.84
 152.353 195.91 151.54 195.91 160.083 c 195.91 168.63 202.84 169.302 211.379
 169.302 c 219.918 169.302 226.848 168.63 226.848 160.083 c h
226.848 160.083 m f
0.686275 0.227451 0.415686 rg
187.281 140.79 m 187.281 133.751 174.691 128.028 159.172 128.028 c 143.637
 128.028 131.047 133.751 131.047 140.79 c 131.047 147.841 143.637 139.939
 159.172 139.939 c 174.691 139.939 187.281 147.841 187.281 140.79 c h
187.281 140.79 m f
0.509804 0.0862745 0.278431 rg
159.172 139.939 m 146.617 139.939 136.004 145.079 132.391 143.349 c 135.898
 138.118 146.48 134.278 159.172 134.278 c 171.863 134.278 182.441 138.118
 185.938 143.349 c 182.324 145.079 171.711 139.939 159.172 139.939 c h
159.172 139.939 m f
0.780392 0.823529 0.827451 rg
70.805 133.157 m 70.805 127.978 60.219 134.485 47.16 134.485 c 34.09 134.485
 23.492 127.978 23.492 133.157 c 23.492 138.337 34.09 142.521 47.16 142.521
 c 60.219 142.521 70.805 138.337 70.805 133.157 c h
70.805 133.157 m f
294.836 133.157 m 294.836 127.978 284.238 134.485 271.168 134.485 c 258.125
 134.485 247.523 127.978 247.523 133.157 c 247.523 138.337 258.125 142.521
 271.168 142.521 c 284.242 142.521 294.836 138.337 294.836 133.157 c h
294.836 133.157 m f
126.371 193.685 m 126.371 190.314 119.465 194.548 110.977 194.548 c 102.469
 194.548 95.57 190.314 95.57 193.685 c 95.57 197.056 102.477 199.79 110.977
 199.79 c 119.465 199.79 126.371 197.056 126.371 193.685 c h
126.371 193.685 m f
222.766 193.685 m 222.766 190.314 215.859 194.548 207.359 194.548 c 198.863
 194.548 191.965 190.314 191.965 193.685 c 191.965 197.056 198.871 199.79
 207.359 199.79 c 215.859 199.79 222.766 197.056 222.766 193.685 c h
222.766 193.685 m f
0.356863 0.662745 0.756863 rg
67.969 7.79 m 67.969 3.489 64.484 0.001 60.18 0.001 c 55.875 0.001 52.379
 3.497 52.379 7.79 c 52.379 12.099 55.875 29.935 60.18 29.935 c 64.484 29.935
 67.969 12.099 67.969 7.79 c h
67.969 7.79 m f
0.176471 0.6 0.698039 rg
60.18 29.935 m 64.492 29.935 67.969 12.099 67.969 7.79 c 67.969 3.489 64.484
 0.001 60.18 0.001 c f
0.356863 0.662745 0.756863 rg
107.566 7.79 m 107.566 3.489 104.07 0.001 99.777 0.001 c 95.469 0.001 91.988
 3.497 91.988 7.79 c 91.988 12.099 95.473 29.935 99.777 29.935 c 104.07 
29.935 107.566 12.099 107.566 7.79 c h
107.566 7.79 m f
0.176471 0.6 0.698039 rg
99.773 29.935 m 104.07 29.935 107.562 12.099 107.562 7.79 c 107.562 3.489
 104.062 0.001 99.773 0.001 c f
0.356863 0.662745 0.756863 rg
147.16 7.79 m 147.16 3.489 143.676 0.001 139.371 0.001 c 135.074 0.001 
131.57 3.497 131.57 7.79 c 131.57 12.099 135.078 29.935 139.371 29.935 c
 143.676 29.935 147.16 12.099 147.16 7.79 c h
147.16 7.79 m f
0.176471 0.6 0.698039 rg
139.363 29.935 m 143.676 29.935 147.152 12.099 147.152 7.79 c 147.152 3.489
 143.668 0.001 139.363 0.001 c f
0.356863 0.662745 0.756863 rg
186.766 7.79 m 186.766 3.489 183.27 0.001 178.965 0.001 c 174.66 0.001 
171.188 3.497 171.188 7.79 c 171.188 12.099 174.66 29.935 178.965 29.935
 c 183.27 29.935 186.766 12.099 186.766 7.79 c h
186.766 7.79 m f
0.176471 0.6 0.698039 rg
178.965 29.935 m 183.273 29.935 186.766 12.099 186.766 7.79 c 186.766 3.489
 183.27 0.001 178.965 0.001 c f
0.356863 0.662745 0.756863 rg
226.344 7.79 m 226.344 3.489 222.859 0.001 218.57 0.001 c 214.258 0.001
 210.77 3.497 210.77 7.79 c 210.77 12.099 214.266 29.935 218.57 29.935 c
 222.859 29.935 226.344 12.099 226.344 7.79 c h
226.344 7.79 m f
0.176471 0.6 0.698039 rg
218.57 29.935 m 222.867 29.935 226.344 12.099 226.344 7.79 c 226.344 3.489
 222.859 0.001 218.57 0.001 c f
0.356863 0.662745 0.756863 rg
265.965 7.79 m 265.965 3.489 262.465 0.001 258.16 0.001 c 253.859 0.001
 250.371 3.497 250.371 7.79 c 250.371 12.099 253.859 29.935 258.16 29.935
 c 262.465 29.935 265.965 12.099 265.965 7.79 c h
265.965 7.79 m f
0.176471 0.6 0.698039 rg
258.16 29.935 m 262.473 29.935 265.965 12.099 265.965 7.79 c 265.965 3.489
 262.465 0.001 258.16 0.001 c f
Q Q
showpage
%%Trailer
end restore
%%EOF
