%!PS-Adobe-3.0 EPSF-3.0
%%Creator: cairo 1.14.2 (http://cairographics.org)
%%CreationDate: Thu Aug  4 10:36:13 2016
%%Pages: 1
%%DocumentData: Clean7Bit
%%LanguageLevel: 2
%%BoundingBox: 0 -1 404 404
%%EndComments
%%BeginProlog
save
50 dict begin
/q { gsave } bind def
/Q { grestore } bind def
/cm { 6 array astore concat } bind def
/w { setlinewidth } bind def
/J { setlinecap } bind def
/j { setlinejoin } bind def
/M { setmiterlimit } bind def
/d { setdash } bind def
/m { moveto } bind def
/l { lineto } bind def
/c { curveto } bind def
/h { closepath } bind def
/re { exch dup neg 3 1 roll 5 3 roll moveto 0 rlineto
      0 exch rlineto 0 rlineto closepath } bind def
/S { stroke } bind def
/f { fill } bind def
/f* { eofill } bind def
/n { newpath } bind def
/W { clip } bind def
/W* { eoclip } bind def
/BT { } bind def
/ET { } bind def
/pdfmark where { pop globaldict /?pdfmark /exec load put }
    { globaldict begin /?pdfmark /pop load def /pdfmark
    /cleartomark load def end } ifelse
/BDC { mark 3 1 roll /BDC pdfmark } bind def
/EMC { mark /EMC pdfmark } bind def
/cairo_store_point { /cairo_point_y exch def /cairo_point_x exch def } def
/Tj { show currentpoint cairo_store_point } bind def
/TJ {
  {
    dup
    type /stringtype eq
    { show } { -0.001 mul 0 cairo_font_matrix dtransform rmoveto } ifelse
  } forall
  currentpoint cairo_store_point
} bind def
/cairo_selectfont { cairo_font_matrix aload pop pop pop 0 0 6 array astore
    cairo_font exch selectfont cairo_point_x cairo_point_y moveto } bind def
/Tf { pop /cairo_font exch def /cairo_font_matrix where
      { pop cairo_selectfont } if } bind def
/Td { matrix translate cairo_font_matrix matrix concatmatrix dup
      /cairo_font_matrix exch def dup 4 get exch 5 get cairo_store_point
      /cairo_font where { pop cairo_selectfont } if } bind def
/Tm { 2 copy 8 2 roll 6 array astore /cairo_font_matrix exch def
      cairo_store_point /cairo_font where { pop cairo_selectfont } if } bind def
/g { setgray } bind def
/rg { setrgbcolor } bind def
/d1 { setcachedevice } bind def
%%EndProlog
%%BeginSetup
%%EndSetup
%%Page: 1 1
%%BeginPageSetup
%%PageBoundingBox: 0 -1 404 404
%%EndPageSetup
q 0 -1 404 405 rectclip q
0.427451 0.266667 0.0901961 rg
166.188 145.516 m 162.922 142.254 157.648 142.254 154.379 145.516 c 145.523
 154.375 l 142.258 157.641 142.258 162.914 145.523 166.18 c 380.191 400.848
 l 383.445 404.114 388.73 404.114 391.996 400.848 c 400.855 391.989 l 404.125
 388.727 404.117 383.45 400.855 380.2 c h
166.188 145.516 m f
0.537255 0.364706 0.141176 rg
391.105 401.45 m 387.844 403.957 383.188 403.86 380.191 400.856 c 145.523
 166.188 l 142.523 163.192 142.422 158.532 144.945 155.27 c 148.207 152.762
 152.859 152.86 155.852 155.852 c 390.527 390.52 l 393.52 393.52 393.613
 398.172 391.105 401.45 c h
391.105 401.45 m f
0.501961 0.756863 0.819608 rg
121.898 101.25 m 118.648 97.985 113.359 97.985 110.098 101.235 c 101.25
 110.11 l 97.973 113.36 97.973 118.645 101.25 121.91 c 146.992 167.66 l 
150.262 170.922 155.543 170.922 158.801 167.66 c 167.668 158.813 l 170.926
 155.535 170.926 150.262 167.66 146.996 c h
121.898 101.25 m f
0.611765 0.847059 0.886275 rg
158.207 168.063 m 154.926 170.809 150.086 170.75 146.992 167.66 c 101.25
 121.91 l 98.148 118.825 98.078 113.985 100.844 110.688 c 104.129 107.93
 108.969 108.004 112.07 111.078 c 160.957 159.965 l 164.051 163.067 160.961
 164.77 158.207 168.063 c h
158.207 168.063 m f
0.501961 0.756863 0.819608 rg
160.527 30.653 m 157.262 27.387 151.984 27.387 148.719 30.653 c 30.641 
148.719 l 27.391 151.996 27.391 157.258 30.652 160.532 c 41.719 171.598 
l 44.988 174.852 50.258 174.864 53.527 171.598 c 171.586 53.532 l 174.863
 50.258 174.863 44.981 171.586 41.731 c h
160.527 30.653 m f
0.611765 0.847059 0.886275 rg
53.527 171.598 m 50.961 174.157 47.184 174.637 44.082 173.16 c 42.621 170.086
 43.09 166.293 45.656 163.723 c 163.723 45.668 l 166.281 43.098 170.074 
42.618 173.16 44.082 c 174.637 47.18 174.156 50.961 171.586 53.532 c h
53.527 171.598 m f
0.501961 0.756863 0.819608 rg
8.523 123.278 m 6.57 121.321 3.418 121.332 1.465 123.278 c -0.488 125.227
 -0.488 128.391 1.473 130.344 c 31.555 160.422 l 33.5 162.368 36.656 162.368
 38.598 160.422 c 40.559 158.473 40.559 155.309 38.605 153.368 c h
8.523 123.278 m f
25.926 105.875 m 23.969 103.926 20.809 103.926 18.871 105.875 c 16.914 
107.832 16.914 110.985 18.875 112.938 c 48.953 143.016 l 50.906 144.961 
54.062 144.961 56.004 143.016 c 57.957 141.067 57.957 137.907 56.004 135.965
 c h
25.926 105.875 m f
43.324 88.489 m 41.363 86.528 38.215 86.528 36.262 88.489 c 34.312 90.434
 34.312 93.586 36.273 95.539 c 66.352 125.618 l 68.297 127.563 71.449 127.578
 73.414 125.618 c 75.363 123.668 75.355 120.508 73.414 118.567 c h
43.324 88.489 m f
60.73 71.082 m 58.77 69.125 55.633 69.118 53.664 71.082 c 51.719 73.032
 51.719 76.168 53.684 78.121 c 83.758 108.211 l 85.723 110.16 88.867 110.16
 90.82 108.211 c 92.77 106.254 92.754 103.114 90.82 101.16 c h
60.73 71.082 m f
78.137 53.68 m 76.176 51.711 73.031 51.711 71.07 53.664 c 69.125 55.625
 69.125 58.762 71.09 60.731 c 101.168 90.809 l 103.121 92.754 106.258 92.766
 108.227 90.809 c 110.172 88.86 110.172 85.711 108.211 83.77 c h
78.137 53.68 m f
95.539 36.274 m 93.586 34.313 90.438 34.313 88.477 36.274 c 86.527 38.223
 86.527 41.383 88.48 43.325 c 118.555 73.403 l 120.512 75.364 123.672 75.364
 125.617 73.403 c 127.578 71.457 127.578 68.293 125.625 66.34 c h
95.539 36.274 m f
112.938 18.875 m 110.977 16.914 107.82 16.926 105.875 18.875 c 103.922 
20.821 103.922 23.973 105.887 25.926 c 135.965 56.016 l 137.918 57.961 141.074
 57.961 143.016 56.016 c 144.961 54.055 144.969 50.907 143.016 48.965 c 
h
112.938 18.875 m f
130.336 1.469 m 128.375 -0.492 125.23 -0.492 123.266 1.469 c 121.324 3.418
 121.324 6.567 123.293 8.52 c 153.371 38.61 l 155.316 40.559 158.469 40.559
 160.422 38.61 c 162.375 36.653 162.375 33.5 160.422 31.559 c h
130.336 1.469 m f
Q Q
showpage
%%Trailer
end restore
%%EOF
