%!PS-Adobe-3.0 EPSF-3.0
%%Creator: cairo 1.14.2 (http://cairographics.org)
%%CreationDate: Thu Aug  4 10:36:20 2016
%%Pages: 1
%%DocumentData: Clean7Bit
%%LanguageLevel: 2
%%BoundingBox: 0 -1 360 404
%%EndComments
%%BeginProlog
save
50 dict begin
/q { gsave } bind def
/Q { grestore } bind def
/cm { 6 array astore concat } bind def
/w { setlinewidth } bind def
/J { setlinecap } bind def
/j { setlinejoin } bind def
/M { setmiterlimit } bind def
/d { setdash } bind def
/m { moveto } bind def
/l { lineto } bind def
/c { curveto } bind def
/h { closepath } bind def
/re { exch dup neg 3 1 roll 5 3 roll moveto 0 rlineto
      0 exch rlineto 0 rlineto closepath } bind def
/S { stroke } bind def
/f { fill } bind def
/f* { eofill } bind def
/n { newpath } bind def
/W { clip } bind def
/W* { eoclip } bind def
/BT { } bind def
/ET { } bind def
/pdfmark where { pop globaldict /?pdfmark /exec load put }
    { globaldict begin /?pdfmark /pop load def /pdfmark
    /cleartomark load def end } ifelse
/BDC { mark 3 1 roll /BDC pdfmark } bind def
/EMC { mark /EMC pdfmark } bind def
/cairo_store_point { /cairo_point_y exch def /cairo_point_x exch def } def
/Tj { show currentpoint cairo_store_point } bind def
/TJ {
  {
    dup
    type /stringtype eq
    { show } { -0.001 mul 0 cairo_font_matrix dtransform rmoveto } ifelse
  } forall
  currentpoint cairo_store_point
} bind def
/cairo_selectfont { cairo_font_matrix aload pop pop pop 0 0 6 array astore
    cairo_font exch selectfont cairo_point_x cairo_point_y moveto } bind def
/Tf { pop /cairo_font exch def /cairo_font_matrix where
      { pop cairo_selectfont } if } bind def
/Td { matrix translate cairo_font_matrix matrix concatmatrix dup
      /cairo_font_matrix exch def dup 4 get exch 5 get cairo_store_point
      /cairo_font where { pop cairo_selectfont } if } bind def
/Tm { 2 copy 8 2 roll 6 array astore /cairo_font_matrix exch def
      cairo_store_point /cairo_font where { pop cairo_selectfont } if } bind def
/g { setgray } bind def
/rg { setrgbcolor } bind def
/d1 { setcachedevice } bind def
%%EndProlog
%%BeginSetup
%%EndSetup
%%Page: 1 1
%%BeginPageSetup
%%PageBoundingBox: 0 -1 360 404
%%EndPageSetup
q 0 -1 360 405 rectclip q
0.6 0 0 rg
97.184 179.652 m 116.984 165.757 104.363 160.28 45.707 104.796 c 39.965
 99.355 25.707 104.585 20.121 110.163 c 14.531 115.753 9.484 121.316 15.062
 126.902 c 20.66 132.484 90.73 184.183 97.184 179.652 c h
97.184 179.652 m f
179.645 97.202 m 165.75 116.984 160.273 104.355 104.797 45.706 c 99.363
 39.972 104.59 25.706 110.164 20.128 c 115.75 14.538 121.324 9.491 126.906
 15.081 c 132.496 20.655 184.184 90.722 179.645 97.202 c h
179.645 97.202 m f
0.556863 0.698039 0.698039 rg
206.465 121.284 m 206.465 158.812 l 226.043 158.812 l 226.043 188.499 l
 245.617 188.499 l 245.617 218.198 l 265.195 218.198 l 265.195 247.882 l
 284.781 247.882 l 284.781 277.57 l 304.359 277.57 l 304.359 307.269 l 323.941
 307.269 l 323.941 336.956 l 343.523 336.956 l 343.523 366.644 l 359.664
 366.644 l 359.965 375.968 356.828 384.917 349.449 392.304 c 334.793 406.96
 311.027 406.96 296.379 392.304 c 92.043 187.956 l 77.391 173.3 88.867 161.019
 103.512 146.366 c 118.168 131.71 170.988 74.855 185.625 89.519 c 206.484
 121.284 l h
206.465 121.284 m f
0.462745 0.6 0.607843 rg
296.395 392.304 m 92.043 187.956 l 86.66 182.57 84.82 177.507 85.352 172.538
 c 112.152 145.741 l 353.625 387.206 l 352.395 388.964 351.074 390.691 349.461
 392.304 c 334.801 406.96 311.047 406.96 296.395 392.304 c h
296.395 392.304 m f
0.74902 0.0470588 0.0470588 rg
188.934 97.644 m 191.602 94.956 191.602 90.644 188.941 87.984 c 177.926
 76.968 l 175.262 74.284 170.938 74.284 168.258 76.968 c 76.969 168.277 
l 74.297 170.937 74.289 175.265 76.969 177.925 c 87.984 188.941 l 90.648
 191.612 94.973 191.601 97.633 188.941 c h
188.934 97.644 m f
0.937255 0.0588235 0.0588235 rg
87.977 188.941 m 76.961 177.925 l 74.285 175.265 74.289 170.937 76.961 
168.277 c 105.414 139.82 l 108.078 137.136 112.402 137.136 115.066 139.82
 c 126.09 150.82 l 128.75 153.491 128.75 157.812 126.082 160.495 c 97.625
 188.941 l 94.973 191.601 90.645 191.612 87.977 188.941 c h
87.977 188.941 m f
0.921569 0.941176 0.94902 rg
320.762 371.249 m 320.762 366.441 316.863 362.542 312.055 362.542 c 307.242
 362.542 303.344 366.441 303.344 371.249 c 303.344 376.058 307.242 379.956
 312.055 379.956 c 316.863 379.956 320.762 376.058 320.762 371.249 c h
320.762 371.249 m f
0.74902 0.0470588 0.0470588 rg
138.566 29.616 m 146.59 21.609 141.152 14.023 133.129 6.011 c 125.117 -2.009
 112.094 -1.997 104.078 6.011 c 6.016 104.081 l -2.008 112.105 -2 125.116
 6.016 133.128 c 14.023 141.148 21.598 146.593 29.621 138.577 c h
138.566 29.616 m f
0.937255 0.0588235 0.0588235 rg
6.016 133.128 m -2 125.116 -2.008 112.105 6.016 104.081 c 31.641 78.448
 l 39.652 70.441 52.684 70.425 60.699 78.448 c 68.715 86.456 74.156 94.046
 66.137 102.054 c 29.617 138.577 l 21.59 146.593 14.023 141.148 6.016 133.128
 c h
6.016 133.128 m f
Q Q
showpage
%%Trailer
end restore
%%EOF
