%!PS-Adobe-3.0 EPSF-3.0
%%Creator: cairo 1.14.2 (http://cairographics.org)
%%CreationDate: Thu Aug  4 10:36:28 2016
%%Pages: 1
%%DocumentData: Clean7Bit
%%LanguageLevel: 2
%%BoundingBox: 0 -1 380 404
%%EndComments
%%BeginProlog
save
50 dict begin
/q { gsave } bind def
/Q { grestore } bind def
/cm { 6 array astore concat } bind def
/w { setlinewidth } bind def
/J { setlinecap } bind def
/j { setlinejoin } bind def
/M { setmiterlimit } bind def
/d { setdash } bind def
/m { moveto } bind def
/l { lineto } bind def
/c { curveto } bind def
/h { closepath } bind def
/re { exch dup neg 3 1 roll 5 3 roll moveto 0 rlineto
      0 exch rlineto 0 rlineto closepath } bind def
/S { stroke } bind def
/f { fill } bind def
/f* { eofill } bind def
/n { newpath } bind def
/W { clip } bind def
/W* { eoclip } bind def
/BT { } bind def
/ET { } bind def
/pdfmark where { pop globaldict /?pdfmark /exec load put }
    { globaldict begin /?pdfmark /pop load def /pdfmark
    /cleartomark load def end } ifelse
/BDC { mark 3 1 roll /BDC pdfmark } bind def
/EMC { mark /EMC pdfmark } bind def
/cairo_store_point { /cairo_point_y exch def /cairo_point_x exch def } def
/Tj { show currentpoint cairo_store_point } bind def
/TJ {
  {
    dup
    type /stringtype eq
    { show } { -0.001 mul 0 cairo_font_matrix dtransform rmoveto } ifelse
  } forall
  currentpoint cairo_store_point
} bind def
/cairo_selectfont { cairo_font_matrix aload pop pop pop 0 0 6 array astore
    cairo_font exch selectfont cairo_point_x cairo_point_y moveto } bind def
/Tf { pop /cairo_font exch def /cairo_font_matrix where
      { pop cairo_selectfont } if } bind def
/Td { matrix translate cairo_font_matrix matrix concatmatrix dup
      /cairo_font_matrix exch def dup 4 get exch 5 get cairo_store_point
      /cairo_font where { pop cairo_selectfont } if } bind def
/Tm { 2 copy 8 2 roll 6 array astore /cairo_font_matrix exch def
      cairo_store_point /cairo_font where { pop cairo_selectfont } if } bind def
/g { setgray } bind def
/rg { setrgbcolor } bind def
/d1 { setcachedevice } bind def
%%EndProlog
%%BeginSetup
%%EndSetup
%%Page: 1 1
%%BeginPageSetup
%%PageBoundingBox: 0 -1 380 404
%%EndPageSetup
q 0 -1 380 405 rectclip q
0.788235 0.537255 0.0352941 rg
43.426 255.604 m 46.91 255.413 l 46.367 239.753 l 39.625 240.112 l 38.672
 238.694 l 38.402 238.971 l 37.223 231.21 l 46.355 232.35 l 47.57 216.741
 l 38.332 215.593 l 44.055 208.378 l 17.945 175.452 l 9.152 186.55 l 16.238
 195.491 l 7.488 188.53 l 0.84 201.78 l 14.441 212.62 l 10.844 212.171 l
 10.492 216.862 l 1.223 215.702 l 0 231.311 l 7.781 232.28 l 0.074 234.151
 l 2.426 249.557 l 9.703 247.776 l 10.02 257.386 l 12.496 257.253 l 2.32
 262.081 l 6.699 276.764 l 13.664 273.46 l 15.547 276.284 l 11.707 280.386
 l 19.73 292.358 l 47.918 262.276 l h
43.426 255.604 m f
0.917647 0.662745 0.0941176 rg
53.859 219.526 m 57.383 219.679 l 56.852 232.257 l 50.023 231.971 l 49.051
 233.108 l 48.781 232.886 l 47.57 239.116 l 56.828 238.206 l 58.07 250.737
 l 48.703 251.671 l 54.488 257.448 l 28.055 283.889 l 19.156 274.987 l 26.328
 267.796 l 17.469 273.397 l 10.75 262.741 l 24.508 254.054 l 20.879 254.413
 l 20.504 250.643 l 11.117 251.569 l 9.875 239.042 l 17.766 238.261 l 9.965
 236.749 l 12.344 224.378 l 19.719 225.807 l 20.039 218.096 l 22.527 218.202
 l 12.238 214.327 l 16.68 202.538 l 23.719 205.19 l 25.629 202.921 l 21.727
 199.632 l 29.863 190.011 l 58.414 214.163 l h
53.859 219.526 m f
0.788235 0.537255 0.0352941 rg
335.98 255.604 m 332.496 255.413 l 333.035 239.753 l 339.777 240.112 l 
340.73 238.694 l 340.988 238.971 l 342.18 231.21 l 333.051 232.35 l 331.832
 216.741 l 341.07 215.593 l 335.348 208.378 l 361.457 175.452 l 370.254 
186.55 l 363.164 195.491 l 371.918 188.53 l 378.566 201.78 l 364.961 212.62
 l 368.559 212.171 l 368.91 216.862 l 378.18 215.702 l 379.402 231.311 l
 371.621 232.28 l 379.328 234.151 l 376.977 249.557 l 369.699 247.776 l 
369.383 257.386 l 366.906 257.253 l 377.086 262.081 l 372.703 276.764 l 
365.742 273.46 l 363.859 276.284 l 367.695 280.386 l 359.688 292.358 l 331.488
 262.276 l h
335.98 255.604 m f
0.917647 0.662745 0.0941176 rg
325.543 219.526 m 322.023 219.679 l 322.551 232.257 l 329.383 231.971 l
 330.352 233.108 l 330.625 232.886 l 331.832 239.116 l 322.574 238.206 l
 321.348 250.737 l 330.711 251.671 l 324.914 257.448 l 351.348 283.889 l
 360.246 274.987 l 353.074 267.796 l 361.934 273.397 l 368.652 262.741 l
 354.898 254.054 l 358.539 254.413 l 358.91 250.643 l 368.289 251.569 l 
369.527 239.042 l 361.641 238.261 l 369.441 236.749 l 367.059 224.378 l 
359.699 225.807 l 359.375 218.096 l 356.875 218.202 l 367.164 214.327 l 
362.734 202.538 l 355.695 205.19 l 353.773 202.921 l 357.676 199.632 l 349.539
 190.011 l 320.988 214.163 l h
325.543 219.526 m f
0.427451 0.266667 0.0901961 rg
207.508 9.155 m 207.508 4.096 203.402 -0.001 198.355 -0.001 c 181.051 -0.001
 l 176.004 -0.001 171.906 4.096 171.906 9.155 c 171.906 140.374 l 171.906
 145.432 176.004 149.53 181.051 149.53 c 198.355 149.53 l 203.402 149.53
 207.508 145.432 207.508 140.374 c h
207.508 9.155 m f
207.508 49.245 m 207.508 44.186 203.402 40.089 198.355 40.089 c 181.051
 40.089 l 176.004 40.089 171.906 44.186 171.906 49.245 c 171.906 180.471
 l 171.906 185.53 176.004 189.624 181.051 189.624 c 198.355 189.624 l 203.402
 189.624 207.508 185.53 207.508 180.471 c h
207.508 49.245 m f
0.286275 0.160784 0.0392157 rg
207.508 49.245 m 207.508 44.186 203.402 40.089 198.355 40.089 c 181.051
 40.089 l 176.004 40.089 171.906 44.186 171.906 49.245 c 171.906 180.471
 l 171.906 185.53 176.004 189.624 181.051 189.624 c 198.355 189.624 l 203.402
 189.624 207.508 185.53 207.508 180.471 c h
207.508 49.245 m f
0.94902 0.392157 0.0117647 rg
322.98 271.968 m 56.438 271.968 l 42.09 271.968 43.43 262.007 43.43 249.761
 c 43.43 218.335 l 43.43 206.093 55.102 196.128 69.438 196.128 c 118.445
 196.128 l 100.914 77.886 l 100.629 76.022 101.184 74.12 102.426 72.69 c
 103.652 71.257 105.449 70.44 107.348 70.44 c 272.18 70.44 l 275.773 70.44
 278.68 73.343 278.68 76.936 c 278.68 77.718 278.547 78.46 278.289 79.155
 c 260.957 196.124 l 309.965 196.124 l 324.301 196.124 335.973 206.085 335.973
 218.331 c 335.973 249.757 l 335.98 262.007 337.32 271.968 322.98 271.968
 c h
322.98 271.968 m f
0.776471 0.258824 0 rg
322.98 248.671 m 56.438 248.671 l 45.074 248.671 43.562 242.382 43.43 233.71
 c 43.43 218.335 l 43.43 206.093 55.102 196.128 69.438 196.128 c 118.445
 196.128 l 114.996 172.831 l 118.445 172.831 l 103.492 71.901 l 104.613 
71.046 105.918 70.444 107.355 70.444 c 272.188 70.444 l 273.621 70.444 274.875
 70.999 275.934 71.776 c 260.965 172.831 l 264.414 172.831 l 260.965 196.128
 l 309.973 196.128 l 324.309 196.128 335.98 206.093 335.98 218.335 c 335.98
 233.71 l 335.84 242.382 334.328 248.671 322.98 248.671 c h
322.98 248.671 m f
0.286275 0.160784 0.0392157 rg
189.703 234.343 m 227.328 271.968 l 152.074 271.968 l h
189.703 234.343 m f
0.788235 0.537255 0.0352941 rg
132.977 341.315 m 132.977 341.315 148.973 341.046 151.672 374.229 c 153.184
 392.741 168.34 415.679 190.684 395.362 c 213.023 375.042 207.742 400.643
 221.551 393.335 c 235.367 386.018 232.125 346.198 246.758 340.108 c 261.375
 334.014 178.891 325.479 178.891 325.479 c 137.84 339.292 l h
132.977 341.315 m f
0.447059 0.243137 0.0784314 rg
252.988 336.307 m 252.988 329.35 247.348 323.71 240.387 323.71 c 143.68
 323.71 l 136.727 323.71 131.078 329.354 131.078 336.307 c 131.078 343.264
 136.727 348.905 143.68 348.905 c 240.387 348.905 l 247.348 348.905 252.988
 343.268 252.988 336.307 c h
252.988 336.307 m f
0.286275 0.160784 0.0392157 rg
223.535 336.307 m 223.535 329.35 220.605 323.71 217.012 323.71 c 167.055
 323.71 l 163.461 323.71 160.543 329.354 160.543 336.307 c 160.543 343.264
 163.461 348.905 167.055 348.905 c 217.012 348.905 l 220.605 348.905 223.535
 343.268 223.535 336.307 c h
223.535 336.307 m f
0.917647 0.662745 0.0941176 rg
289.652 341.87 m 289.652 323.003 244.898 307.718 189.703 307.718 c 134.488
 307.718 89.754 323.003 89.754 341.87 c 89.754 360.729 134.492 335.839 189.703
 335.839 c 244.902 335.839 289.652 360.729 289.652 341.87 c h
289.652 341.87 m f
0.788235 0.537255 0.0352941 rg
189.703 335.839 m 144.57 335.839 106.477 352.444 94.043 348.221 c 106.477
 334.175 144.57 323.96 189.703 323.96 c 234.82 323.96 272.926 334.179 285.359
 348.221 c 272.926 352.444 234.82 335.839 189.703 335.839 c h
189.703 335.839 m f
0.94902 0.392157 0.0117647 rg
195.387 209.147 m 195.387 206.011 192.84 203.464 189.703 203.464 c 186.562
 203.464 184.02 206.011 184.02 209.147 c 184.02 212.288 186.562 214.831 
189.703 214.831 c 192.84 214.831 195.387 212.288 195.387 209.147 c h
195.387 209.147 m f
195.387 174.186 m 195.387 171.046 192.84 168.503 189.703 168.503 c 186.562
 168.503 184.02 171.046 184.02 174.186 c 184.02 177.327 186.562 179.87 189.703
 179.87 c 192.84 179.87 195.387 177.327 195.387 174.186 c h
195.387 174.186 m f
195.387 139.264 m 195.387 136.124 192.84 133.581 189.703 133.581 c 186.562
 133.581 184.02 136.124 184.02 139.264 c 184.02 142.401 186.562 144.948 
189.703 144.948 c 192.84 144.948 195.387 142.401 195.387 139.264 c h
195.387 139.264 m f
195.387 104.296 m 195.387 101.155 192.84 98.612 189.703 98.612 c 186.562
 98.612 184.02 101.155 184.02 104.296 c 184.02 107.436 186.562 109.979 189.703
 109.979 c 192.84 109.979 195.387 107.436 195.387 104.296 c h
195.387 104.296 m f
Q Q
showpage
%%Trailer
end restore
%%EOF
