%!PS-Adobe-3.0 EPSF-3.0
%%Creator: cairo 1.14.2 (http://cairographics.org)
%%CreationDate: Thu Aug  4 10:36:35 2016
%%Pages: 1
%%DocumentData: Clean7Bit
%%LanguageLevel: 2
%%BoundingBox: 0 -1 385 296
%%EndComments
%%BeginProlog
save
50 dict begin
/q { gsave } bind def
/Q { grestore } bind def
/cm { 6 array astore concat } bind def
/w { setlinewidth } bind def
/J { setlinecap } bind def
/j { setlinejoin } bind def
/M { setmiterlimit } bind def
/d { setdash } bind def
/m { moveto } bind def
/l { lineto } bind def
/c { curveto } bind def
/h { closepath } bind def
/re { exch dup neg 3 1 roll 5 3 roll moveto 0 rlineto
      0 exch rlineto 0 rlineto closepath } bind def
/S { stroke } bind def
/f { fill } bind def
/f* { eofill } bind def
/n { newpath } bind def
/W { clip } bind def
/W* { eoclip } bind def
/BT { } bind def
/ET { } bind def
/pdfmark where { pop globaldict /?pdfmark /exec load put }
    { globaldict begin /?pdfmark /pop load def /pdfmark
    /cleartomark load def end } ifelse
/BDC { mark 3 1 roll /BDC pdfmark } bind def
/EMC { mark /EMC pdfmark } bind def
/cairo_store_point { /cairo_point_y exch def /cairo_point_x exch def } def
/Tj { show currentpoint cairo_store_point } bind def
/TJ {
  {
    dup
    type /stringtype eq
    { show } { -0.001 mul 0 cairo_font_matrix dtransform rmoveto } ifelse
  } forall
  currentpoint cairo_store_point
} bind def
/cairo_selectfont { cairo_font_matrix aload pop pop pop 0 0 6 array astore
    cairo_font exch selectfont cairo_point_x cairo_point_y moveto } bind def
/Tf { pop /cairo_font exch def /cairo_font_matrix where
      { pop cairo_selectfont } if } bind def
/Td { matrix translate cairo_font_matrix matrix concatmatrix dup
      /cairo_font_matrix exch def dup 4 get exch 5 get cairo_store_point
      /cairo_font where { pop cairo_selectfont } if } bind def
/Tm { 2 copy 8 2 roll 6 array astore /cairo_font_matrix exch def
      cairo_store_point /cairo_font where { pop cairo_selectfont } if } bind def
/g { setgray } bind def
/rg { setrgbcolor } bind def
/d1 { setcachedevice } bind def
%%EndProlog
%%BeginSetup
%%EndSetup
%%Page: 1 1
%%BeginPageSetup
%%PageBoundingBox: 0 -1 385 296
%%EndPageSetup
q 0 -1 385 297 rectclip q
0.8 0.886275 0.866667 rg
376.82 160.779 m 376.82 99.002 293.125 48.924 189.879 48.924 c 86.633 48.924
 2.938 99.002 2.938 160.779 c 2.938 222.553 86.633 272.631 189.879 272.631
 c 293.125 272.631 376.82 222.553 376.82 160.779 c h
376.82 160.779 m f
0.0470588 0.235294 0.458824 rg
378.477 97.096 m 378.477 21.279 295.027 0.002 192.082 0.002 c 89.141 0.002
 5.684 21.279 5.684 97.096 c 5.684 172.92 89.141 234.385 192.082 234.385
 c 295.023 234.385 378.477 172.928 378.477 97.096 c h
378.477 97.096 m f
0.0313726 0.156863 0.337255 rg
378.477 97.096 m 378.477 21.279 295.027 0.002 192.082 0.002 c 89.141 0.002
 5.684 21.279 5.684 97.096 c 5.684 172.92 89.141 215.322 192.082 215.322
 c 295.023 215.322 378.477 172.928 378.477 97.096 c h
378.477 97.096 m f
0 g
378.477 97.096 m 378.477 21.279 295.027 0.002 192.082 0.002 c 89.141 0.002
 5.684 21.279 5.684 97.096 c 5.684 172.92 89.141 131.701 192.082 131.701
 c 295.023 131.701 378.477 172.928 378.477 97.096 c h
378.477 97.096 m f
0.8 0.886275 0.866667 rg
135.16 111.639 m 135.16 102.392 127.664 94.896 118.418 94.896 c 109.172
 94.896 101.676 102.392 101.676 111.639 c 101.676 120.885 109.172 128.381
 118.418 128.381 c 127.664 128.381 135.16 120.885 135.16 111.639 c h
135.16 111.639 m f
282.492 111.639 m 282.492 102.392 274.996 94.896 265.75 94.896 c 256.5 
94.896 249.004 102.392 249.004 111.639 c 249.004 120.885 256.5 128.381 265.75
 128.381 c 274.996 128.381 282.492 120.885 282.492 111.639 c h
282.492 111.639 m f
0.866667 0.843137 0.701961 rg
36.316 59.127 m 24.508 59.127 12.879 64.693 5.613 75.064 c -4.227 89.154
 -0.793 108.627 13.285 118.49 c 25.125 126.752 41.504 123.869 49.781 112.041
 c 56.789 101.974 54.332 88.103 44.293 81.088 c 41.457 79.111 37.52 79.799
 35.516 82.65 c 33.531 85.506 34.223 89.432 37.078 91.432 c 41.414 94.455
 42.477 100.478 39.445 104.834 c 35.148 110.967 26.656 112.451 20.504 108.166
 c 12.129 102.295 10.074 90.693 15.938 82.299 c 23.773 71.115 39.266 68.392
 50.461 76.193 c 57.582 81.178 62.34 88.639 63.852 97.201 c 65.363 105.767
 63.457 114.42 58.473 121.545 c 56.48 124.389 57.172 128.326 60.02 130.322
 c 62.875 132.314 66.797 131.631 68.793 128.775 c 75.711 118.892 78.371 
106.9 76.273 95.017 c 74.164 83.139 67.57 72.791 57.691 65.873 c 51.18 61.322
 43.715 59.127 36.316 59.127 c h
36.316 59.127 m f
0.94902 0.917647 0.780392 rg
13.285 118.486 m 5.488 113.025 1.09 104.607 0.277 95.791 c 0.762 90.584
 2.426 85.424 5.621 80.838 c 12.887 70.463 24.512 64.9 36.32 64.9 c 43.719
 64.9 51.18 67.092 57.699 71.631 c 67.578 78.549 74.168 88.896 76.281 100.775
 c 76.559 102.377 76.742 103.974 76.855 105.564 c 76.375 113.826 73.672 
121.81 68.809 128.767 c 66.816 131.619 62.895 132.307 60.035 130.314 c 59.191
 129.724 58.598 128.935 58.145 128.08 c 58.277 127.834 58.316 127.549 58.484
 127.318 c 62.895 121.002 64.754 113.486 64.098 105.892 c 64.363 103.025
 64.387 100.119 63.871 97.201 c 62.359 88.639 57.602 81.178 50.48 76.193
 c 39.285 68.389 23.793 71.107 15.953 82.299 c 13.055 86.443 12.109 91.381
 12.887 96.01 c 11.902 102.752 14.586 109.787 20.523 113.943 c 26.676 118.228
 35.168 116.736 39.465 110.611 c 41.242 108.064 41.578 104.951 40.707 102.205
 c 41.93 98.291 40.605 93.9 37.098 91.435 c 36.246 90.842 35.652 90.057 
35.199 89.197 c 35.332 88.951 35.363 88.682 35.535 88.435 c 37.531 85.58
 41.469 84.896 44.312 86.873 c 49.594 90.568 52.711 96.17 53.52 102.099 
c 53.09 105.572 51.938 108.99 49.801 112.057 c 41.504 123.865 25.125 126.744
 13.285 118.486 c h
13.285 118.486 m f
0.866667 0.843137 0.701961 rg
347.852 59.127 m 359.66 59.127 371.285 64.693 378.551 75.064 c 388.395 
89.154 384.961 108.627 370.883 118.49 c 359.043 126.752 342.664 123.869 
334.383 112.041 c 327.379 101.974 329.84 88.103 339.875 81.088 c 342.703
 79.111 346.648 79.799 348.652 82.65 c 350.637 85.506 349.945 89.432 347.09
 91.432 c 342.754 94.455 341.688 100.478 344.719 104.834 c 349.012 110.967
 357.512 112.451 363.664 108.166 c 372.043 102.295 374.09 90.693 368.23 
82.299 c 360.391 71.115 344.898 68.392 333.703 76.193 c 326.578 81.178 321.82
 88.639 320.309 97.201 c 318.797 105.767 320.703 114.42 325.688 121.545 
c 327.688 124.389 326.996 128.326 324.145 130.322 c 321.285 132.314 317.363
 131.631 315.367 128.775 c 308.449 118.892 305.797 106.9 307.895 95.017 
c 310 83.139 316.598 72.791 326.477 65.873 c 332.992 61.322 340.453 59.127
 347.852 59.127 c h
347.852 59.127 m f
0.94902 0.917647 0.780392 rg
370.883 118.486 m 378.68 113.025 383.078 104.607 383.891 95.791 c 383.402
 90.584 381.746 85.424 378.547 80.838 c 371.281 70.463 359.652 64.9 347.844
 64.9 c 340.445 64.9 332.992 67.092 326.469 71.631 c 316.59 78.549 309.992
 88.896 307.887 100.775 c 307.602 102.377 307.426 103.974 307.312 105.564
 c 307.793 113.826 310.496 121.81 315.352 128.767 c 317.344 131.619 321.266
 132.307 324.133 130.314 c 324.977 129.724 325.57 128.935 326.023 128.08
 c 325.891 127.834 325.852 127.549 325.676 127.318 c 321.266 121.002 319.41
 113.486 320.066 105.892 c 319.805 103.025 319.777 100.119 320.297 97.201
 c 321.809 88.639 326.566 81.178 333.691 76.193 c 344.879 68.389 360.371
 71.107 368.219 82.299 c 371.117 86.443 372.062 91.381 371.285 96.01 c 372.27
 102.752 369.586 109.787 363.648 113.943 c 357.5 118.228 349 116.736 344.707
 110.611 c 342.93 108.064 342.598 104.951 343.465 102.205 c 342.242 98.291
 343.566 93.9 347.074 91.435 c 347.926 90.842 348.52 90.057 348.973 89.197
 c 348.84 88.951 348.809 88.682 348.637 88.435 c 346.641 85.58 342.695 84.896
 339.859 86.873 c 334.578 90.568 331.453 96.17 330.652 102.099 c 331.082
 105.572 332.234 108.99 334.371 112.057 c 342.664 123.865 359.043 126.744
 370.883 118.486 c h
370.883 118.486 m f
0.8 0.886275 0.866667 rg
298.074 211.053 m 298.074 187.631 249.633 168.646 189.879 168.646 c 130.121
 168.646 81.68 187.631 81.68 211.053 c 81.68 234.471 130.121 253.455 189.879
 253.455 c 249.633 253.455 298.074 234.471 298.074 211.053 c h
298.074 211.053 m f
92.086 202.525 m 92.086 194.549 85.617 188.084 77.641 188.084 c 69.664 
188.084 63.199 194.549 63.199 202.525 c 63.199 210.502 69.664 216.971 77.641
 216.971 c 85.617 216.971 92.086 210.502 92.086 202.525 c h
92.086 202.525 m f
316.578 202.525 m 316.578 194.553 310.113 188.088 302.141 188.088 c 294.168
 188.088 287.703 194.553 287.703 202.525 c 287.703 210.498 294.168 216.963
 302.141 216.963 c 310.113 216.963 316.578 210.498 316.578 202.525 c h
316.578 202.525 m f
50.211 220.642 m 50.211 212.81 43.863 206.463 36.031 206.463 c 28.203 206.463
 21.855 212.81 21.855 220.642 c 21.855 228.474 28.203 234.822 36.031 234.822
 c 43.863 234.822 50.211 228.474 50.211 220.642 c h
50.211 220.642 m f
105.867 237.971 m 105.867 219.99 91.289 205.412 73.305 205.412 c 55.324
 205.412 40.746 219.99 40.746 237.971 c 40.746 255.955 55.324 270.533 73.305
 270.533 c 91.289 270.533 105.867 255.955 105.867 237.971 c h
105.867 237.971 m f
142.617 253.724 m 142.617 241.545 132.742 231.67 120.562 231.67 c 108.379
 231.67 98.508 241.545 98.508 253.724 c 98.508 265.908 108.379 275.779 120.562
 275.779 c 132.742 275.779 142.617 265.908 142.617 253.724 c h
142.617 253.724 m f
207.75 262.662 m 207.75 244.389 192.938 229.576 174.668 229.576 c 156.395
 229.576 141.582 244.389 141.582 262.662 c 141.582 280.932 156.395 295.744
 174.668 295.744 c 192.938 295.744 207.75 280.932 207.75 262.662 c h
207.75 262.662 m f
264.465 248.998 m 264.465 231.307 250.121 216.963 232.426 216.963 c 214.734
 216.963 200.391 231.307 200.391 248.998 c 200.391 266.693 214.734 281.037
 232.426 281.037 c 250.121 281.037 264.465 266.693 264.465 248.998 c h
264.465 248.998 m f
291.762 264.197 m 291.762 256.08 285.18 249.498 277.059 249.498 c 268.941
 249.498 262.359 256.08 262.359 264.197 c 262.359 272.318 268.941 278.9 
277.059 278.9 c 285.18 278.9 291.762 272.318 291.762 264.197 c h
291.762 264.197 m f
337.965 228.517 m 337.965 212.857 325.27 200.162 309.605 200.162 c 293.945
 200.162 281.25 212.857 281.25 228.517 c 281.25 244.182 293.945 256.877 
309.605 256.877 c 325.27 256.877 337.965 244.182 337.965 228.517 c h
337.965 228.517 m f
310.633 251.658 m 310.633 241.799 302.641 233.807 292.781 233.807 c 282.922
 233.807 274.93 241.799 274.93 251.658 c 274.93 261.517 282.922 269.51 292.781
 269.51 c 302.641 269.51 310.633 261.517 310.633 251.658 c h
310.633 251.658 m f
356.883 219.584 m 356.883 210.014 349.121 202.256 339.551 202.256 c 329.98
 202.256 322.223 210.014 322.223 219.584 c 322.223 229.154 329.98 236.912
 339.551 236.912 c 349.121 236.912 356.883 229.154 356.883 219.584 c h
356.883 219.584 m f
51.258 198.057 m 51.258 186.459 41.852 177.053 30.254 177.053 c 18.652 
177.053 9.25 186.459 9.25 198.057 c 9.25 209.658 18.652 219.06 30.254 219.06
 c 41.852 219.06 51.258 209.658 51.258 198.057 c h
51.258 198.057 m f
Q Q
showpage
%%Trailer
end restore
%%EOF
