%!PS-Adobe-3.0 EPSF-3.0
%%Creator: cairo 1.14.2 (http://cairographics.org)
%%CreationDate: Thu Aug  4 10:36:43 2016
%%Pages: 1
%%DocumentData: Clean7Bit
%%LanguageLevel: 2
%%BoundingBox: 0 -1 391 391
%%EndComments
%%BeginProlog
save
50 dict begin
/q { gsave } bind def
/Q { grestore } bind def
/cm { 6 array astore concat } bind def
/w { setlinewidth } bind def
/J { setlinecap } bind def
/j { setlinejoin } bind def
/M { setmiterlimit } bind def
/d { setdash } bind def
/m { moveto } bind def
/l { lineto } bind def
/c { curveto } bind def
/h { closepath } bind def
/re { exch dup neg 3 1 roll 5 3 roll moveto 0 rlineto
      0 exch rlineto 0 rlineto closepath } bind def
/S { stroke } bind def
/f { fill } bind def
/f* { eofill } bind def
/n { newpath } bind def
/W { clip } bind def
/W* { eoclip } bind def
/BT { } bind def
/ET { } bind def
/pdfmark where { pop globaldict /?pdfmark /exec load put }
    { globaldict begin /?pdfmark /pop load def /pdfmark
    /cleartomark load def end } ifelse
/BDC { mark 3 1 roll /BDC pdfmark } bind def
/EMC { mark /EMC pdfmark } bind def
/cairo_store_point { /cairo_point_y exch def /cairo_point_x exch def } def
/Tj { show currentpoint cairo_store_point } bind def
/TJ {
  {
    dup
    type /stringtype eq
    { show } { -0.001 mul 0 cairo_font_matrix dtransform rmoveto } ifelse
  } forall
  currentpoint cairo_store_point
} bind def
/cairo_selectfont { cairo_font_matrix aload pop pop pop 0 0 6 array astore
    cairo_font exch selectfont cairo_point_x cairo_point_y moveto } bind def
/Tf { pop /cairo_font exch def /cairo_font_matrix where
      { pop cairo_selectfont } if } bind def
/Td { matrix translate cairo_font_matrix matrix concatmatrix dup
      /cairo_font_matrix exch def dup 4 get exch 5 get cairo_store_point
      /cairo_font where { pop cairo_selectfont } if } bind def
/Tm { 2 copy 8 2 roll 6 array astore /cairo_font_matrix exch def
      cairo_store_point /cairo_font where { pop cairo_selectfont } if } bind def
/g { setgray } bind def
/rg { setrgbcolor } bind def
/d1 { setcachedevice } bind def
%%EndProlog
%%BeginSetup
%%EndSetup
%%Page: 1 1
%%BeginPageSetup
%%PageBoundingBox: 0 -1 391 391
%%EndPageSetup
q 0 -1 391 392 rectclip q
0.611765 0.847059 0.886275 rg
130.742 34.008 m 97.898 1.184 49.621 -3.796 22.922 22.922 c -3.789 49.622
 1.184 97.899 34.008 130.743 c 66.875 163.606 78.59 132.016 105.301 105.301
 c 132.02 78.59 163.566 66.875 130.742 34.008 c h
130.742 34.008 m f
0.501961 0.756863 0.819608 rg
125 28.278 m 92.156 -4.546 43.895 -9.523 17.18 17.18 c -9.52 43.895 -4.555
 92.165 28.277 125 c 61.109 157.832 72.867 126.282 99.566 99.575 c 126.285
 72.864 157.836 61.141 125 28.278 c h
125 28.278 m f
0.427451 0.266667 0.0901961 rg
108.391 88.454 m 105.238 85.313 100.148 85.301 96.973 88.446 c 88.445 96.977
 l 85.301 100.153 85.301 105.247 88.445 108.391 c 314.836 334.766 l 317.965
 337.922 323.059 337.922 326.223 334.766 c 334.766 326.227 l 337.918 323.063
 337.918 317.973 334.766 314.84 c h
108.391 88.454 m f
0.537255 0.364706 0.141176 rg
325.352 335.332 m 322.207 337.743 317.719 337.661 314.84 334.758 c 88.453
 108.383 l 85.57 105.493 85.465 100.981 87.891 97.848 c 91.047 95.426 95.516
 95.524 98.414 98.403 c 324.805 324.778 l 327.691 327.696 327.797 332.184
 325.352 335.332 c h
325.352 335.332 m f
0.501961 0.756863 0.819608 rg
96.48 76.547 m 93.336 73.399 88.242 73.399 85.094 76.536 c 76.555 85.094
 l 73.398 88.243 73.398 93.336 76.555 96.481 c 120.676 140.618 l 123.832
 143.766 128.934 143.766 132.07 140.61 c 140.621 132.079 l 143.754 128.922
 143.766 123.825 140.609 120.68 c h
96.48 76.547 m f
0.611765 0.847059 0.886275 rg
131.504 141.008 m 128.328 143.653 123.656 143.59 120.676 140.618 c 76.555
 96.481 l 73.559 93.5 73.496 88.829 76.164 85.649 c 79.32 82.989 84.004 
83.047 86.996 86.032 c 134.145 133.192 l 137.129 136.188 134.168 137.805
 131.504 141.008 c h
131.504 141.008 m f
0.427451 0.266667 0.0901961 rg
323.078 323.09 m 303.336 342.864 296.875 366.172 308.047 377.364 c 316.645
 368.77 l 312.055 364.165 315.559 347.836 331.684 331.704 c 347.836 315.559
 364.176 312.055 368.77 316.645 c 377.363 308.047 l 366.172 296.875 342.863
 303.332 323.078 323.09 c h
323.078 323.09 m f
383.535 305.633 m 381.164 303.247 377.312 303.247 374.938 305.629 c 305.621
 374.938 l 303.234 377.309 303.234 381.165 305.633 383.528 c 311.004 388.903
 l 313.379 391.286 317.219 391.286 319.594 388.903 c 388.902 319.59 l 391.285
 317.215 391.285 313.379 388.902 311.004 c h
383.535 305.633 m f
0.517647 0.329412 0.145098 rg
388.91 319.598 m 319.598 388.911 l 317.223 391.29 313.387 391.29 311.008
 388.911 c 308.629 386.547 308.629 382.696 311.008 380.301 c 380.301 311.008
 l 382.695 308.629 386.547 308.629 388.91 311.008 c 391.289 313.379 391.289
 317.215 388.91 319.598 c h
388.91 319.598 m f
Q Q
showpage
%%Trailer
end restore
%%EOF
