%!PS-Adobe-3.0 EPSF-3.0
%%Creator: cairo 1.14.2 (http://cairographics.org)
%%CreationDate: Thu Aug  4 10:36:50 2016
%%Pages: 1
%%DocumentData: Clean7Bit
%%LanguageLevel: 2
%%BoundingBox: 0 -1 404 201
%%EndComments
%%BeginProlog
save
50 dict begin
/q { gsave } bind def
/Q { grestore } bind def
/cm { 6 array astore concat } bind def
/w { setlinewidth } bind def
/J { setlinecap } bind def
/j { setlinejoin } bind def
/M { setmiterlimit } bind def
/d { setdash } bind def
/m { moveto } bind def
/l { lineto } bind def
/c { curveto } bind def
/h { closepath } bind def
/re { exch dup neg 3 1 roll 5 3 roll moveto 0 rlineto
      0 exch rlineto 0 rlineto closepath } bind def
/S { stroke } bind def
/f { fill } bind def
/f* { eofill } bind def
/n { newpath } bind def
/W { clip } bind def
/W* { eoclip } bind def
/BT { } bind def
/ET { } bind def
/pdfmark where { pop globaldict /?pdfmark /exec load put }
    { globaldict begin /?pdfmark /pop load def /pdfmark
    /cleartomark load def end } ifelse
/BDC { mark 3 1 roll /BDC pdfmark } bind def
/EMC { mark /EMC pdfmark } bind def
/cairo_store_point { /cairo_point_y exch def /cairo_point_x exch def } def
/Tj { show currentpoint cairo_store_point } bind def
/TJ {
  {
    dup
    type /stringtype eq
    { show } { -0.001 mul 0 cairo_font_matrix dtransform rmoveto } ifelse
  } forall
  currentpoint cairo_store_point
} bind def
/cairo_selectfont { cairo_font_matrix aload pop pop pop 0 0 6 array astore
    cairo_font exch selectfont cairo_point_x cairo_point_y moveto } bind def
/Tf { pop /cairo_font exch def /cairo_font_matrix where
      { pop cairo_selectfont } if } bind def
/Td { matrix translate cairo_font_matrix matrix concatmatrix dup
      /cairo_font_matrix exch def dup 4 get exch 5 get cairo_store_point
      /cairo_font where { pop cairo_selectfont } if } bind def
/Tm { 2 copy 8 2 roll 6 array astore /cairo_font_matrix exch def
      cairo_store_point /cairo_font where { pop cairo_selectfont } if } bind def
/g { setgray } bind def
/rg { setrgbcolor } bind def
/d1 { setcachedevice } bind def
%%EndProlog
%%BeginSetup
%%EndSetup
%%Page: 1 1
%%BeginPageSetup
%%PageBoundingBox: 0 -1 404 201
%%EndPageSetup
q 0 -1 404 202 rectclip q
0.929412 0.576471 0.439216 rg
403.141 65.313 m 403.348 67.739 403.348 70.114 403.141 72.454 c 403.141
 145.008 l 0.453 124.762 l 0.402 50.692 l 0.219 49.055 0.25 47.274 0.535
 45.313 c 5.328 12.45 205.227 -10.601 312.02 4.981 c 376.25 14.348 399.996
 40.207 402.977 63.688 c 403.141 63.7 l h
403.141 65.313 m f
0.827451 0.435294 0.313726 rg
0.426 73.145 m 0.465 72.75 0.477 72.364 0.535 71.961 c 5.328 39.098 205.227
 16.047 312.02 31.633 c 376.25 40.996 399.996 66.856 402.977 90.336 c 403.141
 90.348 l 403.141 126.141 l 0.453 105.895 l h
0.426 73.145 m f
0.929412 0.576471 0.439216 rg
0.426 92.012 m 0.465 91.621 0.477 91.25 0.535 90.829 c 5.328 57.965 205.227
 34.914 312.02 50.5 c 376.25 59.864 399.996 85.723 402.977 109.204 c 403.141
 109.215 l 403.141 145.008 l 0.453 124.762 l h
0.426 92.012 m f
0.647059 0.117647 0.0901961 rg
386.98 177.914 m 413.473 157.903 418.535 96.746 311.742 81.161 c 204.957
 65.579 5.051 88.637 0.258 121.493 c -4.543 154.352 58.16 140.653 164.969
 156.25 c 271.754 171.84 313.672 233.352 386.98 177.914 c h
386.98 177.914 m f
0.807843 0.172549 0.141176 rg
386.98 177.914 m 313.672 233.348 271.754 171.836 164.965 156.25 c 81.867
 144.121 25.477 149.723 6.793 137.329 c 42.559 109.551 215.184 92.055 311.742
 106.141 c 369.375 114.547 394.387 136.231 401.098 157.547 c 398.445 165.918
 393.352 173.106 386.98 177.914 c h
386.98 177.914 m f
0.929412 0.576471 0.439216 rg
305.445 147.645 m 305.445 142.586 291.844 138.489 275.059 138.489 c 258.277
 138.489 244.676 142.586 244.676 147.645 c 244.676 152.7 258.277 156.801
 275.059 156.801 c 291.844 156.801 305.445 152.7 305.445 147.645 c h
305.445 147.645 m f
0.937255 0.745098 0.686275 rg
289.227 148.766 m 289.227 146.313 282.629 144.321 274.492 144.321 c 266.355
 144.321 259.762 146.313 259.762 148.766 c 259.762 151.219 266.355 153.207
 274.492 153.207 c 282.629 153.207 289.227 151.219 289.227 148.766 c h
289.227 148.766 m f
0.647059 0.117647 0.0901961 rg
155.332 129.332 m 155.332 127.184 150.855 125.442 145.336 125.442 c 139.816
 125.442 135.344 127.184 135.344 129.332 c 135.344 131.477 139.816 133.219
 145.336 133.219 c 150.855 133.219 155.332 131.477 155.332 129.332 c h
155.332 129.332 m f
334.578 161.93 m 334.578 159.789 330.105 158.055 324.59 158.055 c 319.074
 158.055 314.602 159.789 314.602 161.93 c 314.602 164.071 319.074 165.805
 324.59 165.805 c 330.105 165.805 334.578 164.071 334.578 161.93 c h
334.578 161.93 m f
195.289 135.016 m 195.289 133.715 192.586 132.664 189.254 132.664 c 185.918
 132.664 183.215 133.715 183.215 135.016 c 183.215 136.313 185.918 137.364
 189.254 137.364 c 192.586 137.364 195.289 136.313 195.289 135.016 c h
195.289 135.016 m f
253.871 164.973 m 253.871 163.891 251.613 163.012 248.836 163.012 c 246.055
 163.012 243.797 163.891 243.797 164.973 c 243.797 166.055 246.055 166.934
 248.836 166.934 c 251.613 166.934 253.871 166.055 253.871 164.973 c h
253.871 164.973 m f
291.922 122.801 m 291.922 121.504 289.223 120.454 285.887 120.454 c 282.555
 120.454 279.852 121.504 279.852 122.801 c 279.852 124.102 282.555 125.153
 285.887 125.153 c 289.223 125.153 291.922 124.102 291.922 122.801 c h
291.922 122.801 m f
0.917647 0.45098 0.45098 rg
351.246 185.106 m 351.246 180.059 337.641 184.836 320.16 184.836 c 302.68
 184.836 287.973 180.059 287.973 185.106 c 287.973 190.164 302.133 194.262
 319.605 194.262 c 337.086 194.262 351.246 190.164 351.246 185.106 c h
351.246 185.106 m f
70.871 134.536 m 71.434 129.5 57.375 132.754 40.012 130.805 c 22.652 128.86
 8.555 122.489 7.988 127.508 c 7.426 132.532 21.047 138.18 38.414 140.125
 c 55.781 142.055 70.312 139.559 70.871 134.536 c h
70.871 134.536 m f
361.809 180.664 m 361.809 179.286 360.691 178.168 359.312 178.168 c 357.934
 178.168 356.816 179.286 356.816 180.664 c 356.816 182.039 357.934 183.157
 359.312 183.157 c 360.691 183.157 361.809 182.039 361.809 180.664 c h
361.809 180.664 m f
372.867 175.95 m 372.867 174.414 371.621 173.172 370.086 173.172 c 368.551
 173.172 367.309 174.414 367.309 175.95 c 367.309 177.485 368.551 178.731
 370.086 178.731 c 371.621 178.731 372.867 177.485 372.867 175.95 c h
372.867 175.95 m f
Q Q
showpage
%%Trailer
end restore
%%EOF
