%!PS-Adobe-3.0 EPSF-3.0
%%Creator: cairo 1.14.2 (http://cairographics.org)
%%CreationDate: Thu Aug  4 10:36:57 2016
%%Pages: 1
%%DocumentData: Clean7Bit
%%LanguageLevel: 2
%%BoundingBox: 0 -1 326 404
%%EndComments
%%BeginProlog
save
50 dict begin
/q { gsave } bind def
/Q { grestore } bind def
/cm { 6 array astore concat } bind def
/w { setlinewidth } bind def
/J { setlinecap } bind def
/j { setlinejoin } bind def
/M { setmiterlimit } bind def
/d { setdash } bind def
/m { moveto } bind def
/l { lineto } bind def
/c { curveto } bind def
/h { closepath } bind def
/re { exch dup neg 3 1 roll 5 3 roll moveto 0 rlineto
      0 exch rlineto 0 rlineto closepath } bind def
/S { stroke } bind def
/f { fill } bind def
/f* { eofill } bind def
/n { newpath } bind def
/W { clip } bind def
/W* { eoclip } bind def
/BT { } bind def
/ET { } bind def
/pdfmark where { pop globaldict /?pdfmark /exec load put }
    { globaldict begin /?pdfmark /pop load def /pdfmark
    /cleartomark load def end } ifelse
/BDC { mark 3 1 roll /BDC pdfmark } bind def
/EMC { mark /EMC pdfmark } bind def
/cairo_store_point { /cairo_point_y exch def /cairo_point_x exch def } def
/Tj { show currentpoint cairo_store_point } bind def
/TJ {
  {
    dup
    type /stringtype eq
    { show } { -0.001 mul 0 cairo_font_matrix dtransform rmoveto } ifelse
  } forall
  currentpoint cairo_store_point
} bind def
/cairo_selectfont { cairo_font_matrix aload pop pop pop 0 0 6 array astore
    cairo_font exch selectfont cairo_point_x cairo_point_y moveto } bind def
/Tf { pop /cairo_font exch def /cairo_font_matrix where
      { pop cairo_selectfont } if } bind def
/Td { matrix translate cairo_font_matrix matrix concatmatrix dup
      /cairo_font_matrix exch def dup 4 get exch 5 get cairo_store_point
      /cairo_font where { pop cairo_selectfont } if } bind def
/Tm { 2 copy 8 2 roll 6 array astore /cairo_font_matrix exch def
      cairo_store_point /cairo_font where { pop cairo_selectfont } if } bind def
/g { setgray } bind def
/rg { setrgbcolor } bind def
/d1 { setcachedevice } bind def
%%EndProlog
%%BeginSetup
%%EndSetup
%%Page: 1 1
%%BeginPageSetup
%%PageBoundingBox: 0 -1 326 404
%%EndPageSetup
q 0 -1 326 405 rectclip q
0.956863 0.0862745 0.313726 rg
325.195 213.559 m 325.195 123.77 252.395 0 162.598 0 c 72.801 0 0 123.77
 0 213.559 c 0 303.356 72.801 334.903 162.598 334.903 c 252.395 334.903 
325.195 303.356 325.195 213.559 c h
325.195 213.559 m f
0.878431 0.0627451 0.239216 rg
325.195 213.559 m 325.195 123.77 252.395 0 162.598 0 c 72.801 0 0 123.77
 0 213.559 c 0 303.356 72.801 316.09 162.598 316.09 c 252.395 316.09 325.195
 303.356 325.195 213.559 c h
325.195 213.559 m f
0.756863 0.0470588 0.235294 rg
325.195 213.559 m 325.195 123.77 252.395 0 162.598 0 c 72.801 0 0 123.77
 0 213.559 c 0 303.356 72.801 225.543 162.598 225.543 c 252.395 225.543 
325.195 303.356 325.195 213.559 c h
325.195 213.559 m f
162.598 0 m 252.395 0 325.195 123.77 325.195 213.559 c 325.195 303.356 
252.395 334.903 162.598 334.903 c f
0.666667 0.0196078 0.223529 rg
162.598 225.543 m 162.598 0 l 252.395 0 325.195 123.77 325.195 213.559 
c 325.195 303.356 252.395 225.543 162.598 225.543 c h
162.598 225.543 m f
0.627451 0.0627451 0.294118 rg
68.02 285.25 m 68.02 281.258 64.781 278.016 60.785 278.016 c 56.789 278.016
 53.551 281.258 53.551 285.25 c 53.551 289.246 56.789 292.485 60.785 292.485
 c 64.781 292.485 68.02 289.246 68.02 285.25 c h
68.02 285.25 m f
0.556863 0.0352941 0.223529 rg
68.02 285.25 m 68.02 281.25 64.773 278.016 60.789 278.016 c 56.781 278.016
 53.555 281.258 53.555 285.25 c 53.555 289.246 56.789 289.254 60.789 289.254
 c 64.777 289.246 68.02 289.246 68.02 285.25 c h
68.02 285.25 m f
0.627451 0.0627451 0.294118 rg
108.734 285.25 m 108.734 281.258 105.492 278.016 101.5 278.016 c 97.504
 278.016 94.266 281.258 94.266 285.25 c 94.266 289.246 97.504 292.485 101.5
 292.485 c 105.492 292.485 108.734 289.246 108.734 285.25 c h
108.734 285.25 m f
0.556863 0.0352941 0.223529 rg
108.734 285.25 m 108.734 281.25 105.5 278.016 101.504 278.016 c 97.523 
278.016 94.27 281.258 94.27 285.25 c 94.27 289.246 97.527 289.254 101.504
 289.254 c 105.5 289.246 108.734 289.246 108.734 285.25 c h
108.734 285.25 m f
0.627451 0.0627451 0.294118 rg
149.465 285.25 m 149.465 281.25 146.246 278.016 142.23 278.016 c 138.234
 278.016 135.008 281.258 135.008 285.25 c 135.008 289.246 138.242 292.485
 142.23 292.485 c 146.246 292.485 149.465 289.246 149.465 285.25 c h
149.465 285.25 m f
0.556863 0.0352941 0.223529 rg
149.465 285.25 m 149.465 281.25 146.246 278.016 142.23 278.016 c 138.234
 278.016 135.008 281.258 135.008 285.25 c 135.008 289.246 138.242 289.254
 142.23 289.254 c 146.246 289.246 149.465 289.246 149.465 285.25 c h
149.465 285.25 m f
0.627451 0.0627451 0.294118 rg
190.188 285.25 m 190.188 281.258 186.949 278.024 182.957 278.024 c 178.965
 278.024 175.73 281.258 175.73 285.25 c 175.73 289.243 178.965 292.481 182.957
 292.481 c 186.949 292.481 190.188 289.243 190.188 285.25 c h
190.188 285.25 m f
0.556863 0.0352941 0.223529 rg
190.191 285.25 m 190.191 281.25 186.953 278.016 182.957 278.016 c 178.965
 278.016 175.738 281.258 175.738 285.25 c 175.738 289.246 178.969 289.254
 182.957 289.254 c 186.953 289.246 190.191 289.246 190.191 285.25 c h
190.191 285.25 m f
0.627451 0.0627451 0.294118 rg
230.957 285.25 m 230.957 281.258 227.719 278.016 223.723 278.016 c 219.727
 278.016 216.488 281.258 216.488 285.25 c 216.488 289.246 219.727 292.485
 223.723 292.485 c 227.719 292.485 230.957 289.246 230.957 285.25 c h
230.957 285.25 m f
0.556863 0.0352941 0.223529 rg
230.934 285.25 m 230.934 281.25 227.688 278.016 223.699 278.016 c 219.695
 278.016 216.469 281.258 216.469 285.25 c 216.469 289.246 219.703 289.254
 223.699 289.254 c 227.688 289.246 230.934 289.246 230.934 285.25 c h
230.934 285.25 m f
0.627451 0.0627451 0.294118 rg
271.645 285.25 m 271.645 281.258 268.41 278.024 264.418 278.024 c 260.426
 278.024 257.191 281.258 257.191 285.25 c 257.191 289.243 260.426 292.481
 264.418 292.481 c 268.41 292.481 271.645 289.243 271.645 285.25 c h
271.645 285.25 m f
0.556863 0.0352941 0.223529 rg
271.645 285.25 m 271.645 281.25 268.414 278.016 264.426 278.016 c 260.422
 278.016 257.195 281.258 257.195 285.25 c 257.195 289.246 260.43 289.254
 264.426 289.254 c 268.414 289.246 271.645 289.246 271.645 285.25 c h
271.645 285.25 m f
0.627451 0.0627451 0.294118 rg
68.008 244.243 m 68.008 240.246 64.766 237.008 60.773 237.008 c 56.777 
237.008 53.539 240.246 53.539 244.243 c 53.539 248.239 56.777 251.477 60.773
 251.477 c 64.766 251.477 68.008 248.239 68.008 244.243 c h
68.008 244.243 m f
0.556863 0.0352941 0.223529 rg
68.004 244.243 m 68.004 240.239 64.773 237.008 60.777 237.008 c 56.797 
237.008 53.543 240.246 53.543 244.243 c 53.543 248.239 56.801 248.243 60.777
 248.243 c 64.777 248.243 68.004 248.243 68.004 244.243 c h
68.004 244.243 m f
0.627451 0.0627451 0.294118 rg
108.738 244.243 m 108.738 240.239 105.527 237.008 101.512 237.008 c 97.516
 237.008 94.281 240.246 94.281 244.243 c 94.281 248.239 97.523 251.477 101.512
 251.477 c 105.527 251.477 108.738 248.243 108.738 244.243 c h
108.738 244.243 m f
0.556863 0.0352941 0.223529 rg
108.738 244.243 m 108.738 240.239 105.527 237.008 101.512 237.008 c 97.516
 237.008 94.281 240.246 94.281 244.243 c 94.281 248.239 97.523 248.243 101.512
 248.243 c 105.527 248.243 108.738 248.243 108.738 244.243 c h
108.738 244.243 m f
0.627451 0.0627451 0.294118 rg
149.477 244.243 m 149.477 240.246 146.238 237.008 142.242 237.008 c 138.25
 237.008 135.008 240.246 135.008 244.243 c 135.008 248.239 138.25 251.477
 142.242 251.477 c 146.238 251.477 149.477 248.239 149.477 244.243 c h
149.477 244.243 m f
0.556863 0.0352941 0.223529 rg
149.473 244.243 m 149.473 240.239 146.227 237.008 142.23 237.008 c 138.234
 237.008 135.008 240.246 135.008 244.243 c 135.008 248.239 138.242 248.243
 142.23 248.243 c 146.227 248.243 149.473 248.243 149.473 244.243 c h
149.473 244.243 m f
0.627451 0.0627451 0.294118 rg
190.199 244.243 m 190.199 240.25 186.965 237.012 182.973 237.012 c 178.98
 237.012 175.742 240.25 175.742 244.243 c 175.742 248.235 178.98 251.469
 182.973 251.469 c 186.965 251.469 190.199 248.235 190.199 244.243 c h
190.199 244.243 m f
0.556863 0.0352941 0.223529 rg
190.207 244.243 m 190.207 240.239 186.965 237.008 182.973 237.008 c 178.965
 237.008 175.75 240.246 175.75 244.243 c 175.75 248.239 178.969 248.243 
182.973 248.243 c 186.965 248.243 190.207 248.243 190.207 244.243 c h
190.207 244.243 m f
0.627451 0.0627451 0.294118 rg
230.953 244.243 m 230.953 240.25 227.715 237.012 223.723 237.012 c 219.73
 237.012 216.496 240.25 216.496 244.243 c 216.496 248.235 219.73 251.469
 223.723 251.469 c 227.715 251.469 230.953 248.235 230.953 244.243 c h
230.953 244.243 m f
0.556863 0.0352941 0.223529 rg
230.926 244.243 m 230.926 240.239 227.688 237.008 223.699 237.008 c 219.707
 237.008 216.469 240.246 216.469 244.243 c 216.469 248.239 219.707 248.243
 223.699 248.243 c 227.688 248.243 230.926 248.243 230.926 244.243 c h
230.926 244.243 m f
0.627451 0.0627451 0.294118 rg
271.66 244.243 m 271.66 240.246 268.422 237.008 264.426 237.008 c 260.43
 237.008 257.191 240.246 257.191 244.243 c 257.191 248.239 260.43 251.477
 264.426 251.477 c 268.422 251.477 271.66 248.239 271.66 244.243 c h
271.66 244.243 m f
0.556863 0.0352941 0.223529 rg
271.66 244.243 m 271.66 240.239 268.414 237.008 264.426 237.008 c 260.438
 237.008 257.195 240.246 257.195 244.243 c 257.195 248.239 260.441 248.243
 264.426 248.243 c 268.414 248.243 271.66 248.243 271.66 244.243 c h
271.66 244.243 m f
0.627451 0.0627451 0.294118 rg
47.645 206.532 m 47.645 202.536 44.406 199.297 40.41 199.297 c 36.414 199.297
 33.176 202.536 33.176 206.532 c 33.176 210.528 36.414 213.766 40.41 213.766
 c 44.406 213.766 47.645 210.528 47.645 206.532 c h
47.645 206.532 m f
0.556863 0.0352941 0.223529 rg
47.652 206.532 m 47.652 202.532 44.406 199.297 40.426 199.297 c 36.414 
199.297 33.191 202.539 33.191 206.532 c 33.191 210.528 36.422 210.528 40.426
 210.528 c 44.406 210.528 47.652 210.528 47.652 206.532 c h
47.652 206.532 m f
0.627451 0.0627451 0.294118 rg
88.355 206.532 m 88.355 202.539 85.117 199.305 81.125 199.305 c 77.133 
199.305 73.898 202.539 73.898 206.532 c 73.898 210.524 77.133 213.762 81.125
 213.762 c 85.117 213.762 88.355 210.524 88.355 206.532 c h
88.355 206.532 m f
0.556863 0.0352941 0.223529 rg
88.359 206.532 m 88.359 202.532 85.133 199.297 81.137 199.297 c 77.156 
199.297 73.902 202.539 73.902 206.532 c 73.902 210.528 77.16 210.528 81.137
 210.528 c 85.133 210.528 88.359 210.528 88.359 206.532 c h
88.359 206.532 m f
0.627451 0.0627451 0.294118 rg
129.098 206.532 m 129.098 202.532 125.879 199.297 121.871 199.297 c 117.875
 199.297 114.645 202.539 114.645 206.532 c 114.645 210.528 117.883 213.766
 121.871 213.766 c 125.879 213.766 129.098 210.528 129.098 206.532 c h
129.098 206.532 m f
0.556863 0.0352941 0.223529 rg
129.098 206.532 m 129.098 202.532 125.879 199.297 121.871 199.297 c 117.875
 199.297 114.645 202.539 114.645 206.532 c 114.645 210.528 117.883 210.528
 121.871 210.528 c 125.879 210.528 129.098 210.528 129.098 206.532 c h
129.098 206.532 m f
0.627451 0.0627451 0.294118 rg
169.832 206.532 m 169.832 202.536 166.594 199.297 162.598 199.297 c 158.602
 199.297 155.363 202.536 155.363 206.532 c 155.363 210.528 158.602 213.766
 162.598 213.766 c 166.594 213.766 169.832 210.528 169.832 206.532 c h
169.832 206.532 m f
0.556863 0.0352941 0.223529 rg
169.828 206.532 m 169.828 202.532 166.586 199.297 162.586 199.297 c 158.59
 199.297 155.363 202.539 155.363 206.532 c 155.363 210.528 158.598 210.528
 162.586 210.528 c 166.594 210.528 169.828 210.528 169.828 206.532 c h
169.828 206.532 m f
0.627451 0.0627451 0.294118 rg
210.559 206.532 m 210.559 202.539 207.324 199.305 203.332 199.305 c 199.34
 199.305 196.102 202.539 196.102 206.532 c 196.102 210.524 199.34 213.762
 203.332 213.762 c 207.324 213.762 210.559 210.524 210.559 206.532 c h
210.559 206.532 m f
0.556863 0.0352941 0.223529 rg
210.559 206.532 m 210.559 202.532 207.32 199.297 203.324 199.297 c 199.316
 199.297 196.102 202.539 196.102 206.532 c 196.102 210.528 199.324 210.528
 203.324 210.528 c 207.328 210.528 210.559 210.528 210.559 206.532 c h
210.559 206.532 m f
0.627451 0.0627451 0.294118 rg
251.305 206.532 m 251.305 202.539 248.07 199.305 244.078 199.305 c 240.086
 199.305 236.848 202.539 236.848 206.532 c 236.848 210.524 240.086 213.762
 244.078 213.762 c 248.07 213.762 251.305 210.524 251.305 206.532 c h
251.305 206.532 m f
0.556863 0.0352941 0.223529 rg
251.281 206.532 m 251.281 202.532 248.039 199.297 244.051 199.297 c 240.062
 199.297 236.824 202.539 236.824 206.532 c 236.824 210.528 240.062 210.528
 244.051 210.528 c 248.039 210.528 251.281 210.528 251.281 206.532 c h
251.281 206.532 m f
0.627451 0.0627451 0.294118 rg
292.012 206.532 m 292.012 202.536 288.773 199.297 284.777 199.297 c 280.781
 199.297 277.543 202.536 277.543 206.532 c 277.543 210.528 280.781 213.766
 284.777 213.766 c 288.773 213.766 292.012 210.528 292.012 206.532 c h
292.012 206.532 m f
0.556863 0.0352941 0.223529 rg
292.012 206.532 m 292.012 202.532 288.766 199.297 284.777 199.297 c 280.789
 199.297 277.551 202.539 277.551 206.532 c 277.551 210.528 280.797 210.528
 284.777 210.528 c 288.77 210.528 292.012 210.528 292.012 206.532 c h
292.012 206.532 m f
0.627451 0.0627451 0.294118 rg
68.008 163.828 m 68.008 159.832 64.766 156.594 60.773 156.594 c 56.777 
156.594 53.539 159.832 53.539 163.828 c 53.539 167.825 56.777 171.063 60.773
 171.063 c 64.766 171.063 68.008 167.825 68.008 163.828 c h
68.008 163.828 m f
0.556863 0.0352941 0.223529 rg
68.004 163.828 m 68.004 159.813 64.773 156.594 60.777 156.594 c 56.797 
156.594 53.543 159.821 53.543 163.828 c 53.543 167.817 56.801 167.817 60.777
 167.817 c 64.777 167.817 68.004 167.817 68.004 163.828 c h
68.004 163.828 m f
0.627451 0.0627451 0.294118 rg
108.738 163.828 m 108.738 159.813 105.527 156.594 101.512 156.594 c 97.516
 156.594 94.281 159.821 94.281 163.828 c 94.281 167.817 97.523 171.051 101.512
 171.051 c 105.527 171.055 108.738 167.817 108.738 163.828 c h
108.738 163.828 m f
0.556863 0.0352941 0.223529 rg
108.738 163.828 m 108.738 159.813 105.527 156.594 101.512 156.594 c 97.516
 156.594 94.281 159.821 94.281 163.828 c 94.281 167.817 97.523 167.817 101.512
 167.817 c 105.527 167.817 108.738 167.817 108.738 163.828 c h
108.738 163.828 m f
0.627451 0.0627451 0.294118 rg
149.477 163.828 m 149.477 159.832 146.238 156.594 142.242 156.594 c 138.25
 156.594 135.008 159.832 135.008 163.828 c 135.008 167.825 138.25 171.063
 142.242 171.063 c 146.238 171.063 149.477 167.825 149.477 163.828 c h
149.477 163.828 m f
0.556863 0.0352941 0.223529 rg
149.473 163.828 m 149.473 159.813 146.227 156.594 142.23 156.594 c 138.234
 156.594 135.008 159.821 135.008 163.828 c 135.008 167.817 138.242 167.817
 142.23 167.817 c 146.227 167.817 149.473 167.817 149.473 163.828 c h
149.473 163.828 m f
0.627451 0.0627451 0.294118 rg
190.199 163.828 m 190.199 159.836 186.965 156.602 182.973 156.602 c 178.98
 156.602 175.742 159.836 175.742 163.828 c 175.742 167.821 178.98 171.055
 182.973 171.055 c 186.965 171.055 190.199 167.821 190.199 163.828 c h
190.199 163.828 m f
0.556863 0.0352941 0.223529 rg
190.207 163.828 m 190.207 159.813 186.965 156.594 182.973 156.594 c 178.965
 156.594 175.75 159.821 175.75 163.828 c 175.75 167.817 178.969 167.817 
182.973 167.817 c 186.965 167.817 190.207 167.817 190.207 163.828 c h
190.207 163.828 m f
0.627451 0.0627451 0.294118 rg
230.953 163.828 m 230.953 159.836 227.715 156.602 223.723 156.602 c 219.73
 156.602 216.496 159.836 216.496 163.828 c 216.496 167.821 219.73 171.055
 223.723 171.055 c 227.715 171.055 230.953 167.821 230.953 163.828 c h
230.953 163.828 m f
0.556863 0.0352941 0.223529 rg
230.926 163.828 m 230.926 159.813 227.688 156.594 223.699 156.594 c 219.707
 156.594 216.469 159.821 216.469 163.828 c 216.469 167.817 219.707 167.817
 223.699 167.817 c 227.688 167.817 230.926 167.817 230.926 163.828 c h
230.926 163.828 m f
0.627451 0.0627451 0.294118 rg
271.66 163.828 m 271.66 159.832 268.422 156.594 264.426 156.594 c 260.43
 156.594 257.191 159.832 257.191 163.828 c 257.191 167.825 260.43 171.063
 264.426 171.063 c 268.422 171.063 271.66 167.825 271.66 163.828 c h
271.66 163.828 m f
0.556863 0.0352941 0.223529 rg
271.66 163.828 m 271.66 159.813 268.414 156.594 264.426 156.594 c 260.438
 156.594 257.195 159.821 257.195 163.828 c 257.195 167.817 260.441 167.817
 264.426 167.817 c 268.414 167.817 271.66 167.817 271.66 163.828 c h
271.66 163.828 m f
0.627451 0.0627451 0.294118 rg
68.008 126.118 m 68.008 122.125 64.766 118.883 60.773 118.883 c 56.777 
118.883 53.539 122.125 53.539 126.118 c 53.539 130.114 56.777 133.352 60.773
 133.352 c 64.766 133.352 68.008 130.114 68.008 126.118 c h
68.008 126.118 m f
0.556863 0.0352941 0.223529 rg
68.004 126.118 m 68.004 122.106 64.773 118.883 60.777 118.883 c 56.797 
118.883 53.543 122.11 53.543 126.118 c 53.543 130.11 56.801 130.11 60.777
 130.11 c 64.777 130.102 68.004 130.102 68.004 126.118 c h
68.004 126.118 m f
0.627451 0.0627451 0.294118 rg
108.738 126.118 m 108.738 122.106 105.527 118.883 101.512 118.883 c 97.516
 118.883 94.281 122.11 94.281 126.118 c 94.281 130.11 97.523 133.34 101.512
 133.34 c 105.527 133.34 108.738 130.102 108.738 126.118 c h
108.738 126.118 m f
0.556863 0.0352941 0.223529 rg
108.738 126.118 m 108.738 122.106 105.527 118.883 101.512 118.883 c 97.516
 118.883 94.281 122.11 94.281 126.118 c 94.281 130.11 97.523 130.11 101.512
 130.11 c 105.527 130.102 108.738 130.102 108.738 126.118 c h
108.738 126.118 m f
0.627451 0.0627451 0.294118 rg
149.477 126.118 m 149.477 122.125 146.238 118.883 142.242 118.883 c 138.25
 118.883 135.008 122.125 135.008 126.118 c 135.008 130.114 138.25 133.352
 142.242 133.352 c 146.238 133.352 149.477 130.114 149.477 126.118 c h
149.477 126.118 m f
0.556863 0.0352941 0.223529 rg
149.473 126.118 m 149.473 122.106 146.227 118.883 142.23 118.883 c 138.234
 118.883 135.008 122.11 135.008 126.118 c 135.008 130.11 138.242 130.11 
142.23 130.11 c 146.227 130.102 149.473 130.102 149.473 126.118 c h
149.473 126.118 m f
0.627451 0.0627451 0.294118 rg
190.199 126.118 m 190.199 122.125 186.965 118.891 182.973 118.891 c 178.98
 118.891 175.742 122.125 175.742 126.118 c 175.742 130.11 178.98 133.348
 182.973 133.348 c 186.965 133.348 190.199 130.11 190.199 126.118 c h
190.199 126.118 m f
0.556863 0.0352941 0.223529 rg
190.207 126.118 m 190.207 122.106 186.965 118.883 182.973 118.883 c 178.965
 118.883 175.75 122.11 175.75 126.118 c 175.75 130.11 178.969 130.11 182.973
 130.11 c 186.965 130.102 190.207 130.102 190.207 126.118 c h
190.207 126.118 m f
0.627451 0.0627451 0.294118 rg
230.953 126.118 m 230.953 122.125 227.715 118.891 223.723 118.891 c 219.73
 118.891 216.496 122.125 216.496 126.118 c 216.496 130.11 219.73 133.348
 223.723 133.348 c 227.715 133.348 230.953 130.11 230.953 126.118 c h
230.953 126.118 m f
0.556863 0.0352941 0.223529 rg
230.926 126.118 m 230.926 122.106 227.688 118.883 223.699 118.883 c 219.707
 118.883 216.469 122.11 216.469 126.118 c 216.469 130.11 219.707 130.11 
223.699 130.11 c 227.688 130.11 230.926 130.102 230.926 126.118 c h
230.926 126.118 m f
0.627451 0.0627451 0.294118 rg
271.66 126.118 m 271.66 122.125 268.422 118.883 264.426 118.883 c 260.43
 118.883 257.191 122.125 257.191 126.118 c 257.191 130.114 260.43 133.352
 264.426 133.352 c 268.422 133.352 271.66 130.114 271.66 126.118 c h
271.66 126.118 m f
0.556863 0.0352941 0.223529 rg
271.66 126.118 m 271.66 122.106 268.414 118.883 264.426 118.883 c 260.438
 118.883 257.195 122.11 257.195 126.118 c 257.195 130.11 260.441 130.11 
264.426 130.11 c 268.414 130.102 271.66 130.102 271.66 126.118 c h
271.66 126.118 m f
0.627451 0.0627451 0.294118 rg
88.371 85.11 m 88.371 81.094 85.145 77.875 81.152 77.875 c 77.176 77.875
 73.918 81.102 73.918 85.11 c 73.918 89.11 77.18 92.344 81.152 92.344 c 
85.145 92.344 88.371 89.11 88.371 85.11 c h
88.371 85.11 m f
0.556863 0.0352941 0.223529 rg
88.371 85.11 m 88.371 81.094 85.145 77.875 81.152 77.875 c 77.176 77.875
 73.918 81.102 73.918 85.11 c 73.918 89.11 77.18 89.11 81.152 89.11 c 85.145
 89.11 88.371 89.11 88.371 85.11 c h
88.371 85.11 m f
0.627451 0.0627451 0.294118 rg
129.113 85.11 m 129.113 81.094 125.891 77.875 121.879 77.875 c 117.875 
77.875 114.656 81.102 114.656 85.11 c 114.656 89.11 117.883 92.344 121.879
 92.344 c 125.891 92.344 129.113 89.11 129.113 85.11 c h
129.113 85.11 m f
0.556863 0.0352941 0.223529 rg
129.113 85.11 m 129.113 81.094 125.891 77.875 121.879 77.875 c 117.875 
77.875 114.656 81.102 114.656 85.11 c 114.656 89.11 117.883 89.11 121.879
 89.11 c 125.891 89.11 129.113 89.11 129.113 85.11 c h
129.113 85.11 m f
0.627451 0.0627451 0.294118 rg
169.832 85.11 m 169.832 81.118 166.598 77.879 162.605 77.879 c 158.613 
77.879 155.375 81.118 155.375 85.11 c 155.375 89.102 158.613 92.336 162.605
 92.336 c 166.598 92.336 169.832 89.102 169.832 85.11 c h
169.832 85.11 m f
0.556863 0.0352941 0.223529 rg
169.832 85.11 m 169.832 81.094 166.594 77.875 162.598 77.875 c 158.602 
77.875 155.375 81.102 155.375 85.11 c 155.375 89.11 158.602 89.11 162.598
 89.11 c 166.594 89.11 169.832 89.11 169.832 85.11 c h
169.832 85.11 m f
0.627451 0.0627451 0.294118 rg
210.57 85.11 m 210.57 81.118 207.336 77.879 203.344 77.879 c 199.352 77.879
 196.117 81.118 196.117 85.11 c 196.117 89.102 199.352 92.336 203.344 92.336
 c 207.336 92.336 210.57 89.102 210.57 85.11 c h
210.57 85.11 m f
0.556863 0.0352941 0.223529 rg
210.57 85.11 m 210.57 81.094 207.328 77.875 203.336 77.875 c 199.336 77.875
 196.117 81.102 196.117 85.11 c 196.117 89.11 199.344 89.11 203.336 89.11
 c 207.332 89.11 210.57 89.11 210.57 85.11 c h
210.57 85.11 m f
0.627451 0.0627451 0.294118 rg
251.305 85.11 m 251.305 81.118 248.07 77.879 244.078 77.879 c 240.086 77.879
 236.848 81.118 236.848 85.11 c 236.848 89.102 240.086 92.336 244.078 92.336
 c 248.07 92.336 251.305 89.102 251.305 85.11 c h
251.305 85.11 m f
0.556863 0.0352941 0.223529 rg
251.285 85.11 m 251.285 81.094 248.055 77.875 244.066 77.875 c 240.062 
77.875 236.836 81.102 236.836 85.11 c 236.836 89.11 240.07 89.11 244.066
 89.11 c 248.059 89.11 251.285 89.11 251.285 85.11 c h
251.285 85.11 m f
0.627451 0.0627451 0.294118 rg
108.734 47.395 m 108.734 43.379 105.527 40.161 101.504 40.161 c 97.504 
40.161 94.281 43.387 94.281 47.395 c 94.281 51.395 97.508 54.629 101.504
 54.629 c 105.527 54.633 108.734 51.395 108.734 47.395 c h
108.734 47.395 m f
0.556863 0.0352941 0.223529 rg
108.734 47.395 m 108.734 43.379 105.527 40.161 101.504 40.161 c 97.504 
40.161 94.281 43.387 94.281 47.395 c 94.281 51.395 97.508 51.395 101.504
 51.395 c 105.527 51.395 108.734 51.395 108.734 47.395 c h
108.734 47.395 m f
0.627451 0.0627451 0.294118 rg
149.473 47.395 m 149.473 43.403 146.234 40.168 142.242 40.168 c 138.254
 40.168 135.016 43.403 135.016 47.395 c 135.016 51.387 138.254 54.621 142.242
 54.621 c 146.234 54.621 149.473 51.387 149.473 47.395 c h
149.473 47.395 m f
0.556863 0.0352941 0.223529 rg
149.465 47.395 m 149.465 43.379 146.227 40.161 142.23 40.161 c 138.234 
40.161 135.008 43.387 135.008 47.395 c 135.008 51.395 138.242 51.395 142.23
 51.395 c 146.227 51.395 149.465 51.395 149.465 47.395 c h
149.465 47.395 m f
0.627451 0.0627451 0.294118 rg
190.199 47.395 m 190.199 43.399 186.961 40.161 182.965 40.161 c 178.969
 40.161 175.73 43.399 175.73 47.395 c 175.73 51.391 178.969 54.629 182.965
 54.629 c 186.961 54.629 190.199 51.391 190.199 47.395 c h
190.199 47.395 m f
0.556863 0.0352941 0.223529 rg
190.207 47.395 m 190.207 43.379 186.953 40.161 182.973 40.161 c 178.965
 40.161 175.738 43.387 175.738 47.395 c 175.738 51.395 178.969 51.395 182.973
 51.395 c 186.953 51.395 190.207 51.395 190.207 47.395 c h
190.207 47.395 m f
0.627451 0.0627451 0.294118 rg
230.953 47.395 m 230.953 43.403 227.715 40.168 223.723 40.168 c 219.73 
40.168 216.496 43.403 216.496 47.395 c 216.496 51.387 219.73 54.621 223.723
 54.621 c 227.715 54.621 230.953 51.387 230.953 47.395 c h
230.953 47.395 m f
0.556863 0.0352941 0.223529 rg
230.918 47.395 m 230.918 43.379 227.688 40.161 223.699 40.161 c 219.695
 40.161 216.469 43.387 216.469 47.395 c 216.469 51.395 219.703 51.395 223.699
 51.395 c 227.688 51.395 230.918 51.395 230.918 47.395 c h
230.918 47.395 m f
0.227451 0.529412 0.0313726 rg
218.129 384.055 m 218.129 384.055 220.023 401.567 202.09 403.243 c 184.16
 404.907 174.727 370.7 174.727 370.7 c 174.727 370.7 174.727 392.383 165.289
 399.895 c 164.246 400.735 163.359 400.953 162.59 400.774 c 161.828 400.953
 160.941 400.735 159.895 399.895 c 150.453 392.391 150.453 370.7 150.453
 370.7 c 150.453 370.7 141.023 404.907 123.094 403.243 c 105.16 401.567 
107.055 384.055 107.055 384.055 c 98.566 402.407 41.953 418.258 59.883 369.024
 c 75.477 326.219 143.125 316.223 160.512 314.34 c 160.543 314.133 160.574
 313.957 160.574 313.957 c 160.574 313.957 161.301 314.008 162.594 314.114
 c 163.883 314 164.609 313.957 164.609 313.957 c 164.609 313.957 164.641
 314.125 164.672 314.34 c 182.059 316.223 249.711 326.219 265.301 369.024
 c 283.234 418.258 226.621 402.403 218.129 384.055 c h
218.129 384.055 m f
0.286275 0.627451 0.0627451 rg
58.477 394.664 m 58.887 393.297 59.355 391.887 59.895 390.391 c 75.492 
347.575 143.141 337.578 160.523 335.707 c 160.555 335.489 160.59 335.317
 160.59 335.317 c 160.59 335.317 161.312 335.383 162.605 335.489 c 163.898
 335.375 164.621 335.317 164.621 335.317 c 164.621 335.317 164.652 335.489
 164.684 335.707 c 182.07 337.578 249.723 347.575 265.312 390.395 c 265.855
 391.879 266.324 393.297 266.738 394.668 c 258.023 410.2 224.523 397.828
 218.141 384.055 c 218.141 384.055 220.035 401.567 202.102 403.243 c 184.176
 404.907 174.742 370.7 174.742 370.7 c 174.742 370.7 174.742 392.383 165.301
 399.895 c 164.262 400.735 163.371 400.953 162.605 400.774 c 161.84 400.953
 160.953 400.735 159.906 399.895 c 150.469 392.391 150.469 370.7 150.469
 370.7 c 150.469 370.7 141.035 404.907 123.105 403.243 c 105.172 401.567
 107.07 384.055 107.07 384.055 c 100.691 397.828 67.188 410.2 58.477 394.664
 c h
58.477 394.664 m f
Q Q
showpage
%%Trailer
end restore
%%EOF
