%!PS-Adobe-3.0 EPSF-3.0
%%Creator: cairo 1.14.2 (http://cairographics.org)
%%CreationDate: Thu Aug  4 10:37:15 2016
%%Pages: 1
%%DocumentData: Clean7Bit
%%LanguageLevel: 2
%%BoundingBox: 0 -1 404 404
%%EndComments
%%BeginProlog
save
50 dict begin
/q { gsave } bind def
/Q { grestore } bind def
/cm { 6 array astore concat } bind def
/w { setlinewidth } bind def
/J { setlinecap } bind def
/j { setlinejoin } bind def
/M { setmiterlimit } bind def
/d { setdash } bind def
/m { moveto } bind def
/l { lineto } bind def
/c { curveto } bind def
/h { closepath } bind def
/re { exch dup neg 3 1 roll 5 3 roll moveto 0 rlineto
      0 exch rlineto 0 rlineto closepath } bind def
/S { stroke } bind def
/f { fill } bind def
/f* { eofill } bind def
/n { newpath } bind def
/W { clip } bind def
/W* { eoclip } bind def
/BT { } bind def
/ET { } bind def
/pdfmark where { pop globaldict /?pdfmark /exec load put }
    { globaldict begin /?pdfmark /pop load def /pdfmark
    /cleartomark load def end } ifelse
/BDC { mark 3 1 roll /BDC pdfmark } bind def
/EMC { mark /EMC pdfmark } bind def
/cairo_store_point { /cairo_point_y exch def /cairo_point_x exch def } def
/Tj { show currentpoint cairo_store_point } bind def
/TJ {
  {
    dup
    type /stringtype eq
    { show } { -0.001 mul 0 cairo_font_matrix dtransform rmoveto } ifelse
  } forall
  currentpoint cairo_store_point
} bind def
/cairo_selectfont { cairo_font_matrix aload pop pop pop 0 0 6 array astore
    cairo_font exch selectfont cairo_point_x cairo_point_y moveto } bind def
/Tf { pop /cairo_font exch def /cairo_font_matrix where
      { pop cairo_selectfont } if } bind def
/Td { matrix translate cairo_font_matrix matrix concatmatrix dup
      /cairo_font_matrix exch def dup 4 get exch 5 get cairo_store_point
      /cairo_font where { pop cairo_selectfont } if } bind def
/Tm { 2 copy 8 2 roll 6 array astore /cairo_font_matrix exch def
      cairo_store_point /cairo_font where { pop cairo_selectfont } if } bind def
/g { setgray } bind def
/rg { setrgbcolor } bind def
/d1 { setcachedevice } bind def
%%EndProlog
%%BeginSetup
%%EndSetup
%%Page: 1 1
%%BeginPageSetup
%%PageBoundingBox: 0 -1 404 404
%%EndPageSetup
q 0 -1 404 405 rectclip q
1 0.694118 0.2 rg
344.449 201.643 m 344.449 122.78 280.516 58.847 201.652 58.847 c 122.785
 58.847 58.852 122.78 58.852 201.643 c 58.852 280.511 122.785 344.444 201.652
 344.444 c 280.516 344.444 344.449 280.511 344.449 201.643 c h
344.449 201.643 m f
0.956863 0.611765 0 rg
344.449 201.643 m 344.449 122.788 280.516 58.85 201.652 58.85 c 122.785
 58.85 58.859 122.796 58.859 201.643 c 58.859 280.515 122.785 317.167 201.652
 317.167 c 280.516 317.167 344.449 280.515 344.449 201.643 c h
344.449 201.643 m f
0.94902 0.541176 0 rg
344.449 201.643 m 344.449 122.788 280.516 58.85 201.652 58.85 c 122.785
 58.85 58.859 122.796 58.859 201.643 c f
313.504 308.198 m 312.52 309.183 311.891 310.55 311.891 312.081 c 311.891
 320.378 315.129 328.198 321.008 334.077 c 326.883 339.956 334.695 343.198
 343.012 343.198 c 346.039 343.183 348.504 340.725 348.504 337.702 c 348.504
 334.659 346.039 332.214 343.012 332.214 c 337.625 332.214 332.578 330.112
 328.773 326.308 c 324.965 322.503 322.875 317.46 322.875 312.073 c 322.875
 309.042 320.402 306.577 317.371 306.577 c 315.875 306.585 314.5 307.198
 313.504 308.198 c h
313.504 308.198 m f
89.797 95.112 m 90.789 94.108 91.41 92.729 91.41 91.225 c 91.426 82.917
 88.172 75.077 82.305 69.233 c 76.422 63.335 68.605 60.112 60.301 60.112
 c 57.262 60.112 54.805 62.565 54.805 65.616 c 54.805 68.632 57.262 71.104
 60.301 71.104 c 65.684 71.104 70.723 73.183 74.543 77.003 c 78.324 80.796
 80.43 85.843 80.43 91.229 c 80.43 94.268 82.891 96.718 85.93 96.718 c 87.43
 96.714 88.805 96.089 89.797 95.112 c h
89.797 95.112 m f
205.406 356.069 m 203.996 356.069 202.602 356.612 201.523 357.69 c 195.641
 363.558 192.406 371.378 192.406 379.675 c 192.406 387.995 195.645 395.819
 201.523 401.683 c 203.676 403.823 207.145 403.823 209.281 401.683 c 211.418
 399.538 211.426 396.061 209.281 393.917 c 205.488 390.112 203.395 385.058
 203.395 379.675 c 203.395 374.308 205.488 369.265 209.281 365.448 c 211.426
 363.304 211.426 359.835 209.281 357.69 c 208.219 356.612 206.82 356.069
 205.406 356.069 c h
205.406 356.069 m f
197.891 47.222 m 199.301 47.222 200.707 46.683 201.77 45.612 c 207.656 
39.753 210.891 31.925 210.891 23.62 c 210.891 15.304 207.648 7.495 201.77
 1.616 c 199.629 -0.54 196.156 -0.54 194.016 1.616 c 191.871 3.761 191.871
 7.229 194.016 9.366 c 197.82 13.194 199.906 18.241 199.906 23.624 c 199.906
 28.991 197.82 34.05 194.016 37.858 c 191.871 40.007 191.871 43.479 194.016
 45.616 c 195.09 46.683 196.484 47.222 197.891 47.222 c h
197.891 47.222 m f
356.078 197.909 m 356.078 199.3 356.605 200.694 357.688 201.772 c 363.562
 207.659 371.383 210.89 379.68 210.89 c 388 210.89 395.82 207.651 401.691
 201.772 c 403.828 199.624 403.84 196.143 401.691 194.007 c 399.539 191.866
 396.07 191.866 393.938 194.007 c 390.121 197.819 385.07 199.905 379.68 
199.905 c 374.312 199.905 369.258 197.827 365.453 194.007 c 363.297 191.866
 359.832 191.866 357.688 194.007 c 356.605 195.081 356.09 196.479 356.078
 197.909 c h
356.078 197.909 m f
47.215 205.401 m 47.215 203.995 46.684 202.585 45.613 201.515 c 39.746 
195.628 31.926 192.409 23.633 192.409 c 15.297 192.409 7.488 195.636 1.621
 201.515 c -0.539 203.667 -0.539 207.14 1.621 209.284 c 3.75 211.433 7.23
 211.433 9.379 209.284 c 13.191 205.475 18.227 203.378 23.633 203.378 c 
28.988 203.378 34.051 205.472 37.844 209.284 c 39.977 211.433 43.461 211.433
 45.613 209.284 c 46.684 208.206 47.215 206.796 47.215 205.401 c h
47.215 205.401 m f
308.191 89.792 m 309.18 90.796 310.547 91.401 312.047 91.401 c 320.367 
91.413 328.191 88.163 334.074 82.3 c 339.957 76.401 343.191 68.581 343.191
 60.284 c 343.172 57.265 340.727 54.8 337.703 54.8 c 334.656 54.8 332.199
 57.245 332.199 60.284 c 332.207 65.671 330.109 70.706 326.297 74.53 c 322.496
 78.339 317.449 80.436 312.043 80.429 c 309.023 80.429 306.566 82.886 306.566
 85.917 c 306.586 87.425 307.203 88.8 308.191 89.792 c h
308.191 89.792 m f
95.098 313.499 m 94.117 312.515 92.73 311.886 91.223 311.886 c 82.926 311.858
 75.078 315.116 69.238 320.983 c 63.324 326.878 60.105 334.679 60.105 342.995
 c 60.105 346.046 62.57 348.483 65.602 348.483 c 68.625 348.483 71.098 346.046
 71.098 342.995 c 71.098 337.612 73.188 332.573 77 328.741 c 80.801 324.948
 85.844 322.854 91.23 322.87 c 94.254 322.87 96.727 320.393 96.727 317.378
 c 96.719 315.862 96.086 314.495 95.098 313.499 c h
95.098 313.499 m f
127.691 337.249 m 126.48 336.561 124.988 336.327 123.508 336.714 c 115.492
 338.862 108.766 344.011 104.625 351.198 c 100.473 358.401 99.352 366.796
 101.52 374.819 c 102.289 377.761 105.312 379.495 108.238 378.706 c 111.18
 377.933 112.906 374.901 112.113 371.987 c 110.719 366.772 111.457 361.347
 114.129 356.69 c 116.816 352.05 121.145 348.71 126.348 347.319 c 129.277
 346.542 131 343.511 130.242 340.608 c 129.852 339.14 128.887 337.952 127.691
 337.249 c h
127.691 337.249 m f
275.605 66.03 m 276.809 66.729 278.309 66.975 279.777 66.565 c 287.789 
64.44 294.512 59.28 298.656 52.093 c 302.816 44.878 303.93 36.491 301.789
 28.468 c 300.984 25.53 297.965 23.792 295.039 24.593 c 292.137 25.386 290.379
 28.386 291.164 31.323 c 292.562 36.518 291.828 41.94 289.156 46.597 c 286.465
 51.249 282.137 54.573 276.941 55.96 c 273.992 56.737 272.262 59.768 273.035
 62.686 c 273.449 64.167 274.395 65.331 275.605 66.03 c h
275.605 66.03 m f
337.254 275.62 m 336.574 276.811 336.328 278.304 336.719 279.78 c 338.867
 287.788 344.016 294.518 351.219 298.671 c 358.426 302.831 366.789 303.925
 374.824 301.784 c 377.754 300.972 379.492 297.975 378.719 295.054 c 377.91
 292.116 374.91 290.378 371.98 291.179 c 366.789 292.569 361.359 291.839
 356.719 289.163 c 352.039 286.472 348.711 282.14 347.316 276.929 c 346.543
 273.987 343.539 272.253 340.602 273.054 c 339.113 273.425 337.984 274.39
 337.254 275.62 c h
337.254 275.62 m f
66.035 127.667 m 66.746 126.468 66.957 124.968 66.57 123.507 c 64.441 115.491
 59.27 108.761 52.117 104.628 c 44.883 100.46 36.512 99.358 28.461 101.526
 c 25.527 102.304 23.797 105.308 24.609 108.233 c 25.383 111.163 28.379 
112.909 31.32 112.12 c 36.512 110.714 41.945 111.433 46.613 114.136 c 51.25
 116.804 54.578 121.136 55.965 126.347 c 56.742 129.28 59.746 131.026 62.707
 130.237 c 64.172 129.835 65.316 128.882 66.035 127.667 c h
66.035 127.667 m f
349.84 158.05 m 350.184 159.401 351.086 160.628 352.395 161.374 c 359.586
 165.538 367.973 166.64 376.016 164.491 c 384.035 162.323 390.762 157.183
 394.895 149.991 c 396.395 147.362 395.535 143.999 392.883 142.487 c 390.262
 140.964 386.922 141.87 385.398 144.499 c 382.711 149.159 378.383 152.475
 373.172 153.882 c 367.98 155.272 362.547 154.573 357.898 151.858 c 355.246
 150.35 351.91 151.241 350.391 153.874 c 349.637 155.19 349.48 156.702 349.84
 158.05 c h
349.84 158.05 m f
53.438 245.241 m 53.094 243.886 52.195 242.663 50.895 241.893 c 43.695 
237.722 35.285 236.624 27.309 238.788 c 19.246 240.936 12.543 246.077 8.383
 253.292 c 6.863 255.929 7.766 259.272 10.402 260.784 c 13.023 262.3 16.367
 261.429 17.906 258.78 c 20.59 254.124 24.898 250.792 30.137 249.397 c 35.305
 248.007 40.734 248.718 45.387 251.417 c 48.008 252.933 51.367 252.034 52.871
 249.405 c 53.652 248.089 53.797 246.597 53.438 245.241 c h
53.438 245.241 m f
69.773 282.093 m 69.078 280.886 67.902 279.948 66.438 279.546 c 58.422 
277.39 50.027 278.495 42.84 282.643 c 35.629 286.804 30.48 293.522 28.332
 301.55 c 27.531 304.479 29.277 307.491 32.195 308.268 c 35.164 309.061 
38.152 307.311 38.926 304.393 c 40.332 299.186 43.684 294.847 48.336 292.163
 c 52.961 289.483 58.406 288.765 63.617 290.159 c 66.527 290.933 69.527 
289.194 70.34 286.28 c 70.723 284.827 70.477 283.319 69.773 282.093 c h
69.773 282.093 m f
333.492 121.183 m 334.191 122.378 335.383 123.35 336.84 123.714 c 344.859
 125.909 353.25 124.78 360.43 120.628 c 367.652 116.468 372.801 109.749 
374.949 101.733 c 375.742 98.792 374.004 95.768 371.055 95.003 c 368.137
 94.241 365.125 95.948 364.352 98.893 c 362.922 104.093 359.586 108.433 
354.949 111.124 c 350.305 113.808 344.867 114.518 339.676 113.14 c 336.758
 112.327 333.758 114.073 332.945 116.991 c 332.555 118.472 332.797 119.964
 333.492 121.183 c h
333.492 121.183 m f
282.098 333.499 m 280.891 334.186 279.941 335.358 279.57 336.831 c 277.395
 344.843 278.496 353.241 282.688 360.436 c 286.84 367.651 293.531 372.784
 301.543 374.944 c 304.496 375.718 307.484 373.995 308.285 371.069 c 309.035
 368.108 307.328 365.112 304.402 364.339 c 299.207 362.952 294.855 359.612
 292.18 354.956 c 289.469 350.304 288.746 344.874 290.168 339.667 c 290.949
 336.737 289.23 333.725 286.285 332.936 c 284.801 332.542 283.34 332.811
 282.098 333.499 c h
282.098 333.499 m f
121.188 69.772 m 122.383 69.085 123.336 67.89 123.715 66.44 c 125.902 58.429
 124.785 50.026 120.625 42.858 c 116.453 35.624 109.77 30.491 101.734 28.335
 c 98.789 27.554 95.785 29.268 95.012 32.222 c 94.215 35.147 95.957 38.159
 98.898 38.933 c 104.09 40.335 108.445 43.655 111.141 48.331 c 113.809 52.968
 114.531 58.401 113.113 63.604 c 112.344 66.522 114.047 69.515 117.02 70.323
 c 118.484 70.706 119.965 70.46 121.188 69.772 c h
121.188 69.772 m f
351.773 237.979 m 351.414 239.331 351.559 240.835 352.32 242.14 c 356.469
 249.331 363.191 254.483 371.227 256.651 c 379.246 258.78 387.641 257.686
 394.832 253.526 c 397.426 252.015 398.371 248.667 396.809 246.022 c 395.32
 243.401 391.969 242.507 389.328 244.03 c 384.68 246.741 379.266 247.413
 374.059 246.046 c 368.863 244.643 364.508 241.335 361.816 236.647 c 360.309
 234.026 356.957 233.132 354.316 234.655 c 353.016 235.397 352.137 236.624
 351.773 237.979 c h
351.773 237.979 m f
51.512 165.292 m 51.871 163.944 51.699 162.436 50.957 161.12 c 46.809 153.917
 40.074 148.757 32.094 146.632 c 24.031 144.452 15.66 145.573 8.445 149.733
 c 5.812 151.257 4.91 154.593 6.469 157.225 c 7.961 159.858 11.309 160.768
 13.973 159.253 c 18.598 156.546 24.004 155.819 29.234 157.237 c 34.402 
158.604 38.777 161.936 41.434 166.612 c 42.945 169.229 46.32 170.136 48.941
 168.624 c 50.27 167.862 51.121 166.64 51.512 165.292 c h
51.512 165.292 m f
69.773 282.093 m 69.078 280.886 67.902 279.948 66.438 279.546 c 58.422 
277.39 50.027 278.495 42.84 282.643 c 35.629 286.804 30.48 293.522 28.332
 301.55 c 27.531 304.479 29.277 307.491 32.195 308.268 c 35.164 309.061 
38.152 307.311 38.926 304.393 c 40.332 299.186 43.684 294.847 48.336 292.163
 c 52.961 289.483 58.406 288.765 63.617 290.159 c 66.527 290.933 69.527 
289.194 70.34 286.28 c 70.723 284.827 70.477 283.319 69.773 282.093 c h
69.773 282.093 m f
333.492 121.183 m 334.191 122.378 335.383 123.35 336.84 123.714 c 344.859
 125.909 353.25 124.78 360.43 120.628 c 367.652 116.468 372.801 109.749 
374.949 101.733 c 375.742 98.792 374.004 95.768 371.055 95.003 c 368.137
 94.241 365.125 95.948 364.352 98.893 c 362.922 104.093 359.586 108.433 
354.949 111.124 c 350.305 113.808 344.867 114.518 339.676 113.14 c 336.758
 112.327 333.758 114.073 332.945 116.991 c 332.555 118.472 332.797 119.964
 333.492 121.183 c h
333.492 121.183 m f
282.098 333.499 m 280.891 334.186 279.941 335.358 279.57 336.831 c 277.395
 344.843 278.496 353.241 282.688 360.436 c 286.84 367.651 293.531 372.784
 301.543 374.944 c 304.496 375.718 307.484 373.995 308.285 371.069 c 309.035
 368.108 307.328 365.112 304.402 364.339 c 299.207 362.952 294.855 359.612
 292.18 354.956 c 289.469 350.304 288.746 344.874 290.168 339.667 c 290.949
 336.737 289.23 333.725 286.285 332.936 c 284.801 332.542 283.34 332.811
 282.098 333.499 c h
282.098 333.499 m f
121.188 69.772 m 122.383 69.085 123.336 67.89 123.715 66.44 c 125.902 58.429
 124.785 50.026 120.625 42.858 c 116.453 35.624 109.77 30.491 101.734 28.335
 c 98.789 27.554 95.785 29.268 95.012 32.222 c 94.215 35.147 95.957 38.159
 98.898 38.933 c 104.09 40.335 108.445 43.655 111.141 48.331 c 113.809 52.968
 114.531 58.401 113.113 63.604 c 112.344 66.522 114.047 69.515 117.02 70.323
 c 118.484 70.706 119.965 70.46 121.188 69.772 c h
121.188 69.772 m f
351.773 237.979 m 351.414 239.331 351.559 240.835 352.32 242.14 c 356.469
 249.331 363.191 254.483 371.227 256.651 c 379.246 258.78 387.641 257.686
 394.832 253.526 c 397.426 252.015 398.371 248.667 396.809 246.022 c 395.32
 243.401 391.969 242.507 389.328 244.03 c 384.68 246.741 379.266 247.413
 374.059 246.046 c 368.863 244.643 364.508 241.335 361.816 236.647 c 360.309
 234.026 356.957 233.132 354.316 234.655 c 353.016 235.397 352.137 236.624
 351.773 237.979 c h
351.773 237.979 m f
51.512 165.292 m 51.871 163.944 51.699 162.436 50.957 161.12 c 46.809 153.917
 40.074 148.757 32.094 146.632 c 24.031 144.452 15.66 145.573 8.445 149.733
 c 5.812 151.257 4.91 154.593 6.469 157.225 c 7.961 159.858 11.309 160.768
 13.973 159.253 c 18.598 156.546 24.004 155.819 29.234 157.237 c 34.402 
158.604 38.777 161.936 41.434 166.612 c 42.945 169.229 46.32 170.136 48.941
 168.624 c 50.27 167.862 51.121 166.64 51.512 165.292 c h
51.512 165.292 m f
66.055 127.651 m 66.742 126.448 66.957 124.956 66.566 123.468 c 64.418 
115.46 59.262 108.741 52.086 104.604 c 44.871 100.444 36.508 99.335 28.453
 101.475 c 25.523 102.265 23.805 105.292 24.59 108.194 c 25.379 111.163 
28.371 112.87 31.297 112.097 c 36.508 110.69 41.934 111.433 46.59 114.112
 c 51.227 116.792 54.574 121.12 55.961 126.331 c 56.734 129.241 59.766 130.968
 62.703 130.245 c 64.172 129.835 65.344 128.882 66.055 127.651 c h
66.055 127.651 m f
337.254 275.581 m 336.574 276.792 336.309 278.304 336.742 279.753 c 338.867
 287.788 344.035 294.499 351.191 298.632 c 358.41 302.8 366.789 303.901 
374.824 301.757 c 377.754 300.972 379.492 297.952 378.699 295.026 c 377.91
 292.116 374.906 290.35 371.98 291.179 c 366.75 292.534 361.344 291.808 
356.695 289.136 c 352.039 286.452 348.703 282.097 347.316 276.925 c 346.566
 273.999 343.535 272.261 340.598 273.011 c 339.113 273.413 337.984 274.386
 337.254 275.581 c h
337.254 275.581 m f
127.672 337.218 m 126.48 336.55 124.984 336.296 123.531 336.706 c 115.488
 338.831 108.766 343.983 104.625 351.202 c 100.473 358.421 99.352 366.772
 101.492 374.808 c 102.32 377.729 105.309 379.468 108.238 378.706 c 111.18
 377.87 112.906 374.882 112.113 371.964 c 110.719 366.772 111.457 361.339
 114.141 356.69 c 116.812 352.026 121.141 348.679 126.352 347.3 c 129.301
 346.511 131.035 343.511 130.246 340.569 c 129.852 339.089 128.887 337.948
 127.672 337.218 c h
127.672 337.218 m f
275.605 66.011 m 276.809 66.71 278.309 66.936 279.777 66.546 c 287.812 
64.417 294.535 59.276 298.656 52.081 c 302.816 44.858 303.93 36.475 301.758
 28.468 c 300.98 25.526 297.984 23.768 295.039 24.581 c 292.137 25.343 290.375
 28.362 291.164 31.284 c 292.59 36.491 291.875 41.921 289.18 46.608 c 286.488
 51.229 282.137 54.569 276.949 55.948 c 274.023 56.729 272.266 59.718 273.055
 62.686 c 273.449 64.132 274.414 65.304 275.605 66.011 c h
275.605 66.011 m f
245.258 349.819 m 243.879 350.167 242.66 351.05 241.93 352.366 c 237.746
 359.569 236.656 367.96 238.797 375.995 c 240.969 384.007 246.094 390.733
 253.312 394.874 c 255.934 396.362 259.297 395.507 260.816 392.847 c 262.328
 390.237 261.422 386.89 258.801 385.374 c 254.125 382.683 250.809 378.35
 249.402 373.14 c 248.023 367.936 248.715 362.522 251.434 357.858 c 252.934
 355.214 252.039 351.886 249.398 350.354 c 248.086 349.612 246.582 349.468
 245.258 349.819 c h
245.258 349.819 m f
158.07 53.429 m 159.398 53.069 160.617 52.171 161.418 50.87 c 165.551 43.667
 166.648 35.261 164.504 27.3 c 162.348 19.214 157.207 12.518 149.969 8.37
 c 147.363 6.835 144.02 7.733 142.508 10.386 c 140.969 13.003 141.852 16.354
 144.496 17.905 c 149.148 20.565 152.508 24.87 153.875 30.116 c 155.266 
35.292 154.562 40.722 151.855 45.366 c 150.355 47.995 151.254 51.358 153.875
 52.866 c 155.191 53.628 156.703 53.784 158.07 53.429 c h
158.07 53.429 m f
121.219 69.772 m 122.41 69.061 123.336 67.882 123.727 66.401 c 125.902 
58.393 124.785 49.999 120.625 42.823 c 116.453 35.608 109.77 30.491 101.754
 28.315 c 98.793 27.522 95.812 29.28 95.012 32.171 c 94.219 35.147 95.977
 38.14 98.879 38.913 c 104.109 40.315 108.445 43.651 111.117 48.304 c 113.809
 52.94 114.531 58.374 113.113 63.593 c 112.348 66.479 114.098 69.503 117.023
 70.335 c 118.484 70.706 119.988 70.46 121.219 69.772 c h
121.219 69.772 m f
282.109 333.475 m 280.918 334.186 279.941 335.358 279.59 336.831 c 277.395
 344.843 278.543 353.241 282.656 360.401 c 286.824 367.616 293.535 372.765
 301.543 374.925 c 304.496 375.718 307.512 373.968 308.262 371.038 c 309.035
 368.108 307.328 365.097 304.402 364.339 c 299.191 362.901 294.875 359.542
 292.18 354.933 c 289.469 350.28 288.789 344.831 290.168 339.667 c 290.977
 336.765 289.23 333.737 286.301 332.921 c 284.812 332.534 283.34 332.8 282.109
 333.475 c h
282.109 333.475 m f
69.773 282.061 m 69.105 280.874 67.914 279.909 66.457 279.546 c 58.441 
277.366 50.055 278.475 42.84 282.659 c 35.629 286.815 30.48 293.503 28.332
 301.526 c 27.559 304.456 29.305 307.468 32.195 308.268 c 35.176 309.007
 38.152 307.296 38.926 304.366 c 40.332 299.186 43.68 294.839 48.348 292.167
 c 52.973 289.444 58.418 288.714 63.609 290.124 c 66.539 290.925 69.566 
289.194 70.336 286.245 c 70.75 284.776 70.477 283.3 69.773 282.061 c h
69.773 282.061 m f
333.523 121.155 m 334.191 122.362 335.383 123.311 336.863 123.69 c 344.867
 125.882 353.273 124.78 360.43 120.616 c 367.652 116.444 372.801 109.745
 374.949 101.71 c 375.742 98.78 374.004 95.768 371.055 95.007 c 368.164 
94.206 365.125 95.925 364.352 98.87 c 362.973 104.085 359.648 108.433 354.973
 111.143 c 350.324 113.796 344.879 114.507 339.688 113.097 c 336.789 112.335
 333.777 114.03 332.98 117.011 c 332.578 118.444 332.836 119.952 333.523
 121.155 c h
333.523 121.155 m f
165.328 351.768 m 163.961 351.382 162.438 351.546 161.184 352.308 c 153.953
 356.448 148.82 363.171 146.633 371.214 c 144.504 379.233 145.598 387.624
 149.766 394.819 c 151.301 397.413 154.637 398.354 157.27 396.811 c 159.891
 395.311 160.762 391.952 159.262 389.323 c 156.531 384.659 155.855 379.253
 157.227 374.022 c 158.66 368.831 161.953 364.491 166.641 361.811 c 169.262
 360.272 170.137 356.94 168.637 354.296 c 167.867 352.995 166.645 352.112
 165.328 351.768 c h
165.328 351.768 m f
238 51.479 m 239.34 51.847 240.859 51.675 242.184 50.936 c 249.375 46.78
 254.527 40.038 256.652 32.073 c 258.844 23.999 257.715 15.636 253.543 8.417
 c 252.043 5.78 248.688 4.882 246.059 6.448 c 243.438 7.925 242.516 11.288
 244.035 13.952 c 246.75 18.573 247.469 23.979 246.059 29.202 c 244.684 
34.382 241.344 38.733 236.66 41.417 c 234.074 42.929 233.164 46.3 234.656
 48.913 c 235.41 50.233 236.656 51.1 238 51.479 c h
238 51.479 m f
0.0352941 0.317647 0.427451 rg
155.102 173.948 m 155.102 163.124 146.312 164.143 135.496 164.143 c 124.684
 164.143 115.914 163.124 115.914 173.948 c 115.914 184.768 124.684 193.534
 135.496 193.534 c 146.312 193.534 155.102 184.768 155.102 173.948 c h
155.102 173.948 m f
0.0313726 0.129412 0.188235 rg
155.102 173.948 m 155.102 163.124 146.312 164.143 135.496 164.143 c 124.684
 164.143 115.914 163.124 115.914 173.948 c 115.914 184.768 124.684 185.62
 135.496 185.62 c 146.312 185.62 155.102 184.768 155.102 173.948 c h
155.102 173.948 m f
0.0352941 0.317647 0.427451 rg
287.391 173.948 m 287.391 163.124 278.605 164.143 267.797 164.143 c 256.973
 164.143 248.203 163.124 248.203 173.948 c 248.203 184.768 256.98 193.534
 267.797 193.534 c 278.613 193.534 287.391 184.768 287.391 173.948 c h
287.391 173.948 m f
0.0313726 0.129412 0.188235 rg
287.391 173.948 m 287.391 163.124 278.605 164.143 267.797 164.143 c 256.973
 164.143 248.203 163.124 248.203 173.948 c 248.203 184.768 256.98 185.62
 267.797 185.62 c 278.613 185.62 287.391 184.768 287.391 173.948 c h
287.391 173.948 m f
0.686275 0.227451 0.415686 rg
210.059 142.304 m 210.059 137.659 206.293 133.897 201.652 133.897 c 197.008
 133.897 193.246 137.659 193.246 142.304 c 193.246 146.948 197.008 150.71
 201.652 150.71 c 206.293 150.71 210.059 146.948 210.059 142.304 c h
210.059 142.304 m f
Q Q
showpage
%%Trailer
end restore
%%EOF
