%!PS-Adobe-3.0 EPSF-3.0
%%Creator: cairo 1.14.2 (http://cairographics.org)
%%CreationDate: Thu Aug  4 10:37:06 2016
%%Pages: 1
%%DocumentData: Clean7Bit
%%LanguageLevel: 2
%%BoundingBox: 0 -1 404 404
%%EndComments
%%BeginProlog
save
50 dict begin
/q { gsave } bind def
/Q { grestore } bind def
/cm { 6 array astore concat } bind def
/w { setlinewidth } bind def
/J { setlinecap } bind def
/j { setlinejoin } bind def
/M { setmiterlimit } bind def
/d { setdash } bind def
/m { moveto } bind def
/l { lineto } bind def
/c { curveto } bind def
/h { closepath } bind def
/re { exch dup neg 3 1 roll 5 3 roll moveto 0 rlineto
      0 exch rlineto 0 rlineto closepath } bind def
/S { stroke } bind def
/f { fill } bind def
/f* { eofill } bind def
/n { newpath } bind def
/W { clip } bind def
/W* { eoclip } bind def
/BT { } bind def
/ET { } bind def
/pdfmark where { pop globaldict /?pdfmark /exec load put }
    { globaldict begin /?pdfmark /pop load def /pdfmark
    /cleartomark load def end } ifelse
/BDC { mark 3 1 roll /BDC pdfmark } bind def
/EMC { mark /EMC pdfmark } bind def
/cairo_store_point { /cairo_point_y exch def /cairo_point_x exch def } def
/Tj { show currentpoint cairo_store_point } bind def
/TJ {
  {
    dup
    type /stringtype eq
    { show } { -0.001 mul 0 cairo_font_matrix dtransform rmoveto } ifelse
  } forall
  currentpoint cairo_store_point
} bind def
/cairo_selectfont { cairo_font_matrix aload pop pop pop 0 0 6 array astore
    cairo_font exch selectfont cairo_point_x cairo_point_y moveto } bind def
/Tf { pop /cairo_font exch def /cairo_font_matrix where
      { pop cairo_selectfont } if } bind def
/Td { matrix translate cairo_font_matrix matrix concatmatrix dup
      /cairo_font_matrix exch def dup 4 get exch 5 get cairo_store_point
      /cairo_font where { pop cairo_selectfont } if } bind def
/Tm { 2 copy 8 2 roll 6 array astore /cairo_font_matrix exch def
      cairo_store_point /cairo_font where { pop cairo_selectfont } if } bind def
/g { setgray } bind def
/rg { setrgbcolor } bind def
/d1 { setcachedevice } bind def
%%EndProlog
%%BeginSetup
%%EndSetup
%%Page: 1 1
%%BeginPageSetup
%%PageBoundingBox: 0 -1 404 404
%%EndPageSetup
q 0 -1 404 405 rectclip q
1 0.819608 0.0627451 rg
229.848 334.373 m 229.848 318.802 217.223 306.177 201.648 306.177 c 186.09
 306.177 173.449 318.802 173.449 334.373 c 173.449 349.962 186.09 403.298
 201.648 403.298 c 217.219 403.298 229.848 349.962 229.848 334.373 c h
229.848 334.373 m f
0.968627 0.72549 0.0431373 rg
201.648 403.298 m 217.223 403.298 229.848 349.962 229.848 334.373 c 229.848
 318.802 217.223 306.177 201.648 306.177 c f
1 0.819608 0.0627451 rg
173.449 68.927 m 173.449 84.498 186.078 97.119 201.648 97.119 c 217.207
 97.119 229.848 84.498 229.848 68.927 c 229.848 53.33 217.207 0.002 201.648
 0.002 c 186.078 0.002 173.449 53.337 173.449 68.927 c h
173.449 68.927 m f
0.968627 0.72549 0.0431373 rg
201.648 0.002 m 186.078 0.002 173.449 53.337 173.449 68.927 c 173.449 84.498
 186.078 97.119 201.648 97.119 c f
1 0.819608 0.0627451 rg
315.438 275.56 m 304.422 264.552 286.574 264.544 275.574 275.56 c 264.57
 286.564 264.559 304.419 275.559 315.431 c 286.59 326.459 333.23 355.232
 344.234 344.232 c 355.25 333.224 326.465 286.584 315.438 275.56 c h
315.438 275.56 m f
0.968627 0.72549 0.0431373 rg
344.234 344.24 m 355.25 333.224 326.465 286.58 315.438 275.564 c 304.422
 264.556 286.574 264.552 275.574 275.564 c f
1 0.819608 0.0627451 rg
87.863 127.74 m 98.863 138.748 116.723 138.748 127.727 127.74 c 138.727
 116.736 138.742 98.877 127.738 87.861 c 116.711 76.845 70.066 48.06 59.062
 59.064 c 48.051 70.072 76.836 116.709 87.863 127.74 c h
87.863 127.74 m f
0.968627 0.72549 0.0431373 rg
59.062 59.056 m 48.047 70.072 76.836 116.709 87.863 127.732 c 98.863 138.74
 116.723 138.74 127.727 127.732 c f
1 0.819608 0.0627451 rg
334.367 173.455 m 318.809 173.443 306.168 186.072 306.18 201.642 c 306.18
 217.212 318.801 229.841 334.367 229.841 c 349.961 229.841 403.293 217.212
 403.297 201.65 c 403.297 186.072 349.957 173.443 334.367 173.455 c h
334.367 173.455 m f
0.968627 0.72549 0.0431373 rg
403.297 201.65 m 403.297 186.072 349.957 173.443 334.367 173.455 c 318.809
 173.443 306.168 186.072 306.18 201.642 c f
1 0.819608 0.0627451 rg
68.926 229.841 m 84.496 229.841 97.125 217.212 97.125 201.65 c 97.125 186.084
 84.496 173.459 68.926 173.443 c 53.328 173.455 0 186.084 0 201.65 c 0 217.228
 53.328 229.841 68.926 229.841 c h
68.926 229.841 m f
0.968627 0.72549 0.0431373 rg
0 201.65 m 0 217.228 53.328 229.841 68.926 229.841 c 84.496 229.841 97.125
 217.212 97.125 201.65 c f
1 0.819608 0.0627451 rg
275.555 87.869 m 264.559 98.857 264.543 116.724 275.559 127.72 c 286.57
 138.724 304.422 138.74 315.438 127.732 c 326.453 116.712 355.238 70.06 
344.234 59.06 c 333.219 48.044 286.574 76.841 275.555 87.869 c h
275.555 87.869 m f
0.968627 0.72549 0.0431373 rg
344.234 59.056 m 333.219 48.041 286.574 76.841 275.555 87.869 c 264.559
 98.857 264.543 116.724 275.559 127.72 c f
1 0.819608 0.0627451 rg
127.73 315.435 m 138.734 304.427 138.746 286.568 127.73 275.568 c 116.73
 264.556 98.871 264.556 87.867 275.568 c 76.84 286.595 48.062 333.224 59.07
 344.24 c 70.074 355.248 116.711 326.462 127.73 315.435 c h
127.73 315.435 m f
0.968627 0.72549 0.0431373 rg
59.062 344.24 m 70.074 355.248 116.711 326.462 127.727 315.435 c 138.727
 304.427 138.742 286.568 127.727 275.568 c f
1 0.819608 0.0627451 rg
159.707 330.693 m 167.496 317.205 162.875 299.959 149.391 292.185 c 135.91
 284.408 118.672 289.021 110.867 302.498 c 103.094 316.002 87.352 368.513
 100.832 376.291 c 114.316 384.068 151.91 344.189 159.707 330.693 c h
159.707 330.693 m f
0.968627 0.72549 0.0431373 rg
100.832 376.283 m 114.316 384.068 151.91 344.189 159.707 330.693 c 167.496
 317.205 162.875 299.959 149.391 292.185 c f
1 0.819608 0.0627451 rg
243.598 72.607 m 235.816 86.091 240.434 103.337 253.906 111.123 c 267.387
 118.896 284.66 114.279 292.43 100.794 c 300.227 87.294 315.941 34.791 302.461
 27.017 c 288.996 19.232 251.387 59.107 243.598 72.607 c h
243.598 72.607 m f
0.968627 0.72549 0.0431373 rg
302.461 27.021 m 288.996 19.232 251.387 59.107 243.598 72.607 c 235.816
 86.091 240.438 103.337 253.91 111.123 c f
1 0.819608 0.0627451 rg
263.242 322.544 m 259.207 307.517 243.75 298.587 228.715 302.619 c 213.688
 306.65 204.758 322.107 208.77 337.146 c 212.816 352.22 238.824 400.455 
253.832 396.431 c 268.887 392.396 267.266 337.603 263.242 322.544 c h
263.242 322.544 m f
0.968627 0.72549 0.0431373 rg
253.832 396.423 m 268.887 392.392 267.266 337.603 263.238 322.537 c 259.207
 307.509 243.75 298.58 228.715 302.611 c f
1 0.819608 0.0627451 rg
140.07 80.74 m 144.102 95.775 159.574 104.705 174.598 100.666 c 189.637
 96.646 198.574 81.189 194.539 66.142 c 190.5 51.087 164.488 2.834 149.461
 6.869 c 134.41 10.908 136.023 65.693 140.07 80.74 c h
140.07 80.74 m f
0.968627 0.72549 0.0431373 rg
149.461 6.877 m 134.41 10.916 136.023 65.693 140.07 80.748 c 144.102 95.783
 159.574 104.712 174.598 100.673 c f
1 0.819608 0.0627451 rg
330.699 243.591 m 317.219 235.81 299.965 240.408 292.176 253.9 c 284.402
 267.392 289.027 284.634 302.504 292.423 c 316.008 300.22 368.512 315.939
 376.297 302.482 c 384.074 288.974 344.195 251.38 330.699 243.591 c h
330.699 243.591 m f
0.968627 0.72549 0.0431373 rg
376.289 302.478 m 384.074 288.974 344.195 251.38 330.699 243.591 c 317.219
 235.81 299.965 240.408 292.176 253.9 c f
1 0.819608 0.0627451 rg
72.621 159.705 m 86.094 167.49 103.359 162.869 111.121 149.384 c 118.898
 135.904 114.285 118.654 100.805 110.865 c 87.289 103.08 34.785 87.353 27.016
 100.818 c 19.238 114.31 59.102 151.904 72.621 159.705 c h
72.621 159.705 m f
0.968627 0.72549 0.0431373 rg
27.02 100.818 m 19.238 114.31 59.102 151.904 72.617 159.705 c 86.09 167.49
 103.359 162.869 111.121 149.384 c f
1 0.819608 0.0627451 rg
322.559 140.072 m 307.523 144.095 298.586 159.556 302.633 174.591 c 306.652
 189.627 322.113 198.56 337.152 194.533 c 352.219 190.494 400.461 164.49
 396.43 149.466 c 392.402 134.404 337.609 136.017 322.559 140.072 c h
322.559 140.072 m f
0.968627 0.72549 0.0431373 rg
396.422 149.459 m 392.398 134.404 337.609 136.021 322.551 140.072 c 307.516
 144.095 298.578 159.556 302.625 174.591 c f
1 0.819608 0.0627451 rg
80.734 263.228 m 95.777 259.197 104.711 243.732 100.688 228.701 c 96.645
 213.662 81.195 204.732 66.152 208.763 c 51.086 212.794 2.855 238.802 6.875
 253.837 c 10.906 268.88 65.688 267.267 80.734 263.228 c h
80.734 263.228 m f
0.968627 0.72549 0.0431373 rg
6.875 253.837 m 10.914 268.88 65.688 267.267 80.742 263.228 c 95.781 259.197
 104.719 243.732 100.691 228.701 c f
1 0.819608 0.0627451 rg
100.832 292.427 m 114.305 284.654 118.922 267.392 111.141 253.912 c 103.363
 240.447 86.105 235.814 72.605 243.591 c 59.121 251.388 19.254 288.994 27.027
 302.478 c 34.809 315.959 87.309 300.224 100.832 292.427 c h
100.832 292.427 m f
0.968627 0.72549 0.0431373 rg
27.02 302.478 m 34.809 315.959 87.309 300.224 100.832 292.427 c 114.305
 284.654 118.922 267.392 111.141 253.912 c f
1 0.819608 0.0627451 rg
302.512 110.877 m 289.02 118.65 284.395 135.904 292.172 149.384 c 299.941
 162.857 317.219 167.49 330.691 159.701 c 344.195 151.919 384.062 114.298
 376.266 100.818 c 368.508 87.337 315.996 103.076 302.512 110.877 c h
302.512 110.877 m f
0.968627 0.72549 0.0431373 rg
376.27 100.818 m 368.508 87.337 316.004 103.076 302.512 110.877 c 289.02
 118.654 284.395 135.904 292.172 149.384 c f
1 0.819608 0.0627451 rg
194.539 337.15 m 198.574 322.111 189.652 306.646 174.613 302.619 c 159.578
 298.603 144.109 307.521 140.09 322.544 c 136.043 337.623 134.441 392.404
 149.461 396.431 c 164.5 400.459 190.5 352.205 194.539 337.15 c h
194.539 337.15 m f
0.968627 0.72549 0.0431373 rg
149.461 396.423 m 164.508 400.455 190.508 352.201 194.543 337.15 c 198.574
 322.111 189.652 306.646 174.617 302.619 c f
1 0.819608 0.0627451 rg
208.777 66.154 m 204.758 81.189 213.684 96.654 228.715 100.681 c 243.758
 104.712 259.215 95.794 263.242 80.74 c 267.285 65.681 268.875 10.896 253.832
 6.869 c 238.797 2.841 212.809 51.091 208.777 66.154 c h
208.777 66.154 m f
0.968627 0.72549 0.0431373 rg
253.832 6.877 m 238.789 2.841 212.809 51.099 208.777 66.154 c 204.758 81.189
 213.684 96.654 228.715 100.681 c f
1 0.819608 0.0627451 rg
292.43 302.494 m 284.66 289.013 267.406 284.377 253.922 292.166 c 240.445
 299.955 235.828 317.209 243.609 330.685 c 251.395 344.189 289.008 384.056
 302.484 376.283 c 315.965 368.49 300.23 315.99 292.43 302.494 c h
292.43 302.494 m f
0.968627 0.72549 0.0431373 rg
302.488 376.291 m 315.965 368.49 300.23 315.99 292.43 302.494 c 284.66 
289.013 267.406 284.377 253.922 292.166 c f
1 0.819608 0.0627451 rg
110.883 100.806 m 118.652 114.287 135.918 118.916 149.391 111.123 c 162.871
 103.345 167.496 86.091 159.707 72.611 c 151.918 59.107 114.305 19.232 100.832
 27.029 c 87.344 34.798 103.062 87.302 110.883 100.806 c h
110.883 100.806 m f
0.968627 0.72549 0.0431373 rg
100.832 27.021 m 87.344 34.798 103.062 87.294 110.883 100.806 c 118.652
 114.287 135.918 118.916 149.391 111.123 c f
1 0.819608 0.0627451 rg
337.156 208.763 m 322.129 204.732 306.645 213.654 302.645 228.697 c 298.605
 243.732 307.516 259.197 322.551 263.228 c 337.609 267.267 392.402 268.869
 396.422 253.837 c 400.469 238.791 352.227 212.798 337.156 208.763 c h
337.156 208.763 m f
0.968627 0.72549 0.0431373 rg
396.422 253.837 m 400.469 238.783 352.219 212.791 337.156 208.763 c 322.129
 204.732 306.645 213.654 302.645 228.697 c f
1 0.819608 0.0627451 rg
66.152 194.521 m 81.184 198.556 96.652 189.63 100.688 174.595 c 104.727
 159.556 95.809 144.099 80.734 140.072 c 65.695 136.017 10.91 134.431 6.871
 149.459 c 2.855 164.509 51.086 190.49 66.152 194.521 c h
66.152 194.521 m f
0.968627 0.72549 0.0431373 rg
6.875 149.459 m 2.855 164.513 51.094 190.498 66.152 194.521 c 81.184 198.556
 96.652 189.63 100.688 174.595 c f
0.101961 0.239216 0.356863 rg
319.039 201.65 m 319.039 136.814 266.484 84.259 201.648 84.259 c 136.816
 84.259 84.258 136.814 84.258 201.65 c 84.258 266.482 136.816 319.041 201.648
 319.041 c 266.484 319.041 319.039 266.482 319.039 201.65 c h
319.039 201.65 m f
201.648 76.998 m 168.344 76.998 137.047 89.962 113.504 113.502 c 64.898
 162.115 64.898 241.193 113.504 289.794 c 137.047 313.337 168.359 326.314
 201.648 326.314 c 234.941 326.314 266.238 313.337 289.789 289.794 c 338.395
 241.193 338.395 162.115 289.789 113.509 c 266.238 89.962 234.941 76.998
 201.648 76.998 c h
201.648 76.998 m f
0.898039 0.631373 0.0392157 rg
201.648 319.048 m 231.688 319.048 261.742 307.591 284.66 284.662 c 330.496
 238.818 330.496 164.49 284.66 118.638 c 261.742 95.716 231.691 84.259 201.648
 84.259 c 171.605 84.259 141.551 95.712 118.641 118.634 c 72.801 164.486
 72.801 238.81 118.641 284.662 c 141.551 307.591 171.617 319.048 201.648
 319.048 c 201.648 333.572 m 166.41 333.572 133.289 319.845 108.367 294.923
 c 56.941 243.498 56.941 159.814 108.367 108.369 c 133.289 83.459 166.41
 69.74 201.648 69.74 c 236.883 69.74 270.008 83.459 294.926 108.38 c 346.363
 159.814 346.363 243.498 294.926 294.931 c 270.008 319.845 236.887 333.572
 201.648 333.572 c h
201.648 333.572 m f
0.0313726 0.129412 0.188235 rg
284.66 284.658 m 330.496 238.814 330.496 164.49 284.66 118.638 c 238.809
 72.794 164.488 72.794 118.641 118.634 c f
0.054902 0.172549 0.258824 rg
288.781 265.189 m 288.781 263.435 287.363 262.009 285.605 262.009 c 117.695
 262.009 l 115.93 262.009 114.512 263.435 114.512 265.189 c 114.512 266.931
 115.93 268.365 117.695 268.365 c 285.605 268.365 l 287.367 268.365 288.781
 266.931 288.781 265.189 c h
288.781 265.189 m f
288.781 233.423 m 288.781 231.669 287.363 230.24 285.605 230.24 c 117.695
 230.24 l 115.93 230.24 114.512 231.669 114.512 233.423 c 114.512 235.166
 115.93 236.599 117.695 236.599 c 285.605 236.599 l 287.367 236.599 288.781
 235.166 288.781 233.423 c h
288.781 233.423 m f
288.781 201.65 m 288.781 199.896 287.363 198.474 285.605 198.474 c 117.695
 198.474 l 115.93 198.474 114.512 199.896 114.512 201.65 c 114.512 203.4
 115.93 204.83 117.695 204.83 c 285.605 204.83 l 287.367 204.83 288.781 
203.4 288.781 201.65 c h
288.781 201.65 m f
288.781 169.884 m 288.781 168.13 287.363 166.701 285.605 166.701 c 117.695
 166.701 l 115.93 166.701 114.512 168.13 114.512 169.884 c 114.512 171.634
 115.93 173.06 117.695 173.06 c 285.605 173.06 l 287.367 173.06 288.781 
171.634 288.781 169.884 c h
288.781 169.884 m f
288.781 138.111 m 288.781 136.365 287.363 134.935 285.605 134.935 c 117.695
 134.935 l 115.93 134.935 114.512 136.365 114.512 138.111 c 114.512 139.861
 115.93 141.287 117.695 141.287 c 285.605 141.287 l 287.367 141.287 288.781
 139.861 288.781 138.111 c h
288.781 138.111 m f
265.18 114.517 m 263.422 114.517 262.004 115.935 262.004 117.693 c 262.004
 285.603 l 262.004 287.365 263.422 288.779 265.18 288.779 c 266.926 288.779
 268.359 287.365 268.359 285.603 c 268.359 117.693 l 268.359 115.931 266.926
 114.517 265.18 114.517 c h
265.18 114.517 m f
233.414 114.517 m 231.656 114.517 230.238 115.935 230.238 117.693 c 230.238
 285.603 l 230.238 287.365 231.656 288.779 233.414 288.779 c 235.16 288.779
 236.59 287.365 236.59 285.603 c 236.59 117.693 l 236.59 115.931 235.16 
114.517 233.414 114.517 c h
233.414 114.517 m f
201.648 114.517 m 199.891 114.517 198.473 115.935 198.473 117.693 c 198.473
 285.603 l 198.473 287.365 199.891 288.779 201.648 288.779 c 203.395 288.779
 204.824 287.365 204.824 285.603 c 204.824 117.693 l 204.824 115.931 203.395
 114.517 201.648 114.517 c h
201.648 114.517 m f
169.883 114.517 m 168.125 114.517 166.695 115.935 166.695 117.693 c 166.695
 285.603 l 166.695 287.365 168.125 288.779 169.883 288.779 c 171.629 288.779
 173.059 287.365 173.059 285.603 c 173.059 117.693 l 173.059 115.931 171.629
 114.517 169.883 114.517 c h
169.883 114.517 m f
138.109 114.517 m 136.359 114.517 134.934 115.935 134.934 117.693 c 134.934
 285.603 l 134.934 287.365 136.359 288.779 138.109 288.779 c 139.855 288.779
 141.293 287.365 141.293 285.603 c 141.293 117.693 l 141.293 115.931 139.855
 114.517 138.109 114.517 c h
138.109 114.517 m f
Q Q
showpage
%%Trailer
end restore
%%EOF
