%!PS-Adobe-3.0 EPSF-3.0
%%Creator: cairo 1.14.2 (http://cairographics.org)
%%CreationDate: Thu Aug  4 10:34:49 2016
%%Pages: 1
%%DocumentData: Clean7Bit
%%LanguageLevel: 2
%%BoundingBox: 0 -1 391 387
%%EndComments
%%BeginProlog
save
50 dict begin
/q { gsave } bind def
/Q { grestore } bind def
/cm { 6 array astore concat } bind def
/w { setlinewidth } bind def
/J { setlinecap } bind def
/j { setlinejoin } bind def
/M { setmiterlimit } bind def
/d { setdash } bind def
/m { moveto } bind def
/l { lineto } bind def
/c { curveto } bind def
/h { closepath } bind def
/re { exch dup neg 3 1 roll 5 3 roll moveto 0 rlineto
      0 exch rlineto 0 rlineto closepath } bind def
/S { stroke } bind def
/f { fill } bind def
/f* { eofill } bind def
/n { newpath } bind def
/W { clip } bind def
/W* { eoclip } bind def
/BT { } bind def
/ET { } bind def
/pdfmark where { pop globaldict /?pdfmark /exec load put }
    { globaldict begin /?pdfmark /pop load def /pdfmark
    /cleartomark load def end } ifelse
/BDC { mark 3 1 roll /BDC pdfmark } bind def
/EMC { mark /EMC pdfmark } bind def
/cairo_store_point { /cairo_point_y exch def /cairo_point_x exch def } def
/Tj { show currentpoint cairo_store_point } bind def
/TJ {
  {
    dup
    type /stringtype eq
    { show } { -0.001 mul 0 cairo_font_matrix dtransform rmoveto } ifelse
  } forall
  currentpoint cairo_store_point
} bind def
/cairo_selectfont { cairo_font_matrix aload pop pop pop 0 0 6 array astore
    cairo_font exch selectfont cairo_point_x cairo_point_y moveto } bind def
/Tf { pop /cairo_font exch def /cairo_font_matrix where
      { pop cairo_selectfont } if } bind def
/Td { matrix translate cairo_font_matrix matrix concatmatrix dup
      /cairo_font_matrix exch def dup 4 get exch 5 get cairo_store_point
      /cairo_font where { pop cairo_selectfont } if } bind def
/Tm { 2 copy 8 2 roll 6 array astore /cairo_font_matrix exch def
      cairo_store_point /cairo_font where { pop cairo_selectfont } if } bind def
/g { setgray } bind def
/rg { setrgbcolor } bind def
/d1 { setcachedevice } bind def
%%EndProlog
%%BeginSetup
%%EndSetup
%%Page: 1 1
%%BeginPageSetup
%%PageBoundingBox: 0 -1 391 387
%%EndPageSetup
q 0 -1 391 388 rectclip q
0.752941 0.941176 0.94902 rg
189.285 155.755 m 180.238 155.755 171.926 152.779 165.168 147.81 c 157.734
 155.806 147.148 160.841 135.355 160.841 c 128.23 160.841 121.539 158.994
 115.707 155.787 c 109.062 163.443 100.012 168.931 89.691 171.025 c 84.176
 211.189 49.82 242.154 8.141 242.154 c 5.402 242.154 2.672 242.009 0.008
 241.752 c 0.008 77.74 l 2.672 77.482 5.402 77.334 8.141 77.334 c 23.648
 77.334 38.105 81.701 50.488 89.146 c 58.605 82.412 69.016 78.361 80.383
 78.361 c 91.422 78.361 101.555 82.209 109.559 88.599 c 116.578 82.845 125.562
 79.38 135.355 79.38 c 144.398 79.38 152.719 82.353 159.473 87.334 c 166.91
 79.33 177.5 74.291 189.293 74.291 c 211.789 74.291 230.02 92.537 230.02
 115.033 c 230.012 137.525 211.777 155.755 189.285 155.755 c h
189.285 155.755 m f
0.611765 0.847059 0.886275 rg
189.285 141.513 m 180.238 141.513 171.926 138.541 165.168 133.56 c 157.734
 141.564 147.148 146.591 135.355 146.591 c 128.23 146.591 121.539 144.752
 115.707 141.545 c 109.062 149.201 100.012 154.697 89.691 156.783 c 84.176
 196.943 49.82 227.92 8.141 227.92 c 5.402 227.92 2.672 227.771 0.008 227.505
 c 0.008 63.505 l 2.672 63.236 5.402 63.091 8.141 63.091 c 23.648 63.091
 38.105 67.459 50.488 74.9 c 58.605 68.166 69.016 64.111 80.383 64.111 c
 91.422 64.111 101.555 67.962 109.559 74.357 c 116.578 68.591 125.562 65.134
 135.355 65.134 c 144.398 65.134 152.719 68.119 159.473 73.091 c 166.91 
65.087 177.5 60.048 189.293 60.048 c 211.789 60.048 230.02 78.291 230.02
 100.787 c 230.012 123.283 211.777 141.513 189.285 141.513 c h
189.285 141.513 m f
0.752941 0.941176 0.94902 rg
201.41 155.755 m 210.457 155.755 218.77 152.779 225.527 147.81 c 232.961
 155.806 243.547 160.841 255.34 160.841 c 262.465 160.841 269.156 158.994
 274.988 155.787 c 281.629 163.443 290.691 168.931 301.004 171.025 c 306.512
 211.189 340.875 242.154 382.559 242.154 c 385.297 242.154 388.016 242.009
 390.688 241.752 c 390.688 77.74 l 388.016 77.482 385.293 77.334 382.559
 77.334 c 367.047 77.334 352.59 81.701 340.199 89.146 c 332.09 82.412 321.676
 78.361 310.312 78.361 c 299.266 78.361 289.145 82.209 281.137 88.599 c 
274.117 82.845 265.133 79.38 255.34 79.38 c 246.297 79.38 237.977 82.353
 231.223 87.334 c 223.785 79.33 213.195 74.291 201.402 74.291 c 178.906 
74.291 160.676 92.537 160.676 115.033 c 160.684 137.525 178.918 155.755 
201.41 155.755 c h
201.41 155.755 m f
0.611765 0.847059 0.886275 rg
201.41 141.513 m 210.457 141.513 218.77 138.541 225.527 133.56 c 232.961
 141.564 243.547 146.591 255.34 146.591 c 262.465 146.591 269.156 144.752
 274.988 141.545 c 281.629 149.201 290.691 154.697 301.004 156.783 c 306.512
 196.943 340.875 227.92 382.559 227.92 c 385.297 227.92 388.016 227.771 
390.688 227.505 c 390.688 63.505 l 388.016 63.236 385.293 63.091 382.559
 63.091 c 367.047 63.091 352.59 67.459 340.199 74.9 c 332.09 68.166 321.676
 64.111 310.312 64.111 c 299.266 64.111 289.145 67.962 281.137 74.357 c 
274.117 68.591 265.133 65.134 255.34 65.134 c 246.297 65.134 237.977 68.119
 231.223 73.091 c 223.785 65.087 213.195 60.048 201.402 60.048 c 178.906
 60.048 160.676 78.291 160.676 100.787 c 160.684 123.283 178.918 141.513
 201.41 141.513 c h
201.41 141.513 m f
0.490196 0.658824 0.113725 rg
390.695 136.158 m 204.945 134.482 49.191 77.502 0 0.005 c 390.695 0.005
 l h
390.695 136.158 m f
390.695 136.158 m 204.945 134.482 49.191 77.502 0 0.005 c 390.695 0.005
 l h
390.695 136.158 m f
0.176471 0.447059 0.0862745 rg
390.695 136.158 m 204.945 134.482 49.191 77.502 0 0.005 c 390.695 0.005
 l h
390.695 136.158 m f
0.258824 0.537255 0.180392 rg
72.922 0.005 m 136.379 52.568 253.379 89.88 390.695 96.83 c 390.695 116.697
 l 228.859 111.896 92.43 65.068 33.758 0.005 c h
72.922 0.005 m f
390.695 55.908 m 390.695 76.521 l 278.691 68.455 181.621 40.13 118.395 
0.002 c 172.008 0.002 l 229.422 27.896 305.191 47.869 390.695 55.908 c h
390.695 55.908 m f
390.695 13.283 m 390.695 34.81 l 333.602 28.15 281.258 16.138 236.445 0.005
 c 320.207 0.005 l 342.59 5.357 366.133 9.841 390.695 13.283 c h
390.695 13.283 m f
0.490196 0.658824 0.113725 rg
0 136.158 m 185.75 134.482 341.5 77.502 390.695 0.005 c 0 0.005 l h
0 136.158 m f
0.588235 0.776471 0.0627451 rg
317.77 0.005 m 254.312 52.56 137.309 89.88 0 96.822 c 0 116.693 l 161.828
 111.892 298.258 65.064 356.938 0.002 c 317.77 0.002 l h
317.77 0.005 m f
0 55.908 m 0 76.521 l 112.004 68.455 209.066 40.13 272.309 0.002 c 218.688
 0.002 l 161.273 27.896 85.5 47.869 0 55.908 c h
0 55.908 m f
0 13.283 m 0 34.81 l 57.086 28.15 109.434 16.138 154.25 0.005 c 70.48 0.005
 l 48.102 5.357 24.562 9.841 0 13.283 c h
0 13.283 m f
0.956863 0.611765 0 rg
274.703 274.716 m 274.703 230.888 239.176 195.361 195.348 195.361 c 151.52
 195.361 115.992 230.888 115.992 274.716 c 115.992 318.545 151.52 354.072
 195.348 354.072 c 239.176 354.072 274.703 318.545 274.703 274.716 c h
274.703 274.716 m f
0.94902 0.541176 0 rg
274.703 274.716 m 274.703 230.88 239.18 195.353 195.348 195.353 c 151.508
 195.353 115.988 230.888 115.988 274.716 c f
257.508 333.92 m 256.965 334.466 256.617 335.228 256.617 336.08 c 256.617
 340.693 258.414 345.041 261.684 348.306 c 264.941 351.568 269.297 353.365
 273.91 353.365 c 275.598 353.361 276.957 352.005 276.957 350.314 c 276.957
 348.623 275.59 347.267 273.91 347.267 c 270.914 347.267 268.109 346.095
 266 343.99 c 263.891 341.877 262.723 339.068 262.723 336.08 c 262.723 334.392
 261.355 333.025 259.668 333.025 c 258.824 333.025 258.066 333.365 257.508
 333.92 c h
257.508 333.92 m f
133.184 215.502 m 133.73 214.947 134.07 214.177 134.07 213.337 c 134.086
 208.732 132.281 204.373 129.02 201.123 c 125.754 197.845 121.398 196.048
 116.789 196.048 c 115.105 196.048 113.73 197.408 113.73 199.103 c 113.73
 200.779 115.109 202.154 116.789 202.154 c 119.785 202.154 122.586 203.314
 124.703 205.431 c 126.801 207.537 127.973 210.345 127.973 213.334 c 127.973
 215.029 129.332 216.38 131.027 216.38 c 131.871 216.388 132.621 216.041
 133.184 215.502 c h
133.184 215.502 m f
197.441 360.537 m 196.652 360.537 195.863 360.834 195.277 361.431 c 192.016
 364.689 190.219 369.037 190.219 373.65 c 190.219 378.275 192.016 382.623
 195.277 385.88 c 196.469 387.072 198.402 387.072 199.594 385.88 c 200.793
 384.689 200.793 382.755 199.594 381.564 c 197.484 379.447 196.324 376.63
 196.324 373.65 c 196.324 370.67 197.484 367.861 199.594 365.748 c 200.793
 364.556 200.793 362.623 199.594 361.431 c 198.996 360.834 198.215 360.537
 197.441 360.537 c h
197.441 360.537 m f
193.254 188.88 m 194.043 188.88 194.824 188.587 195.418 187.99 c 198.68
 184.732 200.484 180.38 200.484 175.771 c 200.484 171.15 198.68 166.802 
195.418 163.537 c 194.227 162.345 192.285 162.345 191.094 163.537 c 189.902
 164.724 189.902 166.658 191.094 167.857 c 193.203 169.978 194.371 172.783
 194.371 175.771 c 194.371 178.755 193.203 181.568 191.094 183.677 c 189.902
 184.869 189.902 186.802 191.094 187.99 c 191.699 188.587 192.48 188.88 
193.254 188.88 c h
193.254 188.88 m f
281.168 272.63 m 281.168 273.404 281.465 274.181 282.062 274.771 c 285.32
 278.045 289.68 279.845 294.289 279.845 c 298.914 279.845 303.25 278.045
 306.52 274.771 c 307.703 273.587 307.711 271.654 306.52 270.462 c 305.32
 269.271 303.395 269.271 302.207 270.462 c 300.09 272.58 297.281 273.74 
294.289 273.74 c 291.301 273.74 288.496 272.58 286.387 270.462 c 285.188
 269.271 283.262 269.271 282.062 270.462 c 281.473 271.06 281.168 271.837
 281.168 272.63 c h
281.168 272.63 m f
109.52 276.795 m 109.52 276.013 109.227 275.228 108.633 274.634 c 105.375
 271.365 101.02 269.572 96.414 269.572 c 91.777 269.572 87.445 271.365 84.176
 274.634 c 82.984 275.83 82.984 277.767 84.176 278.951 c 85.367 280.142 
87.297 280.142 88.492 278.951 c 90.609 276.837 93.414 275.673 96.414 275.673
 c 99.387 275.673 102.191 276.837 104.305 278.951 c 105.496 280.142 107.434
 280.142 108.633 278.951 c 109.227 278.353 109.52 277.572 109.52 276.795
 c h
109.52 276.795 m f
254.562 212.552 m 255.109 213.107 255.875 213.439 256.699 213.439 c 261.332
 213.447 265.68 211.638 268.941 208.38 c 272.215 205.111 274.008 200.755
 274.008 196.15 c 274.008 194.466 272.641 193.103 270.965 193.103 c 269.27
 193.103 267.91 194.455 267.91 196.15 c 267.914 199.142 266.738 201.939 
264.625 204.064 c 262.516 206.173 259.719 207.345 256.699 207.341 c 255.023
 207.341 253.656 208.701 253.656 210.388 c 253.668 211.228 254.008 211.99
 254.562 212.552 c h
254.562 212.552 m f
136.125 336.873 m 135.586 336.326 134.816 335.978 133.984 335.978 c 129.359
 335.966 125.008 337.767 121.754 341.033 c 118.469 344.31 116.688 348.638
 116.688 353.271 c 116.688 354.966 118.047 356.322 119.73 356.322 c 121.41
 356.322 122.785 354.966 122.785 353.271 c 122.785 350.275 123.945 347.474
 126.062 345.341 c 128.168 343.24 130.977 342.08 133.984 342.087 c 135.66
 342.087 137.027 340.705 137.027 339.037 c 137.027 338.185 136.676 337.423
 136.125 336.873 c h
136.125 336.873 m f
154.238 350.068 m 153.562 349.685 152.738 349.56 151.91 349.775 c 147.457
 350.966 143.727 353.834 141.418 357.826 c 139.105 361.83 138.48 366.494
 139.691 370.955 c 140.113 372.591 141.805 373.556 143.422 373.115 c 145.062
 372.685 146.02 371.005 145.578 369.377 c 144.805 366.486 145.211 363.466
 146.699 360.877 c 148.188 358.298 150.602 356.443 153.5 355.662 c 155.117
 355.236 156.09 353.548 155.66 351.935 c 155.441 351.123 154.91 350.466 
154.238 350.068 c h
154.238 350.068 m f
236.453 199.341 m 237.113 199.732 237.953 199.865 238.754 199.634 c 243.215
 198.447 246.953 195.58 249.258 191.587 c 251.562 187.576 252.195 182.92
 250.996 178.459 c 250.551 176.834 248.871 175.865 247.254 176.31 c 245.629
 176.752 244.652 178.416 245.098 180.048 c 245.879 182.939 245.465 185.951
 243.977 188.537 c 242.477 191.127 240.082 192.97 237.191 193.748 c 235.547
 194.173 234.59 195.857 235.016 197.482 c 235.25 198.298 235.777 198.955
 236.453 199.341 c h
236.453 199.341 m f
270.707 315.814 m 270.328 316.482 270.199 317.306 270.418 318.127 c 271.602
 322.587 274.469 326.318 278.465 328.627 c 282.473 330.939 287.129 331.548
 291.594 330.353 c 293.219 329.904 294.188 328.24 293.754 326.615 c 293.305
 324.982 291.629 324.013 290.012 324.459 c 287.125 325.236 284.105 324.834
 281.523 323.337 c 278.922 321.845 277.074 319.439 276.305 316.533 c 275.871
 314.9 274.199 313.935 272.566 314.384 c 271.746 314.603 271.109 315.138
 270.707 315.814 c h
270.707 315.814 m f
119.977 233.591 m 120.371 232.931 120.484 232.091 120.27 231.279 c 119.086
 226.826 116.211 223.087 112.238 220.787 c 108.211 218.482 103.559 217.865
 99.098 219.068 c 97.461 219.498 96.496 221.166 96.957 222.798 c 97.387 
224.423 99.047 225.392 100.688 224.959 c 103.566 224.177 106.59 224.576 
109.188 226.08 c 111.766 227.56 113.609 229.974 114.379 232.869 c 114.816
 234.498 116.477 235.462 118.129 235.029 c 118.934 234.795 119.586 234.267
 119.977 233.591 c h
119.977 233.591 m f
277.695 250.478 m 277.891 251.228 278.395 251.912 279.125 252.326 c 283.113
 254.638 287.777 255.255 292.254 254.06 c 296.703 252.857 300.445 249.99
 302.746 245.994 c 303.578 244.537 303.098 242.666 301.625 241.822 c 300.16
 240.982 298.301 241.482 297.457 242.943 c 295.969 245.541 293.559 247.373
 290.652 248.162 c 287.773 248.935 284.746 248.545 282.176 247.033 c 280.707
 246.193 278.848 246.693 278.004 248.154 c 277.594 248.892 277.508 249.732
 277.695 250.478 c h
277.695 250.478 m f
112.973 298.939 m 112.785 298.181 112.285 297.502 111.555 297.08 c 107.566
 294.759 102.891 294.158 98.457 295.353 c 93.973 296.537 90.25 299.404 87.938
 303.412 c 87.086 304.88 87.598 306.74 89.059 307.58 c 90.516 308.42 92.379
 307.939 93.23 306.462 c 94.727 303.873 97.125 302.029 100.035 301.248 c
 102.91 300.47 105.922 300.869 108.508 302.369 c 109.969 303.205 111.832
 302.709 112.664 301.252 c 113.094 300.513 113.176 299.689 112.973 298.939
 c h
112.973 298.939 m f
122.062 319.42 m 121.672 318.752 121.02 318.236 120.195 318.002 c 115.746
 316.802 111.082 317.416 107.09 319.728 c 103.078 322.041 100.219 325.763
 99.016 330.232 c 98.582 331.857 99.547 333.537 101.172 333.962 c 102.816
 334.412 104.48 333.435 104.906 331.806 c 105.691 328.923 107.543 326.502
 110.137 325.009 c 112.711 323.521 115.727 323.119 118.625 323.892 c 120.246
 324.33 121.914 323.357 122.371 321.74 c 122.586 320.931 122.438 320.099
 122.062 319.42 c h
122.062 319.42 m f
268.621 229.99 m 269.012 230.658 269.66 231.193 270.473 231.4 c 274.938
 232.607 279.598 231.99 283.594 229.685 c 287.602 227.373 290.465 223.634
 291.656 219.181 c 292.102 217.541 291.133 215.865 289.492 215.435 c 287.875
 215.013 286.203 215.966 285.77 217.599 c 284.969 220.49 283.121 222.896
 280.539 224.396 c 277.953 225.896 274.938 226.287 272.059 225.525 c 270.426
 225.072 268.762 226.041 268.309 227.662 c 268.094 228.482 268.23 229.314
 268.621 229.99 c h
268.621 229.99 m f
240.051 347.99 m 239.391 348.373 238.867 349.017 238.652 349.837 c 237.449
 354.298 238.055 358.955 240.379 362.959 c 242.691 366.966 246.41 369.818
 250.863 371.017 c 252.496 371.451 254.18 370.486 254.613 368.861 c 255.023
 367.216 254.078 365.552 252.457 365.119 c 249.566 364.349 247.145 362.49
 245.66 359.9 c 244.152 357.318 243.742 354.298 244.531 351.412 c 244.965
 349.779 244.016 348.103 242.371 347.67 c 241.559 347.455 240.742 347.607
 240.051 347.99 c h
240.051 347.99 m f
150.621 201.416 m 151.293 201.033 151.816 200.365 152.031 199.564 c 153.238
 195.103 152.629 190.431 150.316 186.451 c 148.004 182.431 144.285 179.576
 139.816 178.384 c 138.188 177.943 136.504 178.9 136.082 180.541 c 135.641
 182.166 136.605 183.837 138.234 184.271 c 141.121 185.052 143.543 186.9
 145.047 189.49 c 146.527 192.072 146.934 195.084 146.152 197.974 c 145.723
 199.595 146.668 201.267 148.32 201.712 c 149.125 201.931 149.953 201.802
 150.621 201.416 c h
150.621 201.416 m f
278.781 294.9 m 278.57 295.65 278.652 296.49 279.074 297.212 c 281.383 
301.209 285.121 304.068 289.586 305.271 c 294.047 306.459 298.707 305.845
 302.707 303.541 c 304.152 302.689 304.672 300.837 303.809 299.361 c 302.984
 297.908 301.121 297.408 299.652 298.255 c 297.066 299.755 294.062 300.13
 291.168 299.377 c 288.281 298.595 285.871 296.755 284.363 294.15 c 283.523
 292.689 281.668 292.197 280.191 293.041 c 279.473 293.462 278.977 294.158
 278.781 294.9 c h
278.781 294.9 m f
111.91 254.505 m 112.105 253.759 112.008 252.92 111.594 252.189 c 109.293
 248.185 105.551 245.318 101.113 244.142 c 96.629 242.931 91.977 243.548
 87.977 245.861 c 86.516 246.712 86.008 248.564 86.875 250.025 c 87.699 
251.49 89.559 251.998 91.047 251.154 c 93.617 249.646 96.617 249.244 99.527
 250.033 c 102.402 250.795 104.82 252.646 106.309 255.252 c 107.141 256.701
 109.023 257.209 110.48 256.365 c 111.211 255.931 111.695 255.255 111.91
 254.505 c h
111.91 254.505 m f
122.062 319.42 m 121.672 318.752 121.02 318.236 120.195 318.002 c 115.746
 316.802 111.082 317.416 107.09 319.728 c 103.078 322.041 100.219 325.763
 99.016 330.232 c 98.582 331.857 99.547 333.537 101.172 333.962 c 102.816
 334.412 104.48 333.435 104.906 331.806 c 105.691 328.923 107.543 326.502
 110.137 325.009 c 112.711 323.521 115.727 323.119 118.625 323.892 c 120.246
 324.33 121.914 323.357 122.371 321.74 c 122.586 320.931 122.438 320.099
 122.062 319.42 c h
122.062 319.42 m f
268.621 229.99 m 269.012 230.658 269.66 231.193 270.473 231.4 c 274.938
 232.607 279.598 231.99 283.594 229.685 c 287.602 227.373 290.465 223.634
 291.656 219.181 c 292.102 217.541 291.133 215.865 289.492 215.435 c 287.875
 215.013 286.203 215.966 285.77 217.599 c 284.969 220.49 283.121 222.896
 280.539 224.396 c 277.953 225.896 274.938 226.287 272.059 225.525 c 270.426
 225.072 268.762 226.041 268.309 227.662 c 268.094 228.482 268.23 229.314
 268.621 229.99 c h
268.621 229.99 m f
240.051 347.99 m 239.391 348.373 238.867 349.017 238.652 349.837 c 237.449
 354.298 238.055 358.955 240.379 362.959 c 242.691 366.966 246.41 369.818
 250.863 371.017 c 252.496 371.451 254.18 370.486 254.613 368.861 c 255.023
 367.216 254.078 365.552 252.457 365.119 c 249.566 364.349 247.145 362.49
 245.66 359.9 c 244.152 357.318 243.742 354.298 244.531 351.412 c 244.965
 349.779 244.016 348.103 242.371 347.67 c 241.559 347.455 240.742 347.607
 240.051 347.99 c h
240.051 347.99 m f
150.621 201.416 m 151.293 201.033 151.816 200.365 152.031 199.564 c 153.238
 195.103 152.629 190.431 150.316 186.451 c 148.004 182.431 144.285 179.576
 139.816 178.384 c 138.188 177.943 136.504 178.9 136.082 180.541 c 135.641
 182.166 136.605 183.837 138.234 184.271 c 141.121 185.052 143.543 186.9
 145.047 189.49 c 146.527 192.072 146.934 195.084 146.152 197.974 c 145.723
 199.595 146.668 201.267 148.32 201.712 c 149.125 201.931 149.953 201.802
 150.621 201.416 c h
150.621 201.416 m f
278.781 294.9 m 278.57 295.65 278.652 296.49 279.074 297.212 c 281.383 
301.209 285.121 304.068 289.586 305.271 c 294.047 306.459 298.707 305.845
 302.707 303.541 c 304.152 302.689 304.672 300.837 303.809 299.361 c 302.984
 297.908 301.121 297.408 299.652 298.255 c 297.066 299.755 294.062 300.13
 291.168 299.377 c 288.281 298.595 285.871 296.755 284.363 294.15 c 283.523
 292.689 281.668 292.197 280.191 293.041 c 279.473 293.462 278.977 294.158
 278.781 294.9 c h
278.781 294.9 m f
111.91 254.505 m 112.105 253.759 112.008 252.92 111.594 252.189 c 109.293
 248.185 105.551 245.318 101.113 244.142 c 96.629 242.931 91.977 243.548
 87.977 245.861 c 86.516 246.712 86.008 248.564 86.875 250.025 c 87.699 
251.49 89.559 251.998 91.047 251.154 c 93.617 249.646 96.617 249.244 99.527
 250.033 c 102.402 250.795 104.82 252.646 106.309 255.252 c 107.141 256.701
 109.023 257.209 110.48 256.365 c 111.211 255.931 111.695 255.255 111.91
 254.505 c h
111.91 254.505 m f
119.98 233.587 m 120.371 232.92 120.484 232.087 120.27 231.259 c 119.074
 226.806 116.211 223.076 112.23 220.775 c 108.215 218.466 103.566 217.849
 99.098 219.048 c 97.461 219.478 96.5 221.158 96.941 222.771 c 97.383 224.423
 99.039 225.373 100.672 224.947 c 103.566 224.166 106.586 224.576 109.172
 226.068 c 111.746 227.556 113.609 229.962 114.379 232.861 c 114.812 234.478
 116.488 235.443 118.129 235.037 c 118.934 234.795 119.59 234.267 119.98
 233.587 c h
119.98 233.587 m f
270.707 315.795 m 270.328 316.47 270.184 317.306 270.418 318.115 c 271.602
 322.584 274.484 326.306 278.461 328.607 c 282.461 330.927 287.129 331.537
 291.594 330.341 c 293.219 329.904 294.188 328.228 293.742 326.603 c 293.305
 324.986 291.629 324.002 290.012 324.462 c 287.098 325.216 284.098 324.806
 281.508 323.326 c 278.922 321.834 277.074 319.412 276.305 316.533 c 275.883
 314.916 274.199 313.943 272.566 314.365 c 271.746 314.599 271.109 315.134
 270.707 315.795 c h
270.707 315.795 m f
154.238 350.052 m 153.57 349.677 152.738 349.533 151.938 349.767 c 147.469
 350.955 143.73 353.822 141.434 357.83 c 139.121 361.841 138.496 366.486
 139.691 370.947 c 140.145 372.572 141.816 373.545 143.438 373.115 c 145.074
 372.65 146.031 370.994 145.59 369.373 c 144.816 366.486 145.227 363.466
 146.727 360.884 c 148.199 358.291 150.613 356.423 153.512 355.654 c 155.152
 355.224 156.113 353.556 155.672 351.92 c 155.441 351.091 154.91 350.462
 154.238 350.052 c h
154.238 350.052 m f
236.453 199.33 m 237.113 199.72 237.953 199.841 238.754 199.619 c 243.227
 198.443 246.965 195.58 249.258 191.58 c 251.562 187.572 252.195 182.916
 250.984 178.455 c 250.551 176.822 248.887 175.845 247.254 176.298 c 245.629
 176.72 244.652 178.396 245.098 180.021 c 245.879 182.916 245.488 185.931
 243.988 188.537 c 242.496 191.107 240.082 192.959 237.191 193.728 c 235.566
 194.162 234.59 195.826 235.027 197.478 c 235.25 198.279 235.785 198.935
 236.453 199.33 c h
236.453 199.33 m f
219.582 357.06 m 218.812 357.248 218.145 357.74 217.738 358.474 c 215.418
 362.478 214.801 367.134 215.996 371.603 c 217.195 376.056 220.051 379.795
 224.059 382.099 c 225.52 382.92 227.387 382.447 228.23 380.974 c 229.066
 379.517 228.562 377.666 227.102 376.814 c 224.504 375.322 222.66 372.912
 221.883 370.013 c 221.113 367.123 221.504 364.111 223.02 361.521 c 223.855
 360.045 223.352 358.201 221.883 357.349 c 221.16 356.943 220.309 356.857
 219.582 357.06 c h
219.582 357.06 m f
171.125 192.337 m 171.855 192.134 172.547 191.638 172.977 190.904 c 175.277
 186.904 175.895 182.228 174.699 177.806 c 173.508 173.31 170.641 169.587
 166.633 167.287 c 165.176 166.431 163.316 166.935 162.473 168.408 c 161.629
 169.857 162.121 171.728 163.59 172.587 c 166.176 174.06 168.035 176.462
 168.801 179.373 c 169.582 182.248 169.176 185.271 167.676 187.849 c 166.844
 189.302 167.336 191.173 168.801 192.013 c 169.523 192.451 170.363 192.533
 171.125 192.337 c h
171.125 192.337 m f
150.637 201.416 m 151.305 201.021 151.824 200.365 152.039 199.541 c 153.242
 195.084 152.629 190.427 150.316 186.431 c 148.004 182.423 144.289 179.576
 139.824 178.373 c 138.188 177.931 136.523 178.908 136.082 180.509 c 135.641
 182.166 136.613 183.822 138.227 184.259 c 141.129 185.041 143.543 186.892
 145.035 189.474 c 146.531 192.06 146.934 195.072 146.152 197.97 c 145.723
 199.576 146.695 201.259 148.32 201.72 c 149.125 201.931 149.965 201.802
 150.637 201.416 c h
150.637 201.416 m f
240.074 347.978 m 239.402 348.369 238.867 349.017 238.66 349.837 c 237.449
 354.298 238.078 358.955 240.367 362.939 c 242.68 366.947 246.402 369.806
 250.863 371.002 c 252.496 371.451 254.191 370.474 254.602 368.841 c 255.023
 367.216 254.078 365.541 252.461 365.119 c 249.562 364.326 247.152 362.459
 245.66 359.888 c 244.152 357.302 243.762 354.279 244.531 351.412 c 244.984
 349.795 244.016 348.111 242.391 347.658 c 241.57 347.447 240.742 347.599
 240.074 347.978 c h
240.074 347.978 m f
122.062 319.4 m 121.684 318.744 121.027 318.216 120.223 318.002 c 115.758
 316.791 111.098 317.404 107.094 319.732 c 103.086 322.045 100.227 325.759
 99.023 330.22 c 98.602 331.845 99.562 333.521 101.176 333.962 c 102.836
 334.377 104.484 333.427 104.914 331.795 c 105.695 328.916 107.547 326.502
 110.156 325.013 c 112.73 323.502 115.746 323.091 118.633 323.88 c 120.258
 324.326 121.945 323.361 122.375 321.716 c 122.598 320.912 122.438 320.087
 122.062 319.4 c h
122.062 319.4 m f
268.633 229.974 m 269.012 230.642 269.66 231.173 270.492 231.388 c 274.938
 232.595 279.613 231.99 283.594 229.677 c 287.602 227.361 290.465 223.63
 291.656 219.173 c 292.102 217.541 291.133 215.873 289.492 215.443 c 287.887
 215.009 286.203 215.959 285.77 217.591 c 284.992 220.49 283.152 222.904
 280.551 224.416 c 277.969 225.896 274.949 226.287 272.062 225.505 c 270.445
 225.08 268.773 226.025 268.332 227.673 c 268.109 228.47 268.25 229.306 
268.633 229.974 c h
268.633 229.974 m f
175.156 358.134 m 174.395 357.927 173.559 358.009 172.844 358.439 c 168.832
 360.74 165.977 364.474 164.766 368.943 c 163.582 373.404 164.191 378.06
 166.504 382.064 c 167.355 383.505 169.215 384.029 170.672 383.173 c 172.141
 382.345 172.617 380.47 171.785 379.013 c 170.27 376.423 169.891 373.416
 170.645 370.517 c 171.453 367.63 173.293 365.212 175.895 363.724 c 177.344
 362.877 177.84 361.017 177.004 359.548 c 176.57 358.822 175.895 358.33 
175.156 358.134 c h
175.156 358.134 m f
215.551 191.252 m 216.293 191.455 217.137 191.365 217.875 190.955 c 221.871
 188.642 224.727 184.9 225.918 180.47 c 227.125 175.986 226.516 171.334 
224.191 167.326 c 223.359 165.857 221.492 165.361 220.023 166.228 c 218.57
 167.056 218.066 168.912 218.902 170.408 c 220.414 172.97 220.812 175.97
 220.023 178.877 c 219.27 181.763 217.41 184.17 214.809 185.67 c 213.371
 186.502 212.855 188.377 213.699 189.834 c 214.105 190.56 214.801 191.037
 215.551 191.252 c h
215.551 191.252 m f
Q Q
showpage
%%Trailer
end restore
%%EOF
