%!PS-Adobe-3.0 EPSF-3.0
%%Creator: cairo 1.14.2 (http://cairographics.org)
%%CreationDate: Thu Aug  4 10:37:25 2016
%%Pages: 1
%%DocumentData: Clean7Bit
%%LanguageLevel: 2
%%BoundingBox: 0 -1 397 306
%%EndComments
%%BeginProlog
save
50 dict begin
/q { gsave } bind def
/Q { grestore } bind def
/cm { 6 array astore concat } bind def
/w { setlinewidth } bind def
/J { setlinecap } bind def
/j { setlinejoin } bind def
/M { setmiterlimit } bind def
/d { setdash } bind def
/m { moveto } bind def
/l { lineto } bind def
/c { curveto } bind def
/h { closepath } bind def
/re { exch dup neg 3 1 roll 5 3 roll moveto 0 rlineto
      0 exch rlineto 0 rlineto closepath } bind def
/S { stroke } bind def
/f { fill } bind def
/f* { eofill } bind def
/n { newpath } bind def
/W { clip } bind def
/W* { eoclip } bind def
/BT { } bind def
/ET { } bind def
/pdfmark where { pop globaldict /?pdfmark /exec load put }
    { globaldict begin /?pdfmark /pop load def /pdfmark
    /cleartomark load def end } ifelse
/BDC { mark 3 1 roll /BDC pdfmark } bind def
/EMC { mark /EMC pdfmark } bind def
/cairo_store_point { /cairo_point_y exch def /cairo_point_x exch def } def
/Tj { show currentpoint cairo_store_point } bind def
/TJ {
  {
    dup
    type /stringtype eq
    { show } { -0.001 mul 0 cairo_font_matrix dtransform rmoveto } ifelse
  } forall
  currentpoint cairo_store_point
} bind def
/cairo_selectfont { cairo_font_matrix aload pop pop pop 0 0 6 array astore
    cairo_font exch selectfont cairo_point_x cairo_point_y moveto } bind def
/Tf { pop /cairo_font exch def /cairo_font_matrix where
      { pop cairo_selectfont } if } bind def
/Td { matrix translate cairo_font_matrix matrix concatmatrix dup
      /cairo_font_matrix exch def dup 4 get exch 5 get cairo_store_point
      /cairo_font where { pop cairo_selectfont } if } bind def
/Tm { 2 copy 8 2 roll 6 array astore /cairo_font_matrix exch def
      cairo_store_point /cairo_font where { pop cairo_selectfont } if } bind def
/g { setgray } bind def
/rg { setrgbcolor } bind def
/d1 { setcachedevice } bind def
%%EndProlog
%%BeginSetup
%%EndSetup
%%Page: 1 1
%%BeginPageSetup
%%PageBoundingBox: 0 -1 397 306
%%EndPageSetup
q 0 -1 397 307 rectclip q
0.47451 0.666667 0.654902 rg
299.078 141.539 m 299.078 135.618 294.277 130.809 288.352 130.809 c 108.645
 130.809 l 102.723 130.809 97.914 135.61 97.914 141.539 c 97.914 179.09 
l 97.914 185.02 102.715 189.821 108.645 189.821 c 288.359 189.821 l 294.273
 189.821 299.086 185.028 299.086 179.09 c 299.086 141.539 l h
299.078 141.539 m f
0.729412 0.0588235 0.0588235 rg
317.895 197.207 m 317.895 192.512 311.914 188.7 304.535 188.7 c 92.449 
188.7 l 85.07 188.7 79.098 192.504 79.098 197.207 c 79.098 209.973 l 79.098
 214.668 85.07 218.481 92.449 218.481 c 304.535 218.481 l 311.914 218.481
 317.895 214.676 317.895 209.973 c h
317.895 197.207 m f
0.47451 0.666667 0.654902 rg
284.918 210.7 m 284.918 203.321 265.57 177.301 258.199 177.301 c 138.797
 177.301 l 131.418 177.301 112.078 203.321 112.078 210.7 c 125.438 282.512
 l 125.438 289.891 131.426 295.871 138.805 295.871 c 258.199 295.871 l 265.57
 295.871 271.559 289.891 271.559 282.512 c h
284.918 210.7 m f
0.356863 0.537255 0.521569 rg
258.199 295.864 m 265.57 295.864 271.559 289.883 271.559 282.504 c 284.926
 210.692 l 284.926 203.313 265.578 177.293 258.207 177.293 c 138.797 177.293
 l 131.418 177.293 112.078 203.313 112.078 210.692 c f
0.729412 0.0588235 0.0588235 rg
258.199 167.282 m 138.797 167.282 l 124.82 167.282 102.059 198.989 102.059
 210.7 c 102.23 212.539 l 115.445 283.555 l 115.992 295.965 126.258 305.883
 138.797 305.883 c 258.195 305.883 l 270.727 305.883 281 295.957 281.547
 283.555 c 294.934 210.7 l 294.938 198.996 272.156 167.282 258.199 167.282
 c h
140.164 187.325 m 256.836 187.325 l 261.734 190.395 272.711 204.75 274.738
 210.672 c 261.539 282.512 l 261.539 284.344 260.043 285.844 258.199 285.844
 c 138.797 285.844 l 136.953 285.844 135.453 284.344 135.453 282.512 c 135.281
 280.672 l 122.262 210.664 l 124.285 204.743 135.273 190.395 140.164 187.325
 c h
140.164 187.325 m f
0.498039 0.0666667 0.0196078 rg
258.199 286.684 m 138.797 286.684 l 126.258 286.684 115.992 276.758 115.445
 264.356 c 104.008 202.961 l 109.797 188.84 127.273 167.286 138.797 167.286
 c 258.191 167.286 l 269.641 167.286 286.973 188.575 292.871 202.707 c 281.547
 264.356 l 281.004 276.758 270.727 286.684 258.199 286.684 c h
274.734 191.465 m 272.707 185.543 261.727 171.196 256.832 168.118 c 140.164
 168.118 l 135.273 171.188 124.285 185.543 122.262 191.465 c 124.879 205.543
 l 123.688 207.524 122.723 209.332 122.262 210.668 c 135.289 280.672 l 135.457
 282.512 l 135.457 284.344 136.957 285.844 138.805 285.844 c 258.199 285.844
 l 260.039 285.844 261.539 284.344 261.539 282.512 c 274.742 210.672 l 274.293
 209.344 273.336 207.555 272.141 205.586 c h
274.734 191.465 m f
0.203922 0.247059 0.247059 rg
330.422 87.411 m 330.422 80.028 324.434 74.043 317.055 74.043 c 79.941 
74.043 l 72.562 74.043 66.574 80.028 66.574 87.411 c 66.574 94.789 72.562
 100.77 79.941 100.77 c 317.062 100.77 l 324.434 100.762 330.422 94.789 
330.422 87.411 c h
330.422 87.411 m f
0.576471 0.109804 0.0470588 rg
174.281 189.543 m 174.281 178.02 164.949 168.672 153.41 168.672 c 58.227
 168.672 l 46.688 168.672 44.035 178.02 44.035 189.543 c 44.035 201.075 
53.367 210.422 64.906 210.422 c 153.418 210.422 l 164.941 210.422 174.281
 201.075 174.281 189.543 c h
174.281 189.543 m f
0.498039 0.0666667 0.0196078 rg
153.41 210.422 m 164.941 210.422 174.281 201.075 174.281 189.543 c 174.281
 178.02 164.949 168.672 153.41 168.672 c 58.227 168.672 l 46.688 168.672
 44.035 178.02 44.035 189.543 c f
0.576471 0.109804 0.0470588 rg
222.707 189.543 m 222.707 178.02 232.047 168.672 243.578 168.672 c 338.77
 168.672 l 350.309 168.672 352.969 178.02 352.969 189.543 c 352.969 201.075
 343.621 210.422 332.098 210.422 c 243.578 210.422 l 232.055 210.422 222.707
 201.075 222.707 189.543 c h
222.707 189.543 m f
0.498039 0.0666667 0.0196078 rg
243.578 210.422 m 232.055 210.422 222.711 201.075 222.711 189.543 c 222.711
 178.02 232.047 168.672 243.578 168.672 c 338.77 168.672 l 350.309 168.672
 352.969 178.02 352.969 189.543 c f
0.698039 0.0862745 0.0235294 rg
292.012 88.512 m 292.012 70.067 277.059 69.586 258.613 69.586 c 138.383
 69.586 l 119.93 69.586 104.984 70.067 104.984 88.512 c 104.984 214.321 
l 104.984 232.766 119.93 247.719 138.383 247.719 c 258.613 247.719 l 277.059
 247.719 292.012 232.766 292.012 214.321 c h
292.012 88.512 m f
0.788235 0.0980392 0.0666667 rg
104.984 214.321 m 104.984 232.766 119.93 247.719 138.383 247.719 c 258.617
 247.719 l 277.062 247.719 292.016 232.766 292.016 214.321 c f
104.984 200.129 m 104.984 218.575 119.93 233.524 138.383 233.524 c 258.617
 233.524 l 277.062 233.524 292.016 218.571 292.016 200.129 c f
0.917647 0.121569 0.121569 rg
138.383 233.524 m 258.613 233.524 l 271.961 233.524 283.398 225.641 288.73
 214.321 c 292.012 214.321 l 292.012 232.766 277.059 247.719 258.613 247.719
 c 138.383 247.719 l 119.93 247.719 104.984 232.766 104.984 214.321 c 108.262
 214.321 l 113.59 225.641 125.035 233.524 138.383 233.524 c h
138.383 233.524 m f
0.498039 0.0666667 0.0196078 rg
249.699 132.485 m 249.699 130.336 247.973 128.59 245.809 128.59 c 151.191
 128.59 l 149.043 128.59 147.293 130.336 147.293 132.485 c 147.293 134.633
 149.043 136.383 151.191 136.383 c 245.809 136.383 l 247.973 136.383 249.699
 134.633 249.699 132.485 c h
249.699 132.485 m f
249.699 113.278 m 249.699 111.129 247.973 109.387 245.809 109.387 c 151.191
 109.387 l 149.043 109.387 147.293 111.129 147.293 113.278 c 147.293 115.43
 149.043 117.176 151.191 117.176 c 245.809 117.176 l 247.973 117.176 249.699
 115.43 249.699 113.278 c h
249.699 113.278 m f
249.699 94.071 m 249.699 91.922 247.973 90.18 245.809 90.18 c 151.191 90.18
 l 149.043 90.18 147.293 91.922 147.293 94.071 c 147.293 96.223 149.043 
97.969 151.191 97.969 c 245.809 97.969 l 247.973 97.969 249.699 96.231 249.699
 94.071 c h
249.699 94.071 m f
0.670588 0.847059 0.847059 rg
159.258 185.371 m 159.258 168.774 145.801 155.313 129.199 155.313 c 112.602
 155.313 99.141 168.774 99.141 185.371 c 99.141 201.973 112.602 215.43 129.199
 215.43 c 145.801 215.43 159.258 201.973 159.258 185.371 c h
159.258 185.371 m f
0.529412 0.756863 0.74902 rg
159.254 185.371 m 159.254 168.77 145.781 155.313 129.195 155.313 c 112.598
 155.313 99.137 168.77 99.137 185.371 c f
0.298039 0.329412 0.329412 rg
129.199 148.629 m 108.941 148.629 92.449 165.114 92.449 185.371 c 92.449
 205.618 108.941 222.106 129.199 222.106 c 149.449 222.106 165.934 205.618
 165.934 185.371 c 165.934 165.114 149.445 148.629 129.199 148.629 c h
129.199 208.746 m 116.309 208.746 105.816 198.258 105.816 185.371 c 105.816
 172.481 116.309 161.989 129.199 161.989 c 142.086 161.989 152.566 172.481
 152.566 185.371 c 152.566 198.258 142.086 208.746 129.199 208.746 c h
129.199 208.746 m f
0.203922 0.247059 0.247059 rg
129.199 209.305 m 111.121 209.305 96.098 196.172 93.062 178.965 c 96.098
 161.762 111.129 148.633 129.199 148.633 c 147.266 148.633 162.297 161.762
 165.328 178.965 c 162.297 196.172 147.266 209.305 129.199 209.305 c h
152.566 172.567 m 152.566 159.676 142.086 149.184 129.199 149.184 c 116.309
 149.184 105.816 159.676 105.816 172.567 c 105.816 174.797 106.23 176.914
 106.824 178.965 c 106.238 181.012 105.816 183.141 105.816 185.371 c 105.816
 198.258 116.309 208.746 129.199 208.746 c 142.086 208.746 152.566 198.258
 152.566 185.371 c 152.566 183.141 152.156 181.012 151.566 178.965 c 152.156
 176.914 152.566 174.797 152.566 172.567 c h
152.566 172.567 m f
0.670588 0.847059 0.847059 rg
297.855 185.371 m 297.855 168.774 284.398 155.313 267.797 155.313 c 251.195
 155.313 237.738 168.774 237.738 185.371 c 237.738 201.973 251.195 215.43
 267.797 215.43 c 284.398 215.43 297.855 201.973 297.855 185.371 c h
297.855 185.371 m f
0.529412 0.756863 0.74902 rg
297.855 185.371 m 297.855 168.77 284.395 155.313 267.797 155.313 c 251.199
 155.313 237.738 168.77 237.738 185.371 c f
0.298039 0.329412 0.329412 rg
267.797 148.629 m 247.551 148.629 231.066 165.114 231.066 185.371 c 231.066
 205.618 247.551 222.106 267.797 222.106 c 288.055 222.106 304.539 205.618
 304.539 185.371 c 304.539 165.114 288.055 148.629 267.797 148.629 c h
267.797 208.746 m 254.91 208.746 244.426 198.258 244.426 185.371 c 244.426
 172.481 254.91 161.989 267.797 161.989 c 280.691 161.989 291.18 172.481
 291.18 185.371 c 291.18 198.258 280.691 208.746 267.797 208.746 c h
267.797 208.746 m f
0.203922 0.247059 0.247059 rg
267.797 209.305 m 249.73 209.305 234.699 196.172 231.664 178.965 c 234.695
 161.762 249.73 148.633 267.797 148.633 c 285.871 148.633 300.898 161.762
 303.938 178.965 c 300.898 196.172 285.871 209.305 267.797 209.305 c h
291.18 172.567 m 291.18 159.676 280.691 149.184 267.797 149.184 c 254.91
 149.184 244.426 159.676 244.426 172.567 c 244.426 174.797 244.84 176.914
 245.426 178.965 c 244.848 181.012 244.426 183.141 244.426 185.371 c 244.426
 198.258 254.91 208.746 267.797 208.746 c 280.691 208.746 291.18 198.258
 291.18 185.371 c 291.18 183.141 290.766 181.012 290.172 178.965 c 290.766
 176.914 291.18 174.797 291.18 172.567 c h
291.18 172.567 m f
0.788235 0.0980392 0.0666667 rg
175.742 200.602 m 175.742 199.567 174.902 198.727 173.867 198.727 c 172.828
 198.727 171.988 199.567 171.988 200.602 c 171.988 201.641 172.828 202.481
 173.867 202.481 c 174.902 202.481 175.742 201.641 175.742 200.602 c h
175.742 200.602 m f
188.07 200.602 m 188.07 199.563 187.227 198.719 186.188 198.719 c 185.145
 198.719 184.301 199.563 184.301 200.602 c 184.301 201.645 185.145 202.489
 186.188 202.489 c 187.227 202.489 188.07 201.645 188.07 200.602 c h
188.07 200.602 m f
200.375 200.602 m 200.375 199.567 199.535 198.727 198.5 198.727 c 197.461
 198.727 196.621 199.567 196.621 200.602 c 196.621 201.641 197.461 202.481
 198.5 202.481 c 199.535 202.481 200.375 201.641 200.375 200.602 c h
200.375 200.602 m f
212.691 200.602 m 212.691 199.567 211.848 198.727 210.812 198.727 c 209.773
 198.727 208.934 199.567 208.934 200.602 c 208.934 201.641 209.773 202.481
 210.812 202.481 c 211.848 202.481 212.691 201.641 212.691 200.602 c h
212.691 200.602 m f
225.008 200.602 m 225.008 199.567 224.168 198.727 223.133 198.727 c 222.094
 198.727 221.254 199.567 221.254 200.602 c 221.254 201.641 222.094 202.481
 223.133 202.481 c 224.168 202.481 225.008 201.641 225.008 200.602 c h
225.008 200.602 m f
175.742 189.965 m 175.742 188.93 174.902 188.09 173.867 188.09 c 172.828
 188.09 171.988 188.93 171.988 189.965 c 171.988 191.004 172.828 191.844
 173.867 191.844 c 174.902 191.844 175.742 191.004 175.742 189.965 c h
175.742 189.965 m f
188.07 189.965 m 188.07 188.926 187.227 188.082 186.188 188.082 c 185.145
 188.082 184.301 188.926 184.301 189.965 c 184.301 191.008 185.145 191.852
 186.188 191.852 c 187.227 191.852 188.07 191.008 188.07 189.965 c h
188.07 189.965 m f
200.375 189.965 m 200.375 188.93 199.535 188.09 198.5 188.09 c 197.461 
188.09 196.621 188.93 196.621 189.965 c 196.621 191.004 197.461 191.844 
198.5 191.844 c 199.535 191.844 200.375 191.004 200.375 189.965 c h
200.375 189.965 m f
212.691 189.965 m 212.691 188.93 211.848 188.09 210.812 188.09 c 209.773
 188.09 208.934 188.93 208.934 189.965 c 208.934 191.004 209.773 191.844
 210.812 191.844 c 211.848 191.844 212.691 191.004 212.691 189.965 c h
212.691 189.965 m f
225.008 189.965 m 225.008 188.93 224.168 188.09 223.133 188.09 c 222.094
 188.09 221.254 188.93 221.254 189.965 c 221.254 191.004 222.094 191.844
 223.133 191.844 c 224.168 191.844 225.008 191.004 225.008 189.965 c h
225.008 189.965 m f
175.742 179.317 m 175.742 178.282 174.902 177.438 173.867 177.438 c 172.828
 177.438 171.988 178.282 171.988 179.317 c 171.988 180.352 172.828 181.196
 173.867 181.196 c 174.902 181.196 175.742 180.352 175.742 179.317 c h
175.742 179.317 m f
188.07 179.317 m 188.07 178.278 187.227 177.434 186.188 177.434 c 185.145
 177.434 184.301 178.278 184.301 179.317 c 184.301 180.356 185.145 181.2
 186.188 181.2 c 187.227 181.2 188.07 180.356 188.07 179.317 c h
188.07 179.317 m f
200.375 179.317 m 200.375 178.282 199.535 177.438 198.5 177.438 c 197.461
 177.438 196.621 178.282 196.621 179.317 c 196.621 180.352 197.461 181.196
 198.5 181.196 c 199.535 181.196 200.375 180.352 200.375 179.317 c h
200.375 179.317 m f
212.691 179.317 m 212.691 178.282 211.848 177.438 210.812 177.438 c 209.773
 177.438 208.934 178.282 208.934 179.317 c 208.934 180.352 209.773 181.196
 210.812 181.196 c 211.848 181.196 212.691 180.352 212.691 179.317 c h
212.691 179.317 m f
225.008 179.317 m 225.008 178.282 224.168 177.438 223.133 177.438 c 222.094
 177.438 221.254 178.282 221.254 179.317 c 221.254 180.352 222.094 181.196
 223.133 181.196 c 224.168 181.196 225.008 180.352 225.008 179.317 c h
225.008 179.317 m f
175.742 168.7 m 175.742 167.661 174.902 166.821 173.867 166.821 c 172.828
 166.821 171.988 167.661 171.988 168.7 c 171.988 169.735 172.828 170.575
 173.867 170.575 c 174.902 170.575 175.742 169.735 175.742 168.7 c h
175.742 168.7 m f
188.07 168.7 m 188.07 167.657 187.227 166.813 186.188 166.813 c 185.145
 166.813 184.301 167.657 184.301 168.7 c 184.301 169.739 185.145 170.582
 186.188 170.582 c 187.227 170.582 188.07 169.739 188.07 168.7 c h
188.07 168.7 m f
200.375 168.7 m 200.375 167.661 199.535 166.821 198.5 166.821 c 197.461
 166.821 196.621 167.661 196.621 168.7 c 196.621 169.735 197.461 170.575
 198.5 170.575 c 199.535 170.575 200.375 169.735 200.375 168.7 c h
200.375 168.7 m f
212.691 168.7 m 212.691 167.661 211.848 166.821 210.812 166.821 c 209.773
 166.821 208.934 167.661 208.934 168.7 c 208.934 169.735 209.773 170.575
 210.812 170.575 c 211.848 170.575 212.691 169.735 212.691 168.7 c h
212.691 168.7 m f
225.008 168.7 m 225.008 167.661 224.168 166.821 223.133 166.821 c 222.094
 166.821 221.254 167.661 221.254 168.7 c 221.254 169.735 222.094 170.575
 223.133 170.575 c 224.168 170.575 225.008 169.735 225.008 168.7 c h
225.008 168.7 m f
175.742 158.032 m 175.742 156.993 174.902 156.153 173.867 156.153 c 172.828
 156.153 171.988 156.993 171.988 158.032 c 171.988 159.067 172.828 159.907
 173.867 159.907 c 174.902 159.907 175.742 159.067 175.742 158.032 c h
175.742 158.032 m f
188.07 158.032 m 188.07 156.989 187.227 156.145 186.188 156.145 c 185.145
 156.145 184.301 156.989 184.301 158.032 c 184.301 159.071 185.145 159.914
 186.188 159.914 c 187.227 159.914 188.07 159.071 188.07 158.032 c h
188.07 158.032 m f
200.375 158.032 m 200.375 156.993 199.535 156.153 198.5 156.153 c 197.461
 156.153 196.621 156.993 196.621 158.032 c 196.621 159.067 197.461 159.907
 198.5 159.907 c 199.535 159.907 200.375 159.067 200.375 158.032 c h
200.375 158.032 m f
212.691 158.032 m 212.691 156.993 211.848 156.153 210.812 156.153 c 209.773
 156.153 208.934 156.993 208.934 158.032 c 208.934 159.067 209.773 159.907
 210.812 159.907 c 211.848 159.907 212.691 159.067 212.691 158.032 c h
212.691 158.032 m f
225.008 158.032 m 225.008 156.993 224.168 156.153 223.133 156.153 c 222.094
 156.153 221.254 156.993 221.254 158.032 c 221.254 159.067 222.094 159.907
 223.133 159.907 c 224.168 159.907 225.008 159.067 225.008 158.032 c h
225.008 158.032 m f
0.415686 0.658824 0.647059 rg
39.664 76.821 m 39.664 51.922 30.785 31.735 19.832 31.735 c 8.879 31.735
 0 51.922 0 76.821 c 0 101.723 8.879 121.911 19.832 121.911 c 30.785 121.911
 39.664 101.723 39.664 76.821 c h
39.664 76.821 m f
0.529412 0.756863 0.74902 rg
39.66 76.821 m 39.66 51.918 30.781 81.832 19.832 81.832 c 8.879 81.832 
0 51.918 0 76.821 c 0 101.731 8.879 121.911 19.832 121.911 c 30.781 121.911
 39.66 101.731 39.66 76.821 c h
39.66 76.821 m f
0.168627 0.282353 0.376471 rg
87.504 8.645 m 87.504 3.875 83.641 0.008 78.871 0.008 c 15.434 0.008 l 
10.664 0.008 6.793 3.871 6.793 8.645 c 6.793 145.016 l 6.793 149.774 10.656
 153.645 15.434 153.645 c 78.871 153.645 l 83.641 153.645 87.504 149.782
 87.504 145.016 c h
87.504 8.645 m f
0.121569 0.215686 0.278431 rg
78.871 153.637 m 83.641 153.637 87.504 149.774 87.504 145.012 c 87.504 
8.641 l 87.504 3.868 83.641 0 78.871 0 c 15.434 0 l 10.664 0 6.793 3.864
 6.793 8.641 c f
0.160784 0.321569 0.427451 rg
92.234 142.579 m 92.234 138.086 88.602 134.438 84.094 134.438 c 10.203 
134.438 l 5.695 134.438 2.062 138.086 2.062 142.579 c 2.062 147.071 5.695
 150.719 10.203 150.719 c 84.094 150.719 l 88.602 150.719 92.234 147.071
 92.234 142.579 c h
92.234 142.579 m f
92.234 116.278 m 92.234 111.782 88.602 108.133 84.094 108.133 c 10.203 
108.133 l 5.695 108.133 2.062 111.782 2.062 116.278 c 2.062 120.77 5.695
 124.418 10.203 124.418 c 84.094 124.418 l 88.602 124.418 92.234 120.774
 92.234 116.278 c h
92.234 116.278 m f
92.234 89.973 m 92.234 85.481 88.602 81.832 84.094 81.832 c 10.203 81.832
 l 5.695 81.832 2.062 85.481 2.062 89.973 c 2.062 94.465 5.695 98.114 10.203
 98.114 c 84.094 98.114 l 88.602 98.114 92.234 94.473 92.234 89.973 c h
92.234 89.973 m f
92.234 63.672 m 92.234 59.176 88.602 55.528 84.094 55.528 c 10.203 55.528
 l 5.695 55.528 2.062 59.176 2.062 63.672 c 2.062 68.164 5.695 71.813 10.203
 71.813 c 84.094 71.813 l 88.602 71.813 92.234 68.164 92.234 63.672 c h
92.234 63.672 m f
92.234 37.368 m 92.234 32.883 88.602 29.231 84.094 29.231 c 10.203 29.231
 l 5.695 29.231 2.062 32.883 2.062 37.368 c 2.062 41.86 5.695 45.508 10.203
 45.508 c 84.094 45.508 l 88.602 45.508 92.234 41.868 92.234 37.368 c h
92.234 37.368 m f
92.234 11.071 m 92.234 6.579 88.602 2.93 84.094 2.93 c 10.203 2.93 l 5.695
 2.93 2.062 6.579 2.062 11.071 c 2.062 15.563 5.695 19.215 10.203 19.215
 c 84.094 19.215 l 88.602 19.215 92.234 15.571 92.234 11.071 c h
92.234 11.071 m f
0.415686 0.658824 0.647059 rg
396.996 76.821 m 396.996 51.922 388.117 31.735 377.164 31.735 c 366.215
 31.735 357.336 51.922 357.336 76.821 c 357.336 101.723 366.215 121.911 
377.164 121.911 c 388.117 121.911 396.996 101.723 396.996 76.821 c h
396.996 76.821 m f
0.529412 0.756863 0.74902 rg
357.34 76.821 m 357.34 51.918 366.215 81.832 377.168 81.832 c 388.117 81.832
 396.996 51.918 396.996 76.821 c 396.996 101.731 388.117 121.911 377.168
 121.911 c 366.215 121.911 357.34 101.731 357.34 76.821 c h
357.34 76.821 m f
0.168627 0.282353 0.376471 rg
309.488 8.645 m 309.488 3.875 313.355 0.008 318.125 0.008 c 381.562 0.008
 l 386.328 0.008 390.203 3.871 390.203 8.645 c 390.203 145.016 l 390.203
 149.774 386.336 153.645 381.562 153.645 c 318.125 153.645 l 313.355 153.645
 309.488 149.782 309.488 145.016 c h
309.488 8.645 m f
0.121569 0.215686 0.278431 rg
318.129 153.637 m 313.355 153.637 309.488 149.774 309.488 145.012 c 309.488
 8.641 l 309.488 3.868 313.355 0 318.129 0 c 381.566 0 l 386.328 0 390.203
 3.864 390.203 8.641 c f
0.160784 0.321569 0.427451 rg
304.762 142.579 m 304.762 138.086 308.398 134.438 312.902 134.438 c 386.797
 134.438 l 391.293 134.438 394.938 138.086 394.938 142.579 c 394.938 147.071
 391.293 150.719 386.797 150.719 c 312.902 150.719 l 308.398 150.719 304.762
 147.071 304.762 142.579 c h
304.762 142.579 m f
304.762 116.278 m 304.762 111.782 308.398 108.133 312.902 108.133 c 386.797
 108.133 l 391.293 108.133 394.938 111.782 394.938 116.278 c 394.938 120.77
 391.293 124.418 386.797 124.418 c 312.902 124.418 l 308.398 124.418 304.762
 120.774 304.762 116.278 c h
304.762 116.278 m f
304.762 89.973 m 304.762 85.481 308.398 81.832 312.902 81.832 c 386.797
 81.832 l 391.293 81.832 394.938 85.481 394.938 89.973 c 394.938 94.465 
391.293 98.114 386.797 98.114 c 312.902 98.114 l 308.398 98.114 304.762 
94.473 304.762 89.973 c h
304.762 89.973 m f
304.762 63.672 m 304.762 59.176 308.398 55.528 312.902 55.528 c 386.797
 55.528 l 391.293 55.528 394.938 59.176 394.938 63.672 c 394.938 68.164 
391.293 71.813 386.797 71.813 c 312.902 71.813 l 308.398 71.813 304.762 
68.164 304.762 63.672 c h
304.762 63.672 m f
304.762 37.368 m 304.762 32.883 308.398 29.231 312.902 29.231 c 386.797
 29.231 l 391.293 29.231 394.938 32.883 394.938 37.368 c 394.938 41.86 391.293
 45.508 386.797 45.508 c 312.902 45.508 l 308.398 45.508 304.762 41.868 
304.762 37.368 c h
304.762 37.368 m f
304.762 11.071 m 304.762 6.579 308.398 2.93 312.902 2.93 c 386.797 2.93
 l 391.293 2.93 394.938 6.579 394.938 11.071 c 394.938 15.563 391.293 19.215
 386.797 19.215 c 312.902 19.215 l 308.398 19.215 304.762 15.571 304.762
 11.071 c h
304.762 11.071 m f
0.529412 0.756863 0.74902 rg
294.938 62.188 m 294.938 59.297 292.586 56.946 289.695 56.946 c 107.297
 56.946 l 104.41 56.946 102.059 59.289 102.059 62.188 c 102.059 76.602 l
 102.059 79.489 104.41 81.84 107.297 81.84 c 289.688 81.84 l 292.582 81.84
 294.93 79.493 294.93 76.602 c 294.93 62.188 l h
294.938 62.188 m f
0.47451 0.666667 0.654902 rg
294.938 52.586 m 294.938 49.696 292.586 47.344 289.695 47.344 c 107.297
 47.344 l 104.41 47.344 102.059 49.688 102.059 52.586 c 102.059 66.993 l
 102.059 69.883 104.41 72.235 107.297 72.235 c 289.688 72.235 l 292.582 
72.235 294.93 69.891 294.93 66.993 c 294.93 52.586 l h
294.938 52.586 m f
Q Q
showpage
%%Trailer
end restore
%%EOF
