%!PS-Adobe-3.0 EPSF-3.0
%%Creator: cairo 1.14.2 (http://cairographics.org)
%%CreationDate: Thu Aug  4 10:37:41 2016
%%Pages: 1
%%DocumentData: Clean7Bit
%%LanguageLevel: 2
%%BoundingBox: 0 -1 398 404
%%EndComments
%%BeginProlog
save
50 dict begin
/q { gsave } bind def
/Q { grestore } bind def
/cm { 6 array astore concat } bind def
/w { setlinewidth } bind def
/J { setlinecap } bind def
/j { setlinejoin } bind def
/M { setmiterlimit } bind def
/d { setdash } bind def
/m { moveto } bind def
/l { lineto } bind def
/c { curveto } bind def
/h { closepath } bind def
/re { exch dup neg 3 1 roll 5 3 roll moveto 0 rlineto
      0 exch rlineto 0 rlineto closepath } bind def
/S { stroke } bind def
/f { fill } bind def
/f* { eofill } bind def
/n { newpath } bind def
/W { clip } bind def
/W* { eoclip } bind def
/BT { } bind def
/ET { } bind def
/pdfmark where { pop globaldict /?pdfmark /exec load put }
    { globaldict begin /?pdfmark /pop load def /pdfmark
    /cleartomark load def end } ifelse
/BDC { mark 3 1 roll /BDC pdfmark } bind def
/EMC { mark /EMC pdfmark } bind def
/cairo_store_point { /cairo_point_y exch def /cairo_point_x exch def } def
/Tj { show currentpoint cairo_store_point } bind def
/TJ {
  {
    dup
    type /stringtype eq
    { show } { -0.001 mul 0 cairo_font_matrix dtransform rmoveto } ifelse
  } forall
  currentpoint cairo_store_point
} bind def
/cairo_selectfont { cairo_font_matrix aload pop pop pop 0 0 6 array astore
    cairo_font exch selectfont cairo_point_x cairo_point_y moveto } bind def
/Tf { pop /cairo_font exch def /cairo_font_matrix where
      { pop cairo_selectfont } if } bind def
/Td { matrix translate cairo_font_matrix matrix concatmatrix dup
      /cairo_font_matrix exch def dup 4 get exch 5 get cairo_store_point
      /cairo_font where { pop cairo_selectfont } if } bind def
/Tm { 2 copy 8 2 roll 6 array astore /cairo_font_matrix exch def
      cairo_store_point /cairo_font where { pop cairo_selectfont } if } bind def
/g { setgray } bind def
/rg { setrgbcolor } bind def
/d1 { setcachedevice } bind def
%%EndProlog
%%BeginSetup
%%EndSetup
%%Page: 1 1
%%BeginPageSetup
%%PageBoundingBox: 0 -1 398 404
%%EndPageSetup
q 0 -1 398 405 rectclip q
1 0.568627 0 rg
395.59 205.342 m 340.035 260.897 l 338.719 262.225 336.754 262.666 335 
262.045 c 333.238 261.428 331.984 259.85 331.777 258.006 c 328.152 225.451
 l 280.406 189.154 l 239.277 260.393 l 234.941 267.897 226.926 272.529 218.246
 272.529 c 98.391 272.529 l 96.746 273.475 l 96.746 339.111 l 153.602 371.924
 l 217.719 334.916 l 224.676 330.889 233.586 333.264 237.613 340.248 c 241.633
 347.209 239.258 356.127 232.289 360.135 c 160.891 401.354 l 156.371 403.947
 150.832 403.947 146.32 401.354 c 74.898 360.135 l 70.395 357.537 67.617
 352.725 67.617 347.518 c 67.617 265.069 l 67.617 263.623 67.887 262.225
 68.277 260.869 c 68.168 260.701 68.012 260.576 67.906 260.393 c 3.25 148.408
 l -1.082 140.904 -1.082 131.647 3.25 124.123 c 67.91 12.135 l 72.246 4.631
 80.27 -0.002 88.938 -0.002 c 218.254 -0.002 l 226.93 -0.002 234.938 4.627
 239.281 12.135 c 303.172 122.799 l 356.57 193.061 l 392.703 197.088 l 394.551
 197.295 396.125 198.549 396.742 200.315 c 397.363 202.08 396.91 204.026
 395.59 205.342 c h
395.59 205.342 m f
1 0.427451 0 rg
395.59 205.342 m 340.035 260.897 l 338.719 262.225 336.754 262.666 335 
262.045 c 333.238 261.428 331.984 259.85 331.777 258.006 c 328.152 225.451
 l 296.605 161.736 l 239.277 260.393 l 234.941 267.897 226.926 272.529 218.246
 272.529 c 98.391 272.529 l 96.746 273.475 l 96.746 339.111 l 153.602 371.924
 l 217.719 334.916 l 224.676 330.889 233.586 333.264 237.613 340.248 c 241.633
 347.209 239.258 356.127 232.289 360.135 c 160.891 401.354 l 156.371 403.947
 150.832 403.947 146.32 401.354 c 74.898 360.135 l 70.395 357.537 67.617
 352.725 67.617 347.518 c 67.617 265.069 l 67.617 263.623 67.887 262.225
 68.277 260.869 c 68.168 260.701 68.012 260.576 67.906 260.393 c 3.25 148.408
 l -1.082 140.904 -1.082 131.647 3.25 124.123 c 67.91 12.135 l 72.246 4.631
 80.27 -0.002 88.938 -0.002 c 218.254 -0.002 l 226.93 -0.002 234.938 4.627
 239.281 12.135 c 303.172 122.799 l 356.57 193.061 l 392.703 197.088 l 394.551
 197.295 396.125 198.549 396.742 200.315 c 397.363 202.08 396.91 204.026
 395.59 205.342 c h
395.59 205.342 m f
1 0.568627 0 rg
35.082 68.994 m 233.328 267.248 l 229.105 270.608 223.824 272.529 218.25
 272.529 c 98.391 272.529 l 96.746 273.475 l 96.746 339.111 l 153.602 371.924
 l 217.719 334.916 l 224.676 330.889 233.586 333.264 237.613 340.248 c 241.633
 347.209 239.258 356.127 232.289 360.135 c 160.891 401.354 l 156.371 403.947
 150.832 403.947 146.32 401.354 c 79.133 362.584 l 68.289 351.74 l 67.875
 350.385 67.617 348.979 67.617 347.518 c 67.617 265.069 l 67.617 263.623
 67.887 262.225 68.277 260.869 c 68.168 260.701 68.012 260.576 67.906 260.393
 c 3.25 148.408 l -1.082 140.904 -1.082 131.647 3.25 124.123 c h
35.082 68.994 m f
1 0.666667 0 rg
96.746 339.111 m 153.602 371.924 l 217.719 334.916 l 224.676 330.889 233.586
 333.264 237.613 340.248 c 241.633 347.209 239.258 356.127 232.289 360.135
 c 160.891 401.354 l 156.371 403.947 150.832 403.947 146.32 401.354 c 79.133
 362.584 l 68.289 356.959 l 67.875 355.604 67.617 348.979 67.617 347.518
 c 67.617 265.069 l 67.617 263.623 67.887 262.225 68.277 260.869 c 68.168
 260.701 68.012 260.576 67.906 260.393 c 3.25 148.408 l -1.082 140.904 -1.082
 131.647 3.25 124.123 c 35.082 68.994 l f
1 0.427451 0 rg
221.523 268.1 m 221.523 255.756 189.777 259.51 150.633 259.51 c 111.473
 259.51 79.738 255.756 79.738 268.1 c 79.738 280.432 111.473 290.44 150.633
 290.44 c 189.777 290.44 221.523 280.432 221.523 268.1 c h
221.523 268.1 m f
1 0.568627 0 rg
150.633 268.432 m 184.535 268.432 212.84 265.643 219.824 272.912 c 212.84
 282.932 184.527 290.44 150.633 290.44 c 116.711 290.44 88.41 282.932 81.43
 272.912 c 88.41 265.635 116.711 268.432 150.633 268.432 c h
150.633 268.432 m f
0.0313726 0.156863 0.337255 rg
175.566 297.49 m 175.566 289.795 169.328 283.569 161.66 283.569 c 139.605
 283.569 l 131.91 283.569 125.684 289.795 125.684 297.49 c 125.684 305.17
 131.91 311.397 139.605 311.397 c 161.66 311.397 l 169.328 311.397 175.566
 305.17 175.566 297.49 c h
175.566 297.49 m f
0.0784314 0.27451 0.509804 rg
161.66 311.397 m 139.605 311.397 l 134.297 311.397 129.754 308.404 127.391
 304.049 c 129.75 299.697 134.297 296.701 139.605 296.701 c 161.66 296.701
 l 166.953 296.701 171.504 299.697 173.848 304.049 c 171.496 308.404 166.953
 311.397 161.66 311.397 c h
161.66 311.397 m f
0.917647 0.341176 0.0235294 rg
67.91 12.139 m 72.246 4.631 80.27 0.002 88.938 0.002 c 218.254 0.002 l 
226.93 0.002 234.938 4.627 239.281 12.139 c 303.172 122.799 l 303.398 123.108
 l 47.695 47.151 l h
67.91 12.139 m f
Q Q
showpage
%%Trailer
end restore
%%EOF
