%!PS-Adobe-3.0 EPSF-3.0
%%Creator: cairo 1.14.2 (http://cairographics.org)
%%CreationDate: Thu Aug  4 10:38:00 2016
%%Pages: 1
%%DocumentData: Clean7Bit
%%LanguageLevel: 2
%%BoundingBox: 0 -1 143 404
%%EndComments
%%BeginProlog
save
50 dict begin
/q { gsave } bind def
/Q { grestore } bind def
/cm { 6 array astore concat } bind def
/w { setlinewidth } bind def
/J { setlinecap } bind def
/j { setlinejoin } bind def
/M { setmiterlimit } bind def
/d { setdash } bind def
/m { moveto } bind def
/l { lineto } bind def
/c { curveto } bind def
/h { closepath } bind def
/re { exch dup neg 3 1 roll 5 3 roll moveto 0 rlineto
      0 exch rlineto 0 rlineto closepath } bind def
/S { stroke } bind def
/f { fill } bind def
/f* { eofill } bind def
/n { newpath } bind def
/W { clip } bind def
/W* { eoclip } bind def
/BT { } bind def
/ET { } bind def
/pdfmark where { pop globaldict /?pdfmark /exec load put }
    { globaldict begin /?pdfmark /pop load def /pdfmark
    /cleartomark load def end } ifelse
/BDC { mark 3 1 roll /BDC pdfmark } bind def
/EMC { mark /EMC pdfmark } bind def
/cairo_store_point { /cairo_point_y exch def /cairo_point_x exch def } def
/Tj { show currentpoint cairo_store_point } bind def
/TJ {
  {
    dup
    type /stringtype eq
    { show } { -0.001 mul 0 cairo_font_matrix dtransform rmoveto } ifelse
  } forall
  currentpoint cairo_store_point
} bind def
/cairo_selectfont { cairo_font_matrix aload pop pop pop 0 0 6 array astore
    cairo_font exch selectfont cairo_point_x cairo_point_y moveto } bind def
/Tf { pop /cairo_font exch def /cairo_font_matrix where
      { pop cairo_selectfont } if } bind def
/Td { matrix translate cairo_font_matrix matrix concatmatrix dup
      /cairo_font_matrix exch def dup 4 get exch 5 get cairo_store_point
      /cairo_font where { pop cairo_selectfont } if } bind def
/Tm { 2 copy 8 2 roll 6 array astore /cairo_font_matrix exch def
      cairo_store_point /cairo_font where { pop cairo_selectfont } if } bind def
/g { setgray } bind def
/rg { setrgbcolor } bind def
/d1 { setcachedevice } bind def
%%EndProlog
%%BeginSetup
%%EndSetup
%%Page: 1 1
%%BeginPageSetup
%%PageBoundingBox: 0 -1 143 404
%%EndPageSetup
q 0 -1 143 405 rectclip q
1 0.568627 0.180392 rg
67.988 82.216 m 67.988 79.002 65.379 76.392 62.164 76.392 c 58.953 76.392
 56.355 79.002 56.355 82.216 c 56.355 318.877 l 56.355 322.084 58.949 324.689
 62.164 324.689 c 65.379 324.689 67.988 322.084 67.988 318.877 c h
67.988 82.216 m f
1 0.72549 0.172549 rg
56.355 318.877 m 56.355 322.084 58.953 324.689 62.164 324.689 c 65.379 
324.689 67.988 322.084 67.988 318.877 c 67.988 82.216 l f
0.333333 0.607843 0.0431373 rg
67.988 5.822 m 67.988 2.607 65.379 0.002 62.164 0.002 c 58.953 0.002 56.355
 2.607 56.355 5.822 c 56.355 80.552 l 56.355 83.767 58.949 86.361 62.164
 86.361 c 65.379 86.361 67.988 83.767 67.988 80.552 c h
67.988 5.822 m f
1 0.72549 0.172549 rg
62.164 403.298 m 62.164 314.716 l 62.164 314.716 33.293 321.455 33.293 
346.49 c 33.293 371.521 62.164 403.298 62.164 403.298 c h
62.164 403.298 m f
1 0.568627 0.180392 rg
62.164 403.298 m 62.164 314.716 l 62.164 314.716 91.051 321.455 91.051 
346.49 c 91.051 371.521 62.164 403.298 62.164 403.298 c h
62.164 403.298 m f
1 0.72549 0.172549 rg
0 328.99 m 54.031 274.978 l 54.031 274.978 32.297 261.47 17.035 276.732
 c 1.758 292.002 0 328.99 0 328.99 c h
0 328.99 m f
1 0.568627 0.180392 rg
0 328.99 m 54.031 274.978 l 54.031 274.978 67.535 296.697 52.258 311.97
 c 36.996 327.232 0 328.99 0 328.99 c h
0 328.99 m f
125.402 328.99 m 71.383 274.978 l 71.383 274.978 93.117 261.47 108.379 
276.732 c 123.641 292.002 125.402 328.99 125.402 328.99 c h
125.402 328.99 m f
1 0.72549 0.172549 rg
125.402 328.99 m 71.383 274.978 l 71.383 274.978 57.879 296.697 73.141 
311.97 c 88.418 327.232 125.402 328.99 125.402 328.99 c h
125.402 328.99 m f
0 272.521 m 54.031 218.513 l 54.031 218.513 32.297 205.002 17.035 220.271
 c 1.758 235.533 0 272.521 0 272.521 c h
0 272.521 m f
1 0.568627 0.180392 rg
0 272.521 m 54.031 218.513 l 54.031 218.513 67.535 240.228 52.258 255.502
 c 36.996 270.771 0 272.521 0 272.521 c h
0 272.521 m f
125.402 272.521 m 71.383 218.513 l 71.383 218.513 93.117 205.002 108.379
 220.271 c 123.641 235.533 125.402 272.521 125.402 272.521 c h
125.402 272.521 m f
1 0.72549 0.172549 rg
125.402 272.521 m 71.383 218.513 l 71.383 218.513 57.879 240.228 73.141
 255.502 c 88.418 270.771 125.402 272.521 125.402 272.521 c h
125.402 272.521 m f
0 216.056 m 54.031 162.044 l 54.031 162.044 32.297 148.541 17.035 163.802
 c 1.758 179.064 0 216.056 0 216.056 c h
0 216.056 m f
1 0.568627 0.180392 rg
0 216.056 m 54.031 162.044 l 54.031 162.044 67.535 183.767 52.258 199.041
 c 36.996 214.302 0 216.056 0 216.056 c h
0 216.056 m f
125.402 216.056 m 71.383 162.044 l 71.383 162.044 93.117 148.541 108.379
 163.802 c 123.641 179.064 125.402 216.056 125.402 216.056 c h
125.402 216.056 m f
1 0.72549 0.172549 rg
125.402 216.056 m 71.383 162.044 l 71.383 162.044 57.879 183.767 73.141
 199.041 c 88.418 214.302 125.402 216.056 125.402 216.056 c h
125.402 216.056 m f
0 159.591 m 54.031 105.576 l 54.031 105.576 32.297 92.072 17.035 107.334
 c 1.758 122.595 0 159.591 0 159.591 c h
0 159.591 m f
1 0.568627 0.180392 rg
0 159.591 m 54.031 105.576 l 54.031 105.576 67.535 127.298 52.258 142.572
 c 36.996 157.834 0 159.591 0 159.591 c h
0 159.591 m f
125.402 159.591 m 71.383 105.576 l 71.383 105.576 93.117 92.072 108.379
 107.334 c 123.641 122.595 125.402 159.591 125.402 159.591 c h
125.402 159.591 m f
1 0.72549 0.172549 rg
125.402 159.591 m 71.383 105.576 l 71.383 105.576 57.879 127.298 73.141
 142.572 c 88.418 157.834 125.402 159.591 125.402 159.591 c h
125.402 159.591 m f
0.333333 0.607843 0.0431373 rg
67.57 31.134 m 67.57 31.134 75.047 81.377 107.02 77.224 c 138.98 73.08 
142.309 112.103 142.309 112.103 c 142.309 112.103 142.309 75.564 111.172
 59.783 c 80.035 44.005 78.375 15.353 67.578 15.775 c 56.781 16.197 67.57
 31.134 67.57 31.134 c h
67.57 31.134 m f
Q Q
showpage
%%Trailer
end restore
%%EOF
