%!PS-Adobe-3.0 EPSF-3.0
%%Creator: cairo 1.14.2 (http://cairographics.org)
%%CreationDate: Thu Aug  4 10:38:09 2016
%%Pages: 1
%%DocumentData: Clean7Bit
%%LanguageLevel: 2
%%BoundingBox: 0 -1 404 367
%%EndComments
%%BeginProlog
save
50 dict begin
/q { gsave } bind def
/Q { grestore } bind def
/cm { 6 array astore concat } bind def
/w { setlinewidth } bind def
/J { setlinecap } bind def
/j { setlinejoin } bind def
/M { setmiterlimit } bind def
/d { setdash } bind def
/m { moveto } bind def
/l { lineto } bind def
/c { curveto } bind def
/h { closepath } bind def
/re { exch dup neg 3 1 roll 5 3 roll moveto 0 rlineto
      0 exch rlineto 0 rlineto closepath } bind def
/S { stroke } bind def
/f { fill } bind def
/f* { eofill } bind def
/n { newpath } bind def
/W { clip } bind def
/W* { eoclip } bind def
/BT { } bind def
/ET { } bind def
/pdfmark where { pop globaldict /?pdfmark /exec load put }
    { globaldict begin /?pdfmark /pop load def /pdfmark
    /cleartomark load def end } ifelse
/BDC { mark 3 1 roll /BDC pdfmark } bind def
/EMC { mark /EMC pdfmark } bind def
/cairo_store_point { /cairo_point_y exch def /cairo_point_x exch def } def
/Tj { show currentpoint cairo_store_point } bind def
/TJ {
  {
    dup
    type /stringtype eq
    { show } { -0.001 mul 0 cairo_font_matrix dtransform rmoveto } ifelse
  } forall
  currentpoint cairo_store_point
} bind def
/cairo_selectfont { cairo_font_matrix aload pop pop pop 0 0 6 array astore
    cairo_font exch selectfont cairo_point_x cairo_point_y moveto } bind def
/Tf { pop /cairo_font exch def /cairo_font_matrix where
      { pop cairo_selectfont } if } bind def
/Td { matrix translate cairo_font_matrix matrix concatmatrix dup
      /cairo_font_matrix exch def dup 4 get exch 5 get cairo_store_point
      /cairo_font where { pop cairo_selectfont } if } bind def
/Tm { 2 copy 8 2 roll 6 array astore /cairo_font_matrix exch def
      cairo_store_point /cairo_font where { pop cairo_selectfont } if } bind def
/g { setgray } bind def
/rg { setrgbcolor } bind def
/d1 { setcachedevice } bind def
%%EndProlog
%%BeginSetup
%%EndSetup
%%Page: 1 1
%%BeginPageSetup
%%PageBoundingBox: 0 -1 404 367
%%EndPageSetup
q 0 -1 404 368 rectclip q
0.462745 0.576471 0.572549 rg
266.598 86.368 m 264.16 86.368 261.762 87.313 259.969 89.114 c 193.746 
155.325 l 207.004 168.591 l 257.234 118.372 l 257.234 231.708 l 275.98 231.708
 l 275.98 95.743 l 275.98 91.95 273.695 88.524 270.191 87.079 c 269.02 86.587
 267.801 86.368 266.598 86.368 c h
266.598 86.368 m f
0.0784314 0.552941 0.878431 rg
255.332 229.677 m 253.656 233.716 249.711 236.349 245.344 236.349 c 20.711
 236.349 l 16.344 236.349 12.406 233.716 10.73 229.677 c 9.043 225.638 9.98
 220.985 13.07 217.899 c 125.387 105.591 l 127.5 103.489 130.258 102.431
 133.031 102.431 c 135.793 102.431 138.562 103.489 140.676 105.591 c 252.98
 217.899 l 256.074 220.985 257 225.638 255.332 229.677 c h
255.332 229.677 m f
0.121569 0.364706 0.607843 rg
57.578 229.677 m 55.902 225.638 56.832 220.985 59.922 217.899 c 156.453
 121.372 l 252.98 217.899 l 256.07 220.985 257 225.645 255.324 229.677 c
 253.648 233.708 249.703 236.349 245.336 236.349 c 67.566 236.349 l 63.191
 236.345 59.246 233.716 57.578 229.677 c h
57.578 229.677 m f
0.462745 0.576471 0.572549 rg
265.766 229.54 m 265.766 225.306 262.34 221.868 258.086 221.868 c 7.68 
221.868 l 3.441 221.868 0 225.306 0 229.54 c 0 233.786 3.441 237.22 7.68
 237.22 c 258.086 237.22 l 262.34 237.22 265.766 233.786 265.766 229.54 
c h
265.766 229.54 m f
0.337255 0.427451 0.423529 rg
265.766 229.54 m 265.766 233.786 262.34 237.22 258.086 237.22 c 49.73 237.22
 l 45.484 237.22 42.051 233.786 42.051 229.54 c 42.051 225.306 45.484 221.868
 49.73 221.868 c 258.086 221.868 l 262.34 221.876 265.766 225.309 265.766
 229.54 c h
265.766 229.54 m f
0.54902 0.686275 0.686275 rg
106.602 58.849 m 102.918 58.849 99.23 60.255 96.406 63.071 c 90.781 68.7
 90.781 77.829 96.406 83.45 c 247.141 234.184 l 247.141 347.13 l 247.141
 355.095 253.598 361.544 261.559 361.544 c 330.023 361.544 l 337.984 361.544
 344.441 355.099 344.441 347.13 c 344.441 339.165 337.98 332.72 330.023 
332.72 c 275.977 332.72 l 275.977 228.216 l 275.977 224.403 274.453 220.727
 271.746 218.024 c 116.785 63.063 l 113.98 60.247 110.289 58.849 106.602
 58.849 c h
106.602 58.849 m f
0.462745 0.576471 0.572549 rg
330.023 332.712 m 331.738 332.712 333.363 333.071 334.891 333.614 c 333.363
 334.169 331.738 334.516 330.023 334.516 c 261.559 334.516 l 253.598 334.516
 247.141 328.067 247.141 320.102 c 247.141 207.153 l 100.34 60.349 l 102.312
 59.391 104.449 58.849 106.602 58.849 c 110.289 58.849 113.98 60.255 116.785
 63.071 c 271.746 218.024 l 274.449 220.735 275.977 224.403 275.977 228.216
 c 275.977 332.712 l h
330.023 332.712 m f
1 0.768627 0.121569 rg
105.129 70.638 m 117.812 57.974 117.801 37.423 105.129 24.755 c 92.477 
12.102 71.922 12.079 59.254 24.755 c 46.57 37.434 46.602 57.974 59.254 70.638
 c 71.918 83.298 92.477 83.298 105.129 70.638 c h
105.129 70.638 m f
1 0.647059 0.133333 rg
59.246 70.638 m 71.918 83.306 92.469 83.306 105.121 70.638 c 117.809 57.974
 117.793 37.423 105.121 24.755 c f
0.101961 0.239216 0.356863 rg
115.938 13.958 m 97.328 -4.651 67.062 -4.651 48.453 13.958 c 29.844 32.567
 29.844 62.817 48.453 81.427 c 67.062 100.048 97.328 100.048 115.938 81.427
 c 134.539 62.817 134.539 32.571 115.938 13.958 c h
70.055 59.856 m 63.348 53.153 63.348 42.255 70.055 35.563 c 76.746 28.86
 87.641 28.86 94.34 35.563 c 101.031 42.255 101.031 53.149 94.34 59.856 
c 87.641 66.536 76.754 66.536 70.055 59.856 c h
70.055 59.856 m f
0.0509804 0.152941 0.227451 rg
403.297 335.72 m 403.297 331.731 400.078 328.505 396.09 328.505 c 320.422
 328.505 l 316.434 328.505 313.207 331.731 313.207 335.72 c 313.207 359.141
 l 313.207 363.118 316.434 366.345 320.422 366.345 c 396.098 366.345 l 400.086
 366.345 403.305 363.118 403.305 359.141 c 403.305 335.72 l h
403.297 335.72 m f
0.101961 0.239216 0.356863 rg
396.09 366.337 m 320.422 366.337 l 316.434 366.337 313.207 363.11 313.207
 359.138 c 313.207 351.927 l 313.207 347.938 316.434 344.724 320.422 344.724
 c 396.098 344.724 l 400.086 344.724 403.305 347.938 403.305 351.927 c 403.305
 359.141 l 403.297 363.118 400.078 366.337 396.09 366.337 c h
396.09 366.337 m f
Q Q
showpage
%%Trailer
end restore
%%EOF
