%!PS-Adobe-3.0 EPSF-3.0
%%Creator: cairo 1.14.2 (http://cairographics.org)
%%CreationDate: Thu Aug  4 10:38:16 2016
%%Pages: 1
%%DocumentData: Clean7Bit
%%LanguageLevel: 2
%%BoundingBox: 0 -1 347 396
%%EndComments
%%BeginProlog
save
50 dict begin
/q { gsave } bind def
/Q { grestore } bind def
/cm { 6 array astore concat } bind def
/w { setlinewidth } bind def
/J { setlinecap } bind def
/j { setlinejoin } bind def
/M { setmiterlimit } bind def
/d { setdash } bind def
/m { moveto } bind def
/l { lineto } bind def
/c { curveto } bind def
/h { closepath } bind def
/re { exch dup neg 3 1 roll 5 3 roll moveto 0 rlineto
      0 exch rlineto 0 rlineto closepath } bind def
/S { stroke } bind def
/f { fill } bind def
/f* { eofill } bind def
/n { newpath } bind def
/W { clip } bind def
/W* { eoclip } bind def
/BT { } bind def
/ET { } bind def
/pdfmark where { pop globaldict /?pdfmark /exec load put }
    { globaldict begin /?pdfmark /pop load def /pdfmark
    /cleartomark load def end } ifelse
/BDC { mark 3 1 roll /BDC pdfmark } bind def
/EMC { mark /EMC pdfmark } bind def
/cairo_store_point { /cairo_point_y exch def /cairo_point_x exch def } def
/Tj { show currentpoint cairo_store_point } bind def
/TJ {
  {
    dup
    type /stringtype eq
    { show } { -0.001 mul 0 cairo_font_matrix dtransform rmoveto } ifelse
  } forall
  currentpoint cairo_store_point
} bind def
/cairo_selectfont { cairo_font_matrix aload pop pop pop 0 0 6 array astore
    cairo_font exch selectfont cairo_point_x cairo_point_y moveto } bind def
/Tf { pop /cairo_font exch def /cairo_font_matrix where
      { pop cairo_selectfont } if } bind def
/Td { matrix translate cairo_font_matrix matrix concatmatrix dup
      /cairo_font_matrix exch def dup 4 get exch 5 get cairo_store_point
      /cairo_font where { pop cairo_selectfont } if } bind def
/Tm { 2 copy 8 2 roll 6 array astore /cairo_font_matrix exch def
      cairo_store_point /cairo_font where { pop cairo_selectfont } if } bind def
/g { setgray } bind def
/rg { setrgbcolor } bind def
/d1 { setcachedevice } bind def
%%EndProlog
%%BeginSetup
%%EndSetup
%%Page: 1 1
%%BeginPageSetup
%%PageBoundingBox: 0 -1 347 396
%%EndPageSetup
q 0 -1 347 397 rectclip q
0.0784314 0.552941 0.878431 rg
264.668 31.508 m 264.668 210.817 l 264.668 251.488 230.332 283.57 189.648
 283.57 c 156.918 283.57 l 116.242 283.57 81.926 251.488 81.926 210.817 
c 81.926 31.508 l h
264.668 31.508 m f
0.0470588 0.462745 0.74902 rg
264.668 31.508 m 264.668 210.817 l 264.668 251.488 230.332 283.57 189.648
 283.57 c 156.918 283.57 l 116.242 283.57 83.961 251.809 83.961 211.141 
c f
125.727 110.281 m 125.727 107.824 123.746 107.125 121.289 107.125 c 103.039
 107.125 l 100.594 107.125 98.609 107.824 98.609 110.281 c 98.609 112.727
 100.594 113.43 103.039 113.43 c 121.289 113.43 l 123.746 113.426 125.727
 112.727 125.727 110.281 c h
125.727 110.281 m f
125.727 72.473 m 125.727 70.024 123.746 69.317 121.289 69.317 c 103.039
 69.317 l 100.594 69.317 98.609 70.024 98.609 72.473 c 98.609 74.926 100.594
 75.617 103.039 75.617 c 121.289 75.617 l 123.746 75.617 125.727 74.926 
125.727 72.473 c h
125.727 72.473 m f
138.637 97.672 m 138.637 95.934 137.227 94.524 135.488 94.524 c 116.582
 94.524 l 114.844 94.524 113.434 95.934 113.434 97.672 c 113.434 99.414 
114.844 100.824 116.582 100.824 c 135.488 100.824 l 137.227 100.824 138.637
 99.414 138.637 97.672 c h
138.637 97.672 m f
0.0784314 0.552941 0.878431 rg
239.461 141.785 m 239.461 140.043 238.051 138.633 236.312 138.633 c 217.406
 138.633 l 215.668 138.633 214.258 140.043 214.258 141.785 c 214.258 143.524
 215.668 144.934 217.406 144.934 c 236.312 144.934 l 238.051 144.934 239.461
 143.524 239.461 141.785 c h
239.461 141.785 m f
252.199 116.582 m 252.199 114.133 250.219 113.426 247.77 113.426 c 229.52
 113.426 l 227.074 113.426 225.09 114.133 225.09 116.582 c 225.09 119.027
 227.074 119.731 229.52 119.731 c 247.77 119.731 l 250.219 119.731 252.199
 119.031 252.199 116.582 c h
252.199 116.582 m f
0.27451 0.329412 0.32549 rg
201.453 221.883 m 201.453 206.328 188.844 193.723 173.289 193.723 c 157.738
 193.723 145.129 206.328 145.129 221.883 c 145.129 237.438 157.738 250.043
 173.289 250.043 c 188.844 250.043 201.453 237.438 201.453 221.883 c h
201.453 221.883 m f
0.168627 0.207843 0.203922 rg
173.289 235.969 m 160.176 235.969 149.27 226.977 146.117 214.844 c 149.27
 202.719 160.176 193.723 173.289 193.723 c 186.402 193.723 197.312 202.719
 200.461 214.844 c 197.312 226.981 186.402 235.969 173.289 235.969 c h
173.289 235.969 m f
179.98 228.633 m 178.035 230.578 178.027 233.723 179.969 235.664 c 239.426
 295.113 l 241.363 297.055 244.504 297.055 246.457 295.102 c 248.398 293.168
 248.398 290.024 246.457 288.082 c 187 228.637 l 185.055 226.692 181.922
 226.684 179.98 228.633 c h
179.98 228.633 m f
1 0.647059 0.133333 rg
267.543 233.617 m 261.719 227.793 252.281 227.793 246.465 233.617 c 217.711
 262.371 l 211.883 268.188 216.91 272.609 222.73 278.434 c 297.41 353.106
 l 303.234 358.93 312.688 358.918 318.496 353.106 c 342.227 329.379 l 348.043
 323.567 348.051 314.125 342.227 308.297 c h
267.543 233.617 m f
1 0.486275 0.141176 rg
257.883 243.277 m 332.551 317.961 l 338.383 323.785 338.383 333.227 332.562
 339.047 c 318.496 353.106 l 312.688 358.914 303.234 358.93 297.414 353.106
 c 222.734 278.434 l 216.91 272.609 211.883 268.192 217.711 262.371 c 236.805
 243.277 l 242.605 237.465 252.039 237.461 257.883 243.277 c h
257.883 243.277 m f
1 0.647059 0.133333 rg
326.699 303.891 m 325.402 302.598 323.293 302.606 322.008 303.891 c 312.645
 313.27 l 311.344 314.559 311.344 316.652 312.645 317.949 c 313.941 319.25
 316.039 319.25 317.332 317.965 c 326.699 308.586 l 327.98 307.293 327.984
 305.192 326.699 303.891 c h
326.699 303.891 m f
315.867 293.059 m 314.578 291.762 312.473 291.762 311.168 293.059 c 301.805
 302.43 l 300.52 303.723 300.52 305.82 301.809 307.117 c 303.102 308.41 
305.199 308.414 306.484 307.117 c 315.863 297.746 l 317.141 296.457 317.152
 294.352 315.867 293.059 c h
315.867 293.059 m f
305.031 282.227 m 303.73 280.93 301.621 280.934 300.336 282.227 c 290.957
 291.598 l 289.668 292.895 289.672 294.992 290.973 296.285 c 292.258 297.578
 294.355 297.582 295.66 296.293 c 305.016 286.914 l 306.32 285.625 306.32
 283.52 305.031 282.227 c h
305.031 282.227 m f
0.168627 0.207843 0.203922 rg
166.602 215.141 m 168.551 213.199 168.551 210.043 166.602 208.102 c 107.156
 148.66 l 105.215 146.719 102.07 146.719 100.117 148.66 c 98.176 150.602
 98.176 153.746 100.117 155.692 c 159.578 215.141 l 161.52 217.074 164.656
 217.082 166.602 215.141 c h
166.602 215.141 m f
1 0.647059 0.133333 rg
79.039 210.156 m 84.859 215.984 94.305 215.977 100.117 210.164 c 128.871
 181.41 l 134.691 175.586 129.664 171.18 123.848 165.348 c 49.168 90.672
 l 43.348 84.844 33.887 84.856 28.082 90.672 c 4.359 114.402 l -1.453 120.219
 -1.453 129.652 4.359 135.488 c h
79.039 210.156 m f
1 0.486275 0.141176 rg
88.703 200.488 m 14.031 125.817 l 8.203 119.988 8.203 110.547 14.023 104.731
 c 28.09 90.672 l 33.895 84.856 43.352 84.844 49.176 90.672 c 123.855 165.348
 l 129.668 171.18 134.703 175.586 128.875 181.41 c 109.781 200.5 l 103.965
 206.317 94.531 206.317 88.703 200.488 c h
88.703 200.488 m f
1 0.647059 0.133333 rg
19.879 139.879 m 21.176 141.172 23.281 141.172 24.574 139.867 c 33.938 
130.512 l 35.234 129.219 35.234 127.125 33.938 125.828 c 32.637 124.531 
30.535 124.535 29.254 125.82 c 19.879 135.192 l 18.598 136.484 18.586 138.582
 19.879 139.879 c h
19.879 139.879 m f
30.711 150.715 m 32.016 152.004 34.121 152.004 35.418 150.715 c 44.789 
141.336 l 46.066 140.051 46.066 137.953 44.777 136.652 c 43.484 135.356 
41.371 135.356 40.094 136.649 c 30.723 146.02 l 29.434 147.317 29.426 149.422
 30.711 150.715 c h
30.711 150.715 m f
41.551 161.547 m 42.848 162.844 44.953 162.844 46.246 161.547 c 55.613 
152.176 l 56.906 150.883 56.906 148.785 55.609 147.488 c 54.316 146.195 
52.219 146.195 50.926 147.488 c 41.562 156.859 l 40.258 158.149 40.258 160.254
 41.551 161.547 c h
41.551 161.547 m f
0.168627 0.207843 0.203922 rg
180.039 215.203 m 181.984 217.145 185.129 217.145 187.07 215.203 c 246.52
 155.754 l 248.453 153.813 248.453 150.664 246.516 148.723 c 244.566 146.781
 241.434 146.781 239.488 148.723 c 180.039 208.176 l 178.09 210.117 178.086
 213.262 180.039 215.203 c h
180.039 215.203 m f
1 0.647059 0.133333 rg
185.016 127.637 m 179.195 133.453 179.199 142.906 185.016 148.723 c 213.766
 177.469 l 219.594 183.305 224 178.27 229.82 172.453 c 304.508 97.77 l 310.328
 91.945 310.328 82.5 304.508 76.676 c 280.781 52.957 l 274.965 47.137 265.52
 47.137 259.695 52.965 c h
185.016 127.637 m f
1 0.486275 0.141176 rg
194.684 137.297 m 269.367 62.629 l 275.184 56.797 284.625 56.801 290.449
 62.617 c 304.504 76.672 l 310.328 82.492 310.328 91.938 304.504 97.762 
c 229.82 172.453 l 223.996 178.27 219.594 183.305 213.766 177.469 c 194.684
 158.395 l 188.859 152.559 188.859 143.125 194.684 137.297 c h
194.684 137.297 m f
1 0.647059 0.133333 rg
255.305 68.477 m 254 69.777 254 71.875 255.305 73.172 c 264.668 82.543 
l 265.961 83.836 268.059 83.836 269.363 82.535 c 270.656 81.238 270.656 
79.152 269.363 77.856 c 259.992 68.484 l 258.699 67.192 256.598 67.18 255.305
 68.477 c h
255.305 68.477 m f
244.465 79.309 m 243.168 80.609 243.168 82.719 244.465 84.004 c 253.824
 93.375 l 255.129 94.672 257.219 94.668 258.52 93.367 c 259.805 92.078 259.809
 89.977 258.523 88.68 c 249.148 79.317 l 247.863 78.02 245.758 78.02 244.465
 79.309 c h
244.465 79.309 m f
233.641 90.149 m 232.336 91.449 232.34 93.551 233.641 94.844 c 242.996 
104.207 l 244.281 105.508 246.383 105.508 247.68 104.207 c 248.977 102.91
 248.977 100.817 247.68 99.527 c 238.316 90.149 l 237.023 88.863 234.926
 88.859 233.641 90.149 c h
233.641 90.149 m f
0.168627 0.207843 0.203922 rg
166.547 228.57 m 164.594 226.621 161.449 226.629 159.516 228.57 c 100.059
 288.012 l 98.117 289.957 98.117 293.109 100.059 295.051 c 102.012 296.992
 105.152 296.984 107.094 295.051 c 166.539 235.594 l 168.488 233.66 168.488
 230.524 166.547 228.57 c h
166.547 228.57 m f
1 0.647059 0.133333 rg
161.562 316.141 m 167.391 310.32 167.371 300.879 161.57 295.059 c 132.816
 266.297 l 126.988 260.481 122.59 265.496 116.758 271.332 c 42.078 346.004
 l 36.25 351.828 36.258 361.281 42.078 367.098 c 65.805 390.82 l 71.621 
396.645 81.062 396.645 86.895 390.817 c h
161.562 316.141 m f
1 0.486275 0.141176 rg
151.891 306.469 m 77.215 381.141 l 71.395 386.977 61.961 386.977 56.137
 381.156 c 42.078 367.098 l 36.258 361.281 36.25 351.832 42.078 346.004 
c 116.758 271.332 l 122.586 265.496 126.984 260.481 132.816 266.297 c 151.902
 285.391 l 157.719 291.207 157.719 300.645 151.891 306.469 c h
151.891 306.469 m f
1 0.647059 0.133333 rg
91.277 375.293 m 92.574 373.996 92.574 371.899 91.277 370.606 c 81.91 361.234
 l 80.613 359.942 78.516 359.942 77.219 361.242 c 75.918 362.535 75.93 364.633
 77.219 365.926 c 86.602 375.293 l 87.887 376.586 89.988 376.594 91.277 
375.293 c h
91.277 375.293 m f
102.113 364.461 m 103.414 363.164 103.406 361.067 102.113 359.774 c 92.75
 350.41 l 91.445 349.109 89.359 349.109 88.062 350.41 c 86.777 351.707 86.777
 353.805 88.062 355.098 c 97.434 364.469 l 98.719 365.754 100.82 365.754
 102.113 364.461 c h
102.113 364.461 m f
112.945 353.629 m 114.25 352.336 114.238 350.234 112.945 348.942 c 103.59
 339.57 l 102.297 338.277 100.191 338.277 98.898 339.578 c 97.602 340.871
 97.602 342.973 98.895 344.262 c 108.25 353.629 l 109.551 354.922 111.656
 354.922 112.945 353.629 c h
112.945 353.629 m f
186.984 221.883 m 186.984 214.32 180.852 208.192 173.289 208.192 c 165.727
 208.192 159.598 214.32 159.598 221.883 c 159.598 229.445 165.727 235.578
 173.289 235.578 c 180.852 235.578 186.984 229.445 186.984 221.883 c h
186.984 221.883 m f
1 0.486275 0.141176 rg
182.969 231.57 m 188.324 226.219 188.324 217.555 182.969 212.211 c 177.625
 206.867 168.961 206.859 163.605 212.211 c f
0.333333 0.6 0.0745098 rg
323.48 15.746 m 323.48 7.109 335.25 0 326.613 0 c 19.965 0 l 11.32 0 23.094
 7.109 23.094 15.746 c 23.094 24.395 30.094 31.508 38.738 31.508 c 307.832
 31.508 l 316.484 31.508 323.48 24.395 323.48 15.746 c h
323.48 15.746 m f
0.490196 0.658824 0.113725 rg
307.84 31.508 m 38.738 31.508 l 30.27 31.508 23.422 25.207 23.137 18.902
 c 323.43 18.902 l 323.16 25.207 316.305 31.508 307.84 31.508 c h
307.84 31.508 m f
Q Q
showpage
%%Trailer
end restore
%%EOF
